EESchema Schematic File Version 2
LIBS:power
LIBS:device
LIBS:transistors
LIBS:conn
LIBS:linear
LIBS:regul
LIBS:74xx
LIBS:cmos4000
LIBS:adc-dac
LIBS:memory
LIBS:xilinx
LIBS:special
LIBS:microcontrollers
LIBS:dsp
LIBS:microchip
LIBS:analog_switches
LIBS:motorola
LIBS:texas
LIBS:intel
LIBS:audio
LIBS:interface
LIBS:digital-audio
LIBS:philips
LIBS:display
LIBS:cypress
LIBS:siliconi
LIBS:opto
LIBS:atmel
LIBS:contrib
LIBS:valves
LIBS:chrisj_power
LIBS:chrisj1
LIBS:heater_disc-cache
EELAYER 27 0
EELAYER END
$Descr A4 11693 8268
encoding utf-8
Sheet 1 1
Title ""
Date "9 jul 2015"
Rev ""
Comp ""
Comment1 ""
Comment2 ""
Comment3 ""
Comment4 ""
$EndDescr
$Comp
L CHRISJ1_R R1
U 1 1 559DB131
P 2350 2250
F 0 "R1" V 2430 2250 50  0000 C CNN
F 1 "CHRISJ1_R" V 2270 2250 50  0000 C CNN
F 2 "~" H 2350 2250 60  0000 C CNN
F 3 "~" H 2350 2250 60  0000 C CNN
	1    2350 2250
	1    0    0    -1  
$EndComp
$Comp
L CHRISJ1_R R2
U 1 1 559DB13E
P 2600 2250
F 0 "R2" V 2680 2250 50  0000 C CNN
F 1 "CHRISJ1_R" V 2520 2250 50  0000 C CNN
F 2 "~" H 2600 2250 60  0000 C CNN
F 3 "~" H 2600 2250 60  0000 C CNN
	1    2600 2250
	1    0    0    -1  
$EndComp
$Comp
L CHRISJ1_R R3
U 1 1 559DB144
P 2850 2250
F 0 "R3" V 2930 2250 50  0000 C CNN
F 1 "CHRISJ1_R" V 2770 2250 50  0000 C CNN
F 2 "~" H 2850 2250 60  0000 C CNN
F 3 "~" H 2850 2250 60  0000 C CNN
	1    2850 2250
	1    0    0    -1  
$EndComp
$Comp
L CHRISJ1_R R4
U 1 1 559DB14A
P 3100 2250
F 0 "R4" V 3180 2250 50  0000 C CNN
F 1 "CHRISJ1_R" V 3020 2250 50  0000 C CNN
F 2 "~" H 3100 2250 60  0000 C CNN
F 3 "~" H 3100 2250 60  0000 C CNN
	1    3100 2250
	1    0    0    -1  
$EndComp
$Comp
L CHRISJ1_R R5
U 1 1 559DB150
P 3350 2250
F 0 "R5" V 3430 2250 50  0000 C CNN
F 1 "CHRISJ1_R" V 3270 2250 50  0000 C CNN
F 2 "~" H 3350 2250 60  0000 C CNN
F 3 "~" H 3350 2250 60  0000 C CNN
	1    3350 2250
	1    0    0    -1  
$EndComp
$Comp
L CHRISJ1_R R6
U 1 1 559DB156
P 3600 2250
F 0 "R6" V 3680 2250 50  0000 C CNN
F 1 "CHRISJ1_R" V 3520 2250 50  0000 C CNN
F 2 "~" H 3600 2250 60  0000 C CNN
F 3 "~" H 3600 2250 60  0000 C CNN
	1    3600 2250
	1    0    0    -1  
$EndComp
$Comp
L CHRISJ1_R R7
U 1 1 559DB15C
P 3850 2250
F 0 "R7" V 3930 2250 50  0000 C CNN
F 1 "CHRISJ1_R" V 3770 2250 50  0000 C CNN
F 2 "~" H 3850 2250 60  0000 C CNN
F 3 "~" H 3850 2250 60  0000 C CNN
	1    3850 2250
	1    0    0    -1  
$EndComp
$Comp
L CHRISJ1_R R8
U 1 1 559DB162
P 4100 2250
F 0 "R8" V 4180 2250 50  0000 C CNN
F 1 "CHRISJ1_R" V 4020 2250 50  0000 C CNN
F 2 "~" H 4100 2250 60  0000 C CNN
F 3 "~" H 4100 2250 60  0000 C CNN
	1    4100 2250
	1    0    0    -1  
$EndComp
Wire Wire Line
	2350 2150 2350 1850
Wire Wire Line
	2350 1850 4200 1850
Wire Wire Line
	4100 1850 4100 2150
Wire Wire Line
	2600 2150 2600 1850
Connection ~ 2600 1850
Wire Wire Line
	2850 2150 2850 1850
Connection ~ 2850 1850
Wire Wire Line
	3100 2150 3100 1850
Connection ~ 3100 1850
Wire Wire Line
	3350 2150 3350 1850
Connection ~ 3350 1850
Wire Wire Line
	3600 2150 3600 1850
Connection ~ 3600 1850
Wire Wire Line
	3850 2150 3850 1850
Connection ~ 3850 1850
Wire Wire Line
	2350 2350 2350 2650
Wire Wire Line
	2350 2650 4200 2650
Wire Wire Line
	4100 2650 4100 2350
Wire Wire Line
	3850 2350 3850 2650
Connection ~ 3850 2650
Wire Wire Line
	3600 2350 3600 2650
Connection ~ 3600 2650
Wire Wire Line
	3350 2350 3350 2650
Connection ~ 3350 2650
Wire Wire Line
	3100 2350 3100 2650
Connection ~ 3100 2650
Wire Wire Line
	2850 2350 2850 2650
Connection ~ 2850 2650
Wire Wire Line
	2600 2350 2600 2650
Connection ~ 2600 2650
$Comp
L CONN_1 P2
U 1 1 559DB2A0
P 5200 1850
F 0 "P2" H 5280 1850 40  0000 L CNN
F 1 "CONN_1" H 5200 1905 30  0001 C CNN
F 2 "" H 5200 1850 60  0000 C CNN
F 3 "" H 5200 1850 60  0000 C CNN
	1    5200 1850
	1    0    0    -1  
$EndComp
$Comp
L CONN_1 P3
U 1 1 559DB2AD
P 5200 1950
F 0 "P3" H 5280 1950 40  0000 L CNN
F 1 "CONN_1" H 5200 2005 30  0001 C CNN
F 2 "" H 5200 1950 60  0000 C CNN
F 3 "" H 5200 1950 60  0000 C CNN
	1    5200 1950
	1    0    0    -1  
$EndComp
$Comp
L CONN_1 P4
U 1 1 559DB2B3
P 5200 2050
F 0 "P4" H 5280 2050 40  0000 L CNN
F 1 "CONN_1" H 5200 2105 30  0001 C CNN
F 2 "" H 5200 2050 60  0000 C CNN
F 3 "" H 5200 2050 60  0000 C CNN
	1    5200 2050
	1    0    0    -1  
$EndComp
$Comp
L CONN_1 P5
U 1 1 559DB2B9
P 5200 2150
F 0 "P5" H 5280 2150 40  0000 L CNN
F 1 "CONN_1" H 5200 2205 30  0001 C CNN
F 2 "" H 5200 2150 60  0000 C CNN
F 3 "" H 5200 2150 60  0000 C CNN
	1    5200 2150
	1    0    0    -1  
$EndComp
$Comp
L CONN_1 P6
U 1 1 559DB2BF
P 5200 2250
F 0 "P6" H 5280 2250 40  0000 L CNN
F 1 "CONN_1" H 5200 2305 30  0001 C CNN
F 2 "" H 5200 2250 60  0000 C CNN
F 3 "" H 5200 2250 60  0000 C CNN
	1    5200 2250
	1    0    0    -1  
$EndComp
$Comp
L CONN_1 P7
U 1 1 559DB2C5
P 5200 2350
F 0 "P7" H 5280 2350 40  0000 L CNN
F 1 "CONN_1" H 5200 2405 30  0001 C CNN
F 2 "" H 5200 2350 60  0000 C CNN
F 3 "" H 5200 2350 60  0000 C CNN
	1    5200 2350
	1    0    0    -1  
$EndComp
$Comp
L CONN_1 P8
U 1 1 559DB2CB
P 5200 2450
F 0 "P8" H 5280 2450 40  0000 L CNN
F 1 "CONN_1" H 5200 2505 30  0001 C CNN
F 2 "" H 5200 2450 60  0000 C CNN
F 3 "" H 5200 2450 60  0000 C CNN
	1    5200 2450
	1    0    0    -1  
$EndComp
$Comp
L CONN_1 P9
U 1 1 559DB2D1
P 5200 2550
F 0 "P9" H 5280 2550 40  0000 L CNN
F 1 "CONN_1" H 5200 2605 30  0001 C CNN
F 2 "" H 5200 2550 60  0000 C CNN
F 3 "" H 5200 2550 60  0000 C CNN
	1    5200 2550
	1    0    0    -1  
$EndComp
NoConn ~ 5050 1850
NoConn ~ 5050 1950
NoConn ~ 5050 2050
NoConn ~ 5050 2150
NoConn ~ 5050 2250
NoConn ~ 5050 2350
NoConn ~ 5050 2450
NoConn ~ 5050 2550
$Comp
L CONN_1 P1
U 1 1 559DB2D7
P 4350 1850
F 0 "P1" H 4430 1850 40  0000 L CNN
F 1 "CONN_1" H 4350 1905 30  0001 C CNN
F 2 "" H 4350 1850 60  0000 C CNN
F 3 "" H 4350 1850 60  0000 C CNN
	1    4350 1850
	1    0    0    -1  
$EndComp
$Comp
L CONN_1 P10
U 1 1 559DB2DD
P 4350 2650
F 0 "P10" H 4430 2650 40  0000 L CNN
F 1 "CONN_1" H 4350 2705 30  0001 C CNN
F 2 "" H 4350 2650 60  0000 C CNN
F 3 "" H 4350 2650 60  0000 C CNN
	1    4350 2650
	1    0    0    -1  
$EndComp
Connection ~ 4100 1850
Connection ~ 4100 2650
Text Label 3150 1850 0    60   ~ 0
H1
Text Label 3150 2650 0    60   ~ 0
H2
$Comp
L CONN_1 P11
U 1 1 559DB731
P 5200 2900
F 0 "P11" H 5280 2900 40  0000 L CNN
F 1 "CONN_1" H 5200 2955 30  0001 C CNN
F 2 "" H 5200 2900 60  0000 C CNN
F 3 "" H 5200 2900 60  0000 C CNN
	1    5200 2900
	1    0    0    -1  
$EndComp
NoConn ~ 4400 2900
Wire Wire Line
	4400 2900 5050 2900
Text Label 4650 2900 0    60   ~ 0
H2
$EndSCHEMATC
