(kicad_pcb (version 3) (host pcbnew "(2013-07-07 BZR 4022)-stable")

  (general
    (links 17)
    (no_connects 0)
    (area 84.949999 84.949999 115.050001 115.050001)
    (thickness 1.6)
    (drawings 2)
    (tracks 0)
    (zones 0)
    (modules 19)
    (nets 3)
  )

  (page A3)
  (layers
    (15 F.Cu signal)
    (0 B.Cu signal)
    (16 B.Adhes user)
    (17 F.Adhes user)
    (18 B.Paste user)
    (19 F.Paste user)
    (20 B.SilkS user)
    (21 F.SilkS user)
    (22 B.Mask user)
    (23 F.Mask user)
    (24 Dwgs.User user)
    (25 Cmts.User user)
    (26 Eco1.User user)
    (27 Eco2.User user)
    (28 Edge.Cuts user)
  )

  (setup
    (last_trace_width 0.5)
    (trace_clearance 0.8)
    (zone_clearance 0.5)
    (zone_45_only no)
    (trace_min 0.254)
    (segment_width 0.2)
    (edge_width 0.1)
    (via_size 0.889)
    (via_drill 0.635)
    (via_min_size 0.889)
    (via_min_drill 0.508)
    (uvia_size 0.508)
    (uvia_drill 0.127)
    (uvias_allowed no)
    (uvia_min_size 0.508)
    (uvia_min_drill 0.127)
    (pcb_text_width 0.3)
    (pcb_text_size 1.5 1.5)
    (mod_edge_width 0.15)
    (mod_text_size 1 1)
    (mod_text_width 0.15)
    (pad_size 8 8)
    (pad_drill 0)
    (pad_to_mask_clearance 0)
    (aux_axis_origin 0 0)
    (visible_elements FFFFFFBF)
    (pcbplotparams
      (layerselection 3178497)
      (usegerberextensions true)
      (excludeedgelayer true)
      (linewidth 0.150000)
      (plotframeref false)
      (viasonmask false)
      (mode 1)
      (useauxorigin false)
      (hpglpennumber 1)
      (hpglpenspeed 20)
      (hpglpendiameter 15)
      (hpglpenoverlay 2)
      (psnegative false)
      (psa4output false)
      (plotreference true)
      (plotvalue true)
      (plotothertext true)
      (plotinvisibletext false)
      (padsonsilk false)
      (subtractmaskfromsilk false)
      (outputformat 1)
      (mirror false)
      (drillshape 1)
      (scaleselection 1)
      (outputdirectory ""))
  )

  (net 0 "")
  (net 1 /H1)
  (net 2 /H2)

  (net_class Default "This is the default net class."
    (clearance 0.8)
    (trace_width 0.5)
    (via_dia 0.889)
    (via_drill 0.635)
    (uvia_dia 0.508)
    (uvia_drill 0.127)
    (add_net "")
    (add_net /H1)
    (add_net /H2)
  )

  (module r_2010 (layer F.Cu) (tedit 4E57AD50) (tstamp 559DB3FD)
    (at 106.5 93.5 45)
    (descr "SMT resistor, 2010")
    (path /559DB13E)
    (fp_text reference R2 (at 0 -0.59944 45) (layer F.SilkS)
      (effects (font (size 0.635 0.635) (thickness 0.11938)))
    )
    (fp_text value CHRISJ1_R (at 0 0.59944 45) (layer F.SilkS)
      (effects (font (size 0.635 0.635) (thickness 0.11938)))
    )
    (fp_line (start 1.80086 -1.6002) (end 3.59918 -1.6002) (layer F.SilkS) (width 0.127))
    (fp_line (start 3.59918 -1.6002) (end 3.59918 1.6002) (layer F.SilkS) (width 0.127))
    (fp_line (start 3.59918 1.6002) (end 1.80086 1.6002) (layer F.SilkS) (width 0.127))
    (fp_line (start -1.80086 -1.50114) (end -3.59918 -1.50114) (layer F.SilkS) (width 0.127))
    (fp_line (start -3.59918 -1.50114) (end -3.59918 1.50114) (layer F.SilkS) (width 0.127))
    (fp_line (start -3.59918 1.50114) (end -1.80086 1.50114) (layer F.SilkS) (width 0.127))
    (pad 1 smd rect (at 2.5781 0 45) (size 1.6002 2.6924)
      (layers F.Cu F.Paste F.Mask)
      (net 1 /H1)
    )
    (pad 2 smd rect (at -2.5781 0 45) (size 1.6002 2.6924)
      (layers F.Cu F.Paste F.Mask)
      (net 2 /H2)
    )
    (model smd/resistors/r_2010.wrl
      (at (xyz 0 0 0))
      (scale (xyz 1 1 1))
      (rotate (xyz 0 0 0))
    )
  )

  (module r_2010 (layer F.Cu) (tedit 4E57AD50) (tstamp 559DB409)
    (at 109 100)
    (descr "SMT resistor, 2010")
    (path /559DB144)
    (fp_text reference R3 (at 0 -0.59944) (layer F.SilkS)
      (effects (font (size 0.635 0.635) (thickness 0.11938)))
    )
    (fp_text value CHRISJ1_R (at 0 0.59944) (layer F.SilkS)
      (effects (font (size 0.635 0.635) (thickness 0.11938)))
    )
    (fp_line (start 1.80086 -1.6002) (end 3.59918 -1.6002) (layer F.SilkS) (width 0.127))
    (fp_line (start 3.59918 -1.6002) (end 3.59918 1.6002) (layer F.SilkS) (width 0.127))
    (fp_line (start 3.59918 1.6002) (end 1.80086 1.6002) (layer F.SilkS) (width 0.127))
    (fp_line (start -1.80086 -1.50114) (end -3.59918 -1.50114) (layer F.SilkS) (width 0.127))
    (fp_line (start -3.59918 -1.50114) (end -3.59918 1.50114) (layer F.SilkS) (width 0.127))
    (fp_line (start -3.59918 1.50114) (end -1.80086 1.50114) (layer F.SilkS) (width 0.127))
    (pad 1 smd rect (at 2.5781 0) (size 1.6002 2.6924)
      (layers F.Cu F.Paste F.Mask)
      (net 1 /H1)
    )
    (pad 2 smd rect (at -2.5781 0) (size 1.6002 2.6924)
      (layers F.Cu F.Paste F.Mask)
      (net 2 /H2)
    )
    (model smd/resistors/r_2010.wrl
      (at (xyz 0 0 0))
      (scale (xyz 1 1 1))
      (rotate (xyz 0 0 0))
    )
  )

  (module r_2010 (layer F.Cu) (tedit 4E57AD50) (tstamp 559DB415)
    (at 106.5 106.5 315)
    (descr "SMT resistor, 2010")
    (path /559DB14A)
    (fp_text reference R4 (at 0 -0.59944 315) (layer F.SilkS)
      (effects (font (size 0.635 0.635) (thickness 0.11938)))
    )
    (fp_text value CHRISJ1_R (at 0 0.59944 315) (layer F.SilkS)
      (effects (font (size 0.635 0.635) (thickness 0.11938)))
    )
    (fp_line (start 1.80086 -1.6002) (end 3.59918 -1.6002) (layer F.SilkS) (width 0.127))
    (fp_line (start 3.59918 -1.6002) (end 3.59918 1.6002) (layer F.SilkS) (width 0.127))
    (fp_line (start 3.59918 1.6002) (end 1.80086 1.6002) (layer F.SilkS) (width 0.127))
    (fp_line (start -1.80086 -1.50114) (end -3.59918 -1.50114) (layer F.SilkS) (width 0.127))
    (fp_line (start -3.59918 -1.50114) (end -3.59918 1.50114) (layer F.SilkS) (width 0.127))
    (fp_line (start -3.59918 1.50114) (end -1.80086 1.50114) (layer F.SilkS) (width 0.127))
    (pad 1 smd rect (at 2.5781 0 315) (size 1.6002 2.6924)
      (layers F.Cu F.Paste F.Mask)
      (net 1 /H1)
    )
    (pad 2 smd rect (at -2.5781 0 315) (size 1.6002 2.6924)
      (layers F.Cu F.Paste F.Mask)
      (net 2 /H2)
    )
    (model smd/resistors/r_2010.wrl
      (at (xyz 0 0 0))
      (scale (xyz 1 1 1))
      (rotate (xyz 0 0 0))
    )
  )

  (module r_2010 (layer F.Cu) (tedit 4E57AD50) (tstamp 559DB421)
    (at 100 109 270)
    (descr "SMT resistor, 2010")
    (path /559DB150)
    (fp_text reference R5 (at 0 -0.59944 270) (layer F.SilkS)
      (effects (font (size 0.635 0.635) (thickness 0.11938)))
    )
    (fp_text value CHRISJ1_R (at 0 0.59944 270) (layer F.SilkS)
      (effects (font (size 0.635 0.635) (thickness 0.11938)))
    )
    (fp_line (start 1.80086 -1.6002) (end 3.59918 -1.6002) (layer F.SilkS) (width 0.127))
    (fp_line (start 3.59918 -1.6002) (end 3.59918 1.6002) (layer F.SilkS) (width 0.127))
    (fp_line (start 3.59918 1.6002) (end 1.80086 1.6002) (layer F.SilkS) (width 0.127))
    (fp_line (start -1.80086 -1.50114) (end -3.59918 -1.50114) (layer F.SilkS) (width 0.127))
    (fp_line (start -3.59918 -1.50114) (end -3.59918 1.50114) (layer F.SilkS) (width 0.127))
    (fp_line (start -3.59918 1.50114) (end -1.80086 1.50114) (layer F.SilkS) (width 0.127))
    (pad 1 smd rect (at 2.5781 0 270) (size 1.6002 2.6924)
      (layers F.Cu F.Paste F.Mask)
      (net 1 /H1)
    )
    (pad 2 smd rect (at -2.5781 0 270) (size 1.6002 2.6924)
      (layers F.Cu F.Paste F.Mask)
      (net 2 /H2)
    )
    (model smd/resistors/r_2010.wrl
      (at (xyz 0 0 0))
      (scale (xyz 1 1 1))
      (rotate (xyz 0 0 0))
    )
  )

  (module r_2010 (layer F.Cu) (tedit 4E57AD50) (tstamp 559DB42D)
    (at 93.5 106.5 225)
    (descr "SMT resistor, 2010")
    (path /559DB156)
    (fp_text reference R6 (at 0 -0.59944 225) (layer F.SilkS)
      (effects (font (size 0.635 0.635) (thickness 0.11938)))
    )
    (fp_text value CHRISJ1_R (at 0 0.59944 225) (layer F.SilkS)
      (effects (font (size 0.635 0.635) (thickness 0.11938)))
    )
    (fp_line (start 1.80086 -1.6002) (end 3.59918 -1.6002) (layer F.SilkS) (width 0.127))
    (fp_line (start 3.59918 -1.6002) (end 3.59918 1.6002) (layer F.SilkS) (width 0.127))
    (fp_line (start 3.59918 1.6002) (end 1.80086 1.6002) (layer F.SilkS) (width 0.127))
    (fp_line (start -1.80086 -1.50114) (end -3.59918 -1.50114) (layer F.SilkS) (width 0.127))
    (fp_line (start -3.59918 -1.50114) (end -3.59918 1.50114) (layer F.SilkS) (width 0.127))
    (fp_line (start -3.59918 1.50114) (end -1.80086 1.50114) (layer F.SilkS) (width 0.127))
    (pad 1 smd rect (at 2.5781 0 225) (size 1.6002 2.6924)
      (layers F.Cu F.Paste F.Mask)
      (net 1 /H1)
    )
    (pad 2 smd rect (at -2.5781 0 225) (size 1.6002 2.6924)
      (layers F.Cu F.Paste F.Mask)
      (net 2 /H2)
    )
    (model smd/resistors/r_2010.wrl
      (at (xyz 0 0 0))
      (scale (xyz 1 1 1))
      (rotate (xyz 0 0 0))
    )
  )

  (module r_2010 (layer F.Cu) (tedit 4E57AD50) (tstamp 559DB439)
    (at 91 100 180)
    (descr "SMT resistor, 2010")
    (path /559DB15C)
    (fp_text reference R7 (at 0 -0.59944 180) (layer F.SilkS)
      (effects (font (size 0.635 0.635) (thickness 0.11938)))
    )
    (fp_text value CHRISJ1_R (at 0 0.59944 180) (layer F.SilkS)
      (effects (font (size 0.635 0.635) (thickness 0.11938)))
    )
    (fp_line (start 1.80086 -1.6002) (end 3.59918 -1.6002) (layer F.SilkS) (width 0.127))
    (fp_line (start 3.59918 -1.6002) (end 3.59918 1.6002) (layer F.SilkS) (width 0.127))
    (fp_line (start 3.59918 1.6002) (end 1.80086 1.6002) (layer F.SilkS) (width 0.127))
    (fp_line (start -1.80086 -1.50114) (end -3.59918 -1.50114) (layer F.SilkS) (width 0.127))
    (fp_line (start -3.59918 -1.50114) (end -3.59918 1.50114) (layer F.SilkS) (width 0.127))
    (fp_line (start -3.59918 1.50114) (end -1.80086 1.50114) (layer F.SilkS) (width 0.127))
    (pad 1 smd rect (at 2.5781 0 180) (size 1.6002 2.6924)
      (layers F.Cu F.Paste F.Mask)
      (net 1 /H1)
    )
    (pad 2 smd rect (at -2.5781 0 180) (size 1.6002 2.6924)
      (layers F.Cu F.Paste F.Mask)
      (net 2 /H2)
    )
    (model smd/resistors/r_2010.wrl
      (at (xyz 0 0 0))
      (scale (xyz 1 1 1))
      (rotate (xyz 0 0 0))
    )
  )

  (module r_2010 (layer F.Cu) (tedit 4E57AD50) (tstamp 559DB445)
    (at 93.5 93.5 135)
    (descr "SMT resistor, 2010")
    (path /559DB162)
    (fp_text reference R8 (at 0 -0.59944 135) (layer F.SilkS)
      (effects (font (size 0.635 0.635) (thickness 0.11938)))
    )
    (fp_text value CHRISJ1_R (at 0 0.59944 135) (layer F.SilkS)
      (effects (font (size 0.635 0.635) (thickness 0.11938)))
    )
    (fp_line (start 1.80086 -1.6002) (end 3.59918 -1.6002) (layer F.SilkS) (width 0.127))
    (fp_line (start 3.59918 -1.6002) (end 3.59918 1.6002) (layer F.SilkS) (width 0.127))
    (fp_line (start 3.59918 1.6002) (end 1.80086 1.6002) (layer F.SilkS) (width 0.127))
    (fp_line (start -1.80086 -1.50114) (end -3.59918 -1.50114) (layer F.SilkS) (width 0.127))
    (fp_line (start -3.59918 -1.50114) (end -3.59918 1.50114) (layer F.SilkS) (width 0.127))
    (fp_line (start -3.59918 1.50114) (end -1.80086 1.50114) (layer F.SilkS) (width 0.127))
    (pad 1 smd rect (at 2.5781 0 135) (size 1.6002 2.6924)
      (layers F.Cu F.Paste F.Mask)
      (net 1 /H1)
    )
    (pad 2 smd rect (at -2.5781 0 135) (size 1.6002 2.6924)
      (layers F.Cu F.Paste F.Mask)
      (net 2 /H2)
    )
    (model smd/resistors/r_2010.wrl
      (at (xyz 0 0 0))
      (scale (xyz 1 1 1))
      (rotate (xyz 0 0 0))
    )
  )

  (module r_2010 (layer F.Cu) (tedit 4E57AD50) (tstamp 559DB451)
    (at 100 91 90)
    (descr "SMT resistor, 2010")
    (path /559DB131)
    (fp_text reference R1 (at 0 -0.59944 90) (layer F.SilkS)
      (effects (font (size 0.635 0.635) (thickness 0.11938)))
    )
    (fp_text value CHRISJ1_R (at 0 0.59944 90) (layer F.SilkS)
      (effects (font (size 0.635 0.635) (thickness 0.11938)))
    )
    (fp_line (start 1.80086 -1.6002) (end 3.59918 -1.6002) (layer F.SilkS) (width 0.127))
    (fp_line (start 3.59918 -1.6002) (end 3.59918 1.6002) (layer F.SilkS) (width 0.127))
    (fp_line (start 3.59918 1.6002) (end 1.80086 1.6002) (layer F.SilkS) (width 0.127))
    (fp_line (start -1.80086 -1.50114) (end -3.59918 -1.50114) (layer F.SilkS) (width 0.127))
    (fp_line (start -3.59918 -1.50114) (end -3.59918 1.50114) (layer F.SilkS) (width 0.127))
    (fp_line (start -3.59918 1.50114) (end -1.80086 1.50114) (layer F.SilkS) (width 0.127))
    (pad 1 smd rect (at 2.5781 0 90) (size 1.6002 2.6924)
      (layers F.Cu F.Paste F.Mask)
      (net 1 /H1)
    )
    (pad 2 smd rect (at -2.5781 0 90) (size 1.6002 2.6924)
      (layers F.Cu F.Paste F.Mask)
      (net 2 /H2)
    )
    (model smd/resistors/r_2010.wrl
      (at (xyz 0 0 0))
      (scale (xyz 1 1 1))
      (rotate (xyz 0 0 0))
    )
  )

  (module chrisj1_1pin_2p5mm_round (layer F.Cu) (tedit 559DB4BF) (tstamp 559DB45A)
    (at 97.5 94)
    (descr "module 1 pin")
    (path /559DB2DD)
    (fp_text reference P10 (at 0.1 -1.3) (layer F.SilkS) hide
      (effects (font (size 0.5 0.5) (thickness 0.125)))
    )
    (fp_text value CONN_1 (at -0.2 1.2) (layer F.SilkS) hide
      (effects (font (size 0.5 0.5) (thickness 0.125)))
    )
    (pad 1 smd circle (at 0 0) (size 2.5 2.5)
      (layers F.Cu F.Paste F.SilkS F.Mask)
      (net 2 /H2)
    )
  )

  (module chrisj1_1pin_2p5mm_round (layer F.Cu) (tedit 559DB4BF) (tstamp 559DB463)
    (at 102.5 88)
    (descr "module 1 pin")
    (path /559DB2D7)
    (fp_text reference P1 (at 0.1 -1.3) (layer F.SilkS) hide
      (effects (font (size 0.5 0.5) (thickness 0.125)))
    )
    (fp_text value CONN_1 (at -0.2 1.2) (layer F.SilkS) hide
      (effects (font (size 0.5 0.5) (thickness 0.125)))
    )
    (pad 1 smd circle (at 0 0) (size 2.5 2.5)
      (layers F.Cu F.Paste F.SilkS F.Mask)
      (net 1 /H1)
    )
  )

  (module chrisj1_1pin_2p5mm_round (layer F.Cu) (tedit 559DB4BF) (tstamp 559DB46C)
    (at 109 96)
    (descr "module 1 pin")
    (path /559DB2D1)
    (fp_text reference P9 (at 0.1 -1.3) (layer F.SilkS) hide
      (effects (font (size 0.5 0.5) (thickness 0.125)))
    )
    (fp_text value CONN_1 (at -0.2 1.2) (layer F.SilkS) hide
      (effects (font (size 0.5 0.5) (thickness 0.125)))
    )
    (pad 1 smd circle (at 0 0) (size 2.5 2.5)
      (layers F.Cu F.Paste F.SilkS F.Mask)
    )
  )

  (module chrisj1_1pin_2p5mm_round (layer F.Cu) (tedit 559DB4BF) (tstamp 559DB475)
    (at 109 104)
    (descr "module 1 pin")
    (path /559DB2CB)
    (fp_text reference P8 (at 0.1 -1.3) (layer F.SilkS) hide
      (effects (font (size 0.5 0.5) (thickness 0.125)))
    )
    (fp_text value CONN_1 (at -0.2 1.2) (layer F.SilkS) hide
      (effects (font (size 0.5 0.5) (thickness 0.125)))
    )
    (pad 1 smd circle (at 0 0) (size 2.5 2.5)
      (layers F.Cu F.Paste F.SilkS F.Mask)
    )
  )

  (module chrisj1_1pin_2p5mm_round (layer F.Cu) (tedit 559DB4BF) (tstamp 559DB47E)
    (at 104 109)
    (descr "module 1 pin")
    (path /559DB2C5)
    (fp_text reference P7 (at 0.1 -1.3) (layer F.SilkS) hide
      (effects (font (size 0.5 0.5) (thickness 0.125)))
    )
    (fp_text value CONN_1 (at -0.2 1.2) (layer F.SilkS) hide
      (effects (font (size 0.5 0.5) (thickness 0.125)))
    )
    (pad 1 smd circle (at 0 0) (size 2.5 2.5)
      (layers F.Cu F.Paste F.SilkS F.Mask)
    )
  )

  (module chrisj1_1pin_2p5mm_round (layer F.Cu) (tedit 559DB4BF) (tstamp 559DB487)
    (at 96 109)
    (descr "module 1 pin")
    (path /559DB2BF)
    (fp_text reference P6 (at 0.1 -1.3) (layer F.SilkS) hide
      (effects (font (size 0.5 0.5) (thickness 0.125)))
    )
    (fp_text value CONN_1 (at -0.2 1.2) (layer F.SilkS) hide
      (effects (font (size 0.5 0.5) (thickness 0.125)))
    )
    (pad 1 smd circle (at 0 0) (size 2.5 2.5)
      (layers F.Cu F.Paste F.SilkS F.Mask)
    )
  )

  (module chrisj1_1pin_2p5mm_round (layer F.Cu) (tedit 559DB4BF) (tstamp 559DB490)
    (at 91 104)
    (descr "module 1 pin")
    (path /559DB2B9)
    (fp_text reference P5 (at 0.1 -1.3) (layer F.SilkS) hide
      (effects (font (size 0.5 0.5) (thickness 0.125)))
    )
    (fp_text value CONN_1 (at -0.2 1.2) (layer F.SilkS) hide
      (effects (font (size 0.5 0.5) (thickness 0.125)))
    )
    (pad 1 smd circle (at 0 0) (size 2.5 2.5)
      (layers F.Cu F.Paste F.SilkS F.Mask)
    )
  )

  (module chrisj1_1pin_2p5mm_round (layer F.Cu) (tedit 559DB4BF) (tstamp 559DB499)
    (at 91 96)
    (descr "module 1 pin")
    (path /559DB2B3)
    (fp_text reference P4 (at 0.1 -1.3) (layer F.SilkS) hide
      (effects (font (size 0.5 0.5) (thickness 0.125)))
    )
    (fp_text value CONN_1 (at -0.2 1.2) (layer F.SilkS) hide
      (effects (font (size 0.5 0.5) (thickness 0.125)))
    )
    (pad 1 smd circle (at 0 0) (size 2.5 2.5)
      (layers F.Cu F.Paste F.SilkS F.Mask)
    )
  )

  (module chrisj1_1pin_2p5mm_round (layer F.Cu) (tedit 559DB4BF) (tstamp 559DB4A2)
    (at 96 91)
    (descr "module 1 pin")
    (path /559DB2AD)
    (fp_text reference P3 (at 0.1 -1.3) (layer F.SilkS) hide
      (effects (font (size 0.5 0.5) (thickness 0.125)))
    )
    (fp_text value CONN_1 (at -0.2 1.2) (layer F.SilkS) hide
      (effects (font (size 0.5 0.5) (thickness 0.125)))
    )
    (pad 1 smd circle (at 0 0) (size 2.5 2.5)
      (layers F.Cu F.Paste F.SilkS F.Mask)
    )
  )

  (module chrisj1_1pin_2p5mm_round (layer F.Cu) (tedit 559DB4BF) (tstamp 559DB4AB)
    (at 104 91)
    (descr "module 1 pin")
    (path /559DB2A0)
    (fp_text reference P2 (at 0.1 -1.3) (layer F.SilkS) hide
      (effects (font (size 0.5 0.5) (thickness 0.125)))
    )
    (fp_text value CONN_1 (at -0.2 1.2) (layer F.SilkS) hide
      (effects (font (size 0.5 0.5) (thickness 0.125)))
    )
    (pad 1 smd circle (at 0 0) (size 2.5 2.5)
      (layers F.Cu F.Paste F.SilkS F.Mask)
    )
  )

  (module chrisj1_1pin_8mm_round (layer F.Cu) (tedit 559DB76F) (tstamp 559DBBD9)
    (at 100 100)
    (descr "module 1 pin")
    (path /559DB731)
    (fp_text reference P11 (at 0.1 -1.3) (layer F.SilkS) hide
      (effects (font (size 0.5 0.5) (thickness 0.125)))
    )
    (fp_text value CONN_1 (at -0.2 1.2) (layer F.SilkS) hide
      (effects (font (size 0.5 0.5) (thickness 0.125)))
    )
    (pad 1 smd circle (at 0 0) (size 8 8)
      (layers F.Cu F.Paste F.SilkS F.Mask)
      (net 2 /H2)
    )
  )

  (gr_circle (center 100 100) (end 113 100) (layer Dwgs.User) (width 0.2))
  (gr_circle (center 100 100) (end 115 100) (layer Edge.Cuts) (width 0.1))

  (zone (net 1) (net_name /H1) (layer F.Cu) (tstamp 559DBC17) (hatch edge 0.508)
    (connect_pads yes (clearance 0.5))
    (min_thickness 0.5)
    (fill (arc_segments 32) (thermal_gap 0.5) (thermal_bridge_width 0.6))
    (polygon
      (pts
        (xy 82 82) (xy 118 82) (xy 118 118) (xy 82 118)
      )
    )
    (polygon
      (pts        (xy 96 91) (xy 104 91) (xy 109 96) (xy 109 104) (xy 104 109)
        (xy 96 109) (xy 91 104) (xy 91 96)
      )
    )
    (filled_polygon
      (pts
        (xy 114.199453 99.966446) (xy 113.925799 102.757386) (xy 113.125007 105.409735) (xy 111.824287 107.856035) (xy 111.300098 108.498753)
        (xy 111.300098 103.774473) (xy 111.212488 103.332011) (xy 111.040605 102.914991) (xy 110.790996 102.539299) (xy 110.473168 102.219245)
        (xy 110.099228 101.96702) (xy 109.683419 101.792229) (xy 109.25 101.703261) (xy 109.25 98.291499) (xy 109.621508 98.225992)
        (xy 110.042036 98.06288) (xy 110.422872 97.821194) (xy 110.749512 97.510139) (xy 111.009514 97.141563) (xy 111.192974 96.729505)
        (xy 111.292904 96.289661) (xy 111.300098 95.774473) (xy 111.212488 95.332011) (xy 111.040605 94.914991) (xy 110.790996 94.539299)
        (xy 110.473168 94.219245) (xy 110.099228 93.96702) (xy 109.683419 93.792229) (xy 109.241579 93.701533) (xy 108.790537 93.698384)
        (xy 108.347473 93.782903) (xy 107.929264 93.95187) (xy 107.552179 94.198626) (xy 105.79674 92.443187) (xy 106.009514 92.141563)
        (xy 106.192974 91.729505) (xy 106.292904 91.289661) (xy 106.300098 90.774473) (xy 106.212488 90.332011) (xy 106.040605 89.914991)
        (xy 105.790996 89.539299) (xy 105.473168 89.219245) (xy 105.099228 88.96702) (xy 104.683419 88.792229) (xy 104.241579 88.701533)
        (xy 103.790537 88.698384) (xy 103.347473 88.782903) (xy 102.929264 88.95187) (xy 102.551838 89.19885) (xy 102.229573 89.514436)
        (xy 101.974743 89.886606) (xy 101.797054 90.301184) (xy 101.703275 90.742381) (xy 101.703168 90.75) (xy 98.295252 90.75)
        (xy 98.212488 90.332011) (xy 98.040605 89.914991) (xy 97.790996 89.539299) (xy 97.473168 89.219245) (xy 97.099228 88.96702)
        (xy 96.683419 88.792229) (xy 96.241579 88.701533) (xy 95.790537 88.698384) (xy 95.347473 88.782903) (xy 94.929264 88.95187)
        (xy 94.551838 89.19885) (xy 94.229573 89.514436) (xy 93.974743 89.886606) (xy 93.797054 90.301184) (xy 93.703275 90.742381)
        (xy 93.696977 91.19339) (xy 93.778401 91.637033) (xy 93.944445 92.056412) (xy 94.188784 92.435552) (xy 94.199646 92.4468)
        (xy 92.445717 94.200729) (xy 92.099228 93.96702) (xy 91.683419 93.792229) (xy 91.241579 93.701533) (xy 90.790537 93.698384)
        (xy 90.347473 93.782903) (xy 89.929264 93.95187) (xy 89.551838 94.19885) (xy 89.229573 94.514436) (xy 88.974743 94.886606)
        (xy 88.797054 95.301184) (xy 88.703275 95.742381) (xy 88.696977 96.19339) (xy 88.778401 96.637033) (xy 88.944445 97.056412)
        (xy 89.188784 97.435552) (xy 89.502112 97.760013) (xy 89.872494 98.017435) (xy 90.285822 98.198013) (xy 90.726353 98.29487)
        (xy 90.75 98.295365) (xy 90.75 101.706116) (xy 90.347473 101.782903) (xy 89.929264 101.95187) (xy 89.551838 102.19885)
        (xy 89.229573 102.514436) (xy 88.974743 102.886606) (xy 88.797054 103.301184) (xy 88.703275 103.742381) (xy 88.696977 104.19339)
        (xy 88.778401 104.637033) (xy 88.944445 105.056412) (xy 89.188784 105.435552) (xy 89.502112 105.760013) (xy 89.872494 106.017435)
        (xy 90.285822 106.198013) (xy 90.726353 106.29487) (xy 91.177307 106.304317) (xy 91.621508 106.225992) (xy 92.042036 106.06288)
        (xy 92.422872 105.821194) (xy 92.445803 105.799356) (xy 94.201655 107.555208) (xy 93.974743 107.886606) (xy 93.797054 108.301184)
        (xy 93.703275 108.742381) (xy 93.696977 109.19339) (xy 93.778401 109.637033) (xy 93.944445 110.056412) (xy 94.188784 110.435552)
        (xy 94.502112 110.760013) (xy 94.872494 111.017435) (xy 95.285822 111.198013) (xy 95.726353 111.29487) (xy 96.177307 111.304317)
        (xy 96.621508 111.225992) (xy 97.042036 111.06288) (xy 97.422872 110.821194) (xy 97.749512 110.510139) (xy 98.009514 110.141563)
        (xy 98.192974 109.729505) (xy 98.292904 109.289661) (xy 98.293457 109.25) (xy 101.707366 109.25) (xy 101.778401 109.637033)
        (xy 101.944445 110.056412) (xy 102.188784 110.435552) (xy 102.502112 110.760013) (xy 102.872494 111.017435) (xy 103.285822 111.198013)
        (xy 103.726353 111.29487) (xy 104.177307 111.304317) (xy 104.621508 111.225992) (xy 105.042036 111.06288) (xy 105.422872 110.821194)
        (xy 105.749512 110.510139) (xy 106.009514 110.141563) (xy 106.192974 109.729505) (xy 106.292904 109.289661) (xy 106.300098 108.774473)
        (xy 106.212488 108.332011) (xy 106.040605 107.914991) (xy 105.80028 107.553272) (xy 107.556051 105.797501) (xy 107.872494 106.017435)
        (xy 108.285822 106.198013) (xy 108.726353 106.29487) (xy 109.177307 106.304317) (xy 109.25 106.291499) (xy 109.621508 106.225992)
        (xy 110.042036 106.06288) (xy 110.422872 105.821194) (xy 110.749512 105.510139) (xy 111.009514 105.141563) (xy 111.192974 104.729505)
        (xy 111.292904 104.289661) (xy 111.300098 103.774473) (xy 111.300098 108.498753) (xy 110.073177 110.003107) (xy 109.25 110.684099)
        (xy 107.938395 111.769152) (xy 105.501231 113.086921) (xy 102.854537 113.90621) (xy 100.099102 114.195817) (xy 97.339903 113.94471)
        (xy 94.682023 113.162454) (xy 92.226704 111.878843) (xy 90.067466 110.142772) (xy 88.286549 108.020358) (xy 86.951804 105.592464)
        (xy 86.114055 102.951543) (xy 85.805219 100.198209) (xy 86.037058 97.43732) (xy 86.800741 94.774042) (xy 88.067178 92.309822)
        (xy 89.788136 90.138514) (xy 91.898056 88.342832) (xy 94.31658 86.991164) (xy 96.951582 86.135) (xy 99.702697 85.806949)
        (xy 102.465137 86.019508) (xy 105.13368 86.764578) (xy 107.606683 88.013781) (xy 109.789953 89.719538) (xy 111.600321 91.816871)
        (xy 112.968842 94.225904) (xy 113.843378 96.854854) (xy 114.194854 99.637068) (xy 114.199453 99.966446)
      )
    )
  )
  (zone (net 2) (net_name /H2) (layer F.Cu) (tstamp 559DBC23) (hatch edge 0.508)
    (connect_pads yes (clearance 0.5))
    (min_thickness 0.5)
    (fill (arc_segments 32) (thermal_gap 0.5) (thermal_bridge_width 0.6))
    (polygon
      (pts
        (xy 103.75 91.5) (xy 96.25 91.5) (xy 91.5 96.25) (xy 91.5 103.75) (xy 96.25 108.5)
        (xy 103.75 108.5) (xy 108.5 103.75) (xy 108.5 96.25)
      )
    )
    (filled_polygon
      (pts
        (xy 108.25 101.822284) (xy 107.929264 101.95187) (xy 107.551838 102.19885) (xy 107.229573 102.514436) (xy 106.974743 102.886606)
        (xy 106.797054 103.301184) (xy 106.703275 103.742381) (xy 106.696977 104.19339) (xy 106.778401 104.637033) (xy 106.914831 104.981615)
        (xy 104.97968 106.916766) (xy 104.683419 106.792229) (xy 104.241579 106.701533) (xy 103.790537 106.698384) (xy 103.347473 106.782903)
        (xy 102.929264 106.95187) (xy 102.551838 107.19885) (xy 102.229573 107.514436) (xy 101.974743 107.886606) (xy 101.818991 108.25)
        (xy 98.178685 108.25) (xy 98.040605 107.914991) (xy 97.790996 107.539299) (xy 97.473168 107.219245) (xy 97.099228 106.96702)
        (xy 96.683419 106.792229) (xy 96.241579 106.701533) (xy 95.790537 106.698384) (xy 95.347473 106.782903) (xy 95.019119 106.915566)
        (xy 93.082095 104.978542) (xy 93.192974 104.729505) (xy 93.292904 104.289661) (xy 93.300098 103.774473) (xy 93.212488 103.332011)
        (xy 93.040605 102.914991) (xy 92.790996 102.539299) (xy 92.473168 102.219245) (xy 92.099228 101.96702) (xy 91.75 101.820217)
        (xy 91.75 98.176153) (xy 92.042036 98.06288) (xy 92.422872 97.821194) (xy 92.749512 97.510139) (xy 93.009514 97.141563)
        (xy 93.192974 96.729505) (xy 93.292904 96.289661) (xy 93.300098 95.774473) (xy 93.212488 95.332011) (xy 93.083789 95.019763)
        (xy 95.021165 93.082387) (xy 95.285822 93.198013) (xy 95.726353 93.29487) (xy 96.177307 93.304317) (xy 96.621508 93.225992)
        (xy 97.042036 93.06288) (xy 97.422872 92.821194) (xy 97.749512 92.510139) (xy 98.009514 92.141563) (xy 98.183849 91.75)
        (xy 101.823127 91.75) (xy 101.944445 92.056412) (xy 102.188784 92.435552) (xy 102.502112 92.760013) (xy 102.872494 93.017435)
        (xy 103.285822 93.198013) (xy 103.726353 93.29487) (xy 104.177307 93.304317) (xy 104.621508 93.225992) (xy 104.982441 93.085994)
        (xy 106.917233 95.020786) (xy 106.797054 95.301184) (xy 106.703275 95.742381) (xy 106.696977 96.19339) (xy 106.778401 96.637033)
        (xy 106.944445 97.056412) (xy 107.188784 97.435552) (xy 107.502112 97.760013) (xy 107.872494 98.017435) (xy 108.25 98.182362)
        (xy 108.25 101.822284)
      )
    )
  )
)
