EESchema Schematic File Version 2
LIBS:power
LIBS:device
LIBS:transistors
LIBS:conn
LIBS:linear
LIBS:regul
LIBS:74xx
LIBS:cmos4000
LIBS:adc-dac
LIBS:memory
LIBS:xilinx
LIBS:special
LIBS:microcontrollers
LIBS:dsp
LIBS:microchip
LIBS:analog_switches
LIBS:motorola
LIBS:texas
LIBS:intel
LIBS:audio
LIBS:interface
LIBS:digital-audio
LIBS:philips
LIBS:display
LIBS:cypress
LIBS:siliconi
LIBS:opto
LIBS:atmel
LIBS:contrib
LIBS:valves
LIBS:amp_only-cache
EELAYER 27 0
EELAYER END
$Descr User 8000 5000
encoding utf-8
Sheet 1 1
Title "1000x preamplifier for Thermopile"
Date "16 apr 2014"
Rev ""
Comp "Australian National University"
Comment1 ""
Comment2 ""
Comment3 ""
Comment4 ""
$EndDescr
$Comp
L CHRISJ1_R R1
U 1 1 534E0172
P 1950 1950
F 0 "R1" V 2090 1950 50  0000 C CNN
F 1 "1k" V 2020 1950 50  0000 C CNN
F 2 "~" H 1950 1950 60  0000 C CNN
F 3 "~" H 1950 1950 60  0000 C CNN
	1    1950 1950
	0    -1   -1   0   
$EndComp
$Comp
L CHRISJ1_R R2
U 1 1 534E017F
P 1950 2150
F 0 "R2" V 1800 2150 50  0000 C CNN
F 1 "1k" V 1870 2150 50  0000 C CNN
F 2 "~" H 1950 2150 60  0000 C CNN
F 3 "~" H 1950 2150 60  0000 C CNN
	1    1950 2150
	0    -1   -1   0   
$EndComp
$Comp
L CHRISJ1_C C2
U 1 1 534E0187
P 1600 2050
F 0 "C2" H 1700 2050 50  0000 C CNN
F 1 "100nF" H 1400 2050 50  0000 C CNN
F 2 "~" H 1600 2050 60  0000 C CNN
F 3 "~" H 1600 2050 60  0000 C CNN
	1    1600 2050
	1    0    0    -1  
$EndComp
$Comp
L CHRISJ1_C C1
U 1 1 534E0194
P 1600 1800
F 0 "C1" H 1700 1800 50  0000 C CNN
F 1 "100nF" H 1400 1800 50  0000 C CNN
F 2 "~" H 1600 1800 60  0000 C CNN
F 3 "~" H 1600 1800 60  0000 C CNN
	1    1600 1800
	1    0    0    -1  
$EndComp
$Comp
L CHRISJ1_C C3
U 1 1 534E019A
P 2400 1700
F 0 "C3" V 2480 1700 50  0000 C CNN
F 1 "100nF" V 2320 1700 50  0000 C CNN
F 2 "~" H 2400 1700 60  0000 C CNN
F 3 "~" H 2400 1700 60  0000 C CNN
	1    2400 1700
	1    0    0    -1  
$EndComp
$Comp
L CHRISJ1_C C6
U 1 1 534E01A0
P 2900 2350
F 0 "C6" V 2980 2350 50  0000 C CNN
F 1 "100nF" V 2820 2350 50  0000 C CNN
F 2 "~" H 2900 2350 60  0000 C CNN
F 3 "~" H 2900 2350 60  0000 C CNN
	1    2900 2350
	0    -1   -1   0   
$EndComp
$Comp
L CHRISJ1_C C5
U 1 1 534E01A6
P 2900 1700
F 0 "C5" V 2980 1700 50  0000 C CNN
F 1 "100nF" V 2820 1700 50  0000 C CNN
F 2 "~" H 2900 1700 60  0000 C CNN
F 3 "~" H 2900 1700 60  0000 C CNN
	1    2900 1700
	0    -1   -1   0   
$EndComp
$Comp
L CHRISJ1_C C8
U 1 1 534E01B6
P 3650 2350
F 0 "C8" H 3750 2400 50  0000 C CNN
F 1 "100nF" H 3800 2250 50  0000 C CNN
F 2 "~" H 3650 2350 60  0000 C CNN
F 3 "~" H 3650 2350 60  0000 C CNN
	1    3650 2350
	1    0    0    -1  
$EndComp
$Comp
L CHRISJ1_R R3
U 1 1 534E01BC
P 3400 2350
F 0 "R3" H 3550 2300 50  0000 C CNN
F 1 "100k" H 3550 2400 50  0000 C CNN
F 2 "~" H 3400 2350 60  0000 C CNN
F 3 "~" H 3400 2350 60  0000 C CNN
	1    3400 2350
	-1   0    0    1   
$EndComp
$Comp
L CHRISJ1_R R5
U 1 1 534E01C2
P 3950 3150
F 0 "R5" V 4150 3150 50  0000 C CNN
F 1 "100R" V 4050 3150 50  0000 C CNN
F 2 "~" H 3950 3150 60  0000 C CNN
F 3 "~" H 3950 3150 60  0000 C CNN
	1    3950 3150
	0    1    1    0   
$EndComp
$Comp
L GND #PWR8
U 1 1 534E0283
P 3100 2450
F 0 "#PWR8" H 3100 2450 30  0001 C CNN
F 1 "GND" H 3100 2380 30  0001 C CNN
F 2 "" H 3100 2450 60  0000 C CNN
F 3 "" H 3100 2450 60  0000 C CNN
	1    3100 2450
	1    0    0    -1  
$EndComp
$Comp
L GND #PWR7
U 1 1 534E0290
P 3100 1800
F 0 "#PWR7" H 3100 1800 30  0001 C CNN
F 1 "GND" H 3100 1730 30  0001 C CNN
F 2 "" H 3100 1800 60  0000 C CNN
F 3 "" H 3100 1800 60  0000 C CNN
	1    3100 1800
	1    0    0    -1  
$EndComp
$Comp
L GND #PWR3
U 1 1 534E0296
P 2550 1550
F 0 "#PWR3" H 2550 1550 30  0001 C CNN
F 1 "GND" H 2550 1480 30  0001 C CNN
F 2 "" H 2550 1550 60  0000 C CNN
F 3 "" H 2550 1550 60  0000 C CNN
	1    2550 1550
	1    0    0    -1  
$EndComp
$Comp
L GND #PWR1
U 1 1 534E029C
P 1750 2350
F 0 "#PWR1" H 1750 2350 30  0001 C CNN
F 1 "GND" H 1750 2280 30  0001 C CNN
F 2 "" H 1750 2350 60  0000 C CNN
F 3 "" H 1750 2350 60  0000 C CNN
	1    1750 2350
	1    0    0    -1  
$EndComp
$Comp
L GND #PWR2
U 1 1 534E02A2
P 1800 1650
F 0 "#PWR2" H 1800 1650 30  0001 C CNN
F 1 "GND" H 1800 1580 30  0001 C CNN
F 2 "" H 1800 1650 60  0000 C CNN
F 3 "" H 1800 1650 60  0000 C CNN
	1    1800 1650
	1    0    0    -1  
$EndComp
$Comp
L CHRISJ1_C C4
U 1 1 534E02A8
P 2900 1400
F 0 "C4" V 2980 1400 50  0000 C CNN
F 1 "1uF" V 2820 1400 50  0000 C CNN
F 2 "~" H 2900 1400 60  0000 C CNN
F 3 "~" H 2900 1400 60  0000 C CNN
	1    2900 1400
	0    -1   -1   0   
$EndComp
$Comp
L CHRISJ1_C C7
U 1 1 534E02B3
P 2900 2650
F 0 "C7" V 2980 2650 50  0000 C CNN
F 1 "1uF" V 2820 2650 50  0000 C CNN
F 2 "~" H 2900 2650 60  0000 C CNN
F 3 "~" H 2900 2650 60  0000 C CNN
	1    2900 2650
	0    -1   -1   0   
$EndComp
$Comp
L GND #PWR6
U 1 1 534E02B9
P 3100 1500
F 0 "#PWR6" H 3100 1500 30  0001 C CNN
F 1 "GND" H 3100 1430 30  0001 C CNN
F 2 "" H 3100 1500 60  0000 C CNN
F 3 "" H 3100 1500 60  0000 C CNN
	1    3100 1500
	1    0    0    -1  
$EndComp
$Comp
L GND #PWR9
U 1 1 534E02BF
P 3100 2750
F 0 "#PWR9" H 3100 2750 30  0001 C CNN
F 1 "GND" H 3100 2680 30  0001 C CNN
F 2 "" H 3100 2750 60  0000 C CNN
F 3 "" H 3100 2750 60  0000 C CNN
	1    3100 2750
	1    0    0    -1  
$EndComp
Connection ~ 3650 2050
Wire Wire Line
	3400 2250 3400 2050
Connection ~ 3400 2050
Wire Wire Line
	3400 2550 3650 2550
Wire Wire Line
	3650 2550 3650 2400
Wire Wire Line
	3650 2050 3650 2300
Wire Wire Line
	3100 1800 3100 1700
Wire Wire Line
	3100 1700 2950 1700
Wire Wire Line
	2950 1400 3100 1400
Wire Wire Line
	3100 1400 3100 1500
Wire Wire Line
	2750 1700 2850 1700
Wire Wire Line
	2850 1400 2750 1400
Connection ~ 2750 1700
Wire Wire Line
	2550 1550 2550 1500
Wire Wire Line
	2550 1500 2400 1500
Wire Wire Line
	2400 1500 2400 1650
Wire Wire Line
	2050 1950 2600 1950
Wire Wire Line
	2050 2150 2600 2150
Wire Wire Line
	2950 2350 3100 2350
Wire Wire Line
	3100 2350 3100 2450
Wire Wire Line
	2750 2300 2750 2700
Wire Wire Line
	2750 2350 2850 2350
Wire Wire Line
	2950 2650 3100 2650
Wire Wire Line
	3100 2650 3100 2750
Wire Wire Line
	2750 2650 2850 2650
Connection ~ 2750 2350
Wire Wire Line
	2400 1950 2400 1750
Connection ~ 2400 1950
Connection ~ 2400 2150
Connection ~ 3400 2550
Wire Wire Line
	1600 2100 1600 2250
Wire Wire Line
	1850 2150 1600 2150
Connection ~ 1600 2150
Wire Wire Line
	1750 2350 1750 2250
Wire Wire Line
	1750 2250 1600 2250
Connection ~ 1600 2200
Wire Wire Line
	1600 1850 1600 2000
Wire Wire Line
	1850 1950 1600 1950
Connection ~ 1600 1950
Connection ~ 1600 1900
Wire Wire Line
	1600 1750 1600 1600
Wire Wire Line
	1600 1600 1800 1600
Wire Wire Line
	1800 1600 1800 1650
Connection ~ 2750 1400
Connection ~ 2750 2650
$Comp
L CHRISJ1_ADA4528-1 U1
U 1 1 534E1084
P 2850 2050
F 0 "U1" H 2750 2050 50  0000 L CNN
F 1 "ADA4528-1" H 2900 1950 50  0000 L CNN
F 2 "~" H 2850 2050 60  0000 C CNN
F 3 "~" H 2850 2050 60  0000 C CNN
	1    2850 2050
	1    0    0    -1  
$EndComp
$Comp
L +2.5V #PWR4
U 1 1 534E0E8E
P 2750 1300
F 0 "#PWR4" H 2750 1250 20  0001 C CNN
F 1 "+2.5V" H 2750 1400 50  0000 C CNN
F 2 "~" H 2750 1300 60  0000 C CNN
F 3 "~" H 2750 1300 60  0000 C CNN
	1    2750 1300
	1    0    0    -1  
$EndComp
$Comp
L -2.5V #PWR5
U 1 1 534E0E9D
P 2750 2700
F 0 "#PWR5" H 2750 2750 20  0001 C CNN
F 1 "-2.5V" H 2750 2600 50  0000 C CNN
F 2 "~" H 2750 2700 60  0000 C CNN
F 3 "~" H 2750 2700 60  0000 C CNN
	1    2750 2700
	1    0    0    -1  
$EndComp
$Comp
L CHRISJ1_CONN_2 P1
U 1 1 534E0EAC
P 1000 2050
F 0 "P1" H 1000 1800 50  0000 C CNN
F 1 "INPUT" V 1050 2050 40  0000 C CNN
F 2 "~" H 1000 2050 60  0000 C CNN
F 3 "~" H 1000 2050 60  0000 C CNN
	1    1000 2050
	-1   0    0    -1  
$EndComp
Wire Wire Line
	1350 1950 1450 1950
Wire Wire Line
	1450 1950 1450 1900
Wire Wire Line
	1450 1900 1600 1900
Wire Wire Line
	1350 2150 1450 2150
Wire Wire Line
	1450 2150 1450 2200
Wire Wire Line
	1450 2200 1600 2200
$Comp
L CHRISJ1_OP07 U2
U 1 1 534E1162
P 5000 2600
F 0 "U2" H 4900 2600 50  0000 L CNN
F 1 "OP07" H 5050 2500 50  0000 L CNN
F 2 "~" H 5000 2600 60  0000 C CNN
F 3 "~" H 5000 2600 60  0000 C CNN
	1    5000 2600
	1    0    0    -1  
$EndComp
Wire Wire Line
	3400 2450 3400 3000
Wire Wire Line
	3400 3000 2400 3000
Wire Wire Line
	2400 3000 2400 2150
$Comp
L CHRISJ1_R R4
U 1 1 534E1257
P 3950 2050
F 0 "R4" V 3800 2050 50  0000 C CNN
F 1 "100R" V 3870 2050 50  0000 C CNN
F 2 "~" H 3950 2050 60  0000 C CNN
F 3 "~" H 3950 2050 60  0000 C CNN
	1    3950 2050
	0    1    1    0   
$EndComp
$Comp
L CHRISJ1_R R7
U 1 1 534E1271
P 4400 3150
F 0 "R7" V 4600 3150 50  0000 C CNN
F 1 "10k" V 4500 3150 50  0000 C CNN
F 2 "~" H 4400 3150 60  0000 C CNN
F 3 "~" H 4400 3150 60  0000 C CNN
	1    4400 3150
	0    1    1    0   
$EndComp
$Comp
L CHRISJ1_R R6
U 1 1 534E1277
P 4400 2050
F 0 "R6" V 4250 2050 50  0000 C CNN
F 1 "10k" V 4320 2050 50  0000 C CNN
F 2 "~" H 4400 2050 60  0000 C CNN
F 3 "~" H 4400 2050 60  0000 C CNN
	1    4400 2050
	0    1    1    0   
$EndComp
$Comp
L CHRISJ1_R R9
U 1 1 534E1287
P 5350 3150
F 0 "R9" V 5550 3150 50  0000 C CNN
F 1 "100k" V 5450 3150 50  0000 C CNN
F 2 "~" H 5350 3150 60  0000 C CNN
F 3 "~" H 5350 3150 60  0000 C CNN
	1    5350 3150
	0    1    1    0   
$EndComp
$Comp
L CHRISJ1_R R8
U 1 1 534E128D
P 5350 2050
F 0 "R8" V 5200 2050 50  0000 C CNN
F 1 "100k" V 5270 2050 50  0000 C CNN
F 2 "~" H 5350 2050 60  0000 C CNN
F 3 "~" H 5350 2050 60  0000 C CNN
	1    5350 2050
	0    1    1    0   
$EndComp
Wire Wire Line
	2750 1300 2750 1800
Wire Wire Line
	4900 2350 4900 2300
Wire Wire Line
	4900 2900 4900 2850
Wire Wire Line
	4050 3150 4300 3150
Wire Wire Line
	4500 3150 5250 3150
Wire Wire Line
	5500 2600 5500 3150
Wire Wire Line
	5500 3150 5450 3150
Wire Wire Line
	5250 2050 4500 2050
Wire Wire Line
	4300 2050 4050 2050
$Comp
L GND #PWR10
U 1 1 534E1524
P 3800 3250
F 0 "#PWR10" H 3800 3250 30  0001 C CNN
F 1 "GND" H 3800 3180 30  0001 C CNN
F 2 "" H 3800 3250 60  0000 C CNN
F 3 "" H 3800 3250 60  0000 C CNN
	1    3800 3250
	1    0    0    -1  
$EndComp
$Comp
L GND #PWR13
U 1 1 534E152A
P 6300 2300
F 0 "#PWR13" H 6300 2300 30  0001 C CNN
F 1 "GND" H 6300 2230 30  0001 C CNN
F 2 "" H 6300 2300 60  0000 C CNN
F 3 "" H 6300 2300 60  0000 C CNN
	1    6300 2300
	1    0    0    -1  
$EndComp
$Comp
L CHRISJ1_CONN_2 P2
U 1 1 534E1530
P 6850 2350
F 0 "P2" H 6850 2100 50  0000 C CNN
F 1 "OUTPUT" V 6900 2350 40  0000 C CNN
F 2 "~" H 6850 2350 60  0000 C CNN
F 3 "~" H 6850 2350 60  0000 C CNN
	1    6850 2350
	1    0    0    1   
$EndComp
Wire Wire Line
	3800 3250 3800 3150
Wire Wire Line
	3800 3150 3850 3150
Wire Wire Line
	5450 2050 6200 2050
Wire Wire Line
	6200 2050 6200 2250
Wire Wire Line
	6200 2250 6500 2250
Wire Wire Line
	6300 2300 6300 2250
Connection ~ 6300 2250
Wire Wire Line
	6200 2600 6200 2450
Wire Wire Line
	6200 2450 6500 2450
Connection ~ 5500 2600
$Comp
L CHRISJ1_R R10
U 1 1 534E170F
P 5800 2600
F 0 "R10" V 6000 2600 50  0000 C CNN
F 1 "100R" V 5900 2600 50  0000 C CNN
F 2 "~" H 5800 2600 60  0000 C CNN
F 3 "~" H 5800 2600 60  0000 C CNN
	1    5800 2600
	0    1    1    0   
$EndComp
Wire Wire Line
	5900 2600 6200 2600
Wire Wire Line
	5700 2600 5250 2600
Wire Wire Line
	4650 3150 4650 2700
Wire Wire Line
	4650 2700 4750 2700
Connection ~ 4650 3150
Wire Wire Line
	4650 2050 4650 2500
Wire Wire Line
	4650 2500 4750 2500
Connection ~ 4650 2050
$Comp
L -18V #PWR12
U 1 1 534E1985
P 4900 2900
F 0 "#PWR12" H 4900 2950 20  0001 C CNN
F 1 "-18V" H 4900 2800 50  0000 C CNN
F 2 "~" H 4900 2900 60  0000 C CNN
F 3 "~" H 4900 2900 60  0000 C CNN
	1    4900 2900
	1    0    0    -1  
$EndComp
$Comp
L +15V #PWR11
U 1 1 534E1994
P 4900 2300
F 0 "#PWR11" H 4900 2250 20  0001 C CNN
F 1 "+15V" H 4900 2400 50  0000 C CNN
F 2 "~" H 4900 2300 60  0000 C CNN
F 3 "~" H 4900 2300 60  0000 C CNN
	1    4900 2300
	1    0    0    -1  
$EndComp
Wire Wire Line
	3100 2050 3850 2050
$EndSCHEMATC
