PCBNEW-BOARD Version 1 date 28/06/2012 4:53:37 PM

# Created by Pcbnew(2012-01-19 BZR 3256)-stable

$GENERAL
encoding utf-8
LayerCount 2
Ly 1FFF8001
EnabledLayers 1FFF8001
Links 139
NoConn 3
Di 9849 9812 70188 40726
Ndraw 4
Ntrack 686
Nzone 0
BoardThickness 630
Nmodule 52
Nnets 72
$EndGENERAL

$SHEETDESCR
Sheet A4 11700 8267
Title "Mux1"
Date "28 jun 2012"
Rev ""
Comp ""
Comment1 ""
Comment2 ""
Comment3 ""
Comment4 ""
$EndSHEETDESCR

$SETUP
InternalUnit 0.000100 INCH
Layers 2
Layer[0] Back signal
Layer[15] Front signal
TrackWidth 1000
TrackWidthList 160
TrackWidthList 200
TrackWidthList 240
TrackWidthList 320
TrackWidthList 400
TrackWidthList 500
TrackWidthList 1000
TrackClearence 100
ZoneClearence 800
TrackMinWidth 80
DrawSegmWidth 150
EdgeSegmWidth 150
ViaSize 400
ViaDrill 250
ViaMinSize 350
ViaMinDrill 200
ViaSizeList 1000 200
ViaSizeList 1500 300
ViaSizeList 2000 400
MicroViaSize 200
MicroViaDrill 50
MicroViasAllowed 0
MicroViaMinSize 200
MicroViaMinDrill 50
TextPcbWidth 120
TextPcbSize 600 800
EdgeModWidth 150
TextModSize 600 600
TextModWidth 120
PadSize 800 800
PadDrill 320
Pad2MaskClearance 100
AuxiliaryAxisOrg 0 0
PcbPlotParams (pcbplotparams (layerselection 3178497) (usegerberextensions true) (excludeedgelayer true) (linewidth 60) (plotframeref false) (viasonmask false) (mode 1) (useauxorigin false) (hpglpennumber 1) (hpglpenspeed 20) (hpglpendiameter 15) (hpglpenoverlay 0) (pscolor true) (psnegative false) (psa4output false) (plotreference true) (plotvalue true) (plotothertext true) (plotinvisibletext false) (padsonsilk false) (subtractmaskfromsilk false) (outputformat 1) (mirror false) (drillshape 1) (scaleselection 1) (outputdirectory ""))
$EndSETUP

$EQUIPOT
Na 0 ""
St ~
$EndEQUIPOT
$EQUIPOT
Na 1 "+5V"
St ~
$EndEQUIPOT
$EQUIPOT
Na 2 "/CH0"
St ~
$EndEQUIPOT
$EQUIPOT
Na 3 "/CH1"
St ~
$EndEQUIPOT
$EQUIPOT
Na 4 "/CH2"
St ~
$EndEQUIPOT
$EQUIPOT
Na 5 "/CH3"
St ~
$EndEQUIPOT
$EQUIPOT
Na 6 "/CTS"
St ~
$EndEQUIPOT
$EQUIPOT
Na 7 "/DTR"
St ~
$EndEQUIPOT
$EQUIPOT
Na 8 "/I_minus"
St ~
$EndEQUIPOT
$EQUIPOT
Na 9 "/I_minus_0"
St ~
$EndEQUIPOT
$EQUIPOT
Na 10 "/I_minus_1"
St ~
$EndEQUIPOT
$EQUIPOT
Na 11 "/I_minus_2"
St ~
$EndEQUIPOT
$EQUIPOT
Na 12 "/I_minus_3"
St ~
$EndEQUIPOT
$EQUIPOT
Na 13 "/I_plus"
St ~
$EndEQUIPOT
$EQUIPOT
Na 14 "/I_plus_0"
St ~
$EndEQUIPOT
$EQUIPOT
Na 15 "/I_plus_1"
St ~
$EndEQUIPOT
$EQUIPOT
Na 16 "/I_plus_2"
St ~
$EndEQUIPOT
$EQUIPOT
Na 17 "/I_plus_3"
St ~
$EndEQUIPOT
$EQUIPOT
Na 18 "/MCLR"
St ~
$EndEQUIPOT
$EQUIPOT
Na 19 "/PGC"
St ~
$EndEQUIPOT
$EQUIPOT
Na 20 "/PGD"
St ~
$EndEQUIPOT
$EQUIPOT
Na 21 "/RD"
St ~
$EndEQUIPOT
$EQUIPOT
Na 22 "/RL_minus_0"
St ~
$EndEQUIPOT
$EQUIPOT
Na 23 "/RL_minus_1"
St ~
$EndEQUIPOT
$EQUIPOT
Na 24 "/RL_minus_2"
St ~
$EndEQUIPOT
$EQUIPOT
Na 25 "/RL_minus_3"
St ~
$EndEQUIPOT
$EQUIPOT
Na 26 "/RL_plus_0"
St ~
$EndEQUIPOT
$EQUIPOT
Na 27 "/RL_plus_1"
St ~
$EndEQUIPOT
$EQUIPOT
Na 28 "/RL_plus_2"
St ~
$EndEQUIPOT
$EQUIPOT
Na 29 "/RL_plus_3"
St ~
$EndEQUIPOT
$EQUIPOT
Na 30 "/RTS"
St ~
$EndEQUIPOT
$EQUIPOT
Na 31 "/SEL0"
St ~
$EndEQUIPOT
$EQUIPOT
Na 32 "/SEL1"
St ~
$EndEQUIPOT
$EQUIPOT
Na 33 "/SEL2"
St ~
$EndEQUIPOT
$EQUIPOT
Na 34 "/SEL3"
St ~
$EndEQUIPOT
$EQUIPOT
Na 35 "/TD"
St ~
$EndEQUIPOT
$EQUIPOT
Na 36 "/V_minus_0"
St ~
$EndEQUIPOT
$EQUIPOT
Na 37 "/V_minus_1"
St ~
$EndEQUIPOT
$EQUIPOT
Na 38 "/V_minus_2"
St ~
$EndEQUIPOT
$EQUIPOT
Na 39 "/V_minus_3"
St ~
$EndEQUIPOT
$EQUIPOT
Na 40 "/V_plus"
St ~
$EndEQUIPOT
$EQUIPOT
Na 41 "/V_plus_0"
St ~
$EndEQUIPOT
$EQUIPOT
Na 42 "/V_plus_1"
St ~
$EndEQUIPOT
$EQUIPOT
Na 43 "/V_plus_2"
St ~
$EndEQUIPOT
$EQUIPOT
Na 44 "/V_plus_3"
St ~
$EndEQUIPOT
$EQUIPOT
Na 45 "GND"
St ~
$EndEQUIPOT
$EQUIPOT
Na 46 "N-000008"
St ~
$EndEQUIPOT
$EQUIPOT
Na 47 "N-000010"
St ~
$EndEQUIPOT
$EQUIPOT
Na 48 "N-000011"
St ~
$EndEQUIPOT
$EQUIPOT
Na 49 "N-000012"
St ~
$EndEQUIPOT
$EQUIPOT
Na 50 "N-000013"
St ~
$EndEQUIPOT
$EQUIPOT
Na 51 "N-000020"
St ~
$EndEQUIPOT
$EQUIPOT
Na 52 "N-000021"
St ~
$EndEQUIPOT
$EQUIPOT
Na 53 "N-000022"
St ~
$EndEQUIPOT
$EQUIPOT
Na 54 "N-000034"
St ~
$EndEQUIPOT
$EQUIPOT
Na 55 "N-000035"
St ~
$EndEQUIPOT
$EQUIPOT
Na 56 "N-000036"
St ~
$EndEQUIPOT
$EQUIPOT
Na 57 "N-000038"
St ~
$EndEQUIPOT
$EQUIPOT
Na 58 "N-000039"
St ~
$EndEQUIPOT
$EQUIPOT
Na 59 "N-000040"
St ~
$EndEQUIPOT
$EQUIPOT
Na 60 "N-000044"
St ~
$EndEQUIPOT
$EQUIPOT
Na 61 "N-000052"
St ~
$EndEQUIPOT
$EQUIPOT
Na 62 "N-000057"
St ~
$EndEQUIPOT
$EQUIPOT
Na 63 "N-000058"
St ~
$EndEQUIPOT
$EQUIPOT
Na 64 "N-000070"
St ~
$EndEQUIPOT
$EQUIPOT
Na 65 "N-000071"
St ~
$EndEQUIPOT
$EQUIPOT
Na 66 "N-000072"
St ~
$EndEQUIPOT
$EQUIPOT
Na 67 "N-000076"
St ~
$EndEQUIPOT
$EQUIPOT
Na 68 "N-000082"
St ~
$EndEQUIPOT
$EQUIPOT
Na 69 "N-000083"
St ~
$EndEQUIPOT
$EQUIPOT
Na 70 "N-000084"
St ~
$EndEQUIPOT
$EQUIPOT
Na 71 "N-000085"
St ~
$EndEQUIPOT
$NCLASS
Name "Default"
Desc "This is the default net class."
Clearance 100
TrackWidth 100
ViaDia 400
ViaDrill 250
uViaDia 200
uViaDrill 50
AddNet ""
AddNet "+5V"
AddNet "/CH0"
AddNet "/CH1"
AddNet "/CH2"
AddNet "/CH3"
AddNet "/CTS"
AddNet "/DTR"
AddNet "/I_minus"
AddNet "/I_minus_0"
AddNet "/I_minus_1"
AddNet "/I_minus_2"
AddNet "/I_minus_3"
AddNet "/I_plus"
AddNet "/I_plus_0"
AddNet "/I_plus_1"
AddNet "/I_plus_2"
AddNet "/I_plus_3"
AddNet "/MCLR"
AddNet "/PGC"
AddNet "/PGD"
AddNet "/RD"
AddNet "/RL_minus_0"
AddNet "/RL_minus_1"
AddNet "/RL_minus_2"
AddNet "/RL_minus_3"
AddNet "/RL_plus_0"
AddNet "/RL_plus_1"
AddNet "/RL_plus_2"
AddNet "/RL_plus_3"
AddNet "/RTS"
AddNet "/SEL0"
AddNet "/SEL1"
AddNet "/SEL2"
AddNet "/SEL3"
AddNet "/TD"
AddNet "/V_minus_0"
AddNet "/V_minus_1"
AddNet "/V_minus_2"
AddNet "/V_minus_3"
AddNet "/V_plus"
AddNet "/V_plus_0"
AddNet "/V_plus_1"
AddNet "/V_plus_2"
AddNet "/V_plus_3"
AddNet "GND"
AddNet "N-000008"
AddNet "N-000010"
AddNet "N-000011"
AddNet "N-000012"
AddNet "N-000013"
AddNet "N-000020"
AddNet "N-000021"
AddNet "N-000022"
AddNet "N-000034"
AddNet "N-000035"
AddNet "N-000036"
AddNet "N-000038"
AddNet "N-000039"
AddNet "N-000040"
AddNet "N-000044"
AddNet "N-000052"
AddNet "N-000057"
AddNet "N-000058"
AddNet "N-000070"
AddNet "N-000071"
AddNet "N-000072"
AddNet "N-000076"
AddNet "N-000082"
AddNet "N-000083"
AddNet "N-000084"
AddNet "N-000085"
$EndNCLASS
$MODULE WEIDMULLER_1508460000
Po 20500 14000 1800 15 4FEBB5A6 4FEAA6E6 ~~
Li WEIDMULLER_1508460000
Sc 4FEAA6E6
AR /4FCEE772
Op 0 0 0
T0 0 -1000 600 600 1800 120 N V 21 N "P6"
T1 0 0 600 600 1800 120 N V 21 N "CHRISJ1_CONN_6"
DS -6000 -788 6000 -788 150 21
DS -6000 3937 6000 3937 150 21
DS 6000 3937 6000 -788 150 21
DS -6000 -788 -6000 3937 150 21
$PAD
Sh "3" O 1000 1500 0 0 1800
Dr 510 0 0
At STD N 00E0FFFF
Ne 36 "/V_minus_0"
Po -1000 0
$EndPAD
$PAD
Sh "4" O 1000 1500 0 0 1800
Dr 510 0 0
At STD N 00E0FFFF
Ne 41 "/V_plus_0"
Po 1000 0
$EndPAD
$PAD
Sh "2" C 1500 1500 0 0 1800
Dr 510 0 0
At STD N 00E0FFFF
Ne 9 "/I_minus_0"
Po -3000 0
$EndPAD
$PAD
Sh "1" R 1500 1500 0 0 1800
Dr 510 0 0
At STD N 00E0FFFF
Ne 22 "/RL_minus_0"
Po -5000 0
$EndPAD
$PAD
Sh "5" C 1500 1500 0 0 1800
Dr 510 0 0
At STD N 00E0FFFF
Ne 14 "/I_plus_0"
Po 3000 0
$EndPAD
$PAD
Sh "6" C 1500 1500 0 0 1800
Dr 510 0 0
At STD N 00E0FFFF
Ne 26 "/RL_plus_0"
Po 5000 0
$EndPAD
$EndMODULE  WEIDMULLER_1508460000
$MODULE WEIDMULLER_1508460000
Po 33500 14000 1800 15 4FEBB51A 4FEAA6EA ~~
Li WEIDMULLER_1508460000
Sc 4FEAA6EA
AR /4FEB9996
Op 0 0 0
T0 0 -1000 600 600 1800 120 N V 21 N "P7"
T1 0 0 600 600 1800 120 N V 21 N "CHRISJ1_CONN_6"
DS -6000 -788 6000 -788 150 21
DS -6000 3937 6000 3937 150 21
DS 6000 3937 6000 -788 150 21
DS -6000 -788 -6000 3937 150 21
$PAD
Sh "3" O 1000 1500 0 0 1800
Dr 510 0 0
At STD N 00E0FFFF
Ne 37 "/V_minus_1"
Po -1000 0
$EndPAD
$PAD
Sh "4" O 1000 1500 0 0 1800
Dr 510 0 0
At STD N 00E0FFFF
Ne 42 "/V_plus_1"
Po 1000 0
$EndPAD
$PAD
Sh "2" C 1500 1500 0 0 1800
Dr 510 0 0
At STD N 00E0FFFF
Ne 10 "/I_minus_1"
Po -3000 0
$EndPAD
$PAD
Sh "1" R 1500 1500 0 0 1800
Dr 510 0 0
At STD N 00E0FFFF
Ne 23 "/RL_minus_1"
Po -5000 0
$EndPAD
$PAD
Sh "5" C 1500 1500 0 0 1800
Dr 510 0 0
At STD N 00E0FFFF
Ne 15 "/I_plus_1"
Po 3000 0
$EndPAD
$PAD
Sh "6" C 1500 1500 0 0 1800
Dr 510 0 0
At STD N 00E0FFFF
Ne 27 "/RL_plus_1"
Po 5000 0
$EndPAD
$EndMODULE  WEIDMULLER_1508460000
$MODULE WEIDMULLER_1508460000
Po 46500 14000 1800 15 4FEBB5BF 4FEAA6EC ~~
Li WEIDMULLER_1508460000
Sc 4FEAA6EC
AR /4FEB99A0
Op 0 0 0
T0 0 -1000 600 600 1800 120 N V 21 N "P8"
T1 0 0 600 600 1800 120 N V 21 N "CHRISJ1_CONN_6"
DS -6000 -788 6000 -788 150 21
DS -6000 3937 6000 3937 150 21
DS 6000 3937 6000 -788 150 21
DS -6000 -788 -6000 3937 150 21
$PAD
Sh "3" O 1000 1500 0 0 1800
Dr 510 0 0
At STD N 00E0FFFF
Ne 38 "/V_minus_2"
Po -1000 0
$EndPAD
$PAD
Sh "4" O 1000 1500 0 0 1800
Dr 510 0 0
At STD N 00E0FFFF
Ne 43 "/V_plus_2"
Po 1000 0
$EndPAD
$PAD
Sh "2" C 1500 1500 0 0 1800
Dr 510 0 0
At STD N 00E0FFFF
Ne 11 "/I_minus_2"
Po -3000 0
$EndPAD
$PAD
Sh "1" R 1500 1500 0 0 1800
Dr 510 0 0
At STD N 00E0FFFF
Ne 24 "/RL_minus_2"
Po -5000 0
$EndPAD
$PAD
Sh "5" C 1500 1500 0 0 1800
Dr 510 0 0
At STD N 00E0FFFF
Ne 16 "/I_plus_2"
Po 3000 0
$EndPAD
$PAD
Sh "6" C 1500 1500 0 0 1800
Dr 510 0 0
At STD N 00E0FFFF
Ne 28 "/RL_plus_2"
Po 5000 0
$EndPAD
$EndMODULE  WEIDMULLER_1508460000
$MODULE WEIDMULLER_1508460000
Po 59500 14000 1800 15 4FEBB5D1 4FEAA6EE ~~
Li WEIDMULLER_1508460000
Sc 4FEAA6EE
AR /4FEB9984
Op 0 0 0
T0 0 -1000 600 600 1800 120 N V 21 N "P9"
T1 0 0 600 600 1800 120 N V 21 N "CHRISJ1_CONN_6"
DS -6000 -788 6000 -788 150 21
DS -6000 3937 6000 3937 150 21
DS 6000 3937 6000 -788 150 21
DS -6000 -788 -6000 3937 150 21
$PAD
Sh "3" O 1000 1500 0 0 1800
Dr 510 0 0
At STD N 00E0FFFF
Ne 39 "/V_minus_3"
Po -1000 0
$EndPAD
$PAD
Sh "4" O 1000 1500 0 0 1800
Dr 510 0 0
At STD N 00E0FFFF
Ne 44 "/V_plus_3"
Po 1000 0
$EndPAD
$PAD
Sh "2" C 1500 1500 0 0 1800
Dr 510 0 0
At STD N 00E0FFFF
Ne 12 "/I_minus_3"
Po -3000 0
$EndPAD
$PAD
Sh "1" R 1500 1500 0 0 1800
Dr 510 0 0
At STD N 00E0FFFF
Ne 25 "/RL_minus_3"
Po -5000 0
$EndPAD
$PAD
Sh "5" C 1500 1500 0 0 1800
Dr 510 0 0
At STD N 00E0FFFF
Ne 17 "/I_plus_3"
Po 3000 0
$EndPAD
$PAD
Sh "6" C 1500 1500 0 0 1800
Dr 510 0 0
At STD N 00E0FFFF
Ne 29 "/RL_plus_3"
Po 5000 0
$EndPAD
$EndMODULE  WEIDMULLER_1508460000
$MODULE WEIDMULLER_1508260000
Po 66000 25000 900 15 4FE02342 4FEAA6F1 ~~
Li WEIDMULLER_1508260000
Sc 4FEAA6F1
AR /4FCEEF28
Op 0 0 0
T0 0 -1000 600 600 900 120 N V 21 N "P10"
T1 0 0 600 600 900 120 N V 21 N "CHRISJ1_CONN_4"
DS 4000 3937 4000 -788 150 21
DS 4000 -788 -4000 -788 150 21
DS -4000 -788 -4000 3937 150 21
DS -4000 3937 4000 3937 150 21
$PAD
Sh "3" C 1500 1500 0 0 900
Dr 510 0 0
At STD N 00E0FFFF
Ne 13 "/I_plus"
Po 1000 0
$EndPAD
$PAD
Sh "4" C 1500 1500 0 0 900
Dr 510 0 0
At STD N 00E0FFFF
Ne 40 "/V_plus"
Po 3000 0
$EndPAD
$PAD
Sh "2" C 1500 1500 0 0 900
Dr 510 0 0
At STD N 00E0FFFF
Ne 13 "/I_plus"
Po -1000 0
$EndPAD
$PAD
Sh "1" R 1500 1500 0 0 900
Dr 510 0 0
At STD N 00E0FFFF
Ne 8 "/I_minus"
Po -3000 0
$EndPAD
$EndMODULE  WEIDMULLER_1508260000
$MODULE SIL-6
Po 32500 36500 1800 15 4FEBFB97 4FEAA703 ~~
Li SIL-6
Cd Connecteur 6 pins
Kw CONN DEV
Sc 4FEAA703
AR /4FEA6269
Op 0 0 0
T0 0 -1000 681 428 1800 107 N V 21 N "P4"
T1 0 -1000 600 400 1800 100 N I 21 N "CHRISJ1_CONN_6"
DS -3000 500 -3000 -500 120 21
DS -3000 -500 3000 -500 120 21
DS 3000 -500 3000 500 120 21
DS 3000 500 -3000 500 120 21
DS -2000 500 -2000 -500 120 21
$PAD
Sh "1" R 800 800 0 0 1800
Dr 320 0 0
At STD N 00E0FFFF
Ne 18 "/MCLR"
Po -2500 0
$EndPAD
$PAD
Sh "2" C 800 800 0 0 1800
Dr 320 0 0
At STD N 00E0FFFF
Ne 1 "+5V"
Po -1500 0
$EndPAD
$PAD
Sh "3" C 800 800 0 0 1800
Dr 320 0 0
At STD N 00E0FFFF
Ne 45 "GND"
Po -500 0
$EndPAD
$PAD
Sh "4" C 800 800 0 0 1800
Dr 320 0 0
At STD N 00E0FFFF
Ne 20 "/PGD"
Po 500 0
$EndPAD
$PAD
Sh "5" C 800 800 0 0 1800
Dr 320 0 0
At STD N 00E0FFFF
Ne 19 "/PGC"
Po 1500 0
$EndPAD
$PAD
Sh "6" C 800 800 0 0 1800
Dr 320 0 0
At STD N 00E0FFFF
Ne 0 ""
Po 2500 0
$EndPAD
$EndMODULE  SIL-6
$MODULE R4-LARGE_PADS
Po 44500 36750 0 15 4FEBFEE1 4FEAA70A ~~
Li R4-LARGE_PADS
Cd Resitance 4 pas
Kw R
Sc 4FEAA70A
AR /4FEA707B
Op 0 A 0
T0 0 0 550 500 0 80 N V 21 N "R2"
T1 0 0 550 500 0 80 N I 21 N "470R"
DS -2000 0 -1600 0 120 21
DS -1600 0 -1600 -400 120 21
DS -1600 -400 1600 -400 120 21
DS 1600 -400 1600 400 120 21
DS 1600 400 -1600 400 120 21
DS -1600 400 -1600 0 120 21
DS -1600 -200 -1400 -400 120 21
DS 2000 0 1600 0 120 21
$PAD
Sh "1" C 800 800 0 0 0
Dr 320 0 0
At STD N 00E0FFFF
Ne 1 "+5V"
Po -2000 0
$EndPAD
$PAD
Sh "2" C 800 800 0 0 0
Dr 320 0 0
At STD N 00E0FFFF
Ne 46 "N-000008"
Po 2000 0
$EndPAD
$SHAPE3D
Na "discret/resistor.wrl"
Sc 0.400000 0.400000 0.400000
Of 0.000000 0.000000 0.000000
Ro 0.000000 0.000000 0.000000
$EndSHAPE3D
$EndMODULE  R4-LARGE_PADS
$MODULE R4-LARGE_PADS
Po 16000 28250 2700 15 4FEBFD56 4FEAA710 ~~
Li R4-LARGE_PADS
Cd Resitance 4 pas
Kw R
Sc 4FEAA710
AR /4FEA92CF
Op 0 A 0
T0 0 0 550 500 2700 80 N V 21 N "R1"
T1 0 0 550 500 2700 80 N I 21 N "10R"
DS -2000 0 -1600 0 120 21
DS -1600 0 -1600 -400 120 21
DS -1600 -400 1600 -400 120 21
DS 1600 -400 1600 400 120 21
DS 1600 400 -1600 400 120 21
DS -1600 400 -1600 0 120 21
DS -1600 -200 -1400 -400 120 21
DS 2000 0 1600 0 120 21
$PAD
Sh "1" C 800 800 0 0 2700
Dr 320 0 0
At STD N 00E0FFFF
Ne 1 "+5V"
Po -2000 0
$EndPAD
$PAD
Sh "2" C 800 800 0 0 2700
Dr 320 0 0
At STD N 00E0FFFF
Ne 53 "N-000022"
Po 2000 0
$EndPAD
$SHAPE3D
Na "discret/resistor.wrl"
Sc 0.400000 0.400000 0.400000
Of 0.000000 0.000000 0.000000
Ro 0.000000 0.000000 0.000000
$EndSHAPE3D
$EndMODULE  R4-LARGE_PADS
$MODULE LED_5_V
Po 46250 16500 1800 15 4FEBFE85 4FEAA712 ~~
Li LED_5_V
Cd Led verticale 5mm
Kw LED DEV
Sc 4FEAA712
AR /4FEA5EA7
Op 0 0 0
T0 0 -1500 400 400 1800 80 N V 21 N "D11"
T1 0 -1500 400 400 1800 80 N I 21 N "LED"
DA 0 0 1000 550 3025 80 21
DS 1000 -550 1000 550 80 21
$PAD
Sh "1" R 800 800 0 0 1800
Dr 320 0 0
At STD N 00E0FFFF
Ne 1 "+5V"
Po -500 0
$EndPAD
$PAD
Sh "2" C 800 800 0 0 1800
Dr 320 0 0
At STD N 00E0FFFF
Ne 64 "N-000070"
Po 500 0
$EndPAD
$SHAPE3D
Na "diodes/led5_vertical.wrl"
Sc 1.000000 1.000000 1.000000
Of 0.000000 0.000000 0.000000
Ro 0.000000 0.000000 0.000000
$EndSHAPE3D
$EndMODULE  LED_5_V
$MODULE LED_5_V
Po 33250 16500 1800 15 48958E88 4FEAA714 ~~
Li LED_5_V
Cd Led verticale 5mm
Kw LED DEV
Sc 4FEAA714
AR /4FEA5E9F
Op 0 0 0
T0 0 -1500 400 400 1800 80 N V 21 N "D10"
T1 0 -1500 400 400 1800 80 N I 21 N "LED"
DA 0 0 1000 550 3025 80 21
DS 1000 -550 1000 550 80 21
$PAD
Sh "1" R 800 800 0 0 1800
Dr 320 0 0
At STD N 00E0FFFF
Ne 1 "+5V"
Po -500 0
$EndPAD
$PAD
Sh "2" C 800 800 0 0 1800
Dr 320 0 0
At STD N 00E0FFFF
Ne 65 "N-000071"
Po 500 0
$EndPAD
$SHAPE3D
Na "diodes/led5_vertical.wrl"
Sc 1.000000 1.000000 1.000000
Of 0.000000 0.000000 0.000000
Ro 0.000000 0.000000 0.000000
$EndSHAPE3D
$EndMODULE  LED_5_V
$MODULE LED_5_V
Po 59250 16500 1800 15 4FEBFE94 4FEAA716 ~~
Li LED_5_V
Cd Led verticale 5mm
Kw LED DEV
Sc 4FEAA716
AR /4FEA5EB0
Op 0 0 0
T0 0 -1500 400 400 1800 80 N V 21 N "D12"
T1 0 -1500 400 400 1800 80 N I 21 N "LED"
DA 0 0 1000 550 3025 80 21
DS 1000 -550 1000 550 80 21
$PAD
Sh "1" R 800 800 0 0 1800
Dr 320 0 0
At STD N 00E0FFFF
Ne 1 "+5V"
Po -500 0
$EndPAD
$PAD
Sh "2" C 800 800 0 0 1800
Dr 320 0 0
At STD N 00E0FFFF
Ne 62 "N-000057"
Po 500 0
$EndPAD
$SHAPE3D
Na "diodes/led5_vertical.wrl"
Sc 1.000000 1.000000 1.000000
Of 0.000000 0.000000 0.000000
Ro 0.000000 0.000000 0.000000
$EndSHAPE3D
$EndMODULE  LED_5_V
$MODULE LED_5_V
Po 20250 16500 1800 15 4FEBFDF3 4FEAA718 ~~
Li LED_5_V
Cd Led verticale 5mm
Kw LED DEV
Sc 4FEAA718
AR /4FEA5DE6
Op 0 0 0
T0 0 -1500 400 400 1800 80 N V 21 N "D9"
T1 0 -1500 400 400 1800 80 N I 21 N "LED"
DA 0 0 1000 550 3025 80 21
DS 1000 -550 1000 550 80 21
$PAD
Sh "1" R 800 800 0 0 1800
Dr 320 0 0
At STD N 00E0FFFF
Ne 1 "+5V"
Po -500 0
$EndPAD
$PAD
Sh "2" C 800 800 0 0 1800
Dr 320 0 0
At STD N 00E0FFFF
Ne 66 "N-000072"
Po 500 0
$EndPAD
$SHAPE3D
Na "diodes/led5_vertical.wrl"
Sc 1.000000 1.000000 1.000000
Of 0.000000 0.000000 0.000000
Ro 0.000000 0.000000 0.000000
$EndSHAPE3D
$EndMODULE  LED_5_V
$MODULE LED_5_V
Po 45750 34750 900 15 48958E88 4FEAA71A ~~
Li LED_5_V
Cd Led verticale 5mm
Kw LED DEV
Sc 4FEAA71A
AR /4FEA707A
Op 0 0 0
T0 0 -1500 400 400 900 80 N V 21 N "D3"
T1 0 -1500 400 400 900 80 N I 21 N "LED"
DA 0 0 1000 550 3025 80 21
DS 1000 -550 1000 550 80 21
$PAD
Sh "1" R 800 800 0 0 900
Dr 320 0 0
At STD N 00E0FFFF
Ne 46 "N-000008"
Po -500 0
$EndPAD
$PAD
Sh "2" C 800 800 0 0 900
Dr 320 0 0
At STD N 00E0FFFF
Ne 45 "GND"
Po 500 0
$EndPAD
$SHAPE3D
Na "diodes/led5_vertical.wrl"
Sc 1.000000 1.000000 1.000000
Of 0.000000 0.000000 0.000000
Ro 0.000000 0.000000 0.000000
$EndSHAPE3D
$EndMODULE  LED_5_V
$MODULE DIP-20__300
Po 28500 33000 1800 15 4FEBF9E0 4FEAA71C ~~
Li DIP-20__300
Cd 20 pins DIL package, round pads
Kw DIL
Sc 4FEAA71C
AR /4FE94FF4
Op 0 0 0
T0 -3500 -500 700 450 1800 113 N V 21 N "U4"
T1 2500 500 700 450 1800 113 N V 21 N "PIC16F690"
DS -5500 -500 -5000 -500 150 21
DS -5000 -500 -5000 500 150 21
DS -5000 500 -5500 500 150 21
DS -5500 -1000 5500 -1000 150 21
DS 5500 -1000 5500 1000 150 21
DS 5500 1000 -5500 1000 150 21
DS -5500 1000 -5500 -1000 150 21
$PAD
Sh "1" R 800 800 0 0 1800
Dr 320 0 0
At STD N 00E0FFFF
Ne 1 "+5V"
Po -4500 1500
$EndPAD
$PAD
Sh "2" C 800 800 0 0 1800
Dr 320 0 0
At STD N 00E0FFFF
Ne 0 ""
Po -3500 1500
$EndPAD
$PAD
Sh "3" C 800 800 0 0 1800
Dr 320 0 0
At STD N 00E0FFFF
Ne 0 ""
Po -2500 1500
$EndPAD
$PAD
Sh "4" C 800 800 0 0 1800
Dr 320 0 0
At STD N 00E0FFFF
Ne 18 "/MCLR"
Po -1500 1500
$EndPAD
$PAD
Sh "5" C 800 800 0 0 1800
Dr 320 0 0
At STD N 00E0FFFF
Ne 0 ""
Po -500 1500
$EndPAD
$PAD
Sh "6" C 800 800 0 0 1800
Dr 320 0 0
At STD N 00E0FFFF
Ne 0 ""
Po 500 1500
$EndPAD
$PAD
Sh "7" C 800 800 0 0 1800
Dr 320 0 0
At STD N 00E0FFFF
Ne 5 "/CH3"
Po 1500 1500
$EndPAD
$PAD
Sh "8" C 800 800 0 0 1800
Dr 320 0 0
At STD N 00E0FFFF
Ne 0 ""
Po 2500 1500
$EndPAD
$PAD
Sh "9" C 800 800 0 0 1800
Dr 320 0 0
At STD N 00E0FFFF
Ne 0 ""
Po 3500 1500
$EndPAD
$PAD
Sh "10" C 800 800 0 0 1800
Dr 320 0 0
At STD N 00E0FFFF
Ne 58 "N-000039"
Po 4500 1500
$EndPAD
$PAD
Sh "11" C 800 800 0 0 1800
Dr 320 0 0
At STD N 00E0FFFF
Ne 67 "N-000076"
Po 4500 -1500
$EndPAD
$PAD
Sh "12" C 800 800 0 0 1800
Dr 320 0 0
At STD N 00E0FFFF
Ne 54 "N-000034"
Po 3500 -1500
$EndPAD
$PAD
Sh "13" C 800 800 0 0 1800
Dr 320 0 0
At STD N 00E0FFFF
Ne 57 "N-000038"
Po 2500 -1500
$EndPAD
$PAD
Sh "14" C 800 800 0 0 1800
Dr 320 0 0
At STD N 00E0FFFF
Ne 4 "/CH2"
Po 1500 -1500
$EndPAD
$PAD
Sh "15" C 800 800 0 0 1800
Dr 320 0 0
At STD N 00E0FFFF
Ne 3 "/CH1"
Po 500 -1500
$EndPAD
$PAD
Sh "16" O 600 800 0 0 1800
Dr 320 0 0
At STD N 00E0FFFF
Ne 2 "/CH0"
Po -500 -1500
$EndPAD
$PAD
Sh "17" O 600 800 0 0 1800
Dr 320 0 0
At STD N 00E0FFFF
Ne 0 ""
Po -1500 -1500
$EndPAD
$PAD
Sh "18" C 800 800 0 0 1800
Dr 320 0 0
At STD N 00E0FFFF
Ne 19 "/PGC"
Po -2500 -1500
$EndPAD
$PAD
Sh "19" C 800 800 0 0 1800
Dr 320 0 0
At STD N 00E0FFFF
Ne 20 "/PGD"
Po -3500 -1500
$EndPAD
$PAD
Sh "20" C 800 800 0 0 1800
Dr 320 0 0
At STD N 00E0FFFF
Ne 45 "GND"
Po -4500 -1500
$EndPAD
$SHAPE3D
Na "dil/dil_20.wrl"
Sc 1.000000 1.000000 1.000000
Of 0.000000 0.000000 0.000000
Ro 0.000000 0.000000 0.000000
$EndSHAPE3D
$EndMODULE  DIP-20__300
$MODULE DIP-16__300
Po 18500 34500 2700 15 4FEBFBB8 4FEAA71D ~~
Li DIP-16__300
Cd 16 pins DIL package, round pads
Kw DIL
Sc 4FEAA71D
AR /4FE952F5
Op 0 0 0
T0 -2500 -500 600 450 2700 113 N V 21 N "U1"
T1 1000 500 600 450 2700 113 N V 21 N "MAX232"
DS -4500 -500 -4500 -500 150 21
DS -4500 -500 -4000 -500 150 21
DS -4000 -500 -4000 500 150 21
DS -4000 500 -4500 500 150 21
DS -4500 -1000 4500 -1000 150 21
DS 4500 -1000 4500 1000 150 21
DS 4500 1000 -4500 1000 150 21
DS -4500 1000 -4500 -1000 150 21
$PAD
Sh "1" R 550 550 0 0 2700
Dr 320 0 0
At STD N 00E0FFFF
Ne 49 "N-000012"
Po -3500 1500
$EndPAD
$PAD
Sh "2" C 800 800 0 0 2700
Dr 320 0 0
At STD N 00E0FFFF
Ne 55 "N-000035"
Po -2500 1500
$EndPAD
$PAD
Sh "3" C 800 800 0 0 2700
Dr 320 0 0
At STD N 00E0FFFF
Ne 50 "N-000013"
Po -1500 1500
$EndPAD
$PAD
Sh "4" C 800 800 0 0 2700
Dr 320 0 0
At STD N 00E0FFFF
Ne 47 "N-000010"
Po -500 1500
$EndPAD
$PAD
Sh "5" C 800 800 0 0 2700
Dr 320 0 0
At STD N 00E0FFFF
Ne 48 "N-000011"
Po 500 1500
$EndPAD
$PAD
Sh "6" C 800 800 0 0 2700
Dr 320 0 0
At STD N 00E0FFFF
Ne 56 "N-000036"
Po 1500 1500
$EndPAD
$PAD
Sh "7" C 800 800 0 0 2700
Dr 320 0 0
At STD N 00E0FFFF
Ne 6 "/CTS"
Po 2500 1500
$EndPAD
$PAD
Sh "8" C 800 800 0 0 2700
Dr 320 0 0
At STD N 00E0FFFF
Ne 30 "/RTS"
Po 3500 1500
$EndPAD
$PAD
Sh "9" C 800 800 0 0 2700
Dr 320 0 0
At STD N 00E0FFFF
Ne 57 "N-000038"
Po 3500 -1500
$EndPAD
$PAD
Sh "10" C 800 800 0 0 2700
Dr 320 0 0
At STD N 00E0FFFF
Ne 67 "N-000076"
Po 2500 -1500
$EndPAD
$PAD
Sh "11" C 800 800 0 0 2700
Dr 320 0 0
At STD N 00E0FFFF
Ne 58 "N-000039"
Po 1500 -1500
$EndPAD
$PAD
Sh "12" O 600 800 0 0 2700
Dr 320 0 0
At STD N 00E0FFFF
Ne 54 "N-000034"
Po 500 -1500
$EndPAD
$PAD
Sh "13" O 600 800 0 0 2700
Dr 320 0 0
At STD N 00E0FFFF
Ne 35 "/TD"
Po -500 -1500
$EndPAD
$PAD
Sh "14" C 800 800 0 0 2700
Dr 320 0 0
At STD N 00E0FFFF
Ne 21 "/RD"
Po -1500 -1500
$EndPAD
$PAD
Sh "15" C 800 800 0 0 2700
Dr 320 0 0
At STD N 00E0FFFF
Ne 45 "GND"
Po -2500 -1500
$EndPAD
$PAD
Sh "16" C 800 800 0 0 2700
Dr 320 0 0
At STD N 00E0FFFF
Ne 53 "N-000022"
Po -3500 -1500
$EndPAD
$SHAPE3D
Na "dil/dil_16.wrl"
Sc 1.000000 1.000000 1.000000
Of 0.000000 0.000000 0.000000
Ro 0.000000 0.000000 0.000000
$EndSHAPE3D
$EndMODULE  DIP-16__300
$MODULE DIP-16__300
Po 39000 33000 1800 15 4FEBFB67 4FEAA71F ~~
Li DIP-16__300
Cd 16 pins DIL package, round pads
Kw DIL
Sc 4FEAA71F
AR /4FEA5D05
Op 0 0 0
T0 -2500 -500 600 450 1800 113 N V 21 N "U3"
T1 1000 500 600 450 1800 113 N V 21 N "4028"
DS -4500 -500 -4500 -500 150 21
DS -4500 -500 -4000 -500 150 21
DS -4000 -500 -4000 500 150 21
DS -4000 500 -4500 500 150 21
DS -4500 -1000 4500 -1000 150 21
DS 4500 -1000 4500 1000 150 21
DS 4500 1000 -4500 1000 150 21
DS -4500 1000 -4500 -1000 150 21
$PAD
Sh "1" R 600 800 0 0 1800
Dr 320 0 0
At STD N 00E0FFFF
Ne 0 ""
Po -3500 1500
$EndPAD
$PAD
Sh "2" O 600 800 0 0 1800
Dr 320 0 0
At STD N 00E0FFFF
Ne 33 "/SEL2"
Po -2500 1500
$EndPAD
$PAD
Sh "3" O 600 800 0 0 1800
Dr 320 0 0
At STD N 00E0FFFF
Ne 31 "/SEL0"
Po -1500 1500
$EndPAD
$PAD
Sh "4" C 800 800 0 0 1800
Dr 320 0 0
At STD N 00E0FFFF
Ne 0 ""
Po -500 1500
$EndPAD
$PAD
Sh "5" C 800 800 0 0 1800
Dr 320 0 0
At STD N 00E0FFFF
Ne 0 ""
Po 500 1500
$EndPAD
$PAD
Sh "6" O 600 800 0 0 1800
Dr 320 0 0
At STD N 00E0FFFF
Ne 0 ""
Po 1500 1500
$EndPAD
$PAD
Sh "7" O 600 800 0 0 1800
Dr 320 0 0
At STD N 00E0FFFF
Ne 0 ""
Po 2500 1500
$EndPAD
$PAD
Sh "8" O 600 800 0 0 1800
Dr 320 0 0
At STD N 00E0FFFF
Ne 45 "GND"
Po 3500 1500
$EndPAD
$PAD
Sh "9" C 800 800 0 0 1800
Dr 320 0 0
At STD N 00E0FFFF
Ne 0 ""
Po 3500 -1500
$EndPAD
$PAD
Sh "10" C 800 800 0 0 1800
Dr 320 0 0
At STD N 00E0FFFF
Ne 2 "/CH0"
Po 2500 -1500
$EndPAD
$PAD
Sh "11" O 600 800 0 0 1800
Dr 320 0 0
At STD N 00E0FFFF
Ne 5 "/CH3"
Po 1500 -1500
$EndPAD
$PAD
Sh "12" O 600 800 0 0 1800
Dr 320 0 0
At STD N 00E0FFFF
Ne 4 "/CH2"
Po 500 -1500
$EndPAD
$PAD
Sh "13" C 800 800 0 0 1800
Dr 320 0 0
At STD N 00E0FFFF
Ne 3 "/CH1"
Po -500 -1500
$EndPAD
$PAD
Sh "14" C 800 800 0 0 1800
Dr 320 0 0
At STD N 00E0FFFF
Ne 32 "/SEL1"
Po -1500 -1500
$EndPAD
$PAD
Sh "15" C 800 800 0 0 1800
Dr 320 0 0
At STD N 00E0FFFF
Ne 34 "/SEL3"
Po -2500 -1500
$EndPAD
$PAD
Sh "16" C 800 800 0 0 1800
Dr 320 0 0
At STD N 00E0FFFF
Ne 1 "+5V"
Po -3500 -1500
$EndPAD
$SHAPE3D
Na "dil/dil_16.wrl"
Sc 1.000000 1.000000 1.000000
Of 0.000000 0.000000 0.000000
Ro 0.000000 0.000000 0.000000
$EndSHAPE3D
$EndMODULE  DIP-16__300
$MODULE DB9FD
Po 12750 33500 2700 15 4FEBFCCB 4FEAA720 ~~
Li DB9FD
Cd Connecteur DB9 femelle droit
Kw CONN DB9
Sc 4FEAA720
AR /4FE9527B
Op 0 0 0
T0 -2400 -1900 600 600 4500 120 N V 21 N "P1"
T1 2400 -1900 600 600 2700 120 N V 21 N "CHRISJ1_CONN_9"
DS -5900 -1300 -5900 1300 120 21
DS -5900 1300 5900 1300 120 21
DS 5900 1300 5900 -1300 120 21
DS 5900 -1300 -5900 -1300 120 21
$PAD
Sh "0" C 2500 2500 0 0 2700
Dr 1250 0 0
At STD N 00E0FFFF
Ne 0 ""
Po -4900 -50
$EndPAD
$PAD
Sh "0" O 2000 2500 0 0 2700
Dr 1250 0 0
At STD N 00E0FFFF
Ne 0 ""
Po 4950 -50
$EndPAD
$PAD
Sh "1" R 800 800 0 0 2700
Dr 400 0 0
At STD N 00E0FFFF
Ne 7 "/DTR"
Po 2150 -600
$EndPAD
$PAD
Sh "2" C 800 800 0 0 2700
Dr 400 0 0
At STD N 00E0FFFF
Ne 21 "/RD"
Po 1100 -600
$EndPAD
$PAD
Sh "3" C 800 800 0 0 2700
Dr 400 0 0
At STD N 00E0FFFF
Ne 35 "/TD"
Po 0 -600
$EndPAD
$PAD
Sh "4" C 800 800 0 0 2700
Dr 400 0 0
At STD N 00E0FFFF
Ne 7 "/DTR"
Po -1050 -600
$EndPAD
$PAD
Sh "5" C 800 800 0 0 2700
Dr 400 0 0
At STD N 00E0FFFF
Ne 45 "GND"
Po -2150 -600
$EndPAD
$PAD
Sh "6" C 800 800 0 0 2700
Dr 400 0 0
At STD N 00E0FFFF
Ne 7 "/DTR"
Po 1650 500
$EndPAD
$PAD
Sh "7" C 800 800 0 0 2700
Dr 400 0 0
At STD N 00E0FFFF
Ne 30 "/RTS"
Po 550 500
$EndPAD
$PAD
Sh "8" C 800 800 0 0 2700
Dr 400 0 0
At STD N 00E0FFFF
Ne 6 "/CTS"
Po -500 500
$EndPAD
$PAD
Sh "9" C 800 800 0 0 2700
Dr 400 0 0
At STD N 00E0FFFF
Ne 0 ""
Po -1600 500
$EndPAD
$SHAPE3D
Na "conn_DBxx/db9_female.wrl"
Sc 1.000000 1.000000 1.000000
Of 0.000000 0.000000 0.000000
Ro 0.000000 0.000000 0.000000
$EndSHAPE3D
$EndMODULE  DB9FD
$MODULE D4
Po 33500 18250 0 15 00200000 4FEAA721 ~~
Li D4
Cd Diode 4 pas
Kw DIODE DEV
Sc 4FEAA721
AR /4FE94EFE
Op 0 0 0
T0 0 0 500 400 0 80 N V 21 N "D14"
T1 0 0 500 400 0 80 N I 21 N "1N4007"
DS -1500 -500 1500 -500 120 21
DS 1500 -500 1500 500 120 21
DS 1500 500 -1500 500 120 21
DS -1500 500 -1500 -500 120 21
DS 1250 -500 1250 500 120 21
DS 1000 500 1000 -500 120 21
DS -1500 0 -2000 0 120 21
DS 1500 0 2000 0 120 21
$PAD
Sh "1" C 700 700 0 0 0
Dr 400 0 0
At STD N 00E0FFFF
Ne 69 "N-000083"
Po -2000 0
$EndPAD
$PAD
Sh "2" R 700 700 0 0 0
Dr 400 0 0
At STD N 00E0FFFF
Ne 1 "+5V"
Po 2000 0
$EndPAD
$SHAPE3D
Na "discret/diode.wrl"
Sc 0.400000 0.400000 0.400000
Of 0.000000 0.000000 0.000000
Ro 0.000000 0.000000 0.000000
$EndSHAPE3D
$EndMODULE  D4
$MODULE D4
Po 46500 18250 0 15 00200000 4FEAA723 ~~
Li D4
Cd Diode 4 pas
Kw DIODE DEV
Sc 4FEAA723
AR /4FE94F0B
Op 0 0 0
T0 0 0 500 400 0 80 N V 21 N "D15"
T1 0 0 500 400 0 80 N I 21 N "1N4007"
DS -1500 -500 1500 -500 120 21
DS 1500 -500 1500 500 120 21
DS 1500 500 -1500 500 120 21
DS -1500 500 -1500 -500 120 21
DS 1250 -500 1250 500 120 21
DS 1000 500 1000 -500 120 21
DS -1500 0 -2000 0 120 21
DS 1500 0 2000 0 120 21
$PAD
Sh "1" C 700 700 0 0 0
Dr 400 0 0
At STD N 00E0FFFF
Ne 63 "N-000058"
Po -2000 0
$EndPAD
$PAD
Sh "2" R 700 700 0 0 0
Dr 400 0 0
At STD N 00E0FFFF
Ne 1 "+5V"
Po 2000 0
$EndPAD
$SHAPE3D
Na "discret/diode.wrl"
Sc 0.400000 0.400000 0.400000
Of 0.000000 0.000000 0.000000
Ro 0.000000 0.000000 0.000000
$EndSHAPE3D
$EndMODULE  D4
$MODULE D4
Po 59500 18250 0 15 00200000 4FEAA725 ~~
Li D4
Cd Diode 4 pas
Kw DIODE DEV
Sc 4FEAA725
AR /4FE94F13
Op 0 0 0
T0 0 0 500 400 0 80 N V 21 N "D16"
T1 0 0 500 400 0 80 N I 21 N "1N4007"
DS -1500 -500 1500 -500 120 21
DS 1500 -500 1500 500 120 21
DS 1500 500 -1500 500 120 21
DS -1500 500 -1500 -500 120 21
DS 1250 -500 1250 500 120 21
DS 1000 500 1000 -500 120 21
DS -1500 0 -2000 0 120 21
DS 1500 0 2000 0 120 21
$PAD
Sh "1" C 700 700 0 0 0
Dr 400 0 0
At STD N 00E0FFFF
Ne 70 "N-000084"
Po -2000 0
$EndPAD
$PAD
Sh "2" R 700 700 0 0 0
Dr 400 0 0
At STD N 00E0FFFF
Ne 1 "+5V"
Po 2000 0
$EndPAD
$SHAPE3D
Na "discret/diode.wrl"
Sc 0.400000 0.400000 0.400000
Of 0.000000 0.000000 0.000000
Ro 0.000000 0.000000 0.000000
$EndSHAPE3D
$EndMODULE  D4
$MODULE D4
Po 51500 30000 0 15 00200000 4FEAA727 ~~
Li D4
Cd Diode 4 pas
Kw DIODE DEV
Sc 4FEAA727
AR /4FEA91DA
Op 0 0 0
T0 0 0 500 400 0 80 N V 21 N "D2"
T1 0 0 500 400 0 80 N I 21 N "1N4007"
DS -1500 -500 1500 -500 120 21
DS 1500 -500 1500 500 120 21
DS 1500 500 -1500 500 120 21
DS -1500 500 -1500 -500 120 21
DS 1250 -500 1250 500 120 21
DS 1000 500 1000 -500 120 21
DS -1500 0 -2000 0 120 21
DS 1500 0 2000 0 120 21
$PAD
Sh "1" C 700 700 0 0 0
Dr 400 0 0
At STD N 00E0FFFF
Ne 1 "+5V"
Po -2000 0
$EndPAD
$PAD
Sh "2" R 700 700 0 0 0
Dr 400 0 0
At STD N 00E0FFFF
Ne 71 "N-000085"
Po 2000 0
$EndPAD
$SHAPE3D
Na "discret/diode.wrl"
Sc 0.400000 0.400000 0.400000
Of 0.000000 0.000000 0.000000
Ro 0.000000 0.000000 0.000000
$EndSHAPE3D
$EndMODULE  D4
$MODULE D4
Po 20500 18250 0 15 4FEBFDD9 4FEAA72B ~~
Li D4
Cd Diode 4 pas
Kw DIODE DEV
Sc 4FEAA72B
AR /4FCEE8F0
Op 0 0 0
T0 0 0 500 400 0 80 N V 21 N "D13"
T1 0 0 500 400 0 80 N I 21 N "1N4007"
DS -1500 -500 1500 -500 120 21
DS 1500 -500 1500 500 120 21
DS 1500 500 -1500 500 120 21
DS -1500 500 -1500 -500 120 21
DS 1250 -500 1250 500 120 21
DS 1000 500 1000 -500 120 21
DS -1500 0 -2000 0 120 21
DS 1500 0 2000 0 120 21
$PAD
Sh "1" C 800 800 0 0 0
Dr 400 0 0
At STD N 00E0FFFF
Ne 60 "N-000044"
Po -2000 0
$EndPAD
$PAD
Sh "2" R 800 800 0 0 0
Dr 400 0 0
At STD N 00E0FFFF
Ne 1 "+5V"
Po 2000 0
$EndPAD
$SHAPE3D
Na "discret/diode.wrl"
Sc 0.400000 0.400000 0.400000
Of 0.000000 0.000000 0.000000
Ro 0.000000 0.000000 0.000000
$EndSHAPE3D
$EndMODULE  D4
$MODULE D4
Po 62500 36000 1800 15 00200000 4FEAA72D ~~
Li D4
Cd Diode 4 pas
Kw DIODE DEV
Sc 4FEAA72D
AR /4FEA70AF
Op 0 0 0
T0 0 0 500 400 1800 80 N V 21 N "D1"
T1 0 0 500 400 1800 80 N I 21 N "1N4007"
DS -1500 -500 1500 -500 120 21
DS 1500 -500 1500 500 120 21
DS 1500 500 -1500 500 120 21
DS -1500 500 -1500 -500 120 21
DS 1250 -500 1250 500 120 21
DS 1000 500 1000 -500 120 21
DS -1500 0 -2000 0 120 21
DS 1500 0 2000 0 120 21
$PAD
Sh "1" C 700 700 0 0 1800
Dr 400 0 0
At STD N 00E0FFFF
Ne 68 "N-000082"
Po -2000 0
$EndPAD
$PAD
Sh "2" R 700 700 0 0 1800
Dr 400 0 0
At STD N 00E0FFFF
Ne 71 "N-000085"
Po 2000 0
$EndPAD
$SHAPE3D
Na "discret/diode.wrl"
Sc 0.400000 0.400000 0.400000
Of 0.000000 0.000000 0.000000
Ro 0.000000 0.000000 0.000000
$EndSHAPE3D
$EndMODULE  D4
$MODULE CP_R_100_2
Po 45750 31500 1800 15 481CAC5D 4FEAA736 ~~
Li CP_R_100_2
Cd Condensateur radial 10mm
Kw C
Sc 4FEAA736
AR /4FEA7CAC
Op 0 0 0
T0 0 -700 400 400 1800 80 N V 21 N "C7"
T1 0 700 400 400 1800 80 N I 21 N "1000uF_10V"
DC 0 0 2000 0 80 21
T2 -1500 0 300 300 1800 75 N V 21 N "+"
$PAD
Sh "1" R 800 800 0 0 1800
Dr 320 0 0
At STD N 00E0FFFF
Ne 1 "+5V"
Po -1000 0
$EndPAD
$PAD
Sh "2" C 800 800 0 0 1800
Dr 320 0 0
At STD N 00E0FFFF
Ne 45 "GND"
Po 1000 0
$EndPAD
$SHAPE3D
Na "capacitors/cp_r_100x200_2.wrl"
Sc 1.000000 1.000000 1.000000
Of 0.000000 0.000000 0.000000
Ro 0.000000 0.000000 0.000000
$EndSHAPE3D
$EndMODULE  CP_R_100_2
$MODULE CP_R_100_2
Po 62000 32250 900 15 4FEBFECF 4FEAA738 ~~
Li CP_R_100_2
Cd Condensateur radial 10mm
Kw C
Sc 4FEAA738
AR /4FEA7C9F
Op 0 0 0
T0 0 -700 400 400 900 80 N V 21 N "C4"
T1 0 700 400 400 900 80 N I 21 N "470uF_35V"
DC 0 0 2000 0 80 21
T2 -1500 0 300 300 900 75 N V 21 N "+"
$PAD
Sh "1" R 800 800 0 0 900
Dr 320 0 0
At STD N 00E0FFFF
Ne 71 "N-000085"
Po -1000 0
$EndPAD
$PAD
Sh "2" C 800 800 0 0 900
Dr 320 0 0
At STD N 00E0FFFF
Ne 45 "GND"
Po 1000 0
$EndPAD
$SHAPE3D
Na "capacitors/cp_r_100x200_2.wrl"
Sc 1.000000 1.000000 1.000000
Of 0.000000 0.000000 0.000000
Ro 0.000000 0.000000 0.000000
$EndSHAPE3D
$EndMODULE  CP_R_100_2
$MODULE CHRISJ_RAV14202_SS
Po 59500 22500 2700 15 4FEBB1BE 4FEAA742 ~~
Li CHRISJ_RAV14202_SS
Cd Relay
Kw relay
Sc 4FEAA742
AR /4FEB9983
Op 0 0 0
T0 -2000 -500 600 450 2700 113 N V 21 N "K4"
T1 500 500 600 450 2700 113 N V 21 N "RAV14202"
DS -3500 -500 -3500 2500 150 21
DS 4500 500 4500 2500 150 21
DS 4500 -1500 4500 -2500 150 21
DS -3500 -2500 4500 -2500 150 21
DS 4500 2500 -3500 2500 150 21
DS -3500 -500 -3500 -2500 150 21
DS -3500 -500 -3000 -500 150 21
DS -3000 -500 -3000 500 150 21
DS -3000 500 -3500 500 150 21
DS 4500 -1500 4500 500 150 21
$PAD
Sh "1" R 800 800 0 0 2700
Dr 320 0 0
At STD N 00E0FFFF
Ne 70 "N-000084"
Po -3000 2000
$EndPAD
$PAD
Sh "2" C 800 800 0 0 2700
Dr 320 0 0
At STD N 00E0FFFF
Ne 44 "/V_plus_3"
Po -2000 2000
$EndPAD
$PAD
Sh "4" C 800 800 0 0 2700
Dr 320 0 0
At STD N 00E0FFFF
Ne 29 "/RL_plus_3"
Po 0 2000
$EndPAD
$PAD
Sh "3" C 800 800 0 0 2700
Dr 320 0 0
At STD N 00E0FFFF
Ne 17 "/I_plus_3"
Po -1000 2000
$EndPAD
$PAD
Sh "6" O 500 800 0 0 2700
Dr 320 0 0
At STD N 00E0FFFF
Ne 40 "/V_plus"
Po 2000 2000
$EndPAD
$PAD
Sh "7" O 500 800 0 0 2700
Dr 320 0 0
At STD N 00E0FFFF
Ne 13 "/I_plus"
Po 3000 2000
$EndPAD
$PAD
Sh "8" O 500 800 0 0 2700
Dr 320 0 0
At STD N 00E0FFFF
Ne 8 "/I_minus"
Po 3000 -2000
$EndPAD
$PAD
Sh "9" O 500 800 0 0 2700
Dr 320 0 0
At STD N 00E0FFFF
Ne 13 "/I_plus"
Po 2000 -2000
$EndPAD
$PAD
Sh "12" C 800 800 0 0 2700
Dr 320 0 0
At STD N 00E0FFFF
Ne 12 "/I_minus_3"
Po -1000 -2000
$EndPAD
$PAD
Sh "11" C 800 800 0 0 2700
Dr 320 0 0
At STD N 00E0FFFF
Ne 25 "/RL_minus_3"
Po 0 -2000
$EndPAD
$PAD
Sh "13" C 800 800 0 0 2700
Dr 320 0 0
At STD N 00E0FFFF
Ne 39 "/V_minus_3"
Po -2000 -2000
$EndPAD
$PAD
Sh "14" C 800 800 0 0 2700
Dr 320 0 0
At STD N 00E0FFFF
Ne 1 "+5V"
Po -3000 -2000
$EndPAD
$SHAPE3D
Na "dil/dil_14.wrl"
Sc 1.000000 1.000000 1.000000
Of 0.000000 0.000000 0.000000
Ro 0.000000 0.000000 0.000000
$EndSHAPE3D
$EndMODULE  CHRISJ_RAV14202_SS
$MODULE CHRISJ_RAV14202_SS
Po 46500 22500 2700 15 4FEBB198 4FEAA744 ~~
Li CHRISJ_RAV14202_SS
Cd Relay
Kw relay
Sc 4FEAA744
AR /4FEB99A1
Op 0 0 0
T0 -2000 -500 600 450 2700 113 N V 21 N "K3"
T1 500 500 600 450 2700 113 N V 21 N "RAV14202"
DS -3500 -500 -3500 2500 150 21
DS 4500 500 4500 2500 150 21
DS 4500 -1500 4500 -2500 150 21
DS -3500 -2500 4500 -2500 150 21
DS 4500 2500 -3500 2500 150 21
DS -3500 -500 -3500 -2500 150 21
DS -3500 -500 -3000 -500 150 21
DS -3000 -500 -3000 500 150 21
DS -3000 500 -3500 500 150 21
DS 4500 -1500 4500 500 150 21
$PAD
Sh "1" R 800 800 0 0 2700
Dr 320 0 0
At STD N 00E0FFFF
Ne 63 "N-000058"
Po -3000 2000
$EndPAD
$PAD
Sh "2" C 800 800 0 0 2700
Dr 320 0 0
At STD N 00E0FFFF
Ne 43 "/V_plus_2"
Po -2000 2000
$EndPAD
$PAD
Sh "4" C 800 800 0 0 2700
Dr 320 0 0
At STD N 00E0FFFF
Ne 28 "/RL_plus_2"
Po 0 2000
$EndPAD
$PAD
Sh "3" C 800 800 0 0 2700
Dr 320 0 0
At STD N 00E0FFFF
Ne 16 "/I_plus_2"
Po -1000 2000
$EndPAD
$PAD
Sh "6" O 500 800 0 0 2700
Dr 320 0 0
At STD N 00E0FFFF
Ne 40 "/V_plus"
Po 2000 2000
$EndPAD
$PAD
Sh "7" O 500 800 0 0 2700
Dr 320 0 0
At STD N 00E0FFFF
Ne 13 "/I_plus"
Po 3000 2000
$EndPAD
$PAD
Sh "8" O 500 800 0 0 2700
Dr 320 0 0
At STD N 00E0FFFF
Ne 8 "/I_minus"
Po 3000 -2000
$EndPAD
$PAD
Sh "9" O 500 800 0 0 2700
Dr 320 0 0
At STD N 00E0FFFF
Ne 13 "/I_plus"
Po 2000 -2000
$EndPAD
$PAD
Sh "12" C 800 800 0 0 2700
Dr 320 0 0
At STD N 00E0FFFF
Ne 11 "/I_minus_2"
Po -1000 -2000
$EndPAD
$PAD
Sh "11" C 800 800 0 0 2700
Dr 320 0 0
At STD N 00E0FFFF
Ne 24 "/RL_minus_2"
Po 0 -2000
$EndPAD
$PAD
Sh "13" C 800 800 0 0 2700
Dr 320 0 0
At STD N 00E0FFFF
Ne 38 "/V_minus_2"
Po -2000 -2000
$EndPAD
$PAD
Sh "14" C 800 800 0 0 2700
Dr 320 0 0
At STD N 00E0FFFF
Ne 1 "+5V"
Po -3000 -2000
$EndPAD
$SHAPE3D
Na "dil/dil_14.wrl"
Sc 1.000000 1.000000 1.000000
Of 0.000000 0.000000 0.000000
Ro 0.000000 0.000000 0.000000
$EndSHAPE3D
$EndMODULE  CHRISJ_RAV14202_SS
$MODULE CHRISJ_RAV14202_SS
Po 33500 22500 2700 15 4FEBB16D 4FEAA746 ~~
Li CHRISJ_RAV14202_SS
Cd Relay
Kw relay
Sc 4FEAA746
AR /4FEB9997
Op 0 0 0
T0 -2000 -500 600 450 2700 113 N V 21 N "K2"
T1 500 500 600 450 2700 113 N V 21 N "RAV14202"
DS -3500 -500 -3500 2500 150 21
DS 4500 500 4500 2500 150 21
DS 4500 -1500 4500 -2500 150 21
DS -3500 -2500 4500 -2500 150 21
DS 4500 2500 -3500 2500 150 21
DS -3500 -500 -3500 -2500 150 21
DS -3500 -500 -3000 -500 150 21
DS -3000 -500 -3000 500 150 21
DS -3000 500 -3500 500 150 21
DS 4500 -1500 4500 500 150 21
$PAD
Sh "1" R 800 800 0 0 2700
Dr 320 0 0
At STD N 00E0FFFF
Ne 69 "N-000083"
Po -3000 2000
$EndPAD
$PAD
Sh "2" C 800 800 0 0 2700
Dr 320 0 0
At STD N 00E0FFFF
Ne 42 "/V_plus_1"
Po -2000 2000
$EndPAD
$PAD
Sh "4" C 800 800 0 0 2700
Dr 320 0 0
At STD N 00E0FFFF
Ne 27 "/RL_plus_1"
Po 0 2000
$EndPAD
$PAD
Sh "3" C 800 800 0 0 2700
Dr 320 0 0
At STD N 00E0FFFF
Ne 15 "/I_plus_1"
Po -1000 2000
$EndPAD
$PAD
Sh "6" O 500 800 0 0 2700
Dr 320 0 0
At STD N 00E0FFFF
Ne 40 "/V_plus"
Po 2000 2000
$EndPAD
$PAD
Sh "7" O 500 800 0 0 2700
Dr 320 0 0
At STD N 00E0FFFF
Ne 13 "/I_plus"
Po 3000 2000
$EndPAD
$PAD
Sh "8" O 500 800 0 0 2700
Dr 320 0 0
At STD N 00E0FFFF
Ne 8 "/I_minus"
Po 3000 -2000
$EndPAD
$PAD
Sh "9" O 500 800 0 0 2700
Dr 320 0 0
At STD N 00E0FFFF
Ne 13 "/I_plus"
Po 2000 -2000
$EndPAD
$PAD
Sh "12" C 800 800 0 0 2700
Dr 320 0 0
At STD N 00E0FFFF
Ne 10 "/I_minus_1"
Po -1000 -2000
$EndPAD
$PAD
Sh "11" C 800 800 0 0 2700
Dr 320 0 0
At STD N 00E0FFFF
Ne 23 "/RL_minus_1"
Po 0 -2000
$EndPAD
$PAD
Sh "13" C 800 800 0 0 2700
Dr 320 0 0
At STD N 00E0FFFF
Ne 37 "/V_minus_1"
Po -2000 -2000
$EndPAD
$PAD
Sh "14" C 800 800 0 0 2700
Dr 320 0 0
At STD N 00E0FFFF
Ne 1 "+5V"
Po -3000 -2000
$EndPAD
$SHAPE3D
Na "dil/dil_14.wrl"
Sc 1.000000 1.000000 1.000000
Of 0.000000 0.000000 0.000000
Ro 0.000000 0.000000 0.000000
$EndSHAPE3D
$EndMODULE  CHRISJ_RAV14202_SS
$MODULE CHRISJ_RAV14202_SS
Po 20500 22500 2700 15 4FEBFE11 4FEAA748 ~~
Li CHRISJ_RAV14202_SS
Cd Relay
Kw relay
Sc 4FEAA748
AR /4FCEE789
Op 0 0 0
T0 -2000 -500 600 450 2700 113 N V 21 N "K1"
T1 500 500 600 450 2700 113 N V 21 N "RAV14202"
DS -3500 -500 -3500 2500 150 21
DS 4500 500 4500 2500 150 21
DS 4500 -1500 4500 -2500 150 21
DS -3500 -2500 4500 -2500 150 21
DS 4500 2500 -3500 2500 150 21
DS -3500 -500 -3500 -2500 150 21
DS -3500 -500 -3000 -500 150 21
DS -3000 -500 -3000 500 150 21
DS -3000 500 -3500 500 150 21
DS 4500 -1500 4500 500 150 21
$PAD
Sh "1" R 800 800 0 0 2700
Dr 320 0 0
At STD N 00E0FFFF
Ne 60 "N-000044"
Po -3000 2000
$EndPAD
$PAD
Sh "2" C 800 800 0 0 2700
Dr 320 0 0
At STD N 00E0FFFF
Ne 41 "/V_plus_0"
Po -2000 2000
$EndPAD
$PAD
Sh "4" C 800 800 0 0 2700
Dr 320 0 0
At STD N 00E0FFFF
Ne 26 "/RL_plus_0"
Po 0 2000
$EndPAD
$PAD
Sh "3" C 800 800 0 0 2700
Dr 320 0 0
At STD N 00E0FFFF
Ne 14 "/I_plus_0"
Po -1000 2000
$EndPAD
$PAD
Sh "6" C 800 800 0 0 2700
Dr 320 0 0
At STD N 00E0FFFF
Ne 40 "/V_plus"
Po 2000 2000
$EndPAD
$PAD
Sh "7" C 800 800 0 0 2700
Dr 320 0 0
At STD N 00E0FFFF
Ne 13 "/I_plus"
Po 3000 2000
$EndPAD
$PAD
Sh "8" O 500 800 0 0 2700
Dr 320 0 0
At STD N 00E0FFFF
Ne 8 "/I_minus"
Po 3000 -2000
$EndPAD
$PAD
Sh "9" O 500 800 0 0 2700
Dr 320 0 0
At STD N 00E0FFFF
Ne 13 "/I_plus"
Po 2000 -2000
$EndPAD
$PAD
Sh "12" C 800 800 0 0 2700
Dr 320 0 0
At STD N 00E0FFFF
Ne 9 "/I_minus_0"
Po -1000 -2000
$EndPAD
$PAD
Sh "11" C 800 800 0 0 2700
Dr 320 0 0
At STD N 00E0FFFF
Ne 22 "/RL_minus_0"
Po 0 -2000
$EndPAD
$PAD
Sh "13" C 800 800 0 0 2700
Dr 320 0 0
At STD N 00E0FFFF
Ne 36 "/V_minus_0"
Po -2000 -2000
$EndPAD
$PAD
Sh "14" C 800 800 0 0 2700
Dr 320 0 0
At STD N 00E0FFFF
Ne 1 "+5V"
Po -3000 -2000
$EndPAD
$SHAPE3D
Na "dil/dil_14.wrl"
Sc 1.000000 1.000000 1.000000
Of 0.000000 0.000000 0.000000
Ro 0.000000 0.000000 0.000000
$EndSHAPE3D
$EndMODULE  CHRISJ_RAV14202_SS
$MODULE R5
Po 16000 17000 1800 15 4FEBFDBE 4FEBBC00 ~~
Li R5
Cd Resistance 5 pas
Kw R
Sc 4FEBBC00
AR /4FEA5E7B
Op 0 A 0
T0 0 0 550 500 1800 80 N V 21 N "R4"
T1 0 0 550 500 1800 80 N I 21 N "470R"
DS -2500 0 -2100 0 120 21
DS 2500 0 2100 0 120 21
DS 2100 -500 2100 500 120 21
DS 2100 500 -2100 500 120 21
DS -2100 500 -2100 -500 120 21
DS -2100 -500 2100 -500 120 21
DS -2100 -300 -1900 -500 120 21
$PAD
Sh "1" C 800 800 0 0 1800
Dr 320 0 0
At STD N 00E0FFFF
Ne 66 "N-000072"
Po -2500 0
$EndPAD
$PAD
Sh "2" C 800 800 0 0 1800
Dr 320 0 0
At STD N 00E0FFFF
Ne 60 "N-000044"
Po 2500 0
$EndPAD
$SHAPE3D
Na "discret/resistor.wrl"
Sc 0.500000 0.500000 0.500000
Of 0.000000 0.000000 0.000000
Ro 0.000000 0.000000 0.000000
$EndSHAPE3D
$EndMODULE  R5
$MODULE R5
Po 29000 17000 1800 15 00200000 4FEBBC02 ~~
Li R5
Cd Resistance 5 pas
Kw R
Sc 4FEBBC02
AR /4FEA5E9E
Op 0 A 0
T0 0 0 550 500 1800 80 N V 21 N "R5"
T1 0 0 550 500 1800 80 N I 21 N "470R"
DS -2500 0 -2100 0 120 21
DS 2500 0 2100 0 120 21
DS 2100 -500 2100 500 120 21
DS 2100 500 -2100 500 120 21
DS -2100 500 -2100 -500 120 21
DS -2100 -500 2100 -500 120 21
DS -2100 -300 -1900 -500 120 21
$PAD
Sh "1" C 800 800 0 0 1800
Dr 320 0 0
At STD N 00E0FFFF
Ne 65 "N-000071"
Po -2500 0
$EndPAD
$PAD
Sh "2" C 800 800 0 0 1800
Dr 320 0 0
At STD N 00E0FFFF
Ne 69 "N-000083"
Po 2500 0
$EndPAD
$SHAPE3D
Na "discret/resistor.wrl"
Sc 0.500000 0.500000 0.500000
Of 0.000000 0.000000 0.000000
Ro 0.000000 0.000000 0.000000
$EndSHAPE3D
$EndMODULE  R5
$MODULE R5
Po 42000 17000 1800 15 00200000 4FEBBC04 ~~
Li R5
Cd Resistance 5 pas
Kw R
Sc 4FEBBC04
AR /4FEA5EA8
Op 0 A 0
T0 0 0 550 500 1800 80 N V 21 N "R6"
T1 0 0 550 500 1800 80 N I 21 N "470R"
DS -2500 0 -2100 0 120 21
DS 2500 0 2100 0 120 21
DS 2100 -500 2100 500 120 21
DS 2100 500 -2100 500 120 21
DS -2100 500 -2100 -500 120 21
DS -2100 -500 2100 -500 120 21
DS -2100 -300 -1900 -500 120 21
$PAD
Sh "1" C 800 800 0 0 1800
Dr 320 0 0
At STD N 00E0FFFF
Ne 64 "N-000070"
Po -2500 0
$EndPAD
$PAD
Sh "2" C 800 800 0 0 1800
Dr 320 0 0
At STD N 00E0FFFF
Ne 63 "N-000058"
Po 2500 0
$EndPAD
$SHAPE3D
Na "discret/resistor.wrl"
Sc 0.500000 0.500000 0.500000
Of 0.000000 0.000000 0.000000
Ro 0.000000 0.000000 0.000000
$EndSHAPE3D
$EndMODULE  R5
$MODULE R5
Po 55000 17000 1800 15 4FEBFEA1 4FEBBC06 ~~
Li R5
Cd Resistance 5 pas
Kw R
Sc 4FEBBC06
AR /4FEA5EAF
Op 0 A 0
T0 0 0 550 500 1800 80 N V 21 N "R7"
T1 0 0 550 500 1800 80 N I 21 N "470R"
DS -2500 0 -2100 0 120 21
DS 2500 0 2100 0 120 21
DS 2100 -500 2100 500 120 21
DS 2100 500 -2100 500 120 21
DS -2100 500 -2100 -500 120 21
DS -2100 -500 2100 -500 120 21
DS -2100 -300 -1900 -500 120 21
$PAD
Sh "1" C 800 800 0 0 1800
Dr 320 0 0
At STD N 00E0FFFF
Ne 62 "N-000057"
Po -2500 0
$EndPAD
$PAD
Sh "2" C 800 800 0 0 1800
Dr 320 0 0
At STD N 00E0FFFF
Ne 70 "N-000084"
Po 2500 0
$EndPAD
$SHAPE3D
Na "discret/resistor.wrl"
Sc 0.500000 0.500000 0.500000
Of 0.000000 0.000000 0.000000
Ro 0.000000 0.000000 0.000000
$EndSHAPE3D
$EndMODULE  R5
$MODULE TO92DGS_INLINE
Po 20500 28500 0 15 4FEBFE44 4FEBBEBF ~~
Li TO92DGS_INLINE
Cd Transistor TO92
Kw TO92
Sc 4FEBBEBF
AR /4FCEE957
Op 0 0 0
T0 0 -900 400 400 0 80 N V 21 N "Q6"
T1 0 900 400 400 0 80 N I 21 N "2N7000"
DA 0 -50 -550 725 900 80 21
DA 0 -50 775 -600 900 80 21
DA 0 -50 0 900 900 80 21
DA 0 -50 950 -50 900 80 21
DS 775 -600 -775 -600 80 21
$PAD
Sh "G" C 800 800 0 0 0
Dr 310 0 0
At STD N 00E0FFFF
Ne 31 "/SEL0"
Po 0 0
$EndPAD
$PAD
Sh "S" C 800 800 0 0 0
Dr 310 0 0
At STD N 00E0FFFF
Ne 45 "GND"
Po 1000 0
$EndPAD
$PAD
Sh "D" C 800 800 0 0 0
Dr 310 0 0
At STD N 00E0FFFF
Ne 52 "N-000021"
Po -1000 0
$EndPAD
$SHAPE3D
Na "transistors/to92_inline.wrl"
Sc 1.000000 1.000000 1.000000
Of 0.000000 0.000000 0.000000
Ro 0.000000 0.000000 0.000000
$EndSHAPE3D
$EndMODULE  TO92DGS_INLINE
$MODULE TO92DGS_INLINE
Po 33500 28500 0 15 488F2675 4FEBBEC1 ~~
Li TO92DGS_INLINE
Cd Transistor TO92
Kw TO92
Sc 4FEBBEC1
AR /4FE94F22
Op 0 0 0
T0 0 -900 400 400 0 80 N V 21 N "Q7"
T1 0 900 400 400 0 80 N I 21 N "2N7000"
DA 0 -50 -550 725 900 80 21
DA 0 -50 775 -600 900 80 21
DA 0 -50 0 900 900 80 21
DA 0 -50 950 -50 900 80 21
DS 775 -600 -775 -600 80 21
$PAD
Sh "G" C 800 800 0 0 0
Dr 310 0 0
At STD N 00E0FFFF
Ne 32 "/SEL1"
Po 0 0
$EndPAD
$PAD
Sh "S" C 800 800 0 0 0
Dr 310 0 0
At STD N 00E0FFFF
Ne 45 "GND"
Po 1000 0
$EndPAD
$PAD
Sh "D" C 800 800 0 0 0
Dr 310 0 0
At STD N 00E0FFFF
Ne 61 "N-000052"
Po -1000 0
$EndPAD
$SHAPE3D
Na "transistors/to92_inline.wrl"
Sc 1.000000 1.000000 1.000000
Of 0.000000 0.000000 0.000000
Ro 0.000000 0.000000 0.000000
$EndSHAPE3D
$EndMODULE  TO92DGS_INLINE
$MODULE TO92DGS_INLINE
Po 46500 28500 0 15 488F2675 4FEBBEC3 ~~
Li TO92DGS_INLINE
Cd Transistor TO92
Kw TO92
Sc 4FEBBEC3
AR /4FE94F2B
Op 0 0 0
T0 0 -900 400 400 0 80 N V 21 N "Q8"
T1 0 900 400 400 0 80 N I 21 N "2N7000"
DA 0 -50 -550 725 900 80 21
DA 0 -50 775 -600 900 80 21
DA 0 -50 0 900 900 80 21
DA 0 -50 950 -50 900 80 21
DS 775 -600 -775 -600 80 21
$PAD
Sh "G" C 800 800 0 0 0
Dr 310 0 0
At STD N 00E0FFFF
Ne 33 "/SEL2"
Po 0 0
$EndPAD
$PAD
Sh "S" C 800 800 0 0 0
Dr 310 0 0
At STD N 00E0FFFF
Ne 45 "GND"
Po 1000 0
$EndPAD
$PAD
Sh "D" C 800 800 0 0 0
Dr 310 0 0
At STD N 00E0FFFF
Ne 51 "N-000020"
Po -1000 0
$EndPAD
$SHAPE3D
Na "transistors/to92_inline.wrl"
Sc 1.000000 1.000000 1.000000
Of 0.000000 0.000000 0.000000
Ro 0.000000 0.000000 0.000000
$EndSHAPE3D
$EndMODULE  TO92DGS_INLINE
$MODULE TO92DGS_INLINE
Po 59500 28500 0 15 488F2675 4FEBBEC5 ~~
Li TO92DGS_INLINE
Cd Transistor TO92
Kw TO92
Sc 4FEBBEC5
AR /4FE94F33
Op 0 0 0
T0 0 -900 400 400 0 80 N V 21 N "Q9"
T1 0 900 400 400 0 80 N I 21 N "2N7000"
DA 0 -50 -550 725 900 80 21
DA 0 -50 775 -600 900 80 21
DA 0 -50 0 900 900 80 21
DA 0 -50 950 -50 900 80 21
DS 775 -600 -775 -600 80 21
$PAD
Sh "G" C 800 800 0 0 0
Dr 310 0 0
At STD N 00E0FFFF
Ne 34 "/SEL3"
Po 0 0
$EndPAD
$PAD
Sh "S" C 800 800 0 0 0
Dr 310 0 0
At STD N 00E0FFFF
Ne 45 "GND"
Po 1000 0
$EndPAD
$PAD
Sh "D" C 800 800 0 0 0
Dr 310 0 0
At STD N 00E0FFFF
Ne 59 "N-000040"
Po -1000 0
$EndPAD
$SHAPE3D
Na "transistors/to92_inline.wrl"
Sc 1.000000 1.000000 1.000000
Of 0.000000 0.000000 0.000000
Ro 0.000000 0.000000 0.000000
$EndSHAPE3D
$EndMODULE  TO92DGS_INLINE
$MODULE WEIDMULLER_1508260000
Po 66000 33000 900 15 4FE02342 4FEBC56D ~~
Li WEIDMULLER_1508260000
Sc 4FEBC56D
AR /4FEA7B1A
Op 0 0 0
T0 0 -1000 600 600 900 120 N V 21 N "P2"
T1 0 0 600 600 900 120 N V 21 N "CHRISJ1_CONN_2"
DS 4000 3937 4000 -788 150 21
DS 4000 -788 -4000 -788 150 21
DS -4000 -788 -4000 3937 150 21
DS -4000 3937 4000 3937 150 21
$PAD
Sh "3" C 1500 1500 0 0 900
Dr 510 0 0
At STD N 00E0FFFF
Ne 0 ""
Po 1000 0
$EndPAD
$PAD
Sh "4" C 1500 1500 0 0 900
Dr 510 0 0
At STD N 00E0FFFF
Ne 0 ""
Po 3000 0
$EndPAD
$PAD
Sh "2" C 1500 1500 0 0 900
Dr 510 0 0
At STD N 00E0FFFF
Ne 45 "GND"
Po -1000 0
$EndPAD
$PAD
Sh "1" R 1500 1500 0 0 900
Dr 510 0 0
At STD N 00E0FFFF
Ne 68 "N-000082"
Po -3000 0
$EndPAD
$EndMODULE  WEIDMULLER_1508260000
$MODULE R6
Po 53000 25500 900 15 00200000 4FEBC577 ~~
Li R6
Cd Resistance 6 pas
Kw R
Sc 4FEBC577
AR /4FEBBDB3
Op 0 A 0
T0 0 0 550 500 900 80 N V 21 N "R11"
T1 100 0 550 500 900 80 N I 21 N "0R"
DS -2500 -500 2500 -500 120 21
DS 2500 -500 2500 500 120 21
DS 2500 500 -2500 500 120 21
DS 2500 0 3000 0 120 21
DS -3000 0 -2500 0 120 21
DS -2500 -200 -2200 -500 120 21
DS -2500 -500 -2500 500 120 21
$PAD
Sh "1" C 800 800 0 0 900
Dr 450 0 0
At STD N 00E0FFFF
Ne 59 "N-000040"
Po -3000 0
$EndPAD
$PAD
Sh "2" C 800 800 0 0 900
Dr 450 0 0
At STD N 00E0FFFF
Ne 70 "N-000084"
Po 3000 0
$EndPAD
$SHAPE3D
Na "discret/resistor.wrl"
Sc 0.600000 0.600000 0.600000
Of 0.000000 0.000000 0.000000
Ro 0.000000 0.000000 0.000000
$EndSHAPE3D
$EndMODULE  R6
$MODULE R6
Po 40000 25500 900 15 4FEBFE57 4FEBC579 ~~
Li R6
Cd Resistance 6 pas
Kw R
Sc 4FEBC579
AR /4FEBBDB0
Op 0 A 0
T0 0 0 550 500 900 80 N V 21 N "R10"
T1 100 0 550 500 900 80 N I 21 N "0R"
DS -2500 -500 2500 -500 120 21
DS 2500 -500 2500 500 120 21
DS 2500 500 -2500 500 120 21
DS 2500 0 3000 0 120 21
DS -3000 0 -2500 0 120 21
DS -2500 -200 -2200 -500 120 21
DS -2500 -500 -2500 500 120 21
$PAD
Sh "1" C 800 800 0 0 900
Dr 450 0 0
At STD N 00E0FFFF
Ne 51 "N-000020"
Po -3000 0
$EndPAD
$PAD
Sh "2" C 800 800 0 0 900
Dr 450 0 0
At STD N 00E0FFFF
Ne 63 "N-000058"
Po 3000 0
$EndPAD
$SHAPE3D
Na "discret/resistor.wrl"
Sc 0.600000 0.600000 0.600000
Of 0.000000 0.000000 0.000000
Ro 0.000000 0.000000 0.000000
$EndSHAPE3D
$EndMODULE  R6
$MODULE R6
Po 27000 25500 900 15 4FEBFE29 4FEBC57B ~~
Li R6
Cd Resistance 6 pas
Kw R
Sc 4FEBC57B
AR /4FEBBDA8
Op 0 A 0
T0 0 0 550 500 900 80 N V 21 N "R9"
T1 100 0 550 500 900 80 N I 21 N "0R"
DS -2500 -500 2500 -500 120 21
DS 2500 -500 2500 500 120 21
DS 2500 500 -2500 500 120 21
DS 2500 0 3000 0 120 21
DS -3000 0 -2500 0 120 21
DS -2500 -200 -2200 -500 120 21
DS -2500 -500 -2500 500 120 21
$PAD
Sh "1" C 800 800 0 0 900
Dr 450 0 0
At STD N 00E0FFFF
Ne 61 "N-000052"
Po -3000 0
$EndPAD
$PAD
Sh "2" C 800 800 0 0 900
Dr 450 0 0
At STD N 00E0FFFF
Ne 69 "N-000083"
Po 3000 0
$EndPAD
$SHAPE3D
Na "discret/resistor.wrl"
Sc 0.600000 0.600000 0.600000
Of 0.000000 0.000000 0.000000
Ro 0.000000 0.000000 0.000000
$EndSHAPE3D
$EndMODULE  R6
$MODULE SM1206POL
Po 18000 35250 2700 0 42806E4C 4FEBCCD6 ~~
Li SM1206POL
Sc 4FEBCCD6
AR /4FEA7CB2
Op 0 0 0
At SMD 
T0 0 0 300 300 2700 50 M V 20 N "C2"
T1 0 0 300 300 2700 50 M I 20 N "1uF_10V"
DS -1000 450 -1100 450 50 20
DS -1100 450 -1100 -450 50 20
DS -1100 -450 -1000 -450 50 20
DS -1000 450 -1000 -450 50 20
DS -1000 -450 -350 -450 50 20
DS 350 450 1000 450 50 20
DS 1000 450 1000 -450 50 20
DS 1000 -450 350 -450 50 20
DS -350 450 -1000 450 50 20
$PAD
Sh "1" R 600 800 0 0 2700
Dr 0 0 0
At SMD N 00440001
Ne 45 "GND"
Po -650 0
$EndPAD
$PAD
Sh "2" R 600 800 0 0 2700
Dr 0 0 0
At SMD N 00440001
Ne 56 "N-000036"
Po 650 0
$EndPAD
$SHAPE3D
Na "smd/chip_cms_pol.wrl"
Sc 0.170000 0.160000 0.160000
Of 0.000000 0.000000 0.000000
Ro 0.000000 0.000000 0.000000
$EndSHAPE3D
$EndMODULE  SM1206POL
$MODULE SM1206POL
Po 18000 31500 900 0 42806E4C 4FEBCCD8 ~~
Li SM1206POL
Sc 4FEBCCD8
AR /4FEA7CE3
Op 0 0 0
At SMD 
T0 0 0 300 300 900 50 M V 20 N "C3"
T1 0 0 300 300 900 50 M I 20 N "1uF_10V"
DS -1000 450 -1100 450 50 20
DS -1100 450 -1100 -450 50 20
DS -1100 -450 -1000 -450 50 20
DS -1000 450 -1000 -450 50 20
DS -1000 -450 -350 -450 50 20
DS 350 450 1000 450 50 20
DS 1000 450 1000 -450 50 20
DS 1000 -450 350 -450 50 20
DS -350 450 -1000 450 50 20
$PAD
Sh "1" R 600 800 0 0 900
Dr 0 0 0
At SMD N 00440001
Ne 55 "N-000035"
Po -650 0
$EndPAD
$PAD
Sh "2" R 600 800 0 0 900
Dr 0 0 0
At SMD N 00440001
Ne 53 "N-000022"
Po 650 0
$EndPAD
$SHAPE3D
Na "smd/chip_cms_pol.wrl"
Sc 0.170000 0.160000 0.160000
Of 0.000000 0.000000 0.000000
Ro 0.000000 0.000000 0.000000
$EndSHAPE3D
$EndMODULE  SM1206POL
$MODULE SM1206POL
Po 16000 32000 2700 0 42806E4C 4FEBCCDA ~~
Li SM1206POL
Sc 4FEBCCDA
AR /4FEA7CD3
Op 0 0 0
At SMD 
T0 0 0 300 300 2700 50 M V 20 N "C5"
T1 0 0 300 300 2700 50 M I 20 N "1uF_10V"
DS -1000 450 -1100 450 50 20
DS -1100 450 -1100 -450 50 20
DS -1100 -450 -1000 -450 50 20
DS -1000 450 -1000 -450 50 20
DS -1000 -450 -350 -450 50 20
DS 350 450 1000 450 50 20
DS 1000 450 1000 -450 50 20
DS 1000 -450 350 -450 50 20
DS -350 450 -1000 450 50 20
$PAD
Sh "1" R 600 800 0 0 2700
Dr 0 0 0
At SMD N 00440001
Ne 49 "N-000012"
Po -650 0
$EndPAD
$PAD
Sh "2" R 600 800 0 0 2700
Dr 0 0 0
At SMD N 00440001
Ne 50 "N-000013"
Po 650 0
$EndPAD
$SHAPE3D
Na "smd/chip_cms_pol.wrl"
Sc 0.170000 0.160000 0.160000
Of 0.000000 0.000000 0.000000
Ro 0.000000 0.000000 0.000000
$EndSHAPE3D
$EndMODULE  SM1206POL
$MODULE SM1206POL
Po 16000 34500 2700 0 42806E4C 4FEBCCDC ~~
Li SM1206POL
Sc 4FEBCCDC
AR /4FEA7CD7
Op 0 0 0
At SMD 
T0 0 0 300 300 2700 50 M V 20 N "C6"
T1 0 0 300 300 2700 50 M I 20 N "1uF_10V"
DS -1000 450 -1100 450 50 20
DS -1100 450 -1100 -450 50 20
DS -1100 -450 -1000 -450 50 20
DS -1000 450 -1000 -450 50 20
DS -1000 -450 -350 -450 50 20
DS 350 450 1000 450 50 20
DS 1000 450 1000 -450 50 20
DS 1000 -450 350 -450 50 20
DS -350 450 -1000 450 50 20
$PAD
Sh "1" R 600 800 0 0 2700
Dr 0 0 0
At SMD N 00440001
Ne 47 "N-000010"
Po -650 0
$EndPAD
$PAD
Sh "2" R 600 800 0 0 2700
Dr 0 0 0
At SMD N 00440001
Ne 48 "N-000011"
Po 650 0
$EndPAD
$SHAPE3D
Na "smd/chip_cms_pol.wrl"
Sc 0.170000 0.160000 0.160000
Of 0.000000 0.000000 0.000000
Ro 0.000000 0.000000 0.000000
$EndSHAPE3D
$EndMODULE  SM1206POL
$MODULE SM1206
Po 33000 33000 2700 0 42806E24 4FEBCF27 ~~
Li SM1206
Sc 4FEBCF27
AR /4FEA5A33
Op 0 0 0
At SMD 
T0 0 0 300 300 2700 50 M V 20 N "C8"
T1 0 0 300 300 2700 50 M I 20 N "100nF_16V"
DS -1000 450 -1000 -450 50 20
DS -1000 -450 -350 -450 50 20
DS 350 450 1000 450 50 20
DS 1000 450 1000 -450 50 20
DS 1000 -450 350 -450 50 20
DS -350 450 -1000 450 50 20
$PAD
Sh "1" R 600 800 0 0 2700
Dr 0 0 0
At SMD N 00440001
Ne 1 "+5V"
Po -650 0
$EndPAD
$PAD
Sh "2" R 600 800 0 0 2700
Dr 0 0 0
At SMD N 00440001
Ne 45 "GND"
Po 650 0
$EndPAD
$SHAPE3D
Na "smd/chip_cms.wrl"
Sc 0.170000 0.160000 0.160000
Of 0.000000 0.000000 0.000000
Ro 0.000000 0.000000 0.000000
$EndSHAPE3D
$EndMODULE  SM1206
$MODULE SM1206
Po 41750 35500 1800 0 42806E24 4FEBCF29 ~~
Li SM1206
Sc 4FEBCF29
AR /4FEA9399
Op 0 0 0
At SMD 
T0 0 0 300 300 1800 50 M V 20 N "C9"
T1 0 0 300 300 1800 50 M I 20 N "100nF_16V"
DS -1000 450 -1000 -450 50 20
DS -1000 -450 -350 -450 50 20
DS 350 450 1000 450 50 20
DS 1000 450 1000 -450 50 20
DS 1000 -450 350 -450 50 20
DS -350 450 -1000 450 50 20
$PAD
Sh "1" R 600 800 0 0 1800
Dr 0 0 0
At SMD N 00440001
Ne 1 "+5V"
Po -650 0
$EndPAD
$PAD
Sh "2" R 600 800 0 0 1800
Dr 0 0 0
At SMD N 00440001
Ne 45 "GND"
Po 650 0
$EndPAD
$SHAPE3D
Na "smd/chip_cms.wrl"
Sc 0.170000 0.160000 0.160000
Of 0.000000 0.000000 0.000000
Ro 0.000000 0.000000 0.000000
$EndSHAPE3D
$EndMODULE  SM1206
$MODULE R3-LARGE_PADS
Po 17250 26500 900 15 4FEBFF17 4FEBCF2A ~~
Li R3-LARGE_PADS
Cd Resitance 3 pas
Kw R
Sc 4FEBCF2A
AR /4FEBBD41
Op 0 A 0
T0 0 0 550 500 900 80 N V 21 N "R8"
T1 0 0 550 500 900 80 N I 21 N "0R"
DS -1500 0 -1300 0 120 21
DS 1500 0 1300 0 120 21
DS 1300 0 1300 -400 120 21
DS 1300 -400 -1300 -400 120 21
DS -1300 -400 -1300 400 120 21
DS -1300 400 1300 400 120 21
DS 1300 400 1300 0 120 21
DS -1300 -200 -1100 -400 120 21
$PAD
Sh "1" C 800 800 0 0 900
Dr 320 0 0
At STD N 00E0FFFF
Ne 52 "N-000021"
Po -1500 0
$EndPAD
$PAD
Sh "2" C 800 800 0 0 900
Dr 320 0 0
At STD N 00E0FFFF
Ne 60 "N-000044"
Po 1500 0
$EndPAD
$SHAPE3D
Na "discret/resistor.wrl"
Sc 0.300000 0.300000 0.300000
Of 0.000000 0.000000 0.000000
Ro 0.000000 0.000000 0.000000
$EndSHAPE3D
$EndMODULE  R3-LARGE_PADS
$MODULE CP_R_100_2
Po 13250 24500 0 15 4FEBFD73 4FEBCF2B ~~
Li CP_R_100_2
Cd Condensateur radial 10mm
Kw C
Sc 4FEBCF2B
AR /4FEA7CF6
Op 0 0 0
T0 0 -700 400 400 0 80 N V 21 N "C10"
T1 0 700 400 400 0 80 N I 21 N "100uF_10V"
DC 0 0 2000 0 80 21
T2 -1500 0 300 300 0 75 N V 21 N "+"
$PAD
Sh "1" R 800 800 0 0 0
Dr 320 0 0
At STD N 00E0FFFF
Ne 1 "+5V"
Po -1000 0
$EndPAD
$PAD
Sh "2" C 800 800 0 0 0
Dr 320 0 0
At STD N 00E0FFFF
Ne 45 "GND"
Po 1000 0
$EndPAD
$SHAPE3D
Na "capacitors/cp_r_100x200_2.wrl"
Sc 1.000000 1.000000 1.000000
Of 0.000000 0.000000 0.000000
Ro 0.000000 0.000000 0.000000
$EndSHAPE3D
$EndMODULE  CP_R_100_2
$MODULE SM1206POL
Po 19050 31550 2700 0 42806E4C 4FEBD111 ~~
Li SM1206POL
Sc 4FEBD111
AR /4FEBD096
Op 0 0 0
At SMD 
T0 0 0 300 300 2700 50 M V 20 N "C11"
T1 0 0 300 300 2700 50 M I 20 N "1uF_10V"
DS -1000 450 -1100 450 50 20
DS -1100 450 -1100 -450 50 20
DS -1100 -450 -1000 -450 50 20
DS -1000 450 -1000 -450 50 20
DS -1000 -450 -350 -450 50 20
DS 350 450 1000 450 50 20
DS 1000 450 1000 -450 50 20
DS 1000 -450 350 -450 50 20
DS -350 450 -1000 450 50 20
$PAD
Sh "1" R 600 800 0 0 2700
Dr 0 0 0
At SMD N 00440001
Ne 53 "N-000022"
Po -650 0
$EndPAD
$PAD
Sh "2" R 600 800 0 0 2700
Dr 0 0 0
At SMD N 00440001
Ne 45 "GND"
Po 650 0
$EndPAD
$SHAPE3D
Na "smd/chip_cms_pol.wrl"
Sc 0.170000 0.160000 0.160000
Of 0.000000 0.000000 0.000000
Ro 0.000000 0.000000 0.000000
$EndSHAPE3D
$EndMODULE  SM1206POL
$MODULE SM1206
Po 30750 32500 1800 0 42806E24 4FEBD863 ~~
Li SM1206
Sc 4FEBD863
AR /4FEA69AE
Op 0 0 0
At SMD 
T0 0 0 300 300 1800 50 M V 20 N "R3"
T1 0 0 300 300 1800 50 M I 20 N "4k7"
DS -1000 450 -1000 -450 50 20
DS -1000 -450 -350 -450 50 20
DS 350 450 1000 450 50 20
DS 1000 450 1000 -450 50 20
DS 1000 -450 350 -450 50 20
DS -350 450 -1000 450 50 20
$PAD
Sh "1" R 600 800 0 0 1800
Dr 0 0 0
At SMD N 00440001
Ne 1 "+5V"
Po -650 0
$EndPAD
$PAD
Sh "2" R 600 800 0 0 1800
Dr 0 0 0
At SMD N 00440001
Ne 18 "/MCLR"
Po 650 0
$EndPAD
$SHAPE3D
Na "smd/chip_cms.wrl"
Sc 0.170000 0.160000 0.160000
Of 0.000000 0.000000 0.000000
Ro 0.000000 0.000000 0.000000
$EndSHAPE3D
$EndMODULE  SM1206
$MODULE CHRISJ1_LM78XX
Po 51500 31250 2700 15 4FEBF35B 4FEBF38A ~~
Li CHRISJ1_LM78XX
Cd Regulateur TO220 serie LM78xx
Kw TR TO220
Sc 4FEBF38A
AR /4FEA6F44
Op 0 0 0
T0 3000 0 600 400 3600 80 N V 21 N "U2"
T1 4200 50 600 400 3600 80 N V 21 N "LM7805"
DS 0 -1000 2000 -1000 120 21
DS 0 0 2000 0 120 21
DS 0 1000 2000 1000 120 21
DS 2000 -1500 2000 2000 120 21
DS 2000 2000 8000 2000 120 21
DS 8000 2000 8000 -2000 120 21
DS 2000 -1500 2000 -2000 120 21
DS 5000 1500 5000 -2000 120 21
DS 5000 1500 5000 2000 120 21
DS 2000 -2000 8000 -2000 120 21
$PAD
Sh "GND" R 3500 3500 0 0 2700
Dr 1200 0 0
At STD N 00F0FFFF
Ne 45 "GND"
Po 6500 0
$EndPAD
$PAD
Sh "VI" C 700 700 0 0 2700
Dr 450 0 0
At STD N 00E0FFFF
Ne 71 "N-000085"
Po 0 -1000
$EndPAD
$PAD
Sh "GND" R 700 700 0 0 2700
Dr 450 0 0
At STD N 00E0FFFF
Ne 45 "GND"
Po 0 0
$EndPAD
$PAD
Sh "VO" C 700 700 0 0 2700
Dr 450 0 0
At STD N 00E0FFFF
Ne 1 "+5V"
Po 0 1000
$EndPAD
$SHAPE3D
Na "discret/to220_horiz.wrl"
Sc 1.000000 1.000000 1.000000
Of 0.000000 0.000000 0.000000
Ro 0.000000 0.000000 0.000000
$EndSHAPE3D
$EndMODULE  CHRISJ1_LM78XX
$DRAWSEGMENT
Po 0 10000 40000 10000 10000 150
De 28 0 900 0 0
$EndDRAWSEGMENT
$DRAWSEGMENT
Po 0 70000 40000 10000 40000 150
De 28 0 900 0 0
$EndDRAWSEGMENT
$DRAWSEGMENT
Po 0 70000 10000 70000 40000 150
De 28 0 900 0 0
$EndDRAWSEGMENT
$DRAWSEGMENT
Po 0 10000 10000 70000 10000 150
De 28 0 900 0 0
$EndDRAWSEGMENT
$TRACK
Po 0 49500 30000 50500 30000 500 -1
De 0 0 1 0 400000
Po 0 48500 18250 48500 19500 500 -1
De 0 0 1 0 C00000
Po 0 13500 23250 12250 24500 500 -1
De 0 0 1 0 800000
Po 0 34000 36500 34000 35000 320 -1
De 0 0 1 0 400000
Po 0 20500 15250 20500 14750 500 -1
De 0 0 1 0 0
Po 0 35500 18250 35500 19500 500 -1
De 0 0 1 0 C00000
Po 0 35750 30750 33750 30750 240 -1
De 0 0 1 0 0
Po 0 33000 32250 33000 32350 320 -1
De 0 0 1 0 800000
Po 0 45750 30500 46750 31500 500 -1
De 0 0 1 0 800000
Po 0 43000 33250 43000 32500 500 -1
De 0 0 1 0 0
Po 0 49500 31250 50500 31250 500 -1
De 0 0 1 0 800000
Po 0 36000 31250 36000 32000 160 -1
De 0 0 1 0 0
Po 0 20500 12750 20500 12250 500 -1
De 0 0 1 0 0
Po 0 20500 12250 13750 12250 1000 -1
De 0 0 1 0 0
Po 0 12250 13750 12250 24500 1000 -1
De 0 0 1 0 800000
Po 0 43000 34000 43000 33250 500 -1
De 0 0 1 0 0
Po 0 49500 31250 50000 30750 500 -1
De 0 0 1 0 0
Po 0 16000 26250 16000 24750 500 -1
De 0 0 1 0 400000
Po 0 47000 31250 49500 31250 500 -1
De 0 0 1 0 0
Po 0 35500 33500 36000 33250 320 -1
De 0 0 1 0 0
Po 0 43000 32500 43500 31250 320 -1
De 0 0 1 0 0
Po 0 33500 12750 33500 12250 500 -1
De 0 0 1 0 0
Po 0 33500 15250 33750 15500 500 -1
De 0 0 1 0 0
Po 0 33500 14750 33500 12750 320 -1
De 0 0 1 0 0
Po 0 33500 15250 33500 14750 500 -1
De 0 0 1 0 0
Po 0 33750 16500 33750 15500 500 -1
De 0 0 1 0 400000
Po 0 46750 16500 48500 18250 500 -1
De 0 0 1 0 C00000
Po 0 46500 12750 46500 12250 500 -1
De 0 0 1 0 0
Po 0 59750 16500 59750 15500 500 -1
De 0 0 1 0 400000
Po 0 44250 30500 43500 31250 500 -1
De 0 0 1 0 0
Po 3 36000 33250 36000 33250 1000 200
De 15 1 1 0 0
Po 0 50500 29250 47000 25750 500 -1
De 15 0 1 0 0
Po 0 36000 33250 36000 32000 320 -1
De 0 0 1 0 0
Po 0 50000 30750 49500 30250 500 -1
De 0 0 1 0 0
Po 0 46750 31500 47000 31250 500 -1
De 0 0 1 0 400000
Po 0 45750 30500 44250 30500 500 -1
De 0 0 1 0 0
Po 0 14500 23250 13500 23250 500 -1
De 0 0 1 0 0
Po 0 50500 30000 50500 29250 500 -1
De 15 0 1 0 0
Po 0 33750 30750 33000 31500 240 -1
De 0 0 1 0 800000
Po 0 36000 31250 36000 31000 240 -1
De 0 0 1 0 0
Po 0 46750 16500 46750 15500 500 -1
De 0 0 1 0 400000
Po 0 59750 16500 61500 18250 500 -1
De 0 0 1 0 C00000
Po 0 59500 14750 59500 12750 320 -1
De 0 0 1 0 0
Po 0 59500 12250 20500 12250 1000 -1
De 0 0 1 0 0
Po 0 59500 12750 59500 12250 500 -1
De 0 0 1 0 0
Po 0 59500 15250 59750 15500 500 -1
De 0 0 1 0 0
Po 0 59500 15250 59500 14750 500 -1
De 0 0 1 0 0
Po 0 46500 15250 46500 14750 500 -1
De 0 0 1 0 0
Po 0 47000 19500 48500 19500 500 -1
De 0 0 1 0 800000
Po 0 33750 16500 35500 18250 500 -1
De 0 0 1 0 C00000
Po 0 33000 31500 33000 32250 320 -1
De 0 0 1 0 400000
Po 0 49500 30250 49500 30000 500 -1
De 0 0 1 0 800000
Po 0 22500 18250 20750 16500 500 -1
De 0 0 1 0 C00000
Po 0 42500 34500 43000 34000 500 -1
De 0 0 1 0 400000
Po 0 34000 35000 35500 33500 320 -1
De 0 0 1 0 0
Po 0 13750 12250 12250 13750 1000 -1
De 0 0 1 0 0
Po 0 42500 35500 42400 35500 500 -1
De 0 0 1 0 800000
Po 0 42500 36750 42500 35500 500 -1
De 0 0 1 0 400000
Po 0 46500 15250 46750 15500 500 -1
De 0 0 1 0 0
Po 0 46500 14750 46500 12750 320 -1
De 0 0 1 0 0
Po 0 36000 33250 43000 33250 500 -1
De 15 0 1 0 0
Po 0 20500 14750 20500 12750 320 -1
De 0 0 1 0 0
Po 0 20500 15250 20750 15500 500 -1
De 0 0 1 0 0
Po 0 20750 16500 20750 15500 500 -1
De 0 0 1 0 400000
Po 0 47000 25750 47000 19500 500 -1
De 15 0 1 0 0
Po 3 50500 30000 50500 30000 1000 200
De 15 1 1 0 0
Po 0 16000 24750 14500 23250 500 -1
De 0 0 1 0 0
Po 0 42500 35500 42400 35500 500 -1
De 0 0 1 0 800000
Po 0 42500 34500 42500 35500 500 -1
De 0 0 1 0 400000
Po 0 36000 31000 35750 30750 240 -1
De 0 0 1 0 0
Po 3 43000 33250 43000 33250 1000 200
De 15 1 1 0 0
Po 0 31400 32500 33000 32500 320 -1
De 0 0 1 0 400000
Po 0 33000 32500 33000 32350 320 -1
De 0 0 1 0 800000
Po 0 61500 18250 61500 19500 500 -1
De 0 0 1 0 C00000
Po 0 50500 31250 50000 30750 500 -1
De 0 0 1 0 400000
Po 0 22500 18250 22500 19500 500 -1
De 0 0 1 0 C00000
Po 0 50500 31250 50500 30000 500 -1
De 0 0 1 0 400000
Po 3 47000 19500 47000 19500 1000 200
De 15 1 1 0 0
Po 0 36250 37750 36000 38000 240 -1
De 0 0 2 0 0
Po 0 29000 35000 29000 34500 240 -1
De 0 0 2 0 800000
Po 0 28750 35250 29000 35000 240 -1
De 0 0 2 0 0
Po 0 36500 37500 36250 37750 320 -1
De 0 0 2 0 0
Po 0 29250 38000 36000 38000 240 -1
De 0 0 2 0 0
Po 0 36500 34500 36500 37500 320 -1
De 0 0 2 0 400000
Po 0 28750 37500 28750 35250 240 -1
De 0 0 2 0 0
Po 0 29250 38000 28750 37500 240 -1
De 0 0 2 0 0
Po 0 39000 33500 39500 34000 240 -1
De 0 0 3 0 0
Po 0 28500 38250 28750 38500 240 -1
De 0 0 3 0 0
Po 0 38000 37000 36500 38500 240 -1
De 0 0 3 0 0
Po 0 39500 34000 39500 34500 240 -1
De 0 0 3 0 800000
Po 0 38000 35250 38000 37000 240 -1
De 0 0 3 0 0
Po 0 38000 33750 38000 34000 240 -1
De 0 0 3 0 0
Po 0 38250 33500 39000 33500 240 -1
De 0 0 3 0 0
Po 0 38000 35250 38000 35000 240 -1
De 0 0 3 0 0
Po 0 38000 34000 38000 35000 160 -1
De 0 0 3 0 0
Po 0 28750 38500 36500 38500 240 -1
De 0 0 3 0 0
Po 0 28000 37750 28500 38250 320 -1
De 0 0 3 0 0
Po 0 28000 34500 28000 37750 320 -1
De 0 0 3 0 400000
Po 0 38000 33750 38250 33500 240 -1
De 0 0 3 0 0
Po 0 38500 37500 38500 34500 320 -1
De 0 0 4 0 800000
Po 0 37000 39000 28000 39000 240 -1
De 0 0 4 0 0
Po 0 27000 34500 27000 38000 320 -1
De 0 0 4 0 400000
Po 0 37000 39000 37750 38250 240 -1
De 0 0 4 0 0
Po 0 37750 38250 38500 37500 320 -1
De 0 0 4 0 0
Po 0 28000 39000 27750 38750 240 -1
De 0 0 4 0 0
Po 0 27750 38750 27000 38000 320 -1
De 0 0 4 0 0
Po 0 27000 31000 27750 30250 240 -1
De 0 0 5 0 0
Po 0 37000 32500 37000 32000 240 -1
De 0 0 5 0 0
Po 0 37000 33500 37500 34000 240 -1
De 0 0 5 0 0
Po 0 27000 31000 27000 31500 240 -1
De 0 0 5 0 800000
Po 0 37000 32500 37000 33500 240 -1
De 0 0 5 0 0
Po 0 27750 30250 36500 30250 240 -1
De 0 0 5 0 0
Po 0 37000 31000 37000 32000 160 -1
De 0 0 5 0 0
Po 0 37500 34500 37500 34000 240 -1
De 0 0 5 0 400000
Po 0 37000 30750 37000 31000 240 -1
De 0 0 5 0 0
Po 0 36500 30250 37000 30750 240 -1
De 0 0 5 0 0
Po 0 17750 37750 17750 38500 320 -1
De 0 0 6 0 0
Po 0 12250 33000 11500 33000 320 -1
De 0 0 6 0 400000
Po 0 11000 33500 11500 33000 320 -1
De 0 0 6 0 0
Po 0 17750 38500 17500 38750 320 -1
De 0 0 6 0 0
Po 0 14750 37000 12000 37000 320 -1
De 0 0 6 0 0
Po 0 11000 36000 11000 33500 320 -1
De 0 0 6 0 0
Po 0 16500 38750 14750 37000 320 -1
De 0 0 6 0 0
Po 0 17750 37750 17000 37000 320 -1
De 0 0 6 0 800000
Po 0 17500 38750 16500 38750 320 -1
De 0 0 6 0 0
Po 0 12000 37000 11000 36000 320 -1
De 0 0 6 0 0
Po 0 12500 35250 12250 35150 320 -1
De 0 0 7 0 800000
Po 0 13350 35600 13000 35500 320 -1
De 0 0 7 0 0
Po 0 13250 35750 13350 35650 160 -1
De 15 0 7 0 800000
Po 0 13700 32450 14000 32750 160 -1
De 15 0 7 0 0
Po 0 13350 35650 13350 35600 320 -1
De 0 0 7 0 400000
Po 0 14000 32750 14000 35000 160 -1
De 15 0 7 0 0
Po 0 13350 32450 13700 32450 160 -1
De 15 0 7 0 400000
Po 0 12500 35250 13000 35500 320 -1
De 0 0 7 0 0
Po 0 14000 35000 13250 35750 160 -1
De 15 0 7 0 0
Po 0 36528 26500 36500 26472 500 -1
De 0 0 8 0 0
Po 0 60250 26500 60500 26500 500 -1
De 0 0 8 0 0
Po 0 47500 26500 36528 26500 500 -1
De 0 0 8 0 0
Po 0 60500 26500 49500 26500 500 -1
De 0 0 8 0 0
Po 0 48500 25500 47500 26500 500 -1
De 0 0 8 0 400000
Po 0 49500 26500 49750 26500 500 -1
De 0 0 8 0 0
Po 0 66000 28000 65000 27000 500 -1
De 0 0 8 0 400000
Po 0 63750 26500 62500 26500 500 -1
De 0 0 8 0 0
Po 0 60500 26500 62500 26500 500 -1
De 0 0 8 0 0
Po 0 64250 27000 63750 26500 500 -1
De 0 0 8 0 0
Po 0 65000 27000 64250 27000 500 -1
De 0 0 8 0 0
Po 0 61500 25500 62500 26500 500 -1
De 0 0 8 0 400000
Po 0 35500 25500 34500 26500 500 -1
De 0 0 8 0 400000
Po 0 36500 26472 35500 25472 500 -1
De 0 0 8 0 0
Po 0 48500 25500 49500 26500 500 -1
De 0 0 8 0 400000
Po 0 62750 26500 62500 26500 500 -1
De 0 0 8 0 0
Po 0 23500 26500 22500 25500 500 -1
De 0 0 8 0 800000
Po 0 61500 25500 60500 26500 500 -1
De 0 0 8 0 400000
Po 0 35500 25472 35500 25500 500 -1
De 0 0 8 0 800000
Po 0 36500 26500 36500 26472 500 -1
De 0 0 8 0 0
Po 0 34500 26500 23500 26500 500 -1
De 0 0 8 0 0
Po 0 47500 26500 49500 26500 500 -1
De 0 0 8 0 0
Po 0 34500 26500 36500 26500 500 -1
De 0 0 8 0 0
Po 0 24500 20750 24500 15750 500 -1
De 0 0 9 0 0
Po 0 23750 21500 24500 20750 500 -1
De 0 0 9 0 0
Po 0 24500 15750 23500 14000 500 -1
De 0 0 9 0 800000
Po 0 22500 21500 23750 21500 500 -1
De 0 0 9 0 400000
Po 0 35500 21500 36750 21500 500 -1
De 0 0 10 0 400000
Po 0 37500 15750 36500 14000 500 -1
De 0 0 10 0 800000
Po 0 37500 20750 37500 15750 500 -1
De 0 0 10 0 0
Po 0 36750 21500 37500 20750 500 -1
De 0 0 10 0 0
Po 0 50500 15750 49500 14000 500 -1
De 0 0 11 0 800000
Po 0 50500 20750 50500 15750 500 -1
De 0 0 11 0 0
Po 0 48500 21500 49750 21500 500 -1
De 0 0 11 0 400000
Po 0 49750 21500 50500 20750 500 -1
De 0 0 11 0 0
Po 0 62750 21500 63500 20750 500 -1
De 0 0 12 0 0
Po 0 63500 20750 63500 15750 500 -1
De 0 0 12 0 0
Po 0 61500 21500 62750 21500 500 -1
De 0 0 12 0 400000
Po 0 63500 15750 62500 14000 500 -1
De 0 0 12 0 800000
Po 0 35000 24250 36000 24250 500 -1
De 0 0 13 0 0
Po 0 61250 24500 61500 24500 500 -1
De 0 0 13 0 800000
Po 0 62750 25000 63250 25500 500 -1
De 0 0 13 0 0
Po 0 59750 25750 60500 25000 500 -1
De 0 0 13 0 0
Po 0 64750 26000 64250 25500 500 -1
De 0 0 13 0 0
Po 0 60500 25000 60750 25000 500 -1
De 0 0 13 0 0
Po 0 60750 25000 62250 25000 240 -1
De 0 0 13 0 0
Po 0 62250 25000 62750 25000 500 -1
De 0 0 13 0 0
Po 0 59750 25750 58000 25750 500 -1
De 0 0 13 0 0
Po 0 63250 25500 64250 25500 500 -1
De 0 0 13 0 0
Po 0 66000 24000 64750 24000 500 -1
De 0 0 13 0 400000
Po 0 63250 24250 63500 24500 500 -1
De 0 0 13 0 0
Po 0 28000 24500 25250 24500 500 -1
De 0 0 13 0 0
Po 0 40750 25500 38250 25500 500 -1
De 0 0 13 0 0
Po 0 31250 25500 31000 25750 500 -1
De 0 0 13 0 0
Po 0 57250 25500 57500 25500 500 -1
De 0 0 13 0 800000
Po 0 48750 24500 48500 24500 500 -1
De 0 0 13 0 800000
Po 0 41500 25000 41000 24500 500 -1
De 0 0 13 0 0
Po 0 28000 25750 27750 25500 500 -1
De 0 0 13 0 0
Po 0 28500 25000 28000 24500 500 -1
De 0 0 13 0 0
Po 0 41000 24500 38250 24500 500 -1
De 0 0 13 0 0
Po 0 37250 25500 38250 25500 500 -1
De 0 0 13 0 0
Po 0 44750 25500 44500 25500 500 -1
De 0 0 13 0 800000
Po 0 35750 24500 35500 24500 500 -1
De 0 0 13 0 800000
Po 0 50250 24250 50500 24500 500 -1
De 0 0 13 0 0
Po 0 48250 24500 48500 24500 500 -1
De 0 0 13 0 800000
Po 0 63500 24500 64250 24500 500 -1
De 0 0 13 0 0
Po 0 35250 24500 35500 24500 500 -1
De 0 0 13 0 800000
Po 0 32250 25000 30750 25000 240 -1
De 0 0 13 0 0
Po 0 61000 24250 60000 24250 500 -1
De 0 0 13 0 0
Po 0 34500 25000 34750 25000 500 -1
De 0 0 13 0 0
Po 0 24500 24500 25250 24500 500 -1
De 0 0 13 0 0
Po 0 50500 24500 51250 24500 500 -1
De 0 0 13 0 0
Po 0 57250 25500 57000 25750 500 -1
De 0 0 13 0 0
Po 0 18750 25500 19000 25750 500 -1
De 0 0 13 0 0
Po 0 45000 25750 46750 25750 500 -1
De 0 0 13 0 0
Po 0 21750 25000 23250 25000 240 -1
De 0 0 13 0 0
Po 0 37250 24250 37500 24500 500 -1
De 0 0 13 0 0
Po 0 66000 26000 64750 26000 500 -1
De 0 0 13 0 400000
Po 0 61750 24500 61500 24500 500 -1
De 0 0 13 0 800000
Po 0 24250 25500 25250 25500 500 -1
De 0 0 13 0 0
Po 0 31750 25500 31500 25500 500 -1
De 0 0 13 0 800000
Po 0 64750 24000 64250 24500 500 -1
De 0 0 13 0 0
Po 0 36250 25000 36750 25000 500 -1
De 0 0 13 0 0
Po 0 23000 24250 24250 24250 500 -1
De 0 0 13 0 0
Po 0 36000 24250 37250 24250 500 -1
De 0 0 13 0 0
Po 0 27750 25500 25250 25500 500 -1
De 0 0 13 0 0
Po 0 19000 25750 20750 25750 500 -1
De 0 0 13 0 0
Po 0 49250 25000 49750 25000 500 -1
De 0 0 13 0 0
Po 0 32000 25750 33750 25750 500 -1
De 0 0 13 0 0
Po 0 23750 25000 24250 25500 500 -1
De 0 0 13 0 0
Po 0 54000 24500 51250 24500 500 -1
De 0 0 13 0 0
Po 0 48750 24500 49000 24250 500 -1
De 0 0 13 0 0
Po 0 46750 25750 47500 25000 500 -1
De 0 0 13 0 0
Po 0 23250 25000 23750 25000 500 -1
De 0 0 13 0 0
Po 0 22750 24500 22500 24500 500 -1
De 0 0 13 0 800000
Po 0 60000 24250 59250 25000 500 -1
De 0 0 13 0 0
Po 0 44750 25500 45000 25750 500 -1
De 0 0 13 0 0
Po 0 35250 24500 35000 24250 500 -1
De 0 0 13 0 0
Po 0 59250 25000 58250 25000 500 -1
De 0 0 13 0 0
Po 0 41000 25750 40750 25500 500 -1
De 0 0 13 0 0
Po 0 57750 25500 57500 25500 500 -1
De 0 0 13 0 800000
Po 0 48250 24500 48000 24250 500 -1
De 0 0 13 0 0
Po 0 30750 25000 28500 25000 500 -1
De 0 0 13 0 0
Po 0 61250 24500 61000 24250 500 -1
De 0 0 13 0 0
Po 0 24250 24250 24500 24500 500 -1
De 0 0 13 0 0
Po 0 48000 24250 49000 24250 500 -1
De 0 0 13 0 0
Po 0 45250 25000 43750 25000 240 -1
De 0 0 13 0 0
Po 0 44000 25750 45000 25750 500 -1
De 0 0 13 0 0
Po 0 35000 24250 34000 24250 500 -1
De 0 0 13 0 0
Po 0 44250 25500 44500 25500 500 -1
De 0 0 13 0 800000
Po 0 37500 24500 38250 24500 500 -1
De 0 0 13 0 0
Po 0 18750 25500 18500 25500 500 -1
De 0 0 13 0 800000
Po 0 58250 25000 56750 25000 240 -1
De 0 0 13 0 0
Po 0 47000 24250 46250 25000 500 -1
De 0 0 13 0 0
Po 0 35750 24500 36000 24250 500 -1
De 0 0 13 0 0
Po 0 44000 25750 41000 25750 500 -1
De 0 0 13 0 0
Po 0 49750 25000 50250 25500 500 -1
De 0 0 13 0 0
Po 0 53750 25500 51250 25500 500 -1
De 0 0 13 0 0
Po 0 33250 25000 32250 25000 500 -1
De 0 0 13 0 0
Po 0 57000 25750 58000 25750 500 -1
De 0 0 13 0 0
Po 0 36750 25000 37250 25500 500 -1
De 0 0 13 0 0
Po 0 63250 24250 62000 24250 500 -1
De 0 0 13 0 0
Po 0 61750 24500 62000 24250 500 -1
De 0 0 13 0 0
Po 0 47500 25000 47750 25000 500 -1
De 0 0 13 0 0
Po 0 33750 25750 34500 25000 500 -1
De 0 0 13 0 0
Po 0 44250 25500 44000 25750 500 -1
De 0 0 13 0 0
Po 0 46250 25000 45250 25000 500 -1
De 0 0 13 0 0
Po 0 61000 24250 62000 24250 500 -1
De 0 0 13 0 0
Po 0 48000 24250 47000 24250 500 -1
De 0 0 13 0 0
Po 0 31750 25500 32000 25750 500 -1
De 0 0 13 0 0
Po 0 43750 25000 41500 25000 500 -1
De 0 0 13 0 0
Po 0 34750 25000 36250 25000 240 -1
De 0 0 13 0 0
Po 0 22750 24500 23000 24250 500 -1
De 0 0 13 0 0
Po 0 56750 25000 54500 25000 500 -1
De 0 0 13 0 0
Po 0 31000 25750 28000 25750 500 -1
De 0 0 13 0 0
Po 0 31250 25500 31500 25500 500 -1
De 0 0 13 0 800000
Po 0 20750 25750 21500 25000 500 -1
De 0 0 13 0 0
Po 0 54500 25000 54000 24500 500 -1
De 0 0 13 0 0
Po 0 57000 25750 54000 25750 500 -1
De 0 0 13 0 0
Po 0 21500 25000 21750 25000 500 -1
De 0 0 13 0 0
Po 0 50250 25500 51250 25500 500 -1
De 0 0 13 0 0
Po 0 31000 25750 32000 25750 500 -1
De 0 0 13 0 0
Po 0 47750 25000 49250 25000 240 -1
De 0 0 13 0 0
Po 0 57750 25500 58000 25750 500 -1
De 0 0 13 0 0
Po 0 34000 24250 33250 25000 500 -1
De 0 0 13 0 0
Po 0 49000 24250 50250 24250 500 -1
De 0 0 13 0 0
Po 0 54000 25750 53750 25500 500 -1
De 0 0 13 0 0
Po 0 18500 21500 17250 21500 500 -1
De 0 0 14 0 400000
Po 0 17250 21500 16500 20750 500 -1
De 0 0 14 0 0
Po 0 16500 15500 17500 14000 500 -1
De 0 0 14 0 800000
Po 0 16500 20750 16500 15500 500 -1
De 0 0 14 0 0
Po 0 29500 15500 30500 14000 500 -1
De 0 0 15 0 800000
Po 0 30250 21500 29500 20750 500 -1
De 0 0 15 0 0
Po 0 29500 20750 29500 15500 500 -1
De 0 0 15 0 0
Po 0 31500 21500 30250 21500 500 -1
De 0 0 15 0 400000
Po 0 44500 21500 43250 21500 500 -1
De 0 0 16 0 400000
Po 0 42500 20750 42500 15500 500 -1
De 0 0 16 0 0
Po 0 43250 21500 42500 20750 500 -1
De 0 0 16 0 0
Po 0 42500 15500 43500 14000 500 -1
De 0 0 16 0 800000
Po 0 57500 21500 56250 21500 500 -1
De 0 0 17 0 400000
Po 0 55500 15500 56500 14000 500 -1
De 0 0 17 0 800000
Po 0 56250 21500 55500 20750 500 -1
De 0 0 17 0 0
Po 0 55500 20750 55500 15500 500 -1
De 0 0 17 0 0
Po 0 34000 37500 35000 36500 240 -1
De 0 0 18 0 800000
Po 0 29500 35250 29500 35000 240 -1
De 0 0 18 0 0
Po 0 30000 31500 30000 32500 320 -1
De 0 0 18 0 400000
Po 0 30000 31500 30000 33250 240 -1
De 0 0 18 0 400000
Po 0 29750 37500 34000 37500 240 -1
De 0 0 18 0 0
Po 0 29500 35250 29250 35500 240 -1
De 0 0 18 0 0
Po 0 29500 35000 29500 34000 160 -1
De 0 0 18 0 0
Po 0 29500 33750 29500 34000 240 -1
De 0 0 18 0 0
Po 0 30000 32500 30100 32500 320 -1
De 0 0 18 0 800000
Po 0 29250 35500 29250 37000 240 -1
De 0 0 18 0 0
Po 0 30000 33250 29500 33750 240 -1
De 0 0 18 0 0
Po 0 29250 37000 29750 37500 240 -1
De 0 0 18 0 0
Po 0 31000 36500 31000 34500 240 -1
De 0 0 19 0 C00000
Po 0 32000 36500 32000 34500 240 -1
De 0 0 20 0 C00000
Po 0 21000 32500 20500 33000 320 -1
De 0 0 21 0 0
Po 0 13350 34600 13750 34500 320 -1
De 0 0 21 0 400000
Po 0 15000 30000 15000 34000 320 -1
De 0 0 21 0 0
Po 0 21000 30750 21000 32500 320 -1
De 0 0 21 0 0
Po 0 20250 30000 18250 30000 320 -1
De 0 0 21 0 0
Po 0 18250 30000 17750 29500 320 -1
De 0 0 21 0 0
Po 0 20500 33000 20000 33000 320 -1
De 0 0 21 0 800000
Po 0 15500 29500 15000 30000 320 -1
De 0 0 21 0 0
Po 0 13750 34500 14000 34500 320 -1
De 0 0 21 0 0
Po 0 15000 34000 14500 34500 320 -1
De 0 0 21 0 0
Po 0 17750 29500 15500 29500 320 -1
De 0 0 21 0 0
Po 0 20250 30000 21000 30750 320 -1
De 0 0 21 0 0
Po 0 14500 34500 14000 34500 320 -1
De 0 0 21 0 0
Po 0 24250 22500 25500 21250 500 -1
De 0 0 22 0 0
Po 0 22500 22500 24250 22500 500 -1
De 0 0 22 0 400000
Po 0 25500 21250 25500 14000 500 -1
De 0 0 22 0 800000
Po 0 35500 22500 37250 22500 500 -1
De 0 0 23 0 400000
Po 0 38500 21250 38500 14000 500 -1
De 0 0 23 0 800000
Po 0 37250 22500 38500 21250 500 -1
De 0 0 23 0 0
Po 0 48500 22500 50250 22500 500 -1
De 0 0 24 0 400000
Po 0 50250 22500 51500 21250 500 -1
De 0 0 24 0 0
Po 0 51500 21250 51500 14000 500 -1
De 0 0 24 0 800000
Po 0 64500 21250 64500 14000 500 -1
De 0 0 25 0 800000
Po 0 61500 22500 63250 22500 500 -1
De 0 0 25 0 400000
Po 0 63250 22500 64500 21250 500 -1
De 0 0 25 0 0
Po 0 15500 21250 15500 14000 500 -1
De 0 0 26 0 800000
Po 0 18500 22500 16750 22500 500 -1
De 0 0 26 0 400000
Po 0 16750 22500 15500 21250 500 -1
De 0 0 26 0 0
Po 0 29750 22500 28500 21250 500 -1
De 0 0 27 0 0
Po 0 28500 21250 28500 14000 500 -1
De 0 0 27 0 800000
Po 0 31500 22500 29750 22500 500 -1
De 0 0 27 0 400000
Po 0 44500 22500 42750 22500 500 -1
De 0 0 28 0 400000
Po 0 41500 21250 41500 14000 500 -1
De 0 0 28 0 800000
Po 0 42750 22500 41500 21250 500 -1
De 0 0 28 0 0
Po 0 57500 22500 55750 22500 500 -1
De 0 0 29 0 400000
Po 0 55750 22500 54500 21250 500 -1
De 0 0 29 0 0
Po 0 54500 21250 54500 14000 500 -1
De 0 0 29 0 800000
Po 0 15250 36500 12500 36500 320 -1
De 0 0 30 0 0
Po 0 16750 38000 15250 36500 320 -1
De 0 0 30 0 0
Po 0 12250 34050 12200 34050 320 -1
De 0 0 30 0 400000
Po 0 11500 35500 12500 36500 320 -1
De 0 0 30 0 0
Po 0 11500 34750 11500 35500 320 -1
De 0 0 30 0 0
Po 0 12200 34050 11500 34750 320 -1
De 0 0 30 0 0
Po 0 17000 38000 16750 38000 320 -1
De 0 0 30 0 400000
Po 0 40250 29750 40500 30000 240 -1
De 0 0 31 0 0
Po 0 33000 29750 40250 29750 240 -1
De 0 0 31 0 0
Po 0 20500 28500 21250 29250 240 -1
De 0 0 31 0 400000
Po 0 21250 29250 32500 29250 240 -1
De 0 0 31 0 0
Po 0 40500 30000 40500 31500 240 -1
De 0 0 31 0 800000
Po 0 32500 29250 33000 29750 240 -1
De 0 0 31 0 0
Po 0 40750 29250 41000 29500 240 -1
De 0 0 32 0 0
Po 0 40500 34000 41000 33500 240 -1
De 0 0 32 0 0
Po 0 41000 29500 41000 31000 240 -1
De 0 0 32 0 0
Po 0 41000 33500 41000 32000 240 -1
De 0 0 32 0 0
Po 0 34250 29250 40750 29250 240 -1
De 0 0 32 0 0
Po 0 34250 29250 33500 28500 240 -1
De 0 0 32 0 800000
Po 0 41000 32000 41000 31000 160 -1
De 0 0 32 0 0
Po 0 40500 34500 40500 34000 240 -1
De 0 0 32 0 400000
Po 0 41750 29250 41500 29500 240 -1
De 0 0 33 0 0
Po 0 41500 29500 41500 31500 240 -1
De 0 0 33 0 800000
Po 0 45750 29250 41750 29250 240 -1
De 0 0 33 0 0
Po 0 46500 28500 45750 29250 240 -1
De 0 0 33 0 400000
Po 0 42000 30000 42000 30750 240 -1
De 0 0 34 0 0
Po 0 41500 34500 41500 34000 240 -1
De 0 0 34 0 400000
Po 0 58750 29250 47500 29250 240 -1
De 0 0 34 0 0
Po 0 42000 33500 42000 32250 240 -1
De 0 0 34 0 0
Po 0 42000 32250 42000 30750 160 -1
De 0 0 34 0 0
Po 0 58750 29250 59500 28500 240 -1
De 0 0 34 0 800000
Po 0 42250 29750 42000 30000 240 -1
De 0 0 34 0 0
Po 0 41500 34000 42000 33500 240 -1
De 0 0 34 0 0
Po 0 47000 29750 42250 29750 240 -1
De 0 0 34 0 0
Po 0 47500 29250 47000 29750 240 -1
De 0 0 34 0 0
Po 0 21750 30750 20250 29250 320 -1
De 0 0 35 0 0
Po 0 15250 28750 14250 29750 320 -1
De 0 0 35 0 0
Po 0 18000 28750 15250 28750 320 -1
De 0 0 35 0 0
Po 0 14000 33500 13350 33500 320 -1
De 0 0 35 0 800000
Po 0 20250 29250 18500 29250 320 -1
De 0 0 35 0 0
Po 0 20000 34000 20500 34000 320 -1
De 0 0 35 0 400000
Po 0 20500 34000 21750 32750 320 -1
De 0 0 35 0 0
Po 0 18500 29250 18000 28750 320 -1
De 0 0 35 0 0
Po 0 14250 33250 14250 29750 320 -1
De 0 0 35 0 0
Po 0 21750 32750 21750 30750 320 -1
De 0 0 35 0 0
Po 0 14000 33500 14250 33250 320 -1
De 0 0 35 0 0
Po 0 23250 20500 23500 20250 500 -1
De 0 0 36 0 0
Po 0 22500 20500 23250 20500 500 -1
De 0 0 36 0 400000
Po 0 23500 20250 23500 16000 500 -1
De 0 0 36 0 0
Po 0 23500 16000 21500 14000 500 -1
De 0 0 36 0 800000
Po 0 35500 20500 36250 20500 500 -1
De 0 0 37 0 400000
Po 0 36500 20250 36500 16000 500 -1
De 0 0 37 0 0
Po 0 36250 20500 36500 20250 500 -1
De 0 0 37 0 0
Po 0 36500 16000 34500 14000 500 -1
De 0 0 37 0 800000
Po 0 49250 20500 49500 20250 500 -1
De 0 0 38 0 0
Po 0 48500 20500 49250 20500 500 -1
De 0 0 38 0 400000
Po 0 49500 16000 47500 14000 500 -1
De 0 0 38 0 800000
Po 0 49500 20250 49500 16000 500 -1
De 0 0 38 0 0
Po 0 62500 20250 62500 16000 500 -1
De 0 0 39 0 0
Po 0 62500 16000 60500 14000 500 -1
De 0 0 39 0 800000
Po 0 62250 20500 62500 20250 500 -1
De 0 0 39 0 0
Po 0 61500 20500 62250 20500 500 -1
De 0 0 39 0 400000
Po 0 44750 24250 45500 24250 500 -1
De 0 0 40 0 0
Po 0 31500 24500 31250 24250 500 -1
De 0 0 40 0 400000
Po 0 44250 24500 44500 24500 500 -1
De 0 0 40 0 800000
Po 0 18500 24500 18750 24250 500 -1
De 0 0 40 0 400000
Po 0 57500 24500 57250 24250 500 -1
De 0 0 40 0 400000
Po 0 57750 24250 58500 24250 500 -1
De 0 0 40 0 0
Po 0 59250 23500 58500 24250 500 -1
De 0 0 40 0 0
Po 0 64500 22750 65250 22750 500 -1
De 0 0 40 0 0
Po 0 31750 24250 32500 24250 500 -1
De 0 0 40 0 0
Po 0 63750 23500 64500 22750 500 -1
De 0 0 40 0 0
Po 0 31250 24250 31000 24250 500 -1
De 0 0 40 0 0
Po 0 44250 24250 44000 24250 500 -1
De 0 0 40 0 0
Po 0 57250 24250 57000 24250 500 -1
De 0 0 40 0 0
Po 0 46250 23500 51250 23500 500 -1
De 0 0 40 0 0
Po 0 18750 24250 19500 24250 500 -1
De 0 0 40 0 0
Po 0 57000 24250 58500 24250 500 -1
De 0 0 40 0 0
Po 0 55000 24250 54250 23500 500 -1
De 0 0 40 0 0
Po 0 66000 22000 65250 22750 500 -1
De 0 0 40 0 400000
Po 0 31000 24250 29000 24250 500 -1
De 0 0 40 0 0
Po 0 44500 24500 44250 24250 500 -1
De 0 0 40 0 400000
Po 0 31250 24500 31500 24500 500 -1
De 0 0 40 0 800000
Po 0 59250 23500 63750 23500 500 -1
De 0 0 40 0 0
Po 0 44750 24250 45500 24250 500 -1
De 0 0 40 0 0
Po 0 41250 23500 38250 23500 500 -1
De 0 0 40 0 0
Po 0 57250 24250 55000 24250 500 -1
De 0 0 40 0 0
Po 0 44500 24500 44750 24250 500 -1
De 0 0 40 0 400000
Po 0 31500 24500 31750 24250 500 -1
De 0 0 40 0 400000
Po 0 44000 24250 45500 24250 500 -1
De 0 0 40 0 0
Po 0 44250 24250 42000 24250 500 -1
De 0 0 40 0 0
Po 0 57500 24500 57750 24250 500 -1
De 0 0 40 0 400000
Po 0 45500 24250 46250 23500 500 -1
De 0 0 40 0 0
Po 0 28250 23500 25250 23500 500 -1
De 0 0 40 0 0
Po 0 19500 24250 20250 23500 500 -1
De 0 0 40 0 0
Po 0 31000 24250 32500 24250 500 -1
De 0 0 40 0 0
Po 0 33250 23500 38250 23500 500 -1
De 0 0 40 0 0
Po 0 57750 24250 58500 24250 500 -1
De 0 0 40 0 0
Po 0 54250 23500 51250 23500 500 -1
De 0 0 40 0 0
Po 0 20250 23500 25250 23500 500 -1
De 0 0 40 0 0
Po 0 32500 24250 33250 23500 500 -1
De 0 0 40 0 0
Po 0 29000 24250 28250 23500 500 -1
De 0 0 40 0 0
Po 0 42000 24250 41250 23500 500 -1
De 0 0 40 0 0
Po 0 57250 24500 57500 24500 500 -1
De 0 0 40 0 800000
Po 0 17750 20500 17500 20250 500 -1
De 0 0 41 0 0
Po 0 18500 20500 17750 20500 500 -1
De 0 0 41 0 400000
Po 0 17500 20250 17500 16250 500 -1
De 0 0 41 0 0
Po 0 17500 16250 19500 14000 500 -1
De 0 0 41 0 800000
Po 0 30500 20250 30500 16250 500 -1
De 0 0 42 0 0
Po 0 30500 16250 32500 14000 500 -1
De 0 0 42 0 800000
Po 0 30750 20500 30500 20250 500 -1
De 0 0 42 0 0
Po 0 31500 20500 30750 20500 500 -1
De 0 0 42 0 400000
Po 0 43500 16250 45500 14000 500 -1
De 0 0 43 0 800000
Po 0 44500 20500 43750 20500 500 -1
De 0 0 43 0 400000
Po 0 43750 20500 43500 20250 500 -1
De 0 0 43 0 0
Po 0 43500 20250 43500 16250 500 -1
De 0 0 43 0 0
Po 0 56500 16250 58500 14000 500 -1
De 0 0 44 0 800000
Po 0 56750 20500 56500 20250 500 -1
De 0 0 44 0 0
Po 0 57500 20500 56750 20500 500 -1
De 0 0 44 0 400000
Po 0 56500 20250 56500 16250 500 -1
De 0 0 44 0 0
Po 0 41000 37000 41000 35500 500 -1
De 0 0 45 0 0
Po 0 21500 27500 34500 27500 500 -1
De 0 0 45 0 0
Po 0 18100 34600 18750 35250 320 -1
De 0 0 45 0 0
Po 0 19250 32000 20000 32000 320 -1
De 0 0 45 0 800000
Po 0 33000 35500 33000 34500 500 -1
De 0 0 45 0 800000
Po 0 41000 35500 41100 35500 500 -1
De 0 0 45 0 800000
Po 0 44750 39500 40000 39500 1000 -1
De 0 0 45 0 0
Po 0 10250 30250 10250 30250 500 -1
De 0 0 45 0 0
Po 0 69500 10500 10500 10500 1000 -1
De 0 0 45 0 0
Po 0 47500 32500 45750 32500 500 -1
De 0 0 45 0 0
Po 0 14250 24500 13000 25750 500 -1
De 0 0 45 0 400000
Po 0 13000 25750 10500 25750 500 -1
De 0 0 45 0 0
Po 0 33000 34500 33000 33750 320 -1
De 0 0 45 0 400000
Po 0 43250 37750 44000 37000 500 -1
De 0 0 45 0 0
Po 0 44750 34250 44000 34250 500 -1
De 0 0 45 0 0
Po 0 40000 39500 38250 39500 1000 -1
De 0 0 45 0 0
Po 0 13350 31350 13350 30600 500 -1
De 0 0 45 0 400000
Po 0 49500 39500 44750 39500 1000 -1
De 0 0 45 0 0
Po 0 69500 39500 49500 39500 1000 -1
De 0 0 45 0 0
Po 0 18750 33750 18750 33850 320 -1
De 0 0 45 0 0
Po 0 15500 27250 14750 26500 500 -1
De 0 0 45 0 0
Po 0 21500 27500 21000 27000 500 -1
De 0 0 45 0 0
Po 0 16250 27250 15500 27250 500 -1
De 0 0 45 0 0
Po 0 21000 27000 16500 27000 500 -1
De 0 0 45 0 0
Po 0 16500 27000 16250 27250 500 -1
De 0 0 45 0 0
Po 0 61000 37250 63250 35000 500 -1
De 0 0 45 0 0
Po 0 66000 34000 69500 34000 1000 -1
De 0 0 45 0 400000
Po 0 14750 25000 14250 24500 500 -1
De 0 0 45 0 800000
Po 0 51500 32250 47750 32250 500 -1
De 0 0 45 0 0
Po 0 34500 28500 34500 27500 500 -1
De 0 0 45 0 400000
Po 0 64250 33500 64750 34000 500 -1
De 0 0 45 0 0
Po 0 34500 27500 47500 27500 500 -1
De 0 0 45 0 0
Po 0 47500 28500 47500 27500 500 -1
De 0 0 45 0 400000
Po 0 34250 32500 33000 33750 240 -1
De 0 0 45 0 0
Po 0 33000 33750 33000 33650 320 -1
De 0 0 45 0 800000
Po 0 60500 27500 60500 28500 500 -1
De 0 0 45 0 800000
Po 0 61250 27500 62000 28250 500 -1
De 0 0 45 0 0
Po 0 34500 32500 34250 32500 240 -1
De 0 0 45 0 0
Po 0 64250 31750 64250 33500 500 -1
De 0 0 45 0 0
Po 0 62000 31250 63750 31250 500 -1
De 0 0 45 0 400000
Po 0 41100 35500 40000 35500 500 -1
De 0 0 45 0 400000
Po 0 47750 32250 47500 32500 500 -1
De 0 0 45 0 0
Po 0 40000 35500 33000 35500 500 -1
De 15 0 45 0 0
Po 0 62000 28250 62000 31250 500 -1
De 0 0 45 0 800000
Po 0 45750 34250 44750 34250 500 -1
De 0 0 45 0 400000
Po 0 18750 35250 18750 39750 320 -1
De 0 0 45 0 0
Po 0 38000 39750 38250 39500 500 -1
De 0 0 45 0 0
Po 0 18750 39750 38000 39750 500 -1
De 0 0 45 0 0
Po 0 64750 34000 66000 34000 500 -1
De 0 0 45 0 800000
Po 0 59000 32250 51500 32250 500 -1
De 0 0 45 0 0
Po 0 33000 36500 33000 34500 240 -1
De 0 0 45 0 C00000
Po 0 10250 30250 10250 39750 500 -1
De 0 0 45 0 0
Po 0 62000 31250 63250 32500 500 -1
De 0 0 45 0 400000
Po 0 69500 34000 69500 39500 1000 -1
De 0 0 45 0 0
Po 0 14750 26500 14750 25000 500 -1
De 0 0 45 0 0
Po 0 53750 37750 53750 37750 1000 -1
De 0 0 45 0 0
Po 3 33000 35500 33000 35500 1000 200
De 15 1 45 0 0
Po 3 40000 35500 40000 35500 1000 200
De 15 1 45 0 0
Po 0 18750 33750 18750 33500 320 -1
De 0 0 45 0 0
Po 0 41000 37000 41750 37750 500 -1
De 0 0 45 0 0
Po 0 44000 37000 44000 34250 500 -1
De 0 0 45 0 0
Po 0 10500 10500 10500 25750 1000 -1
De 0 0 45 0 0
Po 0 41750 37750 43250 37750 500 -1
De 0 0 45 0 0
Po 0 51500 32500 51500 37750 500 -1
De 0 0 45 0 800000
Po 0 40000 35500 40000 39500 500 -1
De 0 0 45 0 0
Po 0 51500 31250 51500 32500 500 -1
De 0 0 45 0 400000
Po 0 44000 34250 44000 32250 500 -1
De 0 0 45 0 0
Po 0 49500 37750 49500 38250 1000 -1
De 0 0 45 0 0
Po 0 51500 36000 53250 36000 1000 -1
De 0 0 45 0 0
Po 0 49500 37750 53750 37750 1000 -1
De 0 0 45 0 0
Po 0 53750 37750 53250 37750 1000 -1
De 0 0 45 0 0
Po 0 51500 37750 51500 36000 1000 -1
De 0 0 45 0 400000
Po 0 51500 36000 49500 36000 1000 -1
De 0 0 45 0 0
Po 0 53750 38250 53750 37750 1000 -1
De 0 0 45 0 0
Po 0 49500 36000 49500 37750 1000 -1
De 0 0 45 0 0
Po 0 53250 39500 51500 37750 1000 -1
De 0 0 45 0 800000
Po 0 49500 38250 49500 39500 1000 -1
De 0 0 45 0 0
Po 0 51500 37750 51500 36000 1000 -1
De 0 0 45 0 400000
Po 0 53250 37750 53250 39500 1000 -1
De 0 0 45 0 0
Po 0 53250 36000 53250 37750 1000 -1
De 0 0 45 0 0
Po 0 49500 38250 53750 38250 1000 -1
De 0 0 45 0 0
Po 0 60500 27500 61250 27500 500 -1
De 0 0 45 0 0
Po 0 35500 31500 34500 32500 240 -1
De 0 0 45 0 400000
Po 0 18750 33500 19000 33250 320 -1
De 0 0 45 0 0
Po 0 63750 31250 64250 31750 500 -1
De 0 0 45 0 0
Po 0 45750 32500 44750 31500 500 -1
De 0 0 45 0 800000
Po 0 59250 36750 59250 32500 500 -1
De 0 0 45 0 0
Po 0 63250 32500 63250 35000 500 -1
De 0 0 45 0 0
Po 0 59750 37250 59250 36750 500 -1
De 0 0 45 0 0
Po 0 10500 30000 10250 30250 500 -1
De 0 0 45 0 0
Po 0 18750 35250 18750 33750 320 -1
De 0 0 45 0 0
Po 0 38250 39500 38000 39500 1000 -1
De 0 0 45 0 0
Po 0 59250 32500 59000 32250 500 -1
De 0 0 45 0 0
Po 0 13350 30600 13000 30250 500 -1
De 0 0 45 0 0
Po 0 47500 27500 60500 27500 500 -1
De 0 0 45 0 0
Po 0 61000 37250 59750 37250 500 -1
De 0 0 45 0 0
Po 0 10500 25750 10500 30000 1000 -1
De 0 0 45 0 0
Po 0 33000 33750 33000 33650 240 -1
De 0 0 45 0 800000
Po 0 18000 34600 18100 34600 320 -1
De 0 0 45 0 400000
Po 0 13000 30250 10250 30250 500 -1
De 0 0 45 0 0
Po 0 44750 31500 44000 32250 500 -1
De 0 0 45 0 400000
Po 0 18000 34500 18750 33750 320 -1
De 0 0 45 0 0
Po 0 19000 32250 19050 32200 320 -1
De 0 0 45 0 800000
Po 0 19000 33250 19000 32250 320 -1
De 0 0 45 0 0
Po 0 21500 28500 21500 27500 500 -1
De 0 0 45 0 400000
Po 0 18000 34600 18000 34500 320 -1
De 0 0 45 0 400000
Po 0 69500 34000 69500 10500 1000 -1
De 0 0 45 0 0
Po 0 19050 32200 19250 32000 320 -1
De 0 0 45 0 400000
Po 0 10250 39750 18750 39750 500 -1
De 0 0 45 0 0
Po 0 45750 35250 45750 36000 500 -1
De 0 0 46 0 400000
Po 0 45750 36000 46500 36750 500 -1
De 0 0 46 0 800000
Po 0 16150 34000 17000 34000 320 -1
De 0 0 47 0 800000
Po 0 16000 33850 16150 34000 320 -1
De 0 0 47 0 400000
Po 0 16150 35000 17000 35000 320 -1
De 0 0 48 0 800000
Po 0 16000 35150 16150 35000 320 -1
De 0 0 48 0 400000
Po 0 16350 31000 17000 31000 320 -1
De 0 0 49 0 800000
Po 0 16000 31350 16350 31000 320 -1
De 0 0 49 0 400000
Po 0 16000 32700 16300 33000 320 -1
De 0 0 50 0 0
Po 0 16000 32650 16000 32700 240 -1
De 0 0 50 0 400000
Po 0 16300 33000 17000 33000 320 -1
De 0 0 50 0 800000
Po 0 45500 28500 40000 28500 500 -1
De 0 0 51 0 C00000
Po 0 17250 28000 19000 28000 320 -1
De 0 0 52 0 400000
Po 0 19000 28000 19500 28500 320 -1
De 0 0 52 0 800000
Po 0 19050 30900 19400 30900 320 -1
De 0 0 53 0 400000
Po 0 18000 30750 18000 30850 320 -1
De 0 0 53 0 800000
Po 0 18000 30850 18000 30750 320 -1
De 0 0 53 0 400000
Po 0 18000 30750 17500 30250 320 -1
De 0 0 53 0 0
Po 0 19400 30900 19500 31000 320 -1
De 0 0 53 0 0
Po 0 19500 31000 20000 31000 320 -1
De 0 0 53 0 800000
Po 0 18400 30900 18000 30750 320 -1
De 0 0 53 0 0
Po 0 19050 30900 18400 30900 320 -1
De 0 0 53 0 400000
Po 0 17500 30250 16000 30250 320 -1
De 0 0 53 0 800000
Po 0 22000 35250 23750 33500 320 -1
De 0 0 54 0 0
Po 0 20000 35000 20250 35250 320 -1
De 0 0 54 0 400000
Po 0 25000 34000 25000 34500 320 -1
De 0 0 54 0 800000
Po 0 23750 33500 24500 33500 320 -1
De 0 0 54 0 0
Po 0 20250 35250 22000 35250 320 -1
De 0 0 54 0 0
Po 0 24500 33500 25000 34000 320 -1
De 0 0 54 0 0
Po 0 18000 32150 17850 32000 320 -1
De 0 0 55 0 400000
Po 0 17850 32000 17000 32000 320 -1
De 0 0 55 0 800000
Po 0 18000 35900 17900 36000 320 -1
De 0 0 56 0 400000
Po 0 17900 36000 17000 36000 320 -1
De 0 0 56 0 800000
Po 0 26000 34500 26000 35000 320 -1
De 0 0 57 0 400000
Po 0 25250 35750 24750 35750 320 -1
De 0 0 57 0 0
Po 0 26000 35000 25250 35750 320 -1
De 0 0 57 0 0
Po 0 22500 38000 24750 35750 320 -1
De 0 0 57 0 0
Po 0 20000 38000 22500 38000 320 -1
De 0 0 57 0 400000
Po 0 19250 35250 19250 34500 320 -1
De 0 0 58 0 0
Po 0 21750 34500 20500 34500 320 -1
De 0 0 58 0 0
Po 0 19500 34500 20500 34500 160 -1
De 0 0 58 0 0
Po 0 24000 32250 21750 34500 320 -1
De 0 0 58 0 0
Po 0 24000 32250 24000 31500 320 -1
De 0 0 58 0 800000
Po 0 20000 36000 19250 35250 320 -1
De 0 0 58 0 400000
Po 0 19250 34500 19500 34500 320 -1
De 0 0 58 0 0
Po 0 58500 28500 53000 28500 500 -1
De 0 0 59 0 C00000
Po 0 19250 19500 19750 20000 500 -1
De 0 0 60 0 0
Po 0 17250 25000 17250 23500 500 -1
De 0 0 60 0 400000
Po 0 17250 23500 16500 23500 500 -1
De 0 0 60 0 0
Po 0 19000 23500 17250 23500 500 -1
De 0 0 60 0 0
Po 0 14750 18250 14750 21750 500 -1
De 0 0 60 0 0
Po 0 19750 22750 19000 23500 500 -1
De 0 0 60 0 0
Po 0 16500 23500 14750 21750 500 -1
De 0 0 60 0 0
Po 0 19250 19500 18500 19500 500 -1
De 0 0 60 0 800000
Po 0 18500 18250 18500 19500 500 -1
De 0 0 60 0 C00000
Po 0 19750 20000 19750 22750 500 -1
De 0 0 60 0 0
Po 0 13500 17000 14750 18250 500 -1
De 0 0 60 0 400000
Po 0 32500 28500 27000 28500 500 -1
De 0 0 61 0 C00000
Po 0 57500 17000 58000 16500 500 -1
De 0 0 62 0 400000
Po 0 58000 16500 58750 16500 500 -1
De 0 0 62 0 800000
Po 0 45250 19500 45750 20000 500 -1
De 0 0 63 0 0
Po 0 45000 23500 42500 23500 500 -1
De 0 0 63 0 0
Po 0 40750 21750 40000 22500 500 -1
De 0 0 63 0 800000
Po 0 45250 19500 44500 19500 500 -1
De 0 0 63 0 800000
Po 0 40750 18250 40750 21750 500 -1
De 0 0 63 0 0
Po 0 44500 18250 44500 19500 500 -1
De 0 0 63 0 C00000
Po 0 45750 20000 45750 22750 500 -1
De 0 0 63 0 0
Po 0 42500 23500 40750 21750 500 -1
De 0 0 63 0 0
Po 0 45750 22750 45000 23500 500 -1
De 0 0 63 0 0
Po 0 39500 17000 40750 18250 500 -1
De 0 0 63 0 400000
Po 0 44500 17000 45000 16500 500 -1
De 0 0 64 0 400000
Po 0 45000 16500 45750 16500 500 -1
De 0 0 64 0 800000
Po 0 31500 17000 32000 16500 500 -1
De 0 0 65 0 400000
Po 0 32000 16500 32750 16500 500 -1
De 0 0 65 0 800000
Po 0 18500 17000 19000 16500 500 -1
De 0 0 66 0 400000
Po 0 19000 16500 19750 16500 500 -1
De 0 0 66 0 800000
Po 0 24000 34500 21500 37000 320 -1
De 0 0 67 0 400000
Po 0 21500 37000 20000 37000 320 -1
De 0 0 67 0 800000
Po 0 64500 36000 66000 36000 500 -1
De 0 0 68 0 C00000
Po 0 27750 21750 27000 22500 500 -1
De 0 0 69 0 800000
Po 0 27750 18250 27750 21750 500 -1
De 0 0 69 0 0
Po 0 29500 23500 27750 21750 500 -1
De 0 0 69 0 0
Po 0 31500 18250 31500 19500 500 -1
De 0 0 69 0 C00000
Po 0 32000 23500 29500 23500 500 -1
De 0 0 69 0 0
Po 0 32250 19500 32750 20000 500 -1
De 0 0 69 0 0
Po 0 32250 19500 31500 19500 500 -1
De 0 0 69 0 800000
Po 0 32750 22750 32000 23500 500 -1
De 0 0 69 0 0
Po 0 26500 17000 27750 18250 500 -1
De 0 0 69 0 400000
Po 0 32750 20000 32750 22750 500 -1
De 0 0 69 0 0
Po 0 52500 17000 53750 18250 500 -1
De 0 0 70 0 400000
Po 0 53750 21750 53000 22500 500 -1
De 0 0 70 0 800000
Po 0 58250 19500 57500 19500 500 -1
De 0 0 70 0 800000
Po 0 57500 18250 57500 19500 500 -1
De 0 0 70 0 C00000
Po 0 58250 19500 58750 20000 500 -1
De 0 0 70 0 0
Po 0 55500 23500 53750 21750 500 -1
De 0 0 70 0 0
Po 0 58750 22750 58000 23500 500 -1
De 0 0 70 0 0
Po 0 58750 20000 58750 22750 500 -1
De 0 0 70 0 0
Po 0 53750 18250 53750 21750 500 -1
De 0 0 70 0 0
Po 0 58000 23500 55500 23500 500 -1
De 0 0 70 0 0
Po 0 53000 30750 53500 31250 500 -1
De 0 0 71 0 0
Po 0 52500 31250 53500 31250 500 -1
De 0 0 71 0 400000
Po 0 53500 31250 60000 31250 500 -1
De 0 0 71 0 0
Po 0 60000 31250 62000 33250 500 -1
De 0 0 71 0 800000
Po 0 52500 31250 53000 30750 500 -1
De 0 0 71 0 400000
Po 0 53000 30750 53500 30250 500 -1
De 0 0 71 0 0
Po 0 53500 30250 53500 30000 500 -1
De 0 0 71 0 800000
Po 0 60500 36000 62000 34500 500 -1
De 0 0 71 0 400000
Po 0 62000 34500 62000 33250 500 -1
De 0 0 71 0 800000
$EndTRACK
$ZONE
$EndZONE
$CZONE_OUTLINE
ZInfo 4FEBF5CB 45 "GND"
ZLayer 0
ZAux 18 E
ZClearance 800 I
ZMinThickness 100
ZOptions 0 16 F 200 200
ZSmoothing 0 0
ZCorner 69500 39500 0
ZCorner 69500 10500 0
ZCorner 60500 10500 0
ZCorner 60500 12000 0
ZCorner 67500 12000 0
ZCorner 67500 34000 0
ZCorner 64750 34000 0
ZCorner 64250 33500 0
ZCorner 64250 28250 0
ZCorner 62000 28250 0
ZCorner 62000 31250 0
ZCorner 63250 32500 0
ZCorner 63250 35000 0
ZCorner 61000 37250 0
ZCorner 59500 37250 0
ZCorner 59500 32000 0
ZCorner 47500 32000 0
ZCorner 47500 39500 1
$POLYSCORNERS
69075 39075 0 0
67600 39075 0 0
67600 36920 0 0
67600 36582 0 0
67600 35082 0 0
67471 34770 0 0
67232 34530 0 0
66920 34400 0 0
66582 34400 0 0
65082 34400 0 0
64770 34529 0 0
64530 34768 0 0
64516 34800 0 0
64262 34800 0 0
63821 34982 0 0
63483 35320 0 0
63300 35761 0 0
63300 36238 0 0
63482 36679 0 0
63820 37017 0 0
64261 37200 0 0
64516 37200 0 0
64529 37230 0 0
64768 37470 0 0
65080 37600 0 0
65418 37600 0 0
66918 37600 0 0
67230 37471 0 0
67470 37232 0 0
67600 36920 0 0
67600 39075 0 0
47550 39075 0 0
47550 37467 0 0
47559 37459 0 0
47749 37000 0 0
47750 36503 0 0
47560 36043 0 0
47550 36032 0 0
47550 32654 0 0
47630 32621 0 0
47870 32382 0 0
47883 32350 0 0
49500 32350 0 0
50020 32350 0 0
50261 32450 0 0
50738 32450 0 0
51179 32268 0 0
51397 32050 0 0
51603 32050 0 0
51820 32267 0 0
52261 32450 0 0
52738 32450 0 0
52980 32350 0 0
53500 32350 0 0
59450 32350 0 0
59450 35148 0 0
59430 35168 0 0
59300 35480 0 0
59300 35818 0 0
59300 36518 0 0
59429 36830 0 0
59450 36851 0 0
59450 37300 0 0
61021 37300 0 0
61193 37127 0 0
61330 37071 0 0
61570 36832 0 0
61627 36693 0 0
63300 35021 0 0
63300 32479 0 0
62050 31229 0 0
62050 28300 0 0
64200 28300 0 0
64200 33521 0 0
64729 34050 0 0
67550 34050 0 0
67550 32439 0 0
67600 32319 0 0
67600 31683 0 0
67550 31562 0 0
67550 30439 0 0
67600 30319 0 0
67600 29683 0 0
67550 29562 0 0
67550 29040 0 0
67600 28920 0 0
67600 28582 0 0
67600 27082 0 0
67550 26961 0 0
67550 26439 0 0
67600 26319 0 0
67600 25683 0 0
67550 25562 0 0
67550 24439 0 0
67600 24319 0 0
67600 23683 0 0
67550 23562 0 0
67550 22439 0 0
67600 22319 0 0
67600 21683 0 0
67550 21562 0 0
67550 11950 0 0
60790 11950 0 0
60747 11733 0 0
60550 11437 0 0
60550 10925 0 0
69075 10925 0 0
69075 39075 1 0
$endPOLYSCORNERS
$endCZONE_OUTLINE
$EndBOARD
