EESchema Schematic File Version 2
LIBS:power
LIBS:device
LIBS:transistors
LIBS:conn
LIBS:linear
LIBS:regul
LIBS:74xx
LIBS:cmos4000
LIBS:adc-dac
LIBS:memory
LIBS:xilinx
LIBS:microcontrollers
LIBS:dsp
LIBS:microchip
LIBS:analog_switches
LIBS:motorola
LIBS:texas
LIBS:intel
LIBS:audio
LIBS:interface
LIBS:digital-audio
LIBS:philips
LIBS:display
LIBS:cypress
LIBS:siliconi
LIBS:opto
LIBS:atmel
LIBS:contrib
LIBS:valves
LIBS:chrisj1
LIBS:ad8495
LIBS:ad8495_proto-cache
EELAYER 25 0
EELAYER END
$Descr A4 11693 8268
encoding utf-8
Sheet 1 1
Title ""
Date ""
Rev ""
Comp ""
Comment1 ""
Comment2 ""
Comment3 ""
Comment4 ""
$EndDescr
$Comp
L AD8495 U1
U 1 1 561E5573
P 4350 3450
F 0 "U1" H 4600 4000 60  0000 C CNN
F 1 "AD8495" H 4400 3700 60  0000 C CNN
F 2 "chrisj1:chrisj1_MS8" H 4550 3100 60  0001 C CNN
F 3 "" H 4550 3100 60  0000 C CNN
	1    4350 3450
	0    -1   -1   0   
$EndComp
$Comp
L CHRISJ1_C C2
U 1 1 561E56A5
P 3600 3400
F 0 "C2" H 3400 3500 50  0000 C CNN
F 1 "100nF" H 3400 3400 50  0000 C CNN
F 2 "Capacitors_SMD:C_0402" H 3600 3400 60  0001 C CNN
F 3 "" H 3600 3400 60  0000 C CNN
	1    3600 3400
	1    0    0    -1  
$EndComp
$Comp
L CHRISJ1_C C3
U 1 1 561E579E
P 3600 4150
F 0 "C3" V 3680 4150 50  0000 C CNN
F 1 "10nF" V 3520 4150 50  0000 C CNN
F 2 "Capacitors_SMD:C_0402" H 3600 4150 60  0001 C CNN
F 3 "" H 3600 4150 60  0000 C CNN
	1    3600 4150
	1    0    0    -1  
$EndComp
$Comp
L CHRISJ1_C C1
U 1 1 561E57D3
P 3600 2650
F 0 "C1" H 3400 2700 50  0000 C CNN
F 1 "10nF" H 3450 2600 50  0000 C CNN
F 2 "Capacitors_SMD:C_0402" H 3600 2650 60  0001 C CNN
F 3 "" H 3600 2650 60  0000 C CNN
	1    3600 2650
	1    0    0    -1  
$EndComp
$Comp
L GND #PWR3
U 1 1 561E594F
P 3800 2550
F 0 "#PWR3" H 3800 2300 50  0001 C CNN
F 1 "GND" H 3800 2400 50  0000 C CNN
F 2 "" H 3800 2550 60  0000 C CNN
F 3 "" H 3800 2550 60  0000 C CNN
	1    3800 2550
	1    0    0    -1  
$EndComp
$Comp
L GND #PWR2
U 1 1 561E596D
P 3600 4350
F 0 "#PWR2" H 3600 4100 50  0001 C CNN
F 1 "GND" H 3600 4200 50  0000 C CNN
F 2 "" H 3600 4350 60  0000 C CNN
F 3 "" H 3600 4350 60  0000 C CNN
	1    3600 4350
	1    0    0    -1  
$EndComp
$Comp
L CHRISJ1_C C4
U 1 1 561E59C2
P 4300 2450
F 0 "C4" H 4150 2450 50  0000 C CNN
F 1 "47nF 25V" H 4100 2350 50  0000 C CNN
F 2 "Capacitors_SMD:C_0402" H 4300 2450 60  0001 C CNN
F 3 "" H 4300 2450 60  0000 C CNN
	1    4300 2450
	1    0    0    -1  
$EndComp
$Comp
L GND #PWR5
U 1 1 561E5ACD
P 4500 2350
F 0 "#PWR5" H 4500 2100 50  0001 C CNN
F 1 "GND" H 4500 2200 50  0000 C CNN
F 2 "" H 4500 2350 60  0000 C CNN
F 3 "" H 4500 2350 60  0000 C CNN
	1    4500 2350
	1    0    0    -1  
$EndComp
$Comp
L GND #PWR4
U 1 1 561E5B4B
P 4400 4400
F 0 "#PWR4" H 4400 4150 50  0001 C CNN
F 1 "GND" H 4400 4250 50  0000 C CNN
F 2 "" H 4400 4400 60  0000 C CNN
F 3 "" H 4400 4400 60  0000 C CNN
	1    4400 4400
	1    0    0    -1  
$EndComp
$Comp
L CHRISJ1_C C5
U 1 1 561E5B65
P 4400 4300
F 0 "C5" H 4500 4300 50  0000 C CNN
F 1 "47nF 25V" H 4600 4200 50  0000 C CNN
F 2 "Capacitors_SMD:C_0402" H 4400 4300 60  0001 C CNN
F 3 "" H 4400 4300 60  0000 C CNN
	1    4400 4300
	1    0    0    -1  
$EndComp
$Comp
L CHRISJ1_R R2
U 1 1 561E5CAB
P 3300 3100
F 0 "R2" V 3380 3100 50  0000 C CNN
F 1 "10k" V 3220 3100 50  0000 C CNN
F 2 "Resistors_SMD:R_0402" H 3300 3100 60  0001 C CNN
F 3 "" H 3300 3100 60  0000 C CNN
	1    3300 3100
	0    1    1    0   
$EndComp
$Comp
L CHRISJ1_R R3
U 1 1 561E5D86
P 3300 3700
F 0 "R3" V 3400 3700 50  0000 C CNN
F 1 "10k" V 3220 3700 50  0000 C CNN
F 2 "Resistors_SMD:R_0402" H 3300 3700 60  0001 C CNN
F 3 "" H 3300 3700 60  0000 C CNN
	1    3300 3700
	0    1    1    0   
$EndComp
$Comp
L CHRISJ1_R R1
U 1 1 561E5E5A
P 3100 4000
F 0 "R1" V 3200 4000 50  0000 C CNN
F 1 "1M" V 3020 4000 50  0000 C CNN
F 2 "Resistors_SMD:R_0402" H 3100 4000 60  0001 C CNN
F 3 "" H 3100 4000 60  0000 C CNN
	1    3100 4000
	-1   0    0    1   
$EndComp
$Comp
L GND #PWR1
U 1 1 561E5EBD
P 3100 4150
F 0 "#PWR1" H 3100 3900 50  0001 C CNN
F 1 "GND" H 3100 4000 50  0000 C CNN
F 2 "" H 3100 4150 60  0000 C CNN
F 3 "" H 3100 4150 60  0000 C CNN
	1    3100 4150
	1    0    0    -1  
$EndComp
$Comp
L GND #PWR6
U 1 1 561E5F92
P 6450 3800
F 0 "#PWR6" H 6450 3550 50  0001 C CNN
F 1 "GND" H 6450 3650 50  0000 C CNN
F 2 "" H 6450 3800 60  0000 C CNN
F 3 "" H 6450 3800 60  0000 C CNN
	1    6450 3800
	1    0    0    -1  
$EndComp
NoConn ~ 4500 3950
$Comp
L PWR_FLAG #FLG1
U 1 1 561E6EF0
P 4400 2250
F 0 "#FLG1" H 4400 2345 50  0001 C CNN
F 1 "PWR_FLAG" H 4400 2430 50  0000 C CNN
F 2 "" H 4400 2250 60  0000 C CNN
F 3 "" H 4400 2250 60  0000 C CNN
	1    4400 2250
	1    0    0    -1  
$EndComp
$Comp
L PWR_FLAG #FLG2
U 1 1 561E6F26
P 5400 2550
F 0 "#FLG2" H 5400 2645 50  0001 C CNN
F 1 "PWR_FLAG" H 5400 2730 50  0000 C CNN
F 2 "" H 5400 2550 60  0000 C CNN
F 3 "" H 5400 2550 60  0000 C CNN
	1    5400 2550
	1    0    0    -1  
$EndComp
$Comp
L PWR_FLAG #FLG3
U 1 1 561E6F55
P 5400 4200
F 0 "#FLG3" H 5400 4295 50  0001 C CNN
F 1 "PWR_FLAG" H 5400 4380 50  0000 C CNN
F 2 "" H 5400 4200 60  0000 C CNN
F 3 "" H 5400 4200 60  0000 C CNN
	1    5400 4200
	-1   0    0    1   
$EndComp
$Comp
L chrisj1_CONN_2 P1
U 1 1 5624E62A
P 2550 3400
F 0 "P1" H 2500 3150 40  0000 C CNN
F 1 "Thermocouple" H 2550 3650 40  0000 C CNN
F 2 "Pin_Headers:Pin_Header_Straight_1x02" H 2550 3400 60  0001 C CNN
F 3 "" H 2550 3400 60  0000 C CNN
	1    2550 3400
	-1   0    0    -1  
$EndComp
Wire Wire Line
	3600 2700 3600 3350
Wire Wire Line
	3600 2800 4200 2800
Wire Wire Line
	4200 2800 4200 2850
Wire Wire Line
	3600 3450 3600 4100
Wire Wire Line
	3600 4000 4200 4000
Wire Wire Line
	4200 4000 4200 3950
Wire Wire Line
	3600 4350 3600 4200
Connection ~ 3600 4000
Connection ~ 3600 2800
Wire Wire Line
	3600 2600 3600 2500
Wire Wire Line
	3600 2500 3800 2500
Wire Wire Line
	3800 2500 3800 2550
Wire Wire Line
	4300 2500 4300 2850
Wire Wire Line
	4400 3950 4400 4250
Wire Wire Line
	4400 4400 4400 4350
Wire Wire Line
	3400 3100 3600 3100
Connection ~ 3600 3100
Wire Wire Line
	3400 3700 3600 3700
Connection ~ 3600 3700
Wire Wire Line
	3100 4150 3100 4100
Wire Wire Line
	4500 2850 4500 2800
Wire Wire Line
	4400 2850 4400 2700
Wire Wire Line
	3000 3700 3200 3700
Wire Wire Line
	3100 3900 3100 3700
Wire Wire Line
	4300 2400 4300 2300
Wire Wire Line
	4300 2300 4500 2300
Wire Wire Line
	4400 2300 4400 2250
Wire Wire Line
	4500 2300 4500 2350
Connection ~ 4400 2300
Wire Wire Line
	4300 2600 5500 2600
Connection ~ 4300 2600
Wire Wire Line
	4400 4150 5500 4150
Wire Wire Line
	5400 2600 5400 2550
Wire Wire Line
	5400 4150 5400 4200
Connection ~ 4400 4150
Wire Wire Line
	4300 3950 4300 4050
Wire Wire Line
	4300 4050 5250 4050
Wire Wire Line
	2900 3500 3000 3500
Wire Wire Line
	3000 3500 3000 3700
Connection ~ 3100 3700
Wire Wire Line
	2900 3300 3000 3300
Wire Wire Line
	3000 3300 3000 3100
Wire Wire Line
	3000 3100 3200 3100
Connection ~ 5400 2600
Connection ~ 5400 4150
$Comp
L CONN_02X04 P2
U 1 1 56278FAB
P 6100 3350
F 0 "P2" H 6100 3600 50  0000 C CNN
F 1 "CONN_02X04" H 6100 3100 50  0000 C CNN
F 2 "Pin_Headers:Pin_Header_Straight_2x04" H 6100 2150 60  0001 C CNN
F 3 "" H 6100 2150 60  0000 C CNN
	1    6100 3350
	1    0    0    -1  
$EndComp
Wire Wire Line
	5850 3400 5250 3400
Wire Wire Line
	5250 3400 5250 4050
Wire Wire Line
	5850 3300 5250 3300
Wire Wire Line
	5250 3300 5250 2800
Wire Wire Line
	5250 2800 4500 2800
Wire Wire Line
	6350 3300 6550 3300
Wire Wire Line
	6550 3300 6550 2700
Wire Wire Line
	6550 2700 4400 2700
Wire Wire Line
	6450 3200 6450 3800
Wire Wire Line
	6450 3400 6350 3400
Wire Wire Line
	6350 3500 6450 3500
Connection ~ 6450 3500
Wire Wire Line
	6350 3200 6450 3200
Connection ~ 6450 3400
Wire Wire Line
	5850 3500 5500 3500
Wire Wire Line
	5500 3500 5500 4150
Wire Wire Line
	5850 3200 5500 3200
Wire Wire Line
	5500 3200 5500 2600
$EndSCHEMATC
