Version 4
SHEET 1 1484 1224
WIRE -2400 -1312 -2592 -1312
WIRE -2592 -1200 -2592 -1312
WIRE -2592 -1040 -2592 -1120
WIRE -2448 -1040 -2592 -1040
WIRE -2320 -1040 -2448 -1040
WIRE -1696 -1040 -1824 -1040
WIRE -1344 -1040 -1696 -1040
WIRE -528 -1040 -1344 -1040
WIRE -96 -1040 -528 -1040
WIRE 32 -1040 -96 -1040
WIRE 224 -1040 112 -1040
WIRE 336 -1040 224 -1040
WIRE 384 -1040 336 -1040
WIRE 400 -1040 384 -1040
WIRE 512 -1040 480 -1040
WIRE 640 -1040 592 -1040
WIRE -96 -1008 -96 -1040
WIRE 224 -1008 224 -1040
WIRE -1952 -992 -3088 -992
WIRE -1616 -992 -1952 -992
WIRE -1152 -992 -1616 -992
WIRE -672 -992 -1152 -992
WIRE 224 -976 224 -1008
WIRE -96 -912 -96 -944
WIRE -1696 -896 -1696 -1040
WIRE -1344 -896 -1344 -1040
WIRE -2592 -880 -2592 -1040
WIRE -2448 -880 -2592 -880
WIRE -1824 -880 -1824 -1040
WIRE 336 -880 336 -1040
WIRE 224 -864 224 -896
WIRE 640 -864 640 -1040
WIRE 720 -864 640 -864
WIRE 784 -864 720 -864
WIRE 912 -864 784 -864
WIRE 1088 -864 912 -864
WIRE 1200 -864 1088 -864
WIRE -2768 -832 -2864 -832
WIRE -2640 -832 -2768 -832
WIRE -672 -832 -672 -992
WIRE -608 -832 -672 -832
WIRE -272 -832 -544 -832
WIRE 1200 -832 1200 -864
WIRE -1088 -816 -1200 -816
WIRE 224 -816 224 -864
WIRE 384 -800 384 -1040
WIRE -672 -784 -672 -832
WIRE -1824 -768 -1824 -816
WIRE -1696 -768 -1696 -816
WIRE -1696 -768 -1824 -768
WIRE -1152 -768 -1152 -992
WIRE 1312 -768 1264 -768
WIRE 1424 -768 1376 -768
WIRE -1200 -752 -1200 -816
WIRE -1184 -752 -1200 -752
WIRE -2864 -736 -2864 -832
WIRE -2592 -736 -2592 -880
WIRE -1088 -736 -1088 -816
WIRE -1088 -736 -1120 -736
WIRE -976 -736 -1088 -736
WIRE -880 -736 -976 -736
WIRE -800 -736 -880 -736
WIRE -752 -736 -800 -736
WIRE -400 -736 -592 -736
WIRE -288 -736 -320 -736
WIRE -272 -736 -272 -832
WIRE -272 -736 -288 -736
WIRE -208 -736 -272 -736
WIRE -96 -736 -96 -832
WIRE -96 -736 -208 -736
WIRE -80 -736 -96 -736
WIRE -48 -736 -80 -736
WIRE 16 -736 -48 -736
WIRE 32 -736 16 -736
WIRE 160 -736 112 -736
WIRE 176 -736 160 -736
WIRE -2640 -720 -2640 -832
WIRE -1184 -720 -1232 -720
WIRE -800 -720 -800 -736
WIRE -416 -720 -544 -720
WIRE -80 -720 -80 -736
WIRE -544 -704 -544 -720
WIRE 784 -704 784 -864
WIRE 224 -688 224 -720
WIRE 384 -688 384 -736
WIRE 912 -688 912 -864
WIRE -1552 -672 -1664 -672
WIRE -416 -672 -416 -720
WIRE -288 -672 -288 -736
WIRE -288 -672 -416 -672
WIRE 16 -672 16 -736
WIRE 224 -672 224 -688
WIRE -976 -656 -1024 -656
WIRE -880 -656 -880 -672
WIRE -880 -656 -976 -656
WIRE -800 -656 -880 -656
WIRE -752 -656 -800 -656
WIRE -2448 -640 -2448 -880
WIRE -1616 -624 -1616 -992
WIRE -80 -624 -80 -640
WIRE -1664 -608 -1664 -672
WIRE -1648 -608 -1664 -608
WIRE -1552 -592 -1552 -672
WIRE -1552 -592 -1584 -592
WIRE -1472 -592 -1552 -592
WIRE -1344 -592 -1344 -832
WIRE -1344 -592 -1392 -592
WIRE -1024 -592 -1024 -656
WIRE -1024 -592 -1344 -592
WIRE -672 -592 -672 -608
WIRE -544 -592 -544 -640
WIRE -544 -592 -672 -592
WIRE -2864 -576 -2864 -656
WIRE -2752 -576 -2864 -576
WIRE -2640 -576 -2640 -672
WIRE -2640 -576 -2752 -576
WIRE -1696 -576 -1696 -768
WIRE -1648 -576 -1696 -576
WIRE -608 -576 -608 -608
WIRE 224 -576 224 -592
WIRE 1088 -576 1088 -864
WIRE -2752 -560 -2752 -576
WIRE -1696 -512 -1696 -576
WIRE -1696 -512 -1808 -512
WIRE 912 -512 912 -624
WIRE -1808 -464 -1808 -512
WIRE -208 -464 -208 -736
WIRE -2592 -448 -2592 -656
WIRE -1808 -304 -1808 -400
WIRE -1808 -304 -2864 -304
WIRE -1232 -304 -1232 -720
WIRE -1232 -304 -1808 -304
WIRE -2592 -240 -2592 -368
WIRE -2448 -240 -2448 -576
WIRE -2448 -240 -2592 -240
WIRE -2368 -240 -2448 -240
WIRE -672 -240 -672 -592
WIRE -672 -240 -2368 -240
WIRE -608 -240 -608 -496
WIRE -608 -240 -672 -240
WIRE -208 -240 -208 -384
WIRE -208 -240 -608 -240
WIRE -80 -240 -80 -560
WIRE -80 -240 -208 -240
WIRE -32 -240 -80 -240
WIRE 16 -240 16 -608
WIRE 16 -240 -32 -240
WIRE 224 -240 224 -576
WIRE 224 -240 16 -240
WIRE 272 -240 224 -240
WIRE 336 -240 336 -816
WIRE 336 -240 272 -240
WIRE 384 -240 384 -608
WIRE 384 -240 336 -240
WIRE 784 -240 784 -640
WIRE 912 -240 912 -432
WIRE 912 -240 784 -240
WIRE 1088 -240 1088 -496
WIRE 1088 -240 912 -240
WIRE -3088 -208 -3088 -992
WIRE -32 -208 -32 -240
WIRE 272 -160 272 -240
WIRE 272 -160 160 -160
WIRE 272 -144 272 -160
WIRE -1696 -128 -1696 -512
WIRE -1952 -112 -1952 -992
WIRE -2864 -96 -2864 -304
WIRE -1984 -96 -2016 -96
WIRE -1760 -80 -1920 -80
WIRE -1984 -64 -2256 -64
WIRE 272 -48 272 -64
WIRE 272 -48 160 -48
WIRE 272 -32 272 -48
WIRE 768 -32 272 -32
WIRE 944 -32 768 -32
WIRE -2016 16 -2016 -96
WIRE -1696 16 -1696 -32
WIRE -1696 16 -2016 16
WIRE -2592 64 -2592 -240
WIRE -2256 64 -2256 -64
WIRE 272 64 272 48
WIRE 608 64 272 64
WIRE -2320 80 -2320 -1040
WIRE -2304 80 -2320 80
WIRE 272 80 272 64
WIRE -1696 96 -1696 16
WIRE -2368 128 -2368 -240
WIRE -2304 128 -2368 128
WIRE 272 192 272 160
WIRE 272 192 160 192
WIRE 448 192 272 192
WIRE 448 224 448 192
WIRE 608 224 608 64
WIRE 768 224 768 -32
WIRE 944 224 944 -32
WIRE 976 224 944 224
WIRE -3088 256 -3088 -128
WIRE -2864 256 -2864 -16
WIRE -2864 256 -3088 256
WIRE -2592 256 -2592 144
WIRE -2592 256 -2864 256
WIRE -2256 256 -2256 144
WIRE -2256 256 -2592 256
WIRE -1952 256 -1952 -48
WIRE -1952 256 -2256 256
WIRE -1696 256 -1696 176
WIRE -1696 256 -1952 256
WIRE -1616 256 -1616 -560
WIRE -1616 256 -1696 256
WIRE -1152 256 -1152 -704
WIRE -1152 256 -1616 256
WIRE 976 320 976 224
WIRE 976 320 944 320
WIRE 1264 512 1264 -768
WIRE 1264 512 1200 512
WIRE 1376 512 1376 -768
WIRE 1376 512 1312 512
WIRE 448 544 448 320
WIRE 608 544 608 320
WIRE 608 544 448 544
WIRE 768 544 768 320
WIRE 768 544 608 544
WIRE 944 544 944 320
WIRE 944 544 768 544
WIRE 1088 544 1088 -240
WIRE 1088 544 944 544
WIRE 1424 544 1424 512
WIRE 1424 544 1088 544
WIRE -1232 912 -1280 912
WIRE -1856 928 -1904 928
WIRE -1712 928 -1760 928
WIRE -1600 928 -1648 928
WIRE -1472 928 -1520 928
WIRE -1360 928 -1408 928
WIRE -1904 992 -1904 928
WIRE -1760 992 -1760 928
WIRE -1648 992 -1648 928
WIRE -1520 992 -1520 928
WIRE -1408 992 -1408 928
WIRE -1280 992 -1280 912
WIRE -1904 1104 -1904 1072
WIRE -1760 1104 -1760 1072
WIRE -1648 1104 -1648 1072
WIRE -1520 1104 -1520 1072
WIRE -1408 1104 -1408 1072
WIRE -1280 1104 -1280 1072
FLAG -1520 1104 0
FLAG -1408 1104 0
FLAG -1472 928 vp15
FLAG -1360 928 vn15
FLAG -1280 1104 0
FLAG -1232 912 v0
FLAG -32 -208 0
FLAG 160 -736 ng
FLAG 224 -688 ns
FLAG 224 -864 nd
FLAG 720 -864 pvpos
FLAG 224 -576 ns2
FLAG 224 -1008 nd2
FLAG -2448 -1040 ip
FLAG -48 -736 ng2
FLAG -528 -1040 nd3
FLAG -1760 1104 0
FLAG -1648 1104 0
FLAG -1712 928 vp5
FLAG -1600 928 vn5
FLAG -1904 1104 0
FLAG -1856 928 vp10
FLAG -2400 -1312 ip2p5
FLAG -976 -656 nb
FLAG -976 -736 ne
FLAG -2752 -560 0
FLAG -2768 -832 vsw
SYMBOL voltage -1520 976 R0
SYMATTR InstName V2
SYMATTR Value 15
SYMBOL voltage -1408 976 R0
SYMATTR InstName V3
SYMATTR Value -15
SYMBOL cap -112 -1008 R0
SYMATTR InstName C2
SYMATTR Value 100e-9
SYMBOL nmos 176 -816 R0
SYMATTR InstName M2
SYMATTR Value IXFX90N30
SYMBOL res 288 176 R180
WINDOW 0 36 76 Left 2
WINDOW 3 36 40 Left 2
SYMATTR InstName R13
SYMATTR Value 1
SYMBOL voltage 912 -528 R0
SYMATTR InstName V9
SYMATTR Value 60
SYMBOL diode 896 -688 R0
SYMATTR InstName D2
SYMBOL current 1088 -496 R180
WINDOW 0 24 80 Left 2
WINDOW 3 24 0 Left 2
SYMATTR InstName I2
SYMATTR Value 5
SYMBOL diode 1184 -832 R0
SYMATTR InstName D1
SYMBOL diode 1184 -768 R0
SYMATTR InstName D4
SYMBOL diode 1184 -704 R0
SYMATTR InstName D5
SYMBOL diode 1184 -640 R0
SYMATTR InstName D6
SYMBOL diode 1184 -576 R0
SYMATTR InstName D7
SYMBOL diode 1184 -512 R0
SYMATTR InstName D8
SYMBOL diode 1184 -448 R0
SYMATTR InstName D9
SYMBOL diode 1184 -384 R0
SYMATTR InstName D10
SYMBOL diode 1184 -320 R0
SYMATTR InstName D11
SYMBOL diode 1184 -256 R0
SYMATTR InstName D12
SYMBOL diode 1184 -192 R0
SYMATTR InstName D13
SYMBOL diode 1184 -128 R0
SYMATTR InstName D14
SYMBOL diode 1184 -64 R0
SYMATTR InstName D15
SYMBOL diode 1184 0 R0
SYMATTR InstName D16
SYMBOL diode 1184 64 R0
SYMATTR InstName D17
SYMBOL diode 1184 128 R0
SYMATTR InstName D18
SYMBOL diode 1184 192 R0
SYMATTR InstName D19
SYMBOL diode 1184 256 R0
SYMATTR InstName D20
SYMBOL diode 1184 320 R0
SYMATTR InstName D21
SYMBOL diode 1184 384 R0
SYMATTR InstName D22
SYMBOL diode 1184 448 R0
SYMATTR InstName D23
SYMBOL diode 1296 -768 R0
SYMATTR InstName D24
SYMBOL diode 1296 -704 R0
SYMATTR InstName D25
SYMBOL diode 1296 -640 R0
SYMATTR InstName D26
SYMBOL diode 1296 -576 R0
SYMATTR InstName D27
SYMBOL diode 1296 -512 R0
SYMATTR InstName D28
SYMBOL diode 1296 -448 R0
SYMATTR InstName D29
SYMBOL diode 1296 -384 R0
SYMATTR InstName D30
SYMBOL diode 1296 -320 R0
SYMATTR InstName D31
SYMBOL diode 1296 -256 R0
SYMATTR InstName D32
SYMBOL diode 1296 -192 R0
SYMATTR InstName D33
SYMBOL diode 1296 -128 R0
SYMATTR InstName D34
SYMBOL diode 1296 -64 R0
SYMATTR InstName D35
SYMBOL diode 1296 0 R0
SYMATTR InstName D36
SYMBOL diode 1296 64 R0
SYMATTR InstName D37
SYMBOL diode 1296 128 R0
SYMATTR InstName D38
SYMBOL diode 1296 192 R0
SYMATTR InstName D39
SYMBOL diode 1296 256 R0
SYMATTR InstName D40
SYMBOL diode 1296 320 R0
SYMATTR InstName D41
SYMBOL diode 1296 384 R0
SYMATTR InstName D42
SYMBOL diode 1296 448 R0
SYMATTR InstName D43
SYMBOL diode 1408 -768 R0
SYMATTR InstName D44
SYMBOL diode 1408 -704 R0
SYMATTR InstName D45
SYMBOL diode 1408 -640 R0
SYMATTR InstName D46
SYMBOL diode 1408 -576 R0
SYMATTR InstName D47
SYMBOL diode 1408 -512 R0
SYMATTR InstName D48
SYMBOL diode 1408 -448 R0
SYMATTR InstName D49
SYMBOL diode 1408 -384 R0
SYMATTR InstName D50
SYMBOL diode 1408 -320 R0
SYMATTR InstName D51
SYMBOL diode 1408 -256 R0
SYMATTR InstName D52
SYMBOL diode 1408 -192 R0
SYMATTR InstName D53
SYMBOL diode 1408 -128 R0
SYMATTR InstName D54
SYMBOL diode 1408 -64 R0
SYMATTR InstName D55
SYMBOL diode 1408 0 R0
SYMATTR InstName D56
SYMBOL diode 1408 64 R0
SYMATTR InstName D57
SYMBOL diode 1408 128 R0
SYMATTR InstName D58
SYMBOL diode 1408 192 R0
SYMATTR InstName D59
SYMBOL diode 1408 256 R0
SYMATTR InstName D60
SYMBOL diode 1408 320 R0
SYMATTR InstName D61
SYMBOL diode 1408 384 R0
SYMATTR InstName D62
SYMBOL diode 1408 448 R0
SYMATTR InstName D63
SYMBOL cap 320 -880 R0
SYMATTR InstName C1
SYMATTR Value 2000e-9
SYMBOL ind 608 -1056 R90
WINDOW 0 5 56 VBottom 2
WINDOW 3 32 56 VTop 2
SYMATTR InstName L1
SYMATTR Value 10e-6
SYMATTR SpiceLine Rser=0
SYMBOL cap 768 -704 R0
SYMATTR InstName C4
SYMATTR Value 0
SYMBOL res 496 -1056 R90
WINDOW 0 0 56 VBottom 2
WINDOW 3 32 56 VTop 2
SYMATTR InstName R1
SYMATTR Value 0.050
SYMBOL voltage -2592 -464 R0
WINDOW 3 -1045 63 Left 2
WINDOW 123 0 0 Left 2
WINDOW 39 0 0 Left 2
WINDOW 0 -118 26 Left 2
SYMATTR Value PWL(0 0 10e-3 0 200e-3 100 210e-3 100 210.01e-3 3 220e-3 3 220.01e-3 100 240e-3 100 340e-3 0)
SYMATTR InstName V1
SYMBOL res -80 -816 R180
WINDOW 0 36 76 Left 2
WINDOW 3 36 40 Left 2
SYMATTR InstName R2
SYMATTR Value 1
SYMBOL ind 128 -752 R90
WINDOW 0 5 56 VBottom 2
WINDOW 3 32 56 VTop 2
SYMATTR InstName L2
SYMATTR Value 20e-9
SYMATTR SpiceLine Rser=0
SYMBOL ind 240 -576 R180
WINDOW 0 36 80 Left 2
WINDOW 3 36 40 Left 2
SYMATTR InstName L3
SYMATTR Value 20e-9
SYMATTR SpiceLine Rser=0
SYMBOL ind 240 -880 R180
WINDOW 0 36 80 Left 2
WINDOW 3 36 40 Left 2
SYMATTR InstName L4
SYMATTR Value 20e-9
SYMATTR SpiceLine Rser=1e-4
SYMBOL cap 368 -800 R0
SYMATTR InstName C3
SYMATTR Value 1000e-9
SYMBOL res -64 -624 R180
WINDOW 0 36 76 Left 2
WINDOW 3 36 40 Left 2
SYMATTR InstName R12
SYMATTR Value 1
SYMBOL cap -96 -624 R0
SYMATTR InstName C5
SYMATTR Value 100e-9
SYMBOL res 368 -704 R0
SYMATTR InstName R14
SYMATTR Value 5.6
SYMBOL OPA861 -672 -736 R0
SYMATTR InstName U1
SYMATTR Value OPA861
SYMATTR Prefix X
SYMBOL voltage -1760 976 R0
WINDOW 123 0 0 Left 2
WINDOW 39 0 0 Left 2
SYMATTR InstName V4
SYMATTR Value 5
SYMBOL voltage -1648 976 R0
WINDOW 123 0 0 Left 2
WINDOW 39 0 0 Left 2
SYMATTR InstName V6
SYMATTR Value -5
SYMBOL voltage -1280 976 R0
WINDOW 123 0 0 Left 2
WINDOW 39 0 0 Left 2
SYMATTR InstName V7
SYMATTR Value 0
SYMBOL voltage -1904 976 R0
WINDOW 123 0 0 Left 2
WINDOW 39 0 0 Left 2
SYMATTR InstName V8
SYMATTR Value 10
SYMBOL res -592 -480 R180
WINDOW 0 -44 76 Left 2
WINDOW 3 -41 41 Left 2
SYMATTR InstName R3
SYMATTR Value 250
SYMBOL res -416 -720 R270
WINDOW 0 32 56 VTop 2
WINDOW 3 0 56 VBottom 2
SYMATTR InstName R4
SYMATTR Value 1
SYMBOL voltage 16 -1040 R270
WINDOW 3 40 60 Left 2
WINDOW 123 0 0 Left 2
WINDOW 39 0 0 Left 2
SYMATTR Value PULSE(-0.1 0.1 100e-6 1e-9 1e-9 250e-6 500e-6)
SYMATTR InstName V12
SYMBOL res 288 -48 R180
WINDOW 0 36 76 Left 2
WINDOW 3 36 40 Left 2
SYMATTR InstName R7
SYMATTR Value 0.01
SYMBOL res 288 64 R180
WINDOW 0 36 76 Left 2
WINDOW 3 36 40 Left 2
SYMATTR InstName R9
SYMATTR Value 0.1
SYMBOL voltage -3088 -224 R0
WINDOW 123 0 0 Left 2
WINDOW 39 0 0 Left 2
SYMATTR InstName V10
SYMATTR Value 12
SYMBOL res -1712 -912 R0
SYMATTR InstName R5
SYMATTR Value 1e6
SYMBOL e -2256 48 R0
SYMATTR InstName E1
SYMATTR Value {1.0/100}
SYMBOL voltage -2592 -1216 R0
WINDOW 123 0 0 Left 2
WINDOW 39 0 0 Left 2
SYMATTR InstName V16
SYMATTR Value 2.0
SYMBOL res -192 -368 R180
WINDOW 0 -44 76 Left 2
WINDOW 3 -41 41 Left 2
SYMATTR InstName R16
SYMATTR Value 1e6
SYMBOL cap -1840 -880 R0
SYMATTR InstName C7
SYMATTR Value 100e-12
SYMBOL voltage -2592 48 R0
WINDOW 123 0 0 Left 2
WINDOW 39 0 0 Left 2
SYMATTR InstName V17
SYMATTR Value 0.9
SYMBOL AD8065 -1616 -592 R0
SYMATTR InstName U4
SYMBOL res -1488 -576 R270
WINDOW 0 32 56 VTop 2
WINDOW 3 0 56 VBottom 2
SYMATTR InstName R6
SYMATTR Value 1000
SYMBOL cap -1360 -896 R0
SYMATTR InstName C9
SYMATTR Value 1e-9
SYMBOL diode -896 -736 R0
SYMATTR InstName D3
SYMBOL diode -784 -656 R180
WINDOW 0 24 64 Left 2
WINDOW 3 24 0 Left 2
SYMATTR InstName D64
SYMBOL diode -544 -848 R90
WINDOW 0 0 32 VBottom 2
WINDOW 3 32 32 VTop 2
SYMATTR InstName D65
SYMBOL diode -528 -640 R180
WINDOW 0 24 64 Left 2
WINDOW 3 24 0 Left 2
SYMATTR InstName D67
SYMBOL sw -2592 -640 M180
SYMATTR InstName S1
SYMATTR Value MySwitch
SYMBOL voltage -2864 -752 R0
WINDOW 3 -570 65 Left 2
WINDOW 123 0 0 Left 2
WINDOW 39 0 0 Left 2
SYMATTR Value PULSE(-1 1 150e-6 1e-8 1e-8 1e-6 1000e-6 1000)
SYMATTR InstName V5
SYMBOL cap -2464 -640 R0
SYMATTR InstName C6
SYMATTR Value 100e-9
SYMBOL voltage -2864 -112 R0
WINDOW 123 0 0 Left 2
WINDOW 39 0 0 Left 2
SYMATTR InstName V11
SYMATTR Value 2.5
SYMBOL AD8065 -1152 -736 R0
SYMATTR InstName U2
SYMBOL npn -1760 -128 R0
SYMATTR InstName Q1
SYMATTR Value BC847C
SYMBOL diode -1824 -464 R0
SYMATTR InstName D66
SYMATTR Value 1N4148
SYMBOL res -1712 80 R0
SYMATTR InstName R8
SYMATTR Value 10e3
SYMBOL Opamps\\LT1014 -1952 -144 R0
SYMATTR InstName U5
TEXT -1552 1208 Left 2 !.tran 350e-3
TEXT -720 -856 Left 2 !.inc OPA861.sub
TEXT -1576 -720 Left 2 !.inc ad8065.cir
TEXT -3504 -512 Left 2 !.model MySwitch SW(Ron=1 Roff=1e9 Vt=0 Vh=-.5 Lser=0 Vser=0)
