Version 4
SHEET 1 1484 680
WIRE 64 -864 -560 -864
WIRE 176 -864 64 -864
WIRE 480 -864 176 -864
WIRE 592 -864 480 -864
WIRE 784 -864 592 -864
WIRE 912 -864 784 -864
WIRE 1088 -864 912 -864
WIRE 1200 -864 1088 -864
WIRE 1264 -864 1200 -864
WIRE 1200 -832 1200 -864
WIRE 1264 -832 1264 -864
WIRE 480 -816 480 -864
WIRE -560 -784 -560 -864
WIRE 1312 -768 1264 -768
WIRE 1424 -768 1376 -768
WIRE 176 -752 176 -864
WIRE 592 -704 592 -864
WIRE 784 -704 784 -864
WIRE 480 -688 480 -736
WIRE 912 -688 912 -864
WIRE 480 -640 480 -688
WIRE 1088 -576 1088 -864
WIRE 176 -560 176 -688
WIRE 176 -560 -64 -560
WIRE 288 -560 176 -560
WIRE 384 -560 288 -560
WIRE 432 -560 384 -560
WIRE -64 -528 -64 -560
WIRE 384 -528 384 -560
WIRE -560 -512 -560 -624
WIRE -272 -512 -560 -512
WIRE -112 -512 -272 -512
WIRE 480 -512 480 -544
WIRE 912 -512 912 -624
WIRE -112 -464 -192 -464
WIRE 480 -464 480 -512
WIRE 592 -464 592 -640
WIRE 592 -464 480 -464
WIRE 480 -448 480 -464
WIRE 480 -448 432 -448
WIRE 176 -416 128 -416
WIRE 384 -416 384 -464
WIRE 384 -416 240 -416
WIRE 432 -416 432 -448
WIRE 432 -416 384 -416
WIRE 480 -416 480 -448
WIRE -64 -384 -64 -448
WIRE 64 -384 64 -864
WIRE 64 -384 -64 -384
WIRE 480 -288 480 -336
WIRE -192 -240 -192 -464
WIRE 128 -240 128 -416
WIRE 128 -240 -192 -240
WIRE 160 -240 128 -240
WIRE 272 -240 240 -240
WIRE 480 -240 480 -288
WIRE 496 -240 480 -240
WIRE 512 -240 496 -240
WIRE 608 -240 592 -240
WIRE 624 -240 608 -240
WIRE 784 -240 784 -640
WIRE 784 -240 704 -240
WIRE 816 -240 784 -240
WIRE 848 -240 816 -240
WIRE 912 -240 912 -432
WIRE 912 -240 848 -240
WIRE 1088 -240 1088 -496
WIRE 1088 -240 912 -240
WIRE 496 -144 496 -240
WIRE 512 -144 496 -144
WIRE 608 -144 608 -240
WIRE 608 -144 592 -144
WIRE 272 -96 272 -240
WIRE 816 -96 816 -240
WIRE 816 -96 272 -96
WIRE -560 256 -608 256
WIRE -800 272 -848 272
WIRE -688 272 -736 272
WIRE -848 336 -848 272
WIRE -736 336 -736 272
WIRE -608 336 -608 256
WIRE -848 448 -848 416
WIRE -736 448 -736 416
WIRE -608 448 -608 416
WIRE 1264 512 1264 -768
WIRE 1264 512 1200 512
WIRE 1376 512 1376 -768
WIRE 1376 512 1312 512
WIRE 1088 544 1088 -240
WIRE 1424 544 1424 512
WIRE 1424 544 1088 544
FLAG -848 448 0
FLAG -736 448 0
FLAG -800 272 vp15
FLAG -688 272 vn15
FLAG -608 448 0
FLAG -560 256 v0
FLAG 1264 -832 0
FLAG 288 -560 ng
FLAG 480 -512 ns
FLAG -272 -512 ip
FLAG 480 -688 nd
FLAG 480 -288 op
FLAG 848 -240 opcell
SYMBOL voltage -848 320 R0
SYMATTR InstName V2
SYMATTR Value 15
SYMBOL voltage -736 320 R0
SYMATTR InstName V3
SYMATTR Value -15
SYMBOL res -624 320 R0
SYMATTR InstName R6
SYMATTR Value 100
SYMBOL voltage -560 -800 R0
WINDOW 3 43 59 Left 2
WINDOW 123 0 0 Left 2
WINDOW 39 0 0 Left 2
SYMATTR Value PWL(0 0 10e-3 0 200e-3 100 240e-3 100 340e-3 0)
SYMATTR InstName V7
SYMBOL voltage -560 -720 R0
WINDOW 3 40 60 Left 2
WINDOW 123 0 0 Left 2
WINDOW 39 0 0 Left 2
SYMATTR Value PULSE(-0.1 0.1 50e-6 1e-9 1e-9 1000e-6 2000e-6)
SYMATTR InstName V8
SYMBOL cap 160 -752 R0
SYMATTR InstName C2
SYMATTR Value 100e-9
SYMBOL nmos 432 -640 R0
SYMATTR InstName M2
SYMATTR Value IXFX90N30
SYMBOL res 464 -432 R0
SYMATTR InstName R13
SYMATTR Value 0.020
SYMBOL voltage 912 -528 R0
SYMATTR InstName V9
SYMATTR Value 60
SYMBOL diode 896 -688 R0
SYMATTR InstName D2
SYMBOL current 1088 -496 R180
WINDOW 0 24 80 Left 2
WINDOW 3 24 0 Left 2
SYMATTR InstName I2
SYMATTR Value 4.5
SYMBOL zener 400 -464 R180
WINDOW 0 24 64 Left 2
WINDOW 3 24 0 Left 2
SYMATTR InstName D3
SYMATTR Value BZX84C12L
SYMBOL g -64 -544 R0
SYMATTR InstName G1
SYMATTR Value 10e-3
SYMBOL diode 1184 -832 R0
SYMATTR InstName D1
SYMBOL diode 1184 -768 R0
SYMATTR InstName D4
SYMBOL diode 1184 -704 R0
SYMATTR InstName D5
SYMBOL diode 1184 -640 R0
SYMATTR InstName D6
SYMBOL diode 1184 -576 R0
SYMATTR InstName D7
SYMBOL diode 1184 -512 R0
SYMATTR InstName D8
SYMBOL diode 1184 -448 R0
SYMATTR InstName D9
SYMBOL diode 1184 -384 R0
SYMATTR InstName D10
SYMBOL diode 1184 -320 R0
SYMATTR InstName D11
SYMBOL diode 1184 -256 R0
SYMATTR InstName D12
SYMBOL diode 1184 -192 R0
SYMATTR InstName D13
SYMBOL diode 1184 -128 R0
SYMATTR InstName D14
SYMBOL diode 1184 -64 R0
SYMATTR InstName D15
SYMBOL diode 1184 0 R0
SYMATTR InstName D16
SYMBOL diode 1184 64 R0
SYMATTR InstName D17
SYMBOL diode 1184 128 R0
SYMATTR InstName D18
SYMBOL diode 1184 192 R0
SYMATTR InstName D19
SYMBOL diode 1184 256 R0
SYMATTR InstName D20
SYMBOL diode 1184 320 R0
SYMATTR InstName D21
SYMBOL diode 1184 384 R0
SYMATTR InstName D22
SYMBOL diode 1184 448 R0
SYMATTR InstName D23
SYMBOL diode 1296 -768 R0
SYMATTR InstName D24
SYMBOL diode 1296 -704 R0
SYMATTR InstName D25
SYMBOL diode 1296 -640 R0
SYMATTR InstName D26
SYMBOL diode 1296 -576 R0
SYMATTR InstName D27
SYMBOL diode 1296 -512 R0
SYMATTR InstName D28
SYMBOL diode 1296 -448 R0
SYMATTR InstName D29
SYMBOL diode 1296 -384 R0
SYMATTR InstName D30
SYMBOL diode 1296 -320 R0
SYMATTR InstName D31
SYMBOL diode 1296 -256 R0
SYMATTR InstName D32
SYMBOL diode 1296 -192 R0
SYMATTR InstName D33
SYMBOL diode 1296 -128 R0
SYMATTR InstName D34
SYMBOL diode 1296 -64 R0
SYMATTR InstName D35
SYMBOL diode 1296 0 R0
SYMATTR InstName D36
SYMBOL diode 1296 64 R0
SYMATTR InstName D37
SYMBOL diode 1296 128 R0
SYMATTR InstName D38
SYMBOL diode 1296 192 R0
SYMATTR InstName D39
SYMBOL diode 1296 256 R0
SYMATTR InstName D40
SYMBOL diode 1296 320 R0
SYMATTR InstName D41
SYMBOL diode 1296 384 R0
SYMATTR InstName D42
SYMBOL diode 1296 448 R0
SYMATTR InstName D43
SYMBOL diode 1408 -768 R0
SYMATTR InstName D44
SYMBOL diode 1408 -704 R0
SYMATTR InstName D45
SYMBOL diode 1408 -640 R0
SYMATTR InstName D46
SYMBOL diode 1408 -576 R0
SYMATTR InstName D47
SYMBOL diode 1408 -512 R0
SYMATTR InstName D48
SYMBOL diode 1408 -448 R0
SYMATTR InstName D49
SYMBOL diode 1408 -384 R0
SYMATTR InstName D50
SYMBOL diode 1408 -320 R0
SYMATTR InstName D51
SYMBOL diode 1408 -256 R0
SYMATTR InstName D52
SYMBOL diode 1408 -192 R0
SYMATTR InstName D53
SYMBOL diode 1408 -128 R0
SYMATTR InstName D54
SYMBOL diode 1408 -64 R0
SYMATTR InstName D55
SYMBOL diode 1408 0 R0
SYMATTR InstName D56
SYMBOL diode 1408 64 R0
SYMATTR InstName D57
SYMBOL diode 1408 128 R0
SYMATTR InstName D58
SYMBOL diode 1408 192 R0
SYMATTR InstName D59
SYMBOL diode 1408 256 R0
SYMATTR InstName D60
SYMBOL diode 1408 320 R0
SYMATTR InstName D61
SYMBOL diode 1408 384 R0
SYMATTR InstName D62
SYMBOL diode 1408 448 R0
SYMATTR InstName D63
SYMBOL cap 576 -704 R0
SYMATTR InstName C1
SYMATTR Value 1e-6
SYMBOL voltage 480 -832 R0
SYMATTR InstName V4
SYMATTR Value 0
SYMBOL cap 240 -432 R90
WINDOW 0 0 32 VBottom 2
WINDOW 3 32 32 VTop 2
SYMATTR InstName C3
SYMATTR Value 100e-9
SYMBOL res 256 -256 R90
WINDOW 0 0 56 VBottom 2
WINDOW 3 32 56 VTop 2
SYMATTR InstName R1
SYMATTR Value 1000
SYMBOL ind 720 -256 R90
WINDOW 0 5 56 VBottom 2
WINDOW 3 32 56 VTop 2
SYMATTR InstName L1
SYMATTR Value 10e-6
SYMATTR SpiceLine Rser=0
SYMBOL cap 768 -704 R0
SYMATTR InstName C4
SYMATTR Value 100e-6
SYMBOL ind 608 -256 R90
WINDOW 0 5 56 VBottom 2
WINDOW 3 32 56 VTop 2
SYMATTR InstName L2
SYMATTR Value 10e-6
SYMATTR SpiceLine Rser=0
SYMBOL res 608 -160 R90
WINDOW 0 0 56 VBottom 2
WINDOW 3 32 56 VTop 2
SYMATTR InstName R2
SYMATTR Value 0.33
TEXT -880 552 Left 2 !.tran 350e-3
