EESchema Schematic File Version 2
LIBS:device
LIBS:transistors
LIBS:conn
LIBS:linear
LIBS:regul
LIBS:74xx
LIBS:cmos4000
LIBS:adc-dac
LIBS:memory
LIBS:xilinx
LIBS:special
LIBS:microcontrollers
LIBS:dsp
LIBS:microchip
LIBS:analog_switches
LIBS:motorola
LIBS:texas
LIBS:intel
LIBS:audio
LIBS:interface
LIBS:digital-audio
LIBS:philips
LIBS:display
LIBS:cypress
LIBS:siliconi
LIBS:opto
LIBS:atmel
LIBS:contrib
LIBS:valves
LIBS:chrisj1
LIBS:chrisj_power
LIBS:power
LIBS:preamp-cache
EELAYER 27 0
EELAYER END
$Descr User 8000 5000
encoding utf-8
Sheet 1 1
Title "100x preamplifier for Thermopile"
Date "26 aug 2015"
Rev ""
Comp ""
Comment1 ""
Comment2 ""
Comment3 ""
Comment4 ""
$EndDescr
$Comp
L CHRISJ1_R R1
U 1 1 534E0172
P 2150 1950
F 0 "R1" V 2290 1950 50  0000 C CNN
F 1 "1k" V 2220 1950 50  0000 C CNN
F 2 "~" H 2150 1950 60  0000 C CNN
F 3 "~" H 2150 1950 60  0000 C CNN
	1    2150 1950
	0    -1   -1   0   
$EndComp
$Comp
L CHRISJ1_R R2
U 1 1 534E017F
P 2150 2150
F 0 "R2" V 2000 2150 50  0000 C CNN
F 1 "1k" V 2070 2150 50  0000 C CNN
F 2 "~" H 2150 2150 60  0000 C CNN
F 3 "~" H 2150 2150 60  0000 C CNN
	1    2150 2150
	0    -1   -1   0   
$EndComp
$Comp
L CHRISJ1_C C2
U 1 1 534E0187
P 1800 2050
F 0 "C2" H 1900 2050 50  0000 C CNN
F 1 "10nF" H 1600 2050 50  0000 C CNN
F 2 "~" H 1800 2050 60  0000 C CNN
F 3 "~" H 1800 2050 60  0000 C CNN
	1    1800 2050
	1    0    0    -1  
$EndComp
$Comp
L CHRISJ1_C C1
U 1 1 534E0194
P 1800 1800
F 0 "C1" H 1900 1800 50  0000 C CNN
F 1 "10nF" H 1600 1800 50  0000 C CNN
F 2 "~" H 1800 1800 60  0000 C CNN
F 3 "~" H 1800 1800 60  0000 C CNN
	1    1800 1800
	1    0    0    -1  
$EndComp
$Comp
L CHRISJ1_C C3
U 1 1 534E019A
P 2350 2400
F 0 "C3" H 2450 2400 50  0000 C CNN
F 1 "10nF" H 2500 2500 50  0000 C CNN
F 2 "~" H 2350 2400 60  0000 C CNN
F 3 "~" H 2350 2400 60  0000 C CNN
	1    2350 2400
	-1   0    0    1   
$EndComp
$Comp
L CHRISJ1_C C5
U 1 1 534E01B6
P 3100 2400
F 0 "C5" H 3200 2450 50  0000 C CNN
F 1 "10nF" H 3250 2350 50  0000 C CNN
F 2 "~" H 3100 2400 60  0000 C CNN
F 3 "~" H 3100 2400 60  0000 C CNN
	1    3100 2400
	1    0    0    -1  
$EndComp
$Comp
L CHRISJ1_R R4
U 1 1 534E01BC
P 2950 2400
F 0 "R4" H 3050 2400 50  0000 C CNN
F 1 "100k" H 3050 2500 50  0000 C CNN
F 2 "~" H 2950 2400 60  0000 C CNN
F 3 "~" H 2950 2400 60  0000 C CNN
	1    2950 2400
	-1   0    0    1   
$EndComp
$Comp
L GND #PWR01
U 1 1 534E0283
P 3400 2400
F 0 "#PWR01" H 3400 2400 30  0001 C CNN
F 1 "GND" H 3400 2330 30  0001 C CNN
F 2 "" H 3400 2400 60  0000 C CNN
F 3 "" H 3400 2400 60  0000 C CNN
	1    3400 2400
	1    0    0    -1  
$EndComp
$Comp
L GND #PWR02
U 1 1 534E029C
P 1800 2150
F 0 "#PWR02" H 1800 2150 30  0001 C CNN
F 1 "GND" H 1800 2080 30  0001 C CNN
F 2 "" H 1800 2150 60  0000 C CNN
F 3 "" H 1800 2150 60  0000 C CNN
	1    1800 2150
	1    0    0    -1  
$EndComp
$Comp
L GND #PWR03
U 1 1 534E02A2
P 2000 1650
F 0 "#PWR03" H 2000 1650 30  0001 C CNN
F 1 "GND" H 2000 1580 30  0001 C CNN
F 2 "" H 2000 1650 60  0000 C CNN
F 3 "" H 2000 1650 60  0000 C CNN
	1    2000 1650
	1    0    0    -1  
$EndComp
$Comp
L CHRISJ1_C C4
U 1 1 534E02A8
P 3550 1700
F 0 "C4" V 3630 1700 50  0000 C CNN
F 1 "1uF" V 3470 1700 50  0000 C CNN
F 2 "~" H 3550 1700 60  0000 C CNN
F 3 "~" H 3550 1700 60  0000 C CNN
	1    3550 1700
	0    -1   -1   0   
$EndComp
$Comp
L GND #PWR04
U 1 1 534E02B9
P 3750 1750
F 0 "#PWR04" H 3750 1750 30  0001 C CNN
F 1 "GND" H 3750 1680 30  0001 C CNN
F 2 "" H 3750 1750 60  0000 C CNN
F 3 "" H 3750 1750 60  0000 C CNN
	1    3750 1750
	1    0    0    -1  
$EndComp
Wire Wire Line
	3600 1700 3750 1700
Wire Wire Line
	3750 1700 3750 1750
Wire Wire Line
	3500 1700 3400 1700
Wire Wire Line
	2250 2150 3250 2150
Wire Wire Line
	1800 1850 1800 2000
Wire Wire Line
	2050 1950 1800 1950
Connection ~ 1800 1950
Connection ~ 1800 1900
Wire Wire Line
	1800 1750 1800 1600
Wire Wire Line
	1800 1600 2000 1600
Wire Wire Line
	2000 1600 2000 1650
$Comp
L CHRISJ1_ADA4528-1 U1
U 1 1 534E1084
P 3500 2050
F 0 "U1" H 3400 2050 50  0000 L CNN
F 1 "ADA4528-1" H 3450 2200 50  0000 L CNN
F 2 "~" H 3500 2050 60  0000 C CNN
F 3 "~" H 3500 2050 60  0000 C CNN
	1    3500 2050
	1    0    0    -1  
$EndComp
$Comp
L CHRISJ1_CONN_2 P1
U 1 1 534E0EAC
P 1200 2050
F 0 "P1" H 1200 1800 50  0000 C CNN
F 1 "INPUT" V 1250 2050 40  0000 C CNN
F 2 "~" H 1200 2050 60  0000 C CNN
F 3 "~" H 1200 2050 60  0000 C CNN
	1    1200 2050
	-1   0    0    -1  
$EndComp
Wire Wire Line
	1550 1950 1650 1950
Wire Wire Line
	1650 1950 1650 1900
Wire Wire Line
	1650 1900 1800 1900
$Comp
L CHRISJ1_R R5
U 1 1 534E1257
P 3950 2050
F 0 "R5" V 4050 2050 50  0000 C CNN
F 1 "820" V 4150 2050 50  0000 C CNN
F 2 "~" H 3950 2050 60  0000 C CNN
F 3 "~" H 3950 2050 60  0000 C CNN
	1    3950 2050
	0    1    1    0   
$EndComp
$Comp
L CHRISJ1_R R6
U 1 1 534E1277
P 4400 2050
F 0 "R6" V 4250 2050 50  0000 C CNN
F 1 "180" V 4320 2050 50  0000 C CNN
F 2 "~" H 4400 2050 60  0000 C CNN
F 3 "~" H 4400 2050 60  0000 C CNN
	1    4400 2050
	0    1    1    0   
$EndComp
Wire Wire Line
	3400 1600 3400 1800
Wire Wire Line
	4050 2050 4300 2050
$Comp
L GND #PWR05
U 1 1 534E1524
P 4150 2250
F 0 "#PWR05" H 4150 2250 30  0001 C CNN
F 1 "GND" H 4150 2180 30  0001 C CNN
F 2 "" H 4150 2250 60  0000 C CNN
F 3 "" H 4150 2250 60  0000 C CNN
	1    4150 2250
	1    0    0    -1  
$EndComp
Wire Wire Line
	3400 2400 3400 2300
$Comp
L +5V #PWR06
U 1 1 55A26082
P 3400 1600
F 0 "#PWR06" H 3400 1550 20  0001 C CNN
F 1 "+5V" H 3400 1700 50  0000 C CNN
F 2 "~" H 3400 1600 60  0000 C CNN
F 3 "~" H 3400 1600 60  0000 C CNN
	1    3400 1600
	1    0    0    -1  
$EndComp
Connection ~ 3400 1700
$Comp
L CHRISJ1_C C6
U 1 1 55A2616D
P 4150 2150
F 0 "C6" H 4250 2150 50  0000 C CNN
F 1 "10nF" H 4300 2050 50  0000 C CNN
F 2 "~" H 4150 2150 60  0000 C CNN
F 3 "~" H 4150 2150 60  0000 C CNN
	1    4150 2150
	1    0    0    -1  
$EndComp
Wire Wire Line
	4150 2250 4150 2200
Wire Wire Line
	4150 2100 4150 2050
Connection ~ 4150 2050
$Comp
L CHRISJ1_R R3
U 1 1 55A2621B
P 2500 2400
F 0 "R3" H 2600 2400 50  0000 C CNN
F 1 "100k" H 2600 2500 50  0000 C CNN
F 2 "~" H 2500 2400 60  0000 C CNN
F 3 "~" H 2500 2400 60  0000 C CNN
	1    2500 2400
	1    0    0    -1  
$EndComp
$Comp
L CHRISJ1_ZENER2 D1
U 1 1 55A2629A
P 4300 1400
F 0 "D1" H 4300 1500 50  0000 C CNN
F 1 "PTVS5V0S1UR" H 4300 1300 50  0000 C CNN
F 2 "~" H 4300 1400 60  0000 C CNN
F 3 "~" H 4300 1400 60  0000 C CNN
	1    4300 1400
	0    -1   -1   0   
$EndComp
$Comp
L +5V #PWR07
U 1 1 55A262AC
P 4300 1200
F 0 "#PWR07" H 4300 1150 20  0001 C CNN
F 1 "+5V" H 4300 1300 50  0000 C CNN
F 2 "~" H 4300 1200 60  0000 C CNN
F 3 "~" H 4300 1200 60  0000 C CNN
	1    4300 1200
	1    0    0    -1  
$EndComp
$Comp
L GND #PWR08
U 1 1 55A262B2
P 4300 1600
F 0 "#PWR08" H 4300 1600 30  0001 C CNN
F 1 "GND" H 4300 1530 30  0001 C CNN
F 2 "" H 4300 1600 60  0000 C CNN
F 3 "" H 4300 1600 60  0000 C CNN
	1    4300 1600
	1    0    0    -1  
$EndComp
Wire Wire Line
	4300 1200 4300 1300
Wire Wire Line
	4300 1500 4300 1600
$Comp
L CHRISJ1_CONN_4 P2
U 1 1 55B5C893
P 5000 2100
F 0 "P2" V 4950 2100 50  0000 C CNN
F 1 "OUTPUT" V 5050 2100 50  0000 C CNN
F 2 "~" H 5000 2100 60  0000 C CNN
F 3 "~" H 5000 2100 60  0000 C CNN
	1    5000 2100
	1    0    0    -1  
$EndComp
$Comp
L +5V #PWR09
U 1 1 55B5C8AA
P 4600 1850
F 0 "#PWR09" H 4600 1800 20  0001 C CNN
F 1 "+5V" H 4600 1950 50  0000 C CNN
F 2 "~" H 4600 1850 60  0000 C CNN
F 3 "~" H 4600 1850 60  0000 C CNN
	1    4600 1850
	1    0    0    -1  
$EndComp
$Comp
L GND #PWR010
U 1 1 55B5C8B0
P 4600 2350
F 0 "#PWR010" H 4600 2350 30  0001 C CNN
F 1 "GND" H 4600 2280 30  0001 C CNN
F 2 "" H 4600 2350 60  0000 C CNN
F 3 "" H 4600 2350 60  0000 C CNN
	1    4600 2350
	1    0    0    -1  
$EndComp
Wire Wire Line
	4650 1950 4600 1950
Wire Wire Line
	4600 1950 4600 1850
Wire Wire Line
	4600 2350 4600 2250
Wire Wire Line
	4600 2250 4650 2250
Text Notes 4450 1450 0    60   ~ 0
SOD123
$Comp
L PWR_FLAG #FLG011
U 1 1 55DD1B5E
P 4100 1550
F 0 "#FLG011" H 4100 1645 30  0001 C CNN
F 1 "PWR_FLAG" H 4100 1730 30  0000 C CNN
F 2 "" H 4100 1550 60  0000 C CNN
F 3 "" H 4100 1550 60  0000 C CNN
	1    4100 1550
	0    -1   -1   0   
$EndComp
$Comp
L PWR_FLAG #FLG012
U 1 1 55DD1B6B
P 4100 1250
F 0 "#FLG012" H 4100 1345 30  0001 C CNN
F 1 "PWR_FLAG" H 4100 1430 30  0000 C CNN
F 2 "" H 4100 1250 60  0000 C CNN
F 3 "" H 4100 1250 60  0000 C CNN
	1    4100 1250
	0    -1   -1   0   
$EndComp
Wire Wire Line
	4100 1250 4300 1250
Connection ~ 4300 1250
Wire Wire Line
	4100 1550 4300 1550
Connection ~ 4300 1550
Wire Wire Line
	2250 1950 3250 1950
Wire Wire Line
	3750 2050 3850 2050
Wire Wire Line
	2350 2350 2350 2250
Wire Wire Line
	2350 2250 2500 2250
Wire Wire Line
	2500 1950 2500 2300
Wire Wire Line
	2950 2150 2950 2300
Wire Wire Line
	2950 2250 3100 2250
Wire Wire Line
	3100 2250 3100 2350
Wire Wire Line
	2500 2500 2500 2700
Wire Wire Line
	2950 2500 2950 2650
Wire Wire Line
	2950 2550 3100 2550
Wire Wire Line
	3100 2550 3100 2450
Connection ~ 2500 1950
Connection ~ 2500 2250
Connection ~ 2950 2150
Connection ~ 2950 2250
Wire Wire Line
	2950 2650 3800 2650
Wire Wire Line
	3800 2650 3800 2050
Connection ~ 3800 2050
Connection ~ 2950 2550
Wire Wire Line
	4500 2050 4650 2050
Wire Wire Line
	4650 2150 4500 2150
Wire Wire Line
	4500 2150 4500 2800
Wire Wire Line
	4500 2800 4250 2800
$Comp
L CHRISJ1_R R7
U 1 1 55DD2927
P 4150 2800
F 0 "R7" V 4290 2800 50  0000 C CNN
F 1 "1k" V 4220 2800 50  0000 C CNN
F 2 "~" H 4150 2800 60  0000 C CNN
F 3 "~" H 4150 2800 60  0000 C CNN
	1    4150 2800
	0    -1   -1   0   
$EndComp
Wire Wire Line
	2500 2700 1600 2700
Connection ~ 2500 2550
Wire Wire Line
	1800 2150 1800 2100
Wire Wire Line
	2050 2150 2000 2150
Wire Wire Line
	2000 2150 2000 2300
Wire Wire Line
	2000 2300 1650 2300
Wire Wire Line
	1650 2300 1650 2150
Wire Wire Line
	1650 2150 1550 2150
Wire Wire Line
	1550 2150 1600 2200
Wire Wire Line
	1600 2200 1600 2700
Wire Wire Line
	1550 2150 1450 2250
Wire Wire Line
	1550 2150 1550 2800
Wire Wire Line
	1550 2800 4050 2800
Connection ~ 1550 2150
$Comp
L CHRISJ1_R R8
U 1 1 55DD2CFC
P 1450 2400
F 0 "R8" V 1590 2400 50  0000 C CNN
F 1 "0" V 1520 2400 50  0000 C CNN
F 2 "~" H 1450 2400 60  0000 C CNN
F 3 "~" H 1450 2400 60  0000 C CNN
	1    1450 2400
	-1   0    0    1   
$EndComp
Wire Wire Line
	1450 2250 1450 2300
Wire Wire Line
	1450 2550 1450 2500
$Comp
L GND #PWR013
U 1 1 55DD2DA0
P 1450 2550
F 0 "#PWR013" H 1450 2550 30  0001 C CNN
F 1 "GND" H 1450 2480 30  0001 C CNN
F 2 "" H 1450 2550 60  0000 C CNN
F 3 "" H 1450 2550 60  0000 C CNN
	1    1450 2550
	1    0    0    -1  
$EndComp
$Comp
L GND #PWR?
U 1 1 55DD4B53
P 2350 2500
F 0 "#PWR?" H 2350 2500 30  0001 C CNN
F 1 "GND" H 2350 2430 30  0001 C CNN
F 2 "" H 2350 2500 60  0000 C CNN
F 3 "" H 2350 2500 60  0000 C CNN
	1    2350 2500
	1    0    0    -1  
$EndComp
Wire Wire Line
	2350 2500 2350 2450
$EndSCHEMATC
