(kicad_pcb (version 3) (host pcbnew "(2013-07-07 BZR 4022)-stable")

  (general
    (links 21)
    (no_connects 0)
    (area 34.682262 39.182262 46.417738 48.517738)
    (thickness 1.6)
    (drawings 4)
    (tracks 52)
    (zones 0)
    (modules 15)
    (nets 11)
  )

  (page A3)
  (layers
    (15 F.Cu signal)
    (2 Inner2.Cu signal hide)
    (1 Inner1.Cu signal hide)
    (0 B.Cu signal hide)
    (16 B.Adhes user)
    (17 F.Adhes user)
    (18 B.Paste user)
    (19 F.Paste user)
    (20 B.SilkS user)
    (21 F.SilkS user)
    (22 B.Mask user)
    (23 F.Mask user)
    (24 Dwgs.User user)
    (25 Cmts.User user)
    (26 Eco1.User user)
    (27 Eco2.User user)
    (28 Edge.Cuts user)
  )

  (setup
    (last_trace_width 0.2)
    (user_trace_width 0.16)
    (user_trace_width 0.18)
    (user_trace_width 0.2)
    (user_trace_width 0.25)
    (user_trace_width 0.3)
    (user_trace_width 0.4)
    (user_trace_width 0.5)
    (user_trace_width 0.6)
    (user_trace_width 0.8)
    (user_trace_width 1)
    (user_trace_width 1.2)
    (trace_clearance 0.16)
    (zone_clearance 0.3)
    (zone_45_only yes)
    (trace_min 0.16)
    (segment_width 0.2)
    (edge_width 0.1)
    (via_size 0.55)
    (via_drill 0.35)
    (via_min_size 0.55)
    (via_min_drill 0.35)
    (user_via 0.55 0.35)
    (user_via 0.6 0.4)
    (user_via 0.7 0.5)
    (user_via 0.8 0.6)
    (user_via 0.9 0.7)
    (user_via 1 0.8)
    (uvia_size 0.508)
    (uvia_drill 0.127)
    (uvias_allowed no)
    (uvia_min_size 0.508)
    (uvia_min_drill 0.127)
    (pcb_text_width 0.3)
    (pcb_text_size 1.5 1.5)
    (mod_edge_width 0.12)
    (mod_text_size 1 1)
    (mod_text_width 0.15)
    (pad_size 0.4 0.9)
    (pad_drill 0)
    (pad_to_mask_clearance 0.05)
    (solder_mask_min_width 0.15)
    (aux_axis_origin 0 0)
    (visible_elements 7FFFFFFF)
    (pcbplotparams
      (layerselection 283148295)
      (usegerberextensions true)
      (excludeedgelayer true)
      (linewidth 0.150000)
      (plotframeref false)
      (viasonmask true)
      (mode 1)
      (useauxorigin false)
      (hpglpennumber 1)
      (hpglpenspeed 20)
      (hpglpendiameter 15)
      (hpglpenoverlay 2)
      (psnegative false)
      (psa4output false)
      (plotreference true)
      (plotvalue false)
      (plotothertext false)
      (plotinvisibletext false)
      (padsonsilk false)
      (subtractmaskfromsilk true)
      (outputformat 1)
      (mirror false)
      (drillshape 0)
      (scaleselection 1)
      (outputdirectory ""))
  )

  (net 0 "")
  (net 1 /GATE)
  (net 2 /TMR)
  (net 3 /VBAT)
  (net 4 /VBATINT)
  (net 5 /VIN)
  (net 6 GND)
  (net 7 N-000004)
  (net 8 N-000005)
  (net 9 N-000006)
  (net 10 N-000007)

  (net_class Default "This is the default net class."
    (clearance 0.16)
    (trace_width 0.16)
    (via_dia 0.55)
    (via_drill 0.35)
    (uvia_dia 0.508)
    (uvia_drill 0.127)
    (add_net "")
    (add_net /GATE)
    (add_net /TMR)
    (add_net /VBAT)
    (add_net /VBATINT)
    (add_net /VIN)
    (add_net GND)
    (add_net N-000004)
    (add_net N-000005)
    (add_net N-000006)
    (add_net N-000007)
  )

  (module chrisj1_1206 (layer F.Cu) (tedit 524259F1) (tstamp 52253E2D)
    (at 37.8 41.2)
    (path /522536C0)
    (attr smd)
    (fp_text reference F1 (at 0 0.16) (layer F.SilkS)
      (effects (font (size 0.7 0.4) (thickness 0.1)))
    )
    (fp_text value 1.5A (at 0 0.5) (layer F.SilkS) hide
      (effects (font (size 0.6 0.4) (thickness 0.0625)))
    )
    (fp_line (start -2 -1) (end -2 1) (layer F.SilkS) (width 0.12))
    (fp_line (start -2 -1) (end 2 -1) (layer F.SilkS) (width 0.12))
    (fp_line (start 2 -1) (end 2 1) (layer F.SilkS) (width 0.12))
    (fp_line (start 2 1) (end -2 1) (layer F.SilkS) (width 0.12))
    (pad 1 smd rect (at -1.45 0) (size 0.9 1.8)
      (layers F.Cu F.Paste F.Mask)
      (net 3 /VBAT)
    )
    (pad 2 smd rect (at 1.45 0) (size 0.9 1.8)
      (layers F.Cu F.Paste F.Mask)
      (net 4 /VBATINT)
    )
    (model smd/chip_cms.wrl
      (at (xyz 0 0 0))
      (scale (xyz 0.17 0.16 0.16))
      (rotate (xyz 0 0 0))
    )
  )

  (module chrisj1_1pin_2p5mmx1p5mm (layer F.Cu) (tedit 52258ACA) (tstamp 52253E42)
    (at 43.4 40.8 180)
    (descr "module 1 pin (ou trou mecanique de percage)")
    (tags DEV)
    (path /524126AB)
    (fp_text reference P3 (at -1.8 0 270) (layer F.SilkS) hide
      (effects (font (size 0.5 0.5) (thickness 0.125)))
    )
    (fp_text value CONN_1 (at 0 -0.1 180) (layer F.SilkS) hide
      (effects (font (size 0.5 0.5) (thickness 0.125)))
    )
    (pad 1 smd rect (at 0 0 180) (size 2.5 1.5)
      (layers F.Cu F.Paste F.SilkS F.Mask)
      (net 8 N-000005)
    )
  )

  (module chrisj1_1pin_2p5mmx1p5mm (layer F.Cu) (tedit 524259CF) (tstamp 52253E4B)
    (at 36.3 41.5 90)
    (descr "module 1 pin (ou trou mecanique de percage)")
    (tags DEV)
    (path /52253A6A)
    (fp_text reference P4 (at -0.83 -0.28 90) (layer F.SilkS) hide
      (effects (font (size 0.5 0.5) (thickness 0.125)))
    )
    (fp_text value CONN_1 (at 0.1 -0.4 90) (layer F.SilkS) hide
      (effects (font (size 0.127 0.127) (thickness 0.0125)))
    )
    (pad 1 smd rect (at 0 0 90) (size 2.5 1.5)
      (layers F.Cu F.Paste F.SilkS F.Mask)
      (net 3 /VBAT)
    )
  )

  (module chrisj1_1pin_2p5mmx1p5mm (layer F.Cu) (tedit 52425A08) (tstamp 52253E54)
    (at 44.3 46.9)
    (descr "module 1 pin (ou trou mecanique de percage)")
    (tags DEV)
    (path /52253A88)
    (fp_text reference P1 (at 0.13 -0.01 90) (layer F.SilkS) hide
      (effects (font (size 0.5 0.5) (thickness 0.125)))
    )
    (fp_text value CONN_1 (at -0.83 -0.75) (layer F.SilkS) hide
      (effects (font (size 0.5 0.5) (thickness 0.125)))
    )
    (pad 1 smd rect (at 0 0) (size 2.5 1.5)
      (layers F.Cu F.Paste F.SilkS F.Mask)
      (net 5 /VIN)
    )
  )

  (module chrisj1_1pin_2p5mmx1p5mm (layer F.Cu) (tedit 52D50949) (tstamp 52253E5D)
    (at 44.3 42.5)
    (descr "module 1 pin (ou trou mecanique de percage)")
    (tags DEV)
    (path /52253A97)
    (fp_text reference P2 (at 0.13 0.09 90) (layer F.SilkS) hide
      (effects (font (size 0.4 0.3) (thickness 0.075)))
    )
    (fp_text value CONN_1 (at 0 -0.4) (layer F.SilkS) hide
      (effects (font (size 0.5 0.5) (thickness 0.125)))
    )
    (pad 1 smd rect (at 0 0) (size 2.5 1.5)
      (layers F.Cu F.Paste F.SilkS F.Mask)
      (net 6 GND)
    )
  )

  (module c_0402 (layer F.Cu) (tedit 52D508FD) (tstamp 52253E23)
    (at 36.5 47.2 180)
    (descr "SMT capacitor, 0402")
    (path /52412773)
    (fp_text reference R1 (at 0.01 -0.17 180) (layer F.SilkS) hide
      (effects (font (size 0.1524 0.1524) (thickness 0.03048)))
    )
    (fp_text value 4R7 (at -0.05 -0.01 180) (layer F.SilkS) hide
      (effects (font (size 0.1524 0.1524) (thickness 0.03048)))
    )
    (fp_line (start 0.3302 -0.2794) (end 0.3302 0.2794) (layer F.SilkS) (width 0.127))
    (fp_line (start -0.3302 -0.2794) (end -0.3302 0.2794) (layer F.SilkS) (width 0.127))
    (fp_line (start -0.5334 -0.2794) (end -0.5334 0.2794) (layer F.SilkS) (width 0.127))
    (fp_line (start -0.5334 0.2794) (end 0.5334 0.2794) (layer F.SilkS) (width 0.127))
    (fp_line (start 0.5334 0.2794) (end 0.5334 -0.2794) (layer F.SilkS) (width 0.127))
    (fp_line (start 0.5334 -0.2794) (end -0.5334 -0.2794) (layer F.SilkS) (width 0.127))
    (pad 1 smd rect (at 0.54864 0 180) (size 0.8001 0.6985)
      (layers F.Cu F.Paste F.Mask)
      (net 9 N-000006)
    )
    (pad 2 smd rect (at -0.54864 0 180) (size 0.8001 0.6985)
      (layers F.Cu F.Paste F.Mask)
      (net 5 /VIN)
    )
    (model smd/capacitors/c_0402.wrl
      (at (xyz 0 0 0))
      (scale (xyz 1 1 1))
      (rotate (xyz 0 0 0))
    )
  )

  (module chrisj1_DO-214AA (layer F.Cu) (tedit 52425A6A) (tstamp 5241D572)
    (at 43.6 44.7 270)
    (descr DO-214AA)
    (tags DO-214AA)
    (path /52412964)
    (attr smd)
    (fp_text reference D1 (at -0.47 -0.02 270) (layer F.SilkS) hide
      (effects (font (size 1.00076 1.00076) (thickness 0.11938)))
    )
    (fp_text value SMBJ6.0A (at 0.05 0.74 270) (layer F.SilkS) hide
      (effects (font (size 0.127 0.127) (thickness 0.01)))
    )
    (fp_line (start -0.762 0) (end -0.9652 0) (layer F.SilkS) (width 0.127))
    (fp_line (start -2.286 -1.905) (end 2.286 -1.905) (layer F.SilkS) (width 0.127))
    (fp_line (start 2.286 -1.905) (end 2.286 -1.27) (layer F.SilkS) (width 0.127))
    (fp_line (start 0.6604 1.905) (end 0.6604 -1.905) (layer F.SilkS) (width 0.127))
    (fp_line (start 0.9906 1.905) (end 0.9906 -1.905) (layer F.SilkS) (width 0.127))
    (fp_line (start -2.286 1.27) (end -2.286 1.905) (layer F.SilkS) (width 0.127))
    (fp_line (start -2.286 1.905) (end 2.286 1.905) (layer F.SilkS) (width 0.127))
    (fp_line (start 2.286 1.905) (end 2.286 1.27) (layer F.SilkS) (width 0.127))
    (fp_line (start -2.286 -1.27) (end -2.286 -1.905) (layer F.SilkS) (width 0.127))
    (fp_line (start -0.127 0) (end -0.762 -0.47498) (layer F.SilkS) (width 0.127))
    (fp_line (start -0.762 -0.47498) (end -0.762 0) (layer F.SilkS) (width 0.127))
    (fp_line (start -0.762 0) (end -0.762 0.47498) (layer F.SilkS) (width 0.127))
    (fp_line (start -0.762 0.47498) (end -0.127 0) (layer F.SilkS) (width 0.127))
    (fp_line (start -0.127 0) (end -0.127 -0.3175) (layer F.SilkS) (width 0.127))
    (fp_line (start -0.127 -0.3175) (end -0.28448 -0.47498) (layer F.SilkS) (width 0.127))
    (fp_line (start -0.127 0) (end -0.127 0.3175) (layer F.SilkS) (width 0.127))
    (fp_line (start -0.127 0.3175) (end 0.03048 0.47498) (layer F.SilkS) (width 0.127))
    (fp_line (start -0.127 0) (end 0.98298 0) (layer F.SilkS) (width 0.127))
    (pad A smd rect (at -2.0066 0 270) (size 1.80086 2.19964)
      (layers F.Cu F.Paste F.Mask)
      (net 6 GND)
    )
    (pad K smd rect (at 2.0066 0 270) (size 1.80086 2.19964)
      (layers F.Cu F.Paste F.Mask)
      (net 5 /VIN)
    )
    (model smd/do214.wrl
      (at (xyz 0 0 0))
      (scale (xyz 1 1 1))
      (rotate (xyz 0 0 0))
    )
  )

  (module chrisj1_1pin_2p5mmx1p5mm (layer F.Cu) (tedit 524259FF) (tstamp 5241D577)
    (at 44.8 43 90)
    (descr "module 1 pin (ou trou mecanique de percage)")
    (tags DEV)
    (path /52253A79)
    (fp_text reference P5 (at 0.1 -1.3 90) (layer F.SilkS) hide
      (effects (font (size 0.5 0.5) (thickness 0.125)))
    )
    (fp_text value CONN_1 (at -0.05 0.08 90) (layer F.SilkS) hide
      (effects (font (size 0.5 0.5) (thickness 0.125)))
    )
    (pad 1 smd rect (at 0 0 90) (size 2.5 1.5)
      (layers F.Cu F.Paste F.SilkS F.Mask)
      (net 6 GND)
    )
  )

  (module c_0402 (layer F.Cu) (tedit 52D5091C) (tstamp 5241D583)
    (at 38 46.6 90)
    (descr "SMT capacitor, 0402")
    (path /522535D6)
    (fp_text reference R3 (at 0.08 -0.04 180) (layer F.SilkS) hide
      (effects (font (size 0.1524 0.1524) (thickness 0.03048)))
    )
    (fp_text value 10k (at -0.18 0.03 180) (layer F.SilkS) hide
      (effects (font (size 0.1524 0.1524) (thickness 0.03048)))
    )
    (fp_line (start 0.3302 -0.2794) (end 0.3302 0.2794) (layer F.SilkS) (width 0.127))
    (fp_line (start -0.3302 -0.2794) (end -0.3302 0.2794) (layer F.SilkS) (width 0.127))
    (fp_line (start -0.5334 -0.2794) (end -0.5334 0.2794) (layer F.SilkS) (width 0.127))
    (fp_line (start -0.5334 0.2794) (end 0.5334 0.2794) (layer F.SilkS) (width 0.127))
    (fp_line (start 0.5334 0.2794) (end 0.5334 -0.2794) (layer F.SilkS) (width 0.127))
    (fp_line (start 0.5334 -0.2794) (end -0.5334 -0.2794) (layer F.SilkS) (width 0.127))
    (pad 1 smd rect (at 0.54864 0 90) (size 0.8001 0.6985)
      (layers F.Cu F.Paste F.Mask)
      (net 7 N-000004)
    )
    (pad 2 smd rect (at -0.54864 0 90) (size 0.8001 0.6985)
      (layers F.Cu F.Paste F.Mask)
      (net 5 /VIN)
    )
    (model smd/capacitors/c_0402.wrl
      (at (xyz 0 0 0))
      (scale (xyz 1 1 1))
      (rotate (xyz 0 0 0))
    )
  )

  (module c_0402 (layer F.Cu) (tedit 52D50945) (tstamp 52422B3F)
    (at 41.2 41.2 270)
    (descr "SMT capacitor, 0402")
    (path /52411EBB)
    (fp_text reference C2 (at -0.13 -0.01 360) (layer F.SilkS) hide
      (effects (font (size 0.1524 0.1524) (thickness 0.03048)))
    )
    (fp_text value 100nF (at 0.13 -0.08 360) (layer F.SilkS) hide
      (effects (font (size 0.1524 0.1524) (thickness 0.03048)))
    )
    (fp_line (start 0.3302 -0.2794) (end 0.3302 0.2794) (layer F.SilkS) (width 0.127))
    (fp_line (start -0.3302 -0.2794) (end -0.3302 0.2794) (layer F.SilkS) (width 0.127))
    (fp_line (start -0.5334 -0.2794) (end -0.5334 0.2794) (layer F.SilkS) (width 0.127))
    (fp_line (start -0.5334 0.2794) (end 0.5334 0.2794) (layer F.SilkS) (width 0.127))
    (fp_line (start 0.5334 0.2794) (end 0.5334 -0.2794) (layer F.SilkS) (width 0.127))
    (fp_line (start 0.5334 -0.2794) (end -0.5334 -0.2794) (layer F.SilkS) (width 0.127))
    (pad 1 smd rect (at 0.54864 0 270) (size 0.8001 0.6985)
      (layers F.Cu F.Paste F.Mask)
      (net 2 /TMR)
    )
    (pad 2 smd rect (at -0.54864 0 270) (size 0.8001 0.6985)
      (layers F.Cu F.Paste F.Mask)
      (net 6 GND)
    )
    (model smd/capacitors/c_0402.wrl
      (at (xyz 0 0 0))
      (scale (xyz 1 1 1))
      (rotate (xyz 0 0 0))
    )
  )

  (module c_0402 (layer F.Cu) (tedit 52D5090A) (tstamp 5241D59B)
    (at 36.5 45.4 180)
    (descr "SMT capacitor, 0402")
    (path /524123D9)
    (fp_text reference C3 (at 0.01 -0.78 180) (layer F.SilkS) hide
      (effects (font (size 0.1524 0.1524) (thickness 0.03048)))
    )
    (fp_text value 47nF (at 0.03 0.05 180) (layer F.SilkS) hide
      (effects (font (size 0.1524 0.1524) (thickness 0.03048)))
    )
    (fp_line (start 0.3302 -0.2794) (end 0.3302 0.2794) (layer F.SilkS) (width 0.127))
    (fp_line (start -0.3302 -0.2794) (end -0.3302 0.2794) (layer F.SilkS) (width 0.127))
    (fp_line (start -0.5334 -0.2794) (end -0.5334 0.2794) (layer F.SilkS) (width 0.127))
    (fp_line (start -0.5334 0.2794) (end 0.5334 0.2794) (layer F.SilkS) (width 0.127))
    (fp_line (start 0.5334 0.2794) (end 0.5334 -0.2794) (layer F.SilkS) (width 0.127))
    (fp_line (start 0.5334 -0.2794) (end -0.5334 -0.2794) (layer F.SilkS) (width 0.127))
    (pad 1 smd rect (at 0.54864 0 180) (size 0.8001 0.6985)
      (layers F.Cu F.Paste F.Mask)
      (net 1 /GATE)
    )
    (pad 2 smd rect (at -0.54864 0 180) (size 0.8001 0.6985)
      (layers F.Cu F.Paste F.Mask)
      (net 6 GND)
    )
    (model smd/capacitors/c_0402.wrl
      (at (xyz 0 0 0))
      (scale (xyz 1 1 1))
      (rotate (xyz 0 0 0))
    )
  )

  (module c_0402 (layer F.Cu) (tedit 52D50927) (tstamp 5241D5A7)
    (at 38 44.5 90)
    (descr "SMT capacitor, 0402")
    (path /52412412)
    (fp_text reference C4 (at 0.08 -0.01 180) (layer F.SilkS) hide
      (effects (font (size 0.1524 0.1524) (thickness 0.03048)))
    )
    (fp_text value 47nF (at -0.16 0.09 180) (layer F.SilkS) hide
      (effects (font (size 0.1524 0.1524) (thickness 0.03048)))
    )
    (fp_line (start 0.3302 -0.2794) (end 0.3302 0.2794) (layer F.SilkS) (width 0.127))
    (fp_line (start -0.3302 -0.2794) (end -0.3302 0.2794) (layer F.SilkS) (width 0.127))
    (fp_line (start -0.5334 -0.2794) (end -0.5334 0.2794) (layer F.SilkS) (width 0.127))
    (fp_line (start -0.5334 0.2794) (end 0.5334 0.2794) (layer F.SilkS) (width 0.127))
    (fp_line (start 0.5334 0.2794) (end 0.5334 -0.2794) (layer F.SilkS) (width 0.127))
    (fp_line (start 0.5334 -0.2794) (end -0.5334 -0.2794) (layer F.SilkS) (width 0.127))
    (pad 1 smd rect (at 0.54864 0 90) (size 0.8001 0.6985)
      (layers F.Cu F.Paste F.Mask)
      (net 1 /GATE)
    )
    (pad 2 smd rect (at -0.54864 0 90) (size 0.8001 0.6985)
      (layers F.Cu F.Paste F.Mask)
      (net 7 N-000004)
    )
    (model smd/capacitors/c_0402.wrl
      (at (xyz 0 0 0))
      (scale (xyz 1 1 1))
      (rotate (xyz 0 0 0))
    )
  )

  (module c_0402 (layer F.Cu) (tedit 52D50941) (tstamp 52422B32)
    (at 40.3 41.2 270)
    (descr "SMT capacitor, 0402")
    (path /5241260E)
    (fp_text reference R2 (at -0.11 -0.04 360) (layer F.SilkS) hide
      (effects (font (size 0.1524 0.1524) (thickness 0.03048)))
    )
    (fp_text value 1k (at 0.14 -0.02 360) (layer F.SilkS) hide
      (effects (font (size 0.1524 0.1524) (thickness 0.03048)))
    )
    (fp_line (start 0.3302 -0.2794) (end 0.3302 0.2794) (layer F.SilkS) (width 0.127))
    (fp_line (start -0.3302 -0.2794) (end -0.3302 0.2794) (layer F.SilkS) (width 0.127))
    (fp_line (start -0.5334 -0.2794) (end -0.5334 0.2794) (layer F.SilkS) (width 0.127))
    (fp_line (start -0.5334 0.2794) (end 0.5334 0.2794) (layer F.SilkS) (width 0.127))
    (fp_line (start 0.5334 0.2794) (end 0.5334 -0.2794) (layer F.SilkS) (width 0.127))
    (fp_line (start 0.5334 -0.2794) (end -0.5334 -0.2794) (layer F.SilkS) (width 0.127))
    (pad 1 smd rect (at 0.54864 0 270) (size 0.8001 0.6985)
      (layers F.Cu F.Paste F.Mask)
      (net 10 N-000007)
    )
    (pad 2 smd rect (at -0.54864 0 270) (size 0.8001 0.6985)
      (layers F.Cu F.Paste F.Mask)
      (net 8 N-000005)
    )
    (model smd/capacitors/c_0402.wrl
      (at (xyz 0 0 0))
      (scale (xyz 1 1 1))
      (rotate (xyz 0 0 0))
    )
  )

  (module chrisj1_MSOP8 (layer F.Cu) (tedit 52425AEF) (tstamp 5241D8DE)
    (at 40 45)
    (path /5241169D)
    (fp_text reference U1 (at -0.45 1.09) (layer F.SilkS) hide
      (effects (font (size 0.2 0.127) (thickness 0.02)))
    )
    (fp_text value LTC4052 (at 4 2.77) (layer F.SilkS)
      (effects (font (size 0.7 0.5) (thickness 0.125)))
    )
    (fp_line (start 1.35 -2.6) (end 1.6 -2.6) (layer F.SilkS) (width 0.15))
    (fp_line (start 1.6 -2.6) (end 1.6 2.6) (layer F.SilkS) (width 0.15))
    (fp_line (start 1.6 2.6) (end 1.35 2.6) (layer F.SilkS) (width 0.15))
    (fp_line (start -1.35 -2.6) (end -1.6 -2.6) (layer F.SilkS) (width 0.15))
    (fp_line (start -1.6 -2.6) (end -1.6 2.35) (layer F.SilkS) (width 0.15))
    (fp_line (start -1.6 2.35) (end -1.35 2.6) (layer F.SilkS) (width 0.15))
    (pad 4 smd rect (at 0.975 2.17) (size 0.4 0.9)
      (layers F.Cu F.Paste F.Mask)
      (net 6 GND)
    )
    (pad 5 smd rect (at 0.975 -2.17) (size 0.4 0.9)
      (layers F.Cu F.Paste F.Mask)
      (net 2 /TMR)
    )
    (pad 6 smd rect (at 0.325 -2.17) (size 0.4 0.9)
      (layers F.Cu F.Paste F.Mask)
      (net 10 N-000007)
    )
    (pad 3 smd rect (at 0.325 2.17) (size 0.4 0.9)
      (layers F.Cu F.Paste F.Mask)
      (net 5 /VIN)
    )
    (pad 1 smd rect (at -0.975 2.17) (size 0.4 0.9)
      (layers F.Cu F.Paste F.Mask)
      (net 5 /VIN)
    )
    (pad 8 smd rect (at -0.975 -2.17) (size 0.4 0.9)
      (layers F.Cu F.Paste F.Mask)
      (net 4 /VBATINT)
    )
    (pad 7 smd rect (at -0.325 -2.17) (size 0.4 0.9)
      (layers F.Cu F.Paste F.Mask)
      (net 1 /GATE)
    )
    (pad 2 smd rect (at -0.325 2.17) (size 0.4 0.9)
      (layers F.Cu F.Paste F.Mask)
    )
    (pad 9 smd rect (at 0 0) (size 2.8 2.15)
      (layers F.Cu F.Paste F.Mask)
      (net 6 GND)
    )
  )

  (module c_0402 (layer F.Cu) (tedit 52D5090E) (tstamp 52253E39)
    (at 36.5 46.3 180)
    (descr "SMT capacitor, 0402")
    (path /52253995)
    (fp_text reference C1 (at 0 -0.4826 180) (layer F.SilkS) hide
      (effects (font (size 0.1524 0.1524) (thickness 0.03048)))
    )
    (fp_text value 1uF (at -0.03 -0.09 180) (layer F.SilkS) hide
      (effects (font (size 0.1524 0.1524) (thickness 0.03048)))
    )
    (fp_line (start 0.3302 -0.2794) (end 0.3302 0.2794) (layer F.SilkS) (width 0.127))
    (fp_line (start -0.3302 -0.2794) (end -0.3302 0.2794) (layer F.SilkS) (width 0.127))
    (fp_line (start -0.5334 -0.2794) (end -0.5334 0.2794) (layer F.SilkS) (width 0.127))
    (fp_line (start -0.5334 0.2794) (end 0.5334 0.2794) (layer F.SilkS) (width 0.127))
    (fp_line (start 0.5334 0.2794) (end 0.5334 -0.2794) (layer F.SilkS) (width 0.127))
    (fp_line (start 0.5334 -0.2794) (end -0.5334 -0.2794) (layer F.SilkS) (width 0.127))
    (pad 1 smd rect (at 0.54864 0 180) (size 0.8001 0.6985)
      (layers F.Cu F.Paste F.Mask)
      (net 9 N-000006)
    )
    (pad 2 smd rect (at -0.54864 0 180) (size 0.8001 0.6985)
      (layers F.Cu F.Paste F.Mask)
      (net 6 GND)
    )
    (model smd/capacitors/c_0402.wrl
      (at (xyz 0 0 0))
      (scale (xyz 1 1 1))
      (rotate (xyz 0 0 0))
    )
  )

  (gr_line (start 45.67 39.88) (end 45.67 48.2) (angle 90) (layer Edge.Cuts) (width 0.1))
  (gr_line (start 35.43 39.88) (end 45.67 39.88) (angle 90) (layer Edge.Cuts) (width 0.1))
  (gr_line (start 35.43 48.2) (end 35.43 39.88) (angle 90) (layer Edge.Cuts) (width 0.1))
  (gr_line (start 45.67 48.2) (end 35.43 48.2) (angle 90) (layer Edge.Cuts) (width 0.1))

  (segment (start 38 43.95136) (end 37.86864 43.95136) (width 0.2) (layer F.Cu) (net 1))
  (segment (start 36.26 44.64) (end 36.26 45.12) (width 0.2) (layer F.Cu) (net 1) (tstamp 524255EB))
  (segment (start 36.84 44.06) (end 36.26 44.64) (width 0.2) (layer F.Cu) (net 1) (tstamp 524255E3))
  (segment (start 37.76 44.06) (end 36.84 44.06) (width 0.2) (layer F.Cu) (net 1) (tstamp 524255DC))
  (segment (start 37.86864 43.95136) (end 37.76 44.06) (width 0.2) (layer F.Cu) (net 1) (tstamp 524255CC))
  (segment (start 38 43.95) (end 38 43.95136) (width 0.2) (layer F.Cu) (net 1) (tstamp 524237A5))
  (segment (start 38.31 43.64) (end 38 43.95) (width 0.2) (layer F.Cu) (net 1) (tstamp 524237A1))
  (segment (start 39.25 43.64) (end 38.31 43.64) (width 0.2) (layer F.Cu) (net 1) (tstamp 5242379D))
  (segment (start 39.71 43.18) (end 39.25 43.64) (width 0.2) (layer F.Cu) (net 1) (tstamp 52423797))
  (segment (start 40.975 42.83) (end 40.975 41.975) (width 0.2) (layer F.Cu) (net 2))
  (segment (start 39.025 42.83) (end 39.025 41.435) (width 0.4) (layer F.Cu) (net 4))
  (segment (start 39.25 41.21) (end 39.25 41.2) (width 0.4) (layer F.Cu) (net 4) (tstamp 5242380F))
  (segment (start 39.025 41.435) (end 39.25 41.21) (width 0.4) (layer F.Cu) (net 4) (tstamp 52423809))
  (segment (start 39.17 47.99) (end 40.33 47.99) (width 0.4) (layer F.Cu) (net 5) (tstamp 52423A91))
  (segment (start 40.325 47.17) (end 40.325 47.985) (width 0.4) (layer F.Cu) (net 5))
  (segment (start 39.025 47.17) (end 39.025 47.845) (width 0.4) (layer F.Cu) (net 5))
  (segment (start 41.88 47.99) (end 43.15 46.72) (width 0.4) (layer F.Cu) (net 5) (tstamp 52423A9C))
  (segment (start 40.33 47.99) (end 41.88 47.99) (width 0.4) (layer F.Cu) (net 5) (tstamp 52423B07))
  (segment (start 39.025 47.845) (end 39.17 47.99) (width 0.4) (layer F.Cu) (net 5) (tstamp 52423A8D))
  (segment (start 39.025 47.17) (end 38.02 47.17) (width 0.3) (layer F.Cu) (net 5))
  (segment (start 37.04864 47.2) (end 37.95 47.2) (width 0.5) (layer F.Cu) (net 5))
  (segment (start 37.04864 45.4) (end 37.04864 44.62136) (width 0.4) (layer F.Cu) (net 6))
  (segment (start 41.9 44.72) (end 40.98 44.72) (width 1) (layer F.Cu) (net 6))
  (via (at 40 45.6) (size 0.8) (drill 0.6) (layers F.Cu B.Cu) (net 6))
  (segment (start 40 44.4) (end 40 45.6) (width 0.2) (layer Inner2.Cu) (net 6) (tstamp 52425482))
  (via (at 40 44.4) (size 0.8) (drill 0.6) (layers F.Cu B.Cu) (net 6))
  (via (at 40.9 44.5) (size 1) (drill 0.8) (layers F.Cu B.Cu) (net 6))
  (segment (start 40.9 45.5) (end 40.9 44.5) (width 0.2) (layer Inner2.Cu) (net 6) (tstamp 5242543B))
  (via (at 40.9 45.5) (size 1) (drill 0.8) (layers F.Cu B.Cu) (net 6))
  (via (at 39.1 45.5) (size 1) (drill 0.8) (layers F.Cu B.Cu) (net 6))
  (segment (start 39.1 44.5) (end 39.1 45.5) (width 0.2) (layer Inner2.Cu) (net 6) (tstamp 5242542C))
  (via (at 39.1 44.5) (size 1) (drill 0.8) (layers F.Cu B.Cu) (net 6))
  (via (at 37.05 44.62) (size 0.55) (drill 0.35) (layers F.Cu B.Cu) (net 6))
  (segment (start 40.975 47.17) (end 40.975 45.465) (width 0.4) (layer F.Cu) (net 6))
  (segment (start 37.04864 46.3) (end 37.04864 45.40136) (width 0.5) (layer F.Cu) (net 6))
  (segment (start 42.99 43.63) (end 41.9 44.72) (width 1) (layer F.Cu) (net 6) (tstamp 524238DD))
  (segment (start 41.9 44.72) (end 41.91 44.71) (width 1) (layer F.Cu) (net 6) (tstamp 52425591))
  (segment (start 42.99 43.3) (end 42.99 43.63) (width 1) (layer F.Cu) (net 6) (tstamp 524238CA))
  (segment (start 41.2 40.65136) (end 41.20136 40.65136) (width 0.2) (layer F.Cu) (net 6))
  (segment (start 41.83 43.38) (end 41.09 44.12) (width 0.2) (layer F.Cu) (net 6) (tstamp 52423899))
  (segment (start 41.83 41.16) (end 41.83 43.38) (width 0.2) (layer F.Cu) (net 6) (tstamp 5242388A))
  (segment (start 41.32 40.65) (end 41.83 41.16) (width 0.2) (layer F.Cu) (net 6) (tstamp 5242387C))
  (segment (start 41.20272 40.65) (end 41.32 40.65) (width 0.2) (layer F.Cu) (net 6) (tstamp 52423859))
  (segment (start 41.20136 40.65136) (end 41.20272 40.65) (width 0.2) (layer F.Cu) (net 6) (tstamp 52423852))
  (segment (start 38 45.04864) (end 38 46.05) (width 0.2) (layer F.Cu) (net 7))
  (segment (start 38 46.05) (end 38 46.05136) (width 0.16) (layer F.Cu) (net 7) (tstamp 5434A40C))
  (segment (start 40.55 40.57136) (end 40.55 40.17) (width 0.2) (layer F.Cu) (net 8))
  (segment (start 42.06 39.99) (end 42.87 40.8) (width 0.2) (layer F.Cu) (net 8) (tstamp 52423950))
  (segment (start 40.73 39.99) (end 42.06 39.99) (width 0.2) (layer F.Cu) (net 8) (tstamp 52423944))
  (segment (start 40.55 40.17) (end 40.73 39.99) (width 0.2) (layer F.Cu) (net 8) (tstamp 5242392B))
  (segment (start 35.95136 46.3) (end 35.95136 47.18864) (width 0.5) (layer F.Cu) (net 9))
  (segment (start 40.325 42.83) (end 40.325 41.775) (width 0.2) (layer F.Cu) (net 10))

  (zone (net 6) (net_name GND) (layer B.Cu) (tstamp 52425704) (hatch edge 0.508)
    (connect_pads yes (clearance 0.3))
    (min_thickness 0.2)
    (fill (arc_segments 16) (thermal_gap 0.508) (thermal_bridge_width 0.508))
    (polygon
      (pts
        (xy 45.55 48.19) (xy 35.55 48.19) (xy 35.55 43.96) (xy 37.65 43.96) (xy 38.64 42.97)
        (xy 38.64 39.89) (xy 45.55 39.89)
      )
    )
    (filled_polygon
      (pts
        (xy 45.22 47.75) (xy 35.88 47.75) (xy 35.88 44.06) (xy 37.691421 44.06) (xy 38.74 43.011421)
        (xy 38.74 40.33) (xy 45.22 40.33) (xy 45.22 47.75)
      )
    )
  )
  (zone (net 6) (net_name GND) (layer Inner1.Cu) (tstamp 5242579A) (hatch edge 0.508)
    (connect_pads yes (clearance 0.3))
    (min_thickness 0.2)
    (fill (arc_segments 16) (thermal_gap 0.508) (thermal_bridge_width 0.508))
    (polygon
      (pts
        (xy 35.55 48.19) (xy 45.55 48.19) (xy 45.55 39.89) (xy 38.64 39.89) (xy 38.64 42.97)
        (xy 37.65 43.96) (xy 35.55 43.96)
      )
    )
    (filled_polygon
      (pts
        (xy 45.22 47.75) (xy 35.88 47.75) (xy 35.88 44.06) (xy 37.691421 44.06) (xy 38.74 43.011421)
        (xy 38.74 40.33) (xy 45.22 40.33) (xy 45.22 47.75)
      )
    )
  )
  (zone (net 6) (net_name GND) (layer Inner2.Cu) (tstamp 524257CC) (hatch edge 0.508)
    (connect_pads yes (clearance 0.3))
    (min_thickness 0.2)
    (fill (arc_segments 16) (thermal_gap 0.508) (thermal_bridge_width 0.508))
    (polygon
      (pts
        (xy 45.55 48.19) (xy 35.55 48.19) (xy 35.55 43.96) (xy 37.65 43.96) (xy 38.64 42.97)
        (xy 38.64 39.89) (xy 45.55 39.89)
      )
    )
    (filled_polygon
      (pts
        (xy 45.22 47.75) (xy 35.88 47.75) (xy 35.88 44.06) (xy 37.691421 44.06) (xy 38.74 43.011421)
        (xy 38.74 40.33) (xy 45.22 40.33) (xy 45.22 47.75)
      )
    )
  )
  (zone (net 0) (net_name "") (layer B.Mask) (tstamp 52425BB9) (hatch edge 0.508)
    (connect_pads yes (clearance 0.3))
    (min_thickness 0.2)
    (fill (arc_segments 16) (thermal_gap 0.508) (thermal_bridge_width 0.508))
    (polygon
      (pts
        (xy 38.59 43.92) (xy 41.41 43.92) (xy 41.41 46.08) (xy 38.59 46.08)
      )
    )
    (filled_polygon
      (pts
        (xy 41.31 45.98) (xy 38.69 45.98) (xy 38.69 44.02) (xy 41.31 44.02) (xy 41.31 45.98)
      )
    )
  )
)
