EESchema Schematic File Version 4
LIBS:pelt_bnc-cache
EELAYER 30 0
EELAYER END
$Descr A4 11693 8268
encoding utf-8
Sheet 1 1
Title ""
Date ""
Rev ""
Comp ""
Comment1 ""
Comment2 ""
Comment3 ""
Comment4 ""
$EndDescr
$Comp
L Connector_Generic:Conn_01x02 J4
U 1 1 5A3882B2
P 7100 2900
F 0 "J4" H 7100 3000 50  0000 C CNN
F 1 "15V Power" H 7100 2700 50  0000 C CNN
F 2 "chrisj2:chrisj1_WEIDMULLER_1508060000" H 7100 2900 50  0001 C CNN
F 3 "" H 7100 2900 50  0001 C CNN
	1    7100 2900
	-1   0    0    1   
$EndComp
$Comp
L Device:CP C6
U 1 1 5A6FB11D
P 7600 2900
F 0 "C6" H 7625 3000 50  0000 L CNN
F 1 "470U25V" H 7625 2800 50  0000 L CNN
F 2 "Capacitor_THT:CP_Radial_D10.0mm_P5.00mm" H 7638 2750 50  0001 C CNN
F 3 "" H 7600 2900 50  0001 C CNN
	1    7600 2900
	1    0    0    -1  
$EndComp
NoConn ~ 8150 2900
$Comp
L Device:CP C9
U 1 1 5A6FEC16
P 9500 2600
F 0 "C9" H 9525 2700 50  0000 L CNN
F 1 "1000u16V" H 9525 2500 50  0000 L CNN
F 2 "Capacitor_THT:CP_Radial_D10.0mm_P5.00mm" H 9538 2450 50  0001 C CNN
F 3 "" H 9500 2600 50  0001 C CNN
	1    9500 2600
	1    0    0    -1  
$EndComp
$Comp
L Device:CP C10
U 1 1 5A6FEC81
P 9550 3200
F 0 "C10" H 9575 3300 50  0000 L CNN
F 1 "1000u16V" H 9575 3100 50  0000 L CNN
F 2 "Capacitor_THT:CP_Radial_D10.0mm_P5.00mm" H 9588 3050 50  0001 C CNN
F 3 "" H 9550 3200 50  0001 C CNN
	1    9550 3200
	1    0    0    -1  
$EndComp
Text Label 8000 2450 0    60   ~ 0
P+
Text Label 8000 3350 0    60   ~ 0
PCOM
$Comp
L power:PWR_FLAG #FLG01
U 1 1 5A6FEFA6
P 7300 2450
F 0 "#FLG01" H 7300 2525 50  0001 C CNN
F 1 "PWR_FLAG" V 7400 2550 50  0000 C CNN
F 2 "" H 7300 2450 50  0001 C CNN
F 3 "" H 7300 2450 50  0001 C CNN
	1    7300 2450
	0    -1   -1   0   
$EndComp
$Comp
L power:PWR_FLAG #FLG02
U 1 1 5A7000E9
P 7300 3350
F 0 "#FLG02" H 7300 3425 50  0001 C CNN
F 1 "PWR_FLAG" V 7200 3450 50  0000 C CNN
F 2 "" H 7300 3350 50  0001 C CNN
F 3 "" H 7300 3350 50  0001 C CNN
	1    7300 3350
	0    -1   -1   0   
$EndComp
$Comp
L Regulator_Linear:LM7812_TO220 U7
U 1 1 5A7014B3
P 8000 1250
F 0 "U7" H 7850 1375 50  0000 C CNN
F 1 "LM7812" H 8000 1375 50  0000 L CNN
F 2 "chrisj2:TO-220_Vertical_Hole1.2mm" H 8000 1475 50  0001 C CIN
F 3 "" H 8000 1200 50  0001 C CNN
	1    8000 1250
	1    0    0    -1  
$EndComp
Text Label 7200 1250 0    60   ~ 0
P+
Text Label 7200 1750 0    60   ~ 0
PCOM
$Comp
L Device:C C5
U 1 1 5A701600
P 7550 1500
F 0 "C5" H 7575 1600 50  0000 L CNN
F 1 "100n" H 7575 1400 50  0000 L CNN
F 2 "Capacitor_THT:C_Rect_L7.0mm_W2.5mm_P5.00mm" H 7588 1350 50  0001 C CNN
F 3 "" H 7550 1500 50  0001 C CNN
	1    7550 1500
	1    0    0    -1  
$EndComp
$Comp
L Device:C C7
U 1 1 5A701686
P 8550 1500
F 0 "C7" H 8575 1600 50  0000 L CNN
F 1 "1u" H 8575 1400 50  0000 L CNN
F 2 "Capacitor_THT:C_Rect_L7.0mm_W2.5mm_P5.00mm" H 8588 1350 50  0001 C CNN
F 3 "" H 8550 1500 50  0001 C CNN
	1    8550 1500
	1    0    0    -1  
$EndComp
$Comp
L Connector_Generic:Conn_01x02 J5
U 1 1 5A70181B
P 9200 1550
F 0 "J5" H 9200 1650 50  0000 C CNN
F 1 "12V Fan" H 9200 1350 50  0000 C CNN
F 2 "chrisj2:chrisj1_WEIDMULLER_1508060000" H 9200 1550 50  0001 C CNN
F 3 "" H 9200 1550 50  0001 C CNN
	1    9200 1550
	1    0    0    1   
$EndComp
$Comp
L Device:C C1
U 1 1 5A716111
P 1400 5350
F 0 "C1" H 1425 5450 50  0000 L CNN
F 1 "1u" H 1425 5250 50  0000 L CNN
F 2 "Capacitor_THT:C_Rect_L7.0mm_W2.5mm_P5.00mm" H 1438 5200 50  0001 C CNN
F 3 "" H 1400 5350 50  0001 C CNN
	1    1400 5350
	1    0    0    -1  
$EndComp
$Comp
L power:GND #PWR03
U 1 1 5A716642
P 9900 3000
F 0 "#PWR03" H 9900 2750 50  0001 C CNN
F 1 "GND" H 9900 2850 50  0000 C CNN
F 2 "" H 9900 3000 50  0001 C CNN
F 3 "" H 9900 3000 50  0001 C CNN
	1    9900 3000
	1    0    0    -1  
$EndComp
$Comp
L power:GND #PWR04
U 1 1 5A7167E4
P 2000 5950
F 0 "#PWR04" H 2000 5700 50  0001 C CNN
F 1 "GND" H 2000 5800 50  0000 C CNN
F 2 "" H 2000 5950 50  0001 C CNN
F 3 "" H 2000 5950 50  0001 C CNN
	1    2000 5950
	1    0    0    -1  
$EndComp
$Comp
L power:GND #PWR05
U 1 1 5A716813
P 2300 5950
F 0 "#PWR05" H 2300 5700 50  0001 C CNN
F 1 "GND" H 2300 5800 50  0000 C CNN
F 2 "" H 2300 5950 50  0001 C CNN
F 3 "" H 2300 5950 50  0001 C CNN
	1    2300 5950
	1    0    0    -1  
$EndComp
$Comp
L power:GND #PWR06
U 1 1 5A716842
P 1650 4050
F 0 "#PWR06" H 1650 3800 50  0001 C CNN
F 1 "GND" H 1650 3900 50  0000 C CNN
F 2 "" H 1650 4050 50  0001 C CNN
F 3 "" H 1650 4050 50  0001 C CNN
	1    1650 4050
	0    1    1    0   
$EndComp
$Comp
L Device:C C2
U 1 1 5A77859E
P 1800 4050
F 0 "C2" H 1825 4150 50  0000 L CNN
F 1 "1u" H 1825 3950 50  0000 L CNN
F 2 "Capacitor_THT:C_Rect_L7.0mm_W2.5mm_P5.00mm" H 1838 3900 50  0001 C CNN
F 3 "" H 1800 4050 50  0001 C CNN
	1    1800 4050
	0    -1   -1   0   
$EndComp
NoConn ~ 1900 4850
NoConn ~ 2100 4850
NoConn ~ 1800 5850
NoConn ~ 1900 5850
NoConn ~ 2100 5850
NoConn ~ 2200 5850
$Comp
L Jumper:Jumper_2_Bridged JP2
U 1 1 5A779320
P 2500 4500
F 0 "JP2" H 2500 4575 50  0000 C CNN
F 1 "Temp_10mV/C" H 2500 4650 50  0000 C CNN
F 2 "chrisj2:Test_Jumper_P5.08mm" H 2500 4500 50  0001 C CNN
F 3 "" H 2500 4500 50  0001 C CNN
	1    2500 4500
	0    1    1    0   
$EndComp
Text Label 2200 4650 1    60   ~ 0
temp_10mVperC
$Comp
L chrisj1:AD595 U4
U 1 1 5A778D79
P 2000 5350
F 0 "U4" H 2500 5450 50  0000 C CNN
F 1 "AD595" H 2550 5250 50  0000 C CNN
F 2 "Package_DIP:DIP-14_W7.62mm" H 2000 5350 60  0001 C CNN
F 3 "" H 2000 5350 60  0001 C CNN
	1    2000 5350
	1    0    0    -1  
$EndComp
$Comp
L chrisj1:TEN8-2423WI U8
U 1 1 5A778F11
P 8650 2900
F 0 "U8" H 8250 3250 50  0000 L CNN
F 1 "TEN8-2423WI" H 8500 3250 50  0000 L CNN
F 2 "chrisj2:DCDC-Conv_TRACO_TEN8-2423WI" H 9250 2500 50  0001 C CIN
F 3 "" H 8650 2900 50  0001 C CNN
	1    8650 2900
	1    0    0    -1  
$EndComp
$Comp
L Device:R_US R4
U 1 1 5A779FB8
P 2900 1000
F 0 "R4" V 2980 1000 50  0000 C CNN
F 1 "6k2" V 2825 995 50  0000 C CNN
F 2 "Resistor_THT:R_Axial_DIN0207_L6.3mm_D2.5mm_P10.16mm_Horizontal" V 2830 1000 50  0001 C CNN
F 3 "" H 2900 1000 50  0001 C CNN
	1    2900 1000
	1    0    0    -1  
$EndComp
$Comp
L Device:R_US R5
U 1 1 5A77A2E7
P 2900 1500
F 0 "R5" V 2980 1500 50  0000 C CNN
F 1 "9k1" V 2825 1495 50  0000 C CNN
F 2 "Resistor_THT:R_Axial_DIN0207_L6.3mm_D2.5mm_P10.16mm_Horizontal" V 2830 1500 50  0001 C CNN
F 3 "" H 2900 1500 50  0001 C CNN
	1    2900 1500
	1    0    0    -1  
$EndComp
$Comp
L chrisj_power:+15V #PWR07
U 1 1 5A77A410
P 9900 2300
F 0 "#PWR07" H 9900 2150 50  0001 C CNN
F 1 "+15V" H 9900 2440 50  0000 C CNN
F 2 "" H 9900 2300 50  0001 C CNN
F 3 "" H 9900 2300 50  0001 C CNN
	1    9900 2300
	1    0    0    -1  
$EndComp
$Comp
L chrisj_power:-15V #PWR08
U 1 1 5A77A817
P 9900 3500
F 0 "#PWR08" H 9900 3550 20  0001 C CNN
F 1 "-15V" H 9900 3400 50  0000 C CNN
F 2 "" H 9900 3500 60  0000 C CNN
F 3 "" H 9900 3500 60  0000 C CNN
	1    9900 3500
	1    0    0    -1  
$EndComp
$Comp
L chrisj_power:+15V #PWR09
U 1 1 5A77AA26
P 2000 3900
F 0 "#PWR09" H 2000 3750 50  0001 C CNN
F 1 "+15V" H 2000 4040 50  0000 C CNN
F 2 "" H 2000 3900 50  0001 C CNN
F 3 "" H 2000 3900 50  0001 C CNN
	1    2000 3900
	1    0    0    -1  
$EndComp
$Comp
L chrisj_power:+15V #PWR010
U 1 1 5A77AC84
P 2900 750
F 0 "#PWR010" H 2900 600 50  0001 C CNN
F 1 "+15V" H 2900 890 50  0000 C CNN
F 2 "" H 2900 750 50  0001 C CNN
F 3 "" H 2900 750 50  0001 C CNN
	1    2900 750 
	1    0    0    -1  
$EndComp
$Comp
L Device:R_US R6
U 1 1 5A77B397
P 2900 2000
F 0 "R6" V 2980 2000 50  0000 C CNN
F 1 "9k1" V 2825 1995 50  0000 C CNN
F 2 "Resistor_THT:R_Axial_DIN0207_L6.3mm_D2.5mm_P10.16mm_Horizontal" V 2830 2000 50  0001 C CNN
F 3 "" H 2900 2000 50  0001 C CNN
	1    2900 2000
	1    0    0    -1  
$EndComp
$Comp
L Device:R_US R7
U 1 1 5A77B39D
P 2900 2500
F 0 "R7" V 2980 2500 50  0000 C CNN
F 1 "6k2" V 2825 2495 50  0000 C CNN
F 2 "Resistor_THT:R_Axial_DIN0207_L6.3mm_D2.5mm_P10.16mm_Horizontal" V 2830 2500 50  0001 C CNN
F 3 "" H 2900 2500 50  0001 C CNN
	1    2900 2500
	1    0    0    -1  
$EndComp
$Comp
L chrisj_power:-15V #PWR011
U 1 1 5A77B3A9
P 2900 2750
F 0 "#PWR011" H 2900 2800 20  0001 C CNN
F 1 "-15V" H 2900 2650 50  0000 C CNN
F 2 "" H 2900 2750 60  0000 C CNN
F 3 "" H 2900 2750 60  0000 C CNN
	1    2900 2750
	1    0    0    -1  
$EndComp
$Comp
L power:GND #PWR012
U 1 1 5A77B578
P 2650 1950
F 0 "#PWR012" H 2650 1700 50  0001 C CNN
F 1 "GND" H 2650 1800 50  0000 C CNN
F 2 "" H 2650 1950 50  0001 C CNN
F 3 "" H 2650 1950 50  0001 C CNN
	1    2650 1950
	1    0    0    -1  
$EndComp
$Comp
L chrisj_power:+15V #PWR013
U 1 1 5A77C025
P 3750 1000
F 0 "#PWR013" H 3750 850 50  0001 C CNN
F 1 "+15V" H 3750 1140 50  0000 C CNN
F 2 "" H 3750 1000 50  0001 C CNN
F 3 "" H 3750 1000 50  0001 C CNN
	1    3750 1000
	1    0    0    -1  
$EndComp
$Comp
L chrisj_power:-15V #PWR014
U 1 1 5A77C06C
P 3750 1700
F 0 "#PWR014" H 3750 1750 20  0001 C CNN
F 1 "-15V" H 3750 1600 50  0000 C CNN
F 2 "" H 3750 1700 60  0000 C CNN
F 3 "" H 3750 1700 60  0000 C CNN
	1    3750 1700
	1    0    0    -1  
$EndComp
$Comp
L Jumper:Jumper_2_Bridged JP3
U 1 1 5A77C358
P 3200 1250
F 0 "JP3" H 3200 1325 50  0000 C CNN
F 1 "+9V" H 3200 1400 50  0000 C CNN
F 2 "chrisj2:Test_Jumper_P5.08mm" H 3200 1250 50  0001 C CNN
F 3 "" H 3200 1250 50  0001 C CNN
	1    3200 1250
	1    0    0    -1  
$EndComp
$Comp
L Jumper:Jumper_2_Bridged JP4
U 1 1 5A77C4FB
P 3250 2250
F 0 "JP4" H 3250 2325 50  0000 C CNN
F 1 "-9V" H 3250 2400 50  0000 C CNN
F 2 "chrisj2:Test_Jumper_P5.08mm" H 3250 2250 50  0001 C CNN
F 3 "" H 3250 2250 50  0001 C CNN
	1    3250 2250
	1    0    0    -1  
$EndComp
$Comp
L Diode:1N4148 D1
U 1 1 5A77CB48
P 4400 1350
F 0 "D1" H 4400 1450 50  0000 C CNN
F 1 "1N4148" H 4400 1250 50  0000 C CNN
F 2 "Diode_THT:D_DO-35_SOD27_P10.16mm_Horizontal" H 4400 1175 50  0001 C CNN
F 3 "" H 4400 1350 50  0001 C CNN
	1    4400 1350
	-1   0    0    1   
$EndComp
$Comp
L Diode:1N4148 D2
U 1 1 5A77D09B
P 4400 2150
F 0 "D2" H 4400 2250 50  0000 C CNN
F 1 "1N4148" H 4400 2050 50  0000 C CNN
F 2 "Diode_THT:D_DO-35_SOD27_P10.16mm_Horizontal" H 4400 1975 50  0001 C CNN
F 3 "" H 4400 2150 50  0001 C CNN
	1    4400 2150
	-1   0    0    1   
$EndComp
$Comp
L Device:R_US R18
U 1 1 5A77D26E
P 4850 1750
F 0 "R18" V 4930 1750 50  0000 C CNN
F 1 "3k9" V 4775 1745 50  0000 C CNN
F 2 "Resistor_THT:R_Axial_DIN0207_L6.3mm_D2.5mm_P10.16mm_Horizontal" V 4780 1750 50  0001 C CNN
F 3 "" H 4850 1750 50  0001 C CNN
	1    4850 1750
	0    1    1    0   
$EndComp
$Comp
L Jumper:Jumper_2_Bridged JP8
U 1 1 5A77D910
P 10250 2400
F 0 "JP8" H 10250 2475 50  0000 C CNN
F 1 "+15V" H 10250 2250 50  0000 C CNN
F 2 "chrisj2:Test_Jumper_P5.08mm" H 10250 2400 50  0001 C CNN
F 3 "" H 10250 2400 50  0001 C CNN
	1    10250 2400
	1    0    0    -1  
$EndComp
$Comp
L Jumper:Jumper_2_Bridged JP9
U 1 1 5A77DB7C
P 10250 2900
F 0 "JP9" H 10250 2975 50  0000 C CNN
F 1 "GND" H 10250 2750 50  0000 C CNN
F 2 "chrisj2:Test_Jumper_P10.16mm" H 10250 2900 50  0001 C CNN
F 3 "" H 10250 2900 50  0001 C CNN
	1    10250 2900
	1    0    0    -1  
$EndComp
$Comp
L Jumper:Jumper_2_Bridged JP10
U 1 1 5A77DC31
P 10250 3400
F 0 "JP10" H 10250 3475 50  0000 C CNN
F 1 "-15V" H 10250 3250 50  0000 C CNN
F 2 "chrisj2:Test_Jumper_P5.08mm" H 10250 3400 50  0001 C CNN
F 3 "" H 10250 3400 50  0001 C CNN
	1    10250 3400
	1    0    0    -1  
$EndComp
$Comp
L Device:R_US R10
U 1 1 5A783B5D
P 3500 2500
F 0 "R10" V 3580 2500 50  0000 C CNN
F 1 "10k" V 3425 2495 50  0000 C CNN
F 2 "Resistor_THT:R_Axial_DIN0207_L6.3mm_D2.5mm_P10.16mm_Horizontal" V 3430 2500 50  0001 C CNN
F 3 "" H 3500 2500 50  0001 C CNN
	1    3500 2500
	-1   0    0    1   
$EndComp
$Comp
L chrisj1:H11F1 U5
U 1 1 5A7840AA
P 5200 3100
F 0 "U5" H 5200 3400 50  0000 C CNN
F 1 "H11F1" H 5200 3300 50  0000 C CNN
F 2 "Package_DIP:DIP-6_W7.62mm" H 5200 3100 50  0001 C CNN
F 3 "" H 5200 3100 50  0001 C CNN
	1    5200 3100
	0    1    1    0   
$EndComp
$Comp
L power:GND #PWR015
U 1 1 5A7842AF
P 4800 2000
F 0 "#PWR015" H 4800 1750 50  0001 C CNN
F 1 "GND" H 4800 1850 50  0000 C CNN
F 2 "" H 4800 2000 50  0001 C CNN
F 3 "" H 4800 2000 50  0001 C CNN
	1    4800 2000
	1    0    0    -1  
$EndComp
$Comp
L Device:Opamp_Dual_Generic U3
U 1 1 5A786257
P 3850 1350
F 0 "U3" H 3850 1100 50  0000 L CNN
F 1 "LM358" H 3850 900 50  0000 L CNN
F 2 "Package_DIP:DIP-8_W7.62mm" H 3850 1350 50  0001 C CNN
F 3 "" H 3850 1350 50  0001 C CNN
	1    3850 1350
	1    0    0    1   
$EndComp
$Comp
L Device:Opamp_Dual_Generic U3
U 3 1 5A786597
P 3850 1350
F 0 "U3" H 3850 1500 50  0000 L CNN
F 1 "LM358" H 3850 1700 50  0000 L CNN
F 2 "Package_DIP:DIP-8_W7.62mm" H 3850 1350 50  0001 C CNN
F 3 "" H 3850 1350 50  0001 C CNN
	3    3850 1350
	1    0    0    -1  
$EndComp
$Comp
L Device:Opamp_Dual_Generic U3
U 2 1 5A786695
P 3850 2150
F 0 "U3" H 3900 2400 50  0000 L CNN
F 1 "LM358" H 3900 2300 50  0000 L CNN
F 2 "Package_DIP:DIP-8_W7.62mm" H 3850 2150 50  0001 C CNN
F 3 "" H 3850 2150 50  0001 C CNN
	2    3850 2150
	1    0    0    1   
$EndComp
$Comp
L Device:Opamp_Dual_Generic U1
U 1 1 5A788215
P 3400 4100
F 0 "U1" H 3450 4250 50  0000 L CNN
F 1 "LT1057" H 3400 4350 50  0000 L CNN
F 2 "Package_DIP:DIP-8_W7.62mm" H 3400 4100 50  0001 C CNN
F 3 "" H 3400 4100 50  0001 C CNN
	1    3400 4100
	1    0    0    1   
$EndComp
$Comp
L Device:Opamp_Dual_Generic U1
U 2 1 5A7883BB
P 5200 4200
F 0 "U1" H 5400 4300 50  0000 L CNN
F 1 "LT1057" H 5250 4400 50  0000 L CNN
F 2 "Package_DIP:DIP-8_W7.62mm" H 5200 4200 50  0001 C CNN
F 3 "" H 5200 4200 50  0001 C CNN
	2    5200 4200
	1    0    0    1   
$EndComp
$Comp
L Device:Opamp_Dual_Generic U1
U 3 1 5A78862E
P 3400 4100
F 0 "U1" H 3450 4250 50  0000 L CNN
F 1 "LT1057" H 3400 4350 50  0000 L CNN
F 2 "Package_DIP:DIP-8_W7.62mm" H 3400 4100 50  0001 C CNN
F 3 "" H 3400 4100 50  0001 C CNN
	3    3400 4100
	1    0    0    -1  
$EndComp
$Comp
L Device:C C4
U 1 1 5A78871B
P 5250 3900
F 0 "C4" H 5275 4000 50  0000 L CNN
F 1 "10u" H 5275 3800 50  0000 L CNN
F 2 "chrisj2:C_Rect_L18.0mm_W8.0mm_P15.00mm_Hole1.0mm" H 5288 3750 50  0001 C CNN
F 3 "" H 5250 3900 50  0001 C CNN
	1    5250 3900
	0    1    1    0   
$EndComp
$Comp
L Device:R_US R8
U 1 1 5A78911A
P 2900 4450
F 0 "R8" V 2980 4450 50  0000 C CNN
F 1 "10k" V 2825 4445 50  0000 C CNN
F 2 "Resistor_THT:R_Axial_DIN0207_L6.3mm_D2.5mm_P10.16mm_Horizontal" V 2830 4450 50  0001 C CNN
F 3 "" H 2900 4450 50  0001 C CNN
	1    2900 4450
	-1   0    0    1   
$EndComp
$Comp
L power:GND #PWR016
U 1 1 5A7891F8
P 2900 4700
F 0 "#PWR016" H 2900 4450 50  0001 C CNN
F 1 "GND" H 2900 4550 50  0000 C CNN
F 2 "" H 2900 4700 50  0001 C CNN
F 3 "" H 2900 4700 50  0001 C CNN
	1    2900 4700
	1    0    0    -1  
$EndComp
$Comp
L chrisj_power:-15V #PWR017
U 1 1 5A789507
P 3300 4500
F 0 "#PWR017" H 3300 4550 20  0001 C CNN
F 1 "-15V" H 3300 4400 50  0000 C CNN
F 2 "" H 3300 4500 60  0000 C CNN
F 3 "" H 3300 4500 60  0000 C CNN
	1    3300 4500
	1    0    0    -1  
$EndComp
$Comp
L chrisj_power:+15V #PWR018
U 1 1 5A78957E
P 3300 3700
F 0 "#PWR018" H 3300 3550 50  0001 C CNN
F 1 "+15V" H 3300 3840 50  0000 C CNN
F 2 "" H 3300 3700 50  0001 C CNN
F 3 "" H 3300 3700 50  0001 C CNN
	1    3300 3700
	1    0    0    -1  
$EndComp
$Comp
L Device:R_US R16
U 1 1 5A78984E
P 4550 4100
F 0 "R16" V 4630 4100 50  0000 C CNN
F 1 "10M" V 4475 4095 50  0000 C CNN
F 2 "Resistor_THT:R_Axial_DIN0207_L6.3mm_D2.5mm_P10.16mm_Horizontal" V 4480 4100 50  0001 C CNN
F 3 "" H 4550 4100 50  0001 C CNN
	1    4550 4100
	0    1    1    0   
$EndComp
$Comp
L Device:R_POT_TRIM_US RV2
U 1 1 5A78A458
P 4200 4100
F 0 "RV2" H 4400 4400 50  0000 C CNN
F 1 "10k" H 4400 4300 50  0000 C CNN
F 2 "Potentiometer_THT:Potentiometer_Bourns_3386P_Vertical" H 4200 4100 50  0001 C CNN
F 3 "" H 4200 4100 50  0001 C CNN
	1    4200 4100
	1    0    0    1   
$EndComp
$Comp
L Device:R_US R14
U 1 1 5A78B26F
P 4200 4550
F 0 "R14" V 4280 4550 50  0000 C CNN
F 1 "1k" V 4125 4545 50  0000 C CNN
F 2 "Resistor_THT:R_Axial_DIN0207_L6.3mm_D2.5mm_P10.16mm_Horizontal" V 4130 4550 50  0001 C CNN
F 3 "" H 4200 4550 50  0001 C CNN
	1    4200 4550
	-1   0    0    1   
$EndComp
$Comp
L power:GND #PWR019
U 1 1 5A78B275
P 4200 4800
F 0 "#PWR019" H 4200 4550 50  0001 C CNN
F 1 "GND" H 4200 4650 50  0000 C CNN
F 2 "" H 4200 4800 50  0001 C CNN
F 3 "" H 4200 4800 50  0001 C CNN
	1    4200 4800
	1    0    0    -1  
$EndComp
$Comp
L Device:R_US R11
U 1 1 5A78BA81
P 3550 3400
F 0 "R11" V 3630 3400 50  0000 C CNN
F 1 "10M" V 3475 3395 50  0000 C CNN
F 2 "Resistor_THT:R_Axial_DIN0207_L6.3mm_D2.5mm_P10.16mm_Horizontal" V 3480 3400 50  0001 C CNN
F 3 "" H 3550 3400 50  0001 C CNN
	1    3550 3400
	0    1    1    0   
$EndComp
$Comp
L Device:C C3
U 1 1 5A78BB41
P 3150 3100
F 0 "C3" H 3175 3200 50  0000 L CNN
F 1 "1u" H 3175 3000 50  0000 L CNN
F 2 "Capacitor_THT:C_Rect_L7.0mm_W2.5mm_P5.00mm" H 3188 2950 50  0001 C CNN
F 3 "" H 3150 3100 50  0001 C CNN
	1    3150 3100
	0    1    1    0   
$EndComp
$Comp
L Device:R_US R9
U 1 1 5A78BC14
P 3550 3100
F 0 "R9" V 3630 3100 50  0000 C CNN
F 1 "10k" V 3475 3095 50  0000 C CNN
F 2 "Resistor_THT:R_Axial_DIN0207_L6.3mm_D2.5mm_P10.16mm_Horizontal" V 3480 3100 50  0001 C CNN
F 3 "" H 3550 3100 50  0001 C CNN
	1    3550 3100
	0    1    1    0   
$EndComp
$Comp
L Jumper:Jumper_2_Bridged JP5
U 1 1 5A78C9D9
P 3900 4850
F 0 "JP5" H 3900 4925 50  0000 C CNN
F 1 "Error" H 3900 5000 50  0000 C CNN
F 2 "chrisj2:Test_Jumper_P5.08mm" H 3900 4850 50  0001 C CNN
F 3 "" H 3900 4850 50  0001 C CNN
	1    3900 4850
	0    -1   -1   0   
$EndComp
$Comp
L Jumper:Jumper_2_Bridged JP6
U 1 1 5A78CD34
P 5350 4550
F 0 "JP6" H 5350 4625 50  0000 C CNN
F 1 "IntegralError" H 5350 4700 50  0000 C CNN
F 2 "chrisj2:Test_Jumper_P5.08mm" H 5350 4550 50  0001 C CNN
F 3 "" H 5350 4550 50  0001 C CNN
	1    5350 4550
	-1   0    0    1   
$EndComp
$Comp
L Device:R_US R17
U 1 1 5A78D154
P 4800 4550
F 0 "R17" V 4880 4550 50  0000 C CNN
F 1 "10k" V 4725 4545 50  0000 C CNN
F 2 "Resistor_THT:R_Axial_DIN0207_L6.3mm_D2.5mm_P10.16mm_Horizontal" V 4730 4550 50  0001 C CNN
F 3 "" H 4800 4550 50  0001 C CNN
	1    4800 4550
	-1   0    0    1   
$EndComp
$Comp
L power:GND #PWR020
U 1 1 5A78D15A
P 4800 4800
F 0 "#PWR020" H 4800 4550 50  0001 C CNN
F 1 "GND" H 4800 4650 50  0000 C CNN
F 2 "" H 4800 4800 50  0001 C CNN
F 3 "" H 4800 4800 50  0001 C CNN
	1    4800 4800
	1    0    0    -1  
$EndComp
$Comp
L Connector_Generic:Conn_01x02 J3
U 1 1 5A78D2F8
P 4600 2700
F 0 "J3" H 4600 2800 50  0000 C CNN
F 1 "ErrorMonitor" H 4600 2900 50  0000 C CNN
F 2 "chrisj2:Pin_Header_Straight_1x02_Pitch2.54mm_Hole1.2mm" H 4600 2700 50  0001 C CNN
F 3 "" H 4600 2700 50  0001 C CNN
	1    4600 2700
	1    0    0    -1  
$EndComp
$Comp
L power:GND #PWR021
U 1 1 5A78D501
P 4350 2850
F 0 "#PWR021" H 4350 2600 50  0001 C CNN
F 1 "GND" H 4350 2700 50  0000 C CNN
F 2 "" H 4350 2850 50  0001 C CNN
F 3 "" H 4350 2850 50  0001 C CNN
	1    4350 2850
	1    0    0    -1  
$EndComp
$Comp
L Device:R_US R12
U 1 1 5A78D620
P 4150 2700
F 0 "R12" V 4230 2700 50  0000 C CNN
F 1 "10k" V 4300 2700 50  0000 C CNN
F 2 "Resistor_THT:R_Axial_DIN0207_L6.3mm_D2.5mm_P10.16mm_Horizontal" V 4080 2700 50  0001 C CNN
F 3 "" H 4150 2700 50  0001 C CNN
	1    4150 2700
	0    -1   -1   0   
$EndComp
$Comp
L chrisj_power:+15V #PWR022
U 1 1 5A78E227
P 5850 5200
F 0 "#PWR022" H 5850 5050 50  0001 C CNN
F 1 "+15V" H 5850 5340 50  0000 C CNN
F 2 "" H 5850 5200 50  0001 C CNN
F 3 "" H 5850 5200 50  0001 C CNN
	1    5850 5200
	1    0    0    -1  
$EndComp
$Comp
L chrisj_power:-15V #PWR023
U 1 1 5A78E22D
P 5850 5800
F 0 "#PWR023" H 5850 5850 20  0001 C CNN
F 1 "-15V" H 5850 5700 50  0000 C CNN
F 2 "" H 5850 5800 60  0000 C CNN
F 3 "" H 5850 5800 60  0000 C CNN
	1    5850 5800
	1    0    0    -1  
$EndComp
$Comp
L Device:Opamp_Dual_Generic U2
U 1 1 5A78E233
P 4700 5450
F 0 "U2" H 4750 5600 50  0000 L CNN
F 1 "LM358" H 4700 5700 50  0000 L CNN
F 2 "Package_DIP:DIP-8_W7.62mm" H 4700 5450 50  0001 C CNN
F 3 "" H 4700 5450 50  0001 C CNN
	1    4700 5450
	1    0    0    1   
$EndComp
$Comp
L Device:Opamp_Dual_Generic U2
U 2 1 5A78E239
P 5950 5500
F 0 "U2" H 6000 5300 50  0000 L CNN
F 1 "LM358" H 5950 5100 50  0000 L CNN
F 2 "Package_DIP:DIP-8_W7.62mm" H 5950 5500 50  0001 C CNN
F 3 "" H 5950 5500 50  0001 C CNN
	2    5950 5500
	1    0    0    1   
$EndComp
$Comp
L power:GND #PWR024
U 1 1 5A793333
P 1600 1650
F 0 "#PWR024" H 1600 1400 50  0001 C CNN
F 1 "GND" H 1600 1500 50  0000 C CNN
F 2 "" H 1600 1650 50  0001 C CNN
F 3 "" H 1600 1650 50  0001 C CNN
	1    1600 1650
	1    0    0    -1  
$EndComp
$Comp
L Device:R_US R2
U 1 1 5A793BC9
P 2600 3600
F 0 "R2" V 2680 3600 50  0000 C CNN
F 1 "1M" V 2525 3595 50  0000 C CNN
F 2 "Resistor_THT:R_Axial_DIN0207_L6.3mm_D2.5mm_P10.16mm_Horizontal" V 2530 3600 50  0001 C CNN
F 3 "" H 2600 3600 50  0001 C CNN
	1    2600 3600
	0    1    1    0   
$EndComp
$Comp
L Device:R_US R3
U 1 1 5A79455C
P 2550 4000
F 0 "R3" V 2630 4000 50  0000 C CNN
F 1 "100k" V 2475 3995 50  0000 C CNN
F 2 "Resistor_THT:R_Axial_DIN0207_L6.3mm_D2.5mm_P10.16mm_Horizontal" V 2480 4000 50  0001 C CNN
F 3 "" H 2550 4000 50  0001 C CNN
	1    2550 4000
	0    1    1    0   
$EndComp
$Comp
L Device:R_US R19
U 1 1 5A799CC4
P 4850 5200
F 0 "R19" V 4930 5200 50  0000 C CNN
F 1 "10k" V 4775 5195 50  0000 C CNN
F 2 "Resistor_THT:R_Axial_DIN0207_L6.3mm_D2.5mm_P10.16mm_Horizontal" V 4780 5200 50  0001 C CNN
F 3 "" H 4850 5200 50  0001 C CNN
	1    4850 5200
	0    -1   -1   0   
$EndComp
$Comp
L Device:R_US R13
U 1 1 5A79A33C
P 4150 5200
F 0 "R13" V 4230 5200 50  0000 C CNN
F 1 "10k" V 4075 5195 50  0000 C CNN
F 2 "Resistor_THT:R_Axial_DIN0207_L6.3mm_D2.5mm_P10.16mm_Horizontal" V 4080 5200 50  0001 C CNN
F 3 "" H 4150 5200 50  0001 C CNN
	1    4150 5200
	0    -1   -1   0   
$EndComp
$Comp
L Device:R_US R15
U 1 1 5A79AB29
P 4350 5750
F 0 "R15" V 4430 5750 50  0000 C CNN
F 1 "10k" V 4275 5745 50  0000 C CNN
F 2 "Resistor_THT:R_Axial_DIN0207_L6.3mm_D2.5mm_P10.16mm_Horizontal" V 4280 5750 50  0001 C CNN
F 3 "" H 4350 5750 50  0001 C CNN
	1    4350 5750
	1    0    0    -1  
$EndComp
$Comp
L power:GND #PWR026
U 1 1 5A79AC0F
P 4350 5950
F 0 "#PWR026" H 4350 5700 50  0001 C CNN
F 1 "GND" H 4350 5800 50  0000 C CNN
F 2 "" H 4350 5950 50  0001 C CNN
F 3 "" H 4350 5950 50  0001 C CNN
	1    4350 5950
	1    0    0    -1  
$EndComp
$Comp
L Device:Opamp_Dual_Generic U2
U 3 1 5A79B1FC
P 5950 5500
F 0 "U2" H 6000 5600 50  0000 L CNN
F 1 "LM358" H 5950 5800 50  0000 L CNN
F 2 "Package_DIP:DIP-8_W7.62mm" H 5950 5500 50  0001 C CNN
F 3 "" H 5950 5500 50  0001 C CNN
	3    5950 5500
	1    0    0    -1  
$EndComp
$Comp
L Device:R_US R22
U 1 1 5A79B452
P 5600 5800
F 0 "R22" V 5680 5800 50  0000 C CNN
F 1 "10k" V 5525 5795 50  0000 C CNN
F 2 "Resistor_THT:R_Axial_DIN0207_L6.3mm_D2.5mm_P10.16mm_Horizontal" V 5530 5800 50  0001 C CNN
F 3 "" H 5600 5800 50  0001 C CNN
	1    5600 5800
	1    0    0    -1  
$EndComp
$Comp
L power:GND #PWR027
U 1 1 5A79B458
P 5600 6000
F 0 "#PWR027" H 5600 5750 50  0001 C CNN
F 1 "GND" H 5600 5850 50  0000 C CNN
F 2 "" H 5600 6000 50  0001 C CNN
F 3 "" H 5600 6000 50  0001 C CNN
	1    5600 6000
	1    0    0    -1  
$EndComp
$Comp
L Device:R_US R21
U 1 1 5A79B685
P 5300 5450
F 0 "R21" V 5380 5450 50  0000 C CNN
F 1 "10k" V 5225 5445 50  0000 C CNN
F 2 "Resistor_THT:R_Axial_DIN0207_L6.3mm_D2.5mm_P10.16mm_Horizontal" V 5230 5450 50  0001 C CNN
F 3 "" H 5300 5450 50  0001 C CNN
	1    5300 5450
	0    -1   -1   0   
$EndComp
$Comp
L Device:R_US R20
U 1 1 5A79B766
P 5300 5100
F 0 "R20" V 5380 5100 50  0000 C CNN
F 1 "10k" V 5225 5095 50  0000 C CNN
F 2 "Resistor_THT:R_Axial_DIN0207_L6.3mm_D2.5mm_P10.16mm_Horizontal" V 5230 5100 50  0001 C CNN
F 3 "" H 5300 5100 50  0001 C CNN
	1    5300 5100
	0    -1   -1   0   
$EndComp
$Comp
L Device:R_POT_TRIM_US RV3
U 1 1 5A79BCBE
P 5750 4750
F 0 "RV3" V 5575 4750 50  0000 C CNN
F 1 "10k" V 5650 4750 50  0000 C CNN
F 2 "Potentiometer_THT:Potentiometer_Bourns_3386P_Vertical" H 5750 4750 50  0001 C CNN
F 3 "" H 5750 4750 50  0001 C CNN
	1    5750 4750
	0    1    1    0   
$EndComp
$Comp
L Device:R_US R23
U 1 1 5A79BE0F
P 6100 4750
F 0 "R23" V 6180 4750 50  0000 C CNN
F 1 "4k7" V 6025 4745 50  0000 C CNN
F 2 "Resistor_THT:R_Axial_DIN0207_L6.3mm_D2.5mm_P10.16mm_Horizontal" V 6030 4750 50  0001 C CNN
F 3 "" H 6100 4750 50  0001 C CNN
	1    6100 4750
	0    1    1    0   
$EndComp
$Comp
L Jumper:Jumper_2_Bridged JP7
U 1 1 5A79F12E
P 6750 4100
F 0 "JP7" H 6600 4350 50  0000 C CNN
F 1 "Error+IntegralError" H 6850 4250 50  0000 C CNN
F 2 "chrisj2:Test_Jumper_P5.08mm" H 6750 4100 50  0001 C CNN
F 3 "" H 6750 4100 50  0001 C CNN
	1    6750 4100
	1    0    0    -1  
$EndComp
$Comp
L Device:R_US R26
U 1 1 5A79FF2C
P 7200 4500
F 0 "R26" V 7280 4500 50  0000 C CNN
F 1 "10k" V 7125 4495 50  0000 C CNN
F 2 "Resistor_THT:R_Axial_DIN0207_L6.3mm_D2.5mm_P10.16mm_Horizontal" V 7130 4500 50  0001 C CNN
F 3 "" H 7200 4500 50  0001 C CNN
	1    7200 4500
	0    -1   -1   0   
$EndComp
$Comp
L chrisj1:OP07_INPUTS_SWAPPED U6
U 1 1 5A7A23E0
P 7050 5000
F 0 "U6" H 7100 5250 50  0000 L CNN
F 1 "OP07" H 7100 5150 50  0000 L CNN
F 2 "Package_DIP:DIP-8_W7.62mm" H 7100 5050 50  0001 C CNN
F 3 "" H 7100 5150 50  0001 C CNN
	1    7050 5000
	1    0    0    -1  
$EndComp
$Comp
L chrisj_power:+15V #PWR028
U 1 1 5A7A27E9
P 6950 4700
F 0 "#PWR028" H 6950 4550 50  0001 C CNN
F 1 "+15V" H 6950 4840 50  0000 C CNN
F 2 "" H 6950 4700 50  0001 C CNN
F 3 "" H 6950 4700 50  0001 C CNN
	1    6950 4700
	1    0    0    -1  
$EndComp
$Comp
L chrisj_power:-15V #PWR029
U 1 1 5A7A28BD
P 6950 5300
F 0 "#PWR029" H 6950 5350 20  0001 C CNN
F 1 "-15V" H 6950 5200 50  0000 C CNN
F 2 "" H 6950 5300 60  0000 C CNN
F 3 "" H 6950 5300 60  0000 C CNN
	1    6950 5300
	1    0    0    -1  
$EndComp
NoConn ~ 7050 5300
NoConn ~ 7150 5300
$Comp
L Device:R_US R24
U 1 1 5A7A2B5E
P 6500 4900
F 0 "R24" V 6580 4900 50  0000 C CNN
F 1 "10k" V 6425 4895 50  0000 C CNN
F 2 "Resistor_THT:R_Axial_DIN0207_L6.3mm_D2.5mm_P10.16mm_Horizontal" V 6430 4900 50  0001 C CNN
F 3 "" H 6500 4900 50  0001 C CNN
	1    6500 4900
	0    -1   -1   0   
$EndComp
$Comp
L Device:R_US R25
U 1 1 5A7A2C70
P 6700 5300
F 0 "R25" V 6780 5300 50  0000 C CNN
F 1 "10k" V 6625 5295 50  0000 C CNN
F 2 "Resistor_THT:R_Axial_DIN0207_L6.3mm_D2.5mm_P10.16mm_Horizontal" V 6630 5300 50  0001 C CNN
F 3 "" H 6700 5300 50  0001 C CNN
	1    6700 5300
	1    0    0    -1  
$EndComp
$Comp
L power:GND #PWR030
U 1 1 5A7A2D9F
P 6700 5450
F 0 "#PWR030" H 6700 5200 50  0001 C CNN
F 1 "GND" H 6700 5300 50  0000 C CNN
F 2 "" H 6700 5450 50  0001 C CNN
F 3 "" H 6700 5450 50  0001 C CNN
	1    6700 5450
	1    0    0    -1  
$EndComp
Wire Wire Line
	9250 2400 9500 2400
Wire Wire Line
	9500 2400 9500 2450
Wire Wire Line
	9550 3400 9550 3350
Wire Wire Line
	9150 2800 9200 2800
Wire Wire Line
	9200 2800 9200 2900
Wire Wire Line
	9200 3000 9150 3000
Wire Wire Line
	9200 2900 9500 2900
Wire Wire Line
	9550 2900 9550 3050
Connection ~ 9200 2900
Wire Wire Line
	9500 2750 9500 2900
Connection ~ 9500 2900
Connection ~ 9500 2400
Connection ~ 9550 2900
Connection ~ 9550 3400
Wire Wire Line
	7300 2450 7350 2450
Wire Wire Line
	7300 3350 7350 3350
Wire Wire Line
	8150 3000 8100 3000
Wire Wire Line
	8100 3000 8100 3100
Wire Wire Line
	7600 3100 8100 3100
Wire Wire Line
	7600 2700 8100 2700
Wire Wire Line
	8100 2700 8100 2800
Wire Wire Line
	8100 2800 8150 2800
Wire Wire Line
	7300 2800 7350 2800
Wire Wire Line
	7350 2800 7350 2450
Connection ~ 7350 2450
Wire Wire Line
	7300 2900 7350 2900
Wire Wire Line
	7350 2900 7350 3350
Connection ~ 7350 3350
Wire Wire Line
	7600 3050 7600 3100
Connection ~ 7600 3350
Wire Wire Line
	7600 2450 7600 2700
Connection ~ 7600 2450
Connection ~ 7600 3100
Connection ~ 8100 3100
Connection ~ 7600 2700
Connection ~ 8100 2700
Wire Wire Line
	7200 1250 7550 1250
Wire Wire Line
	7200 1750 7550 1750
Wire Wire Line
	8000 1750 8000 1550
Wire Wire Line
	7550 1350 7550 1250
Connection ~ 7550 1250
Wire Wire Line
	7550 1650 7550 1750
Connection ~ 7550 1750
Wire Wire Line
	8300 1250 8550 1250
Wire Wire Line
	8550 1250 8550 1350
Wire Wire Line
	8550 1750 8550 1650
Connection ~ 8000 1750
Wire Wire Line
	9000 1450 8950 1450
Wire Wire Line
	8950 1450 8950 1250
Connection ~ 8550 1250
Wire Wire Line
	9000 1550 8950 1550
Wire Wire Line
	8950 1550 8950 1750
Connection ~ 8550 1750
Wire Wire Line
	9900 2900 9900 3000
Wire Wire Line
	2000 5950 2000 5850
Wire Wire Line
	2300 5950 2300 5850
Wire Wire Line
	9900 3400 9900 3500
Wire Wire Line
	9900 2400 9900 2300
Wire Wire Line
	2900 850  2900 750 
Wire Wire Line
	2900 2750 2900 2650
Wire Wire Line
	2900 1650 2900 1800
Wire Wire Line
	2900 1800 2650 1800
Wire Wire Line
	2650 1800 2650 1950
Connection ~ 2900 1800
Wire Wire Line
	2900 2150 2900 2250
Wire Wire Line
	2900 1150 2900 1250
Wire Wire Line
	3750 1700 3750 1650
Wire Wire Line
	3750 1050 3750 1000
Connection ~ 2900 1250
Connection ~ 2900 2250
Wire Wire Line
	3550 1450 3500 1450
Wire Wire Line
	3500 2050 3550 2050
Wire Wire Line
	4150 2150 4250 2150
Wire Wire Line
	4150 1350 4250 1350
Wire Wire Line
	4550 1350 4600 1350
Wire Wire Line
	4600 1350 4600 1750
Wire Wire Line
	4600 2150 4550 2150
Wire Wire Line
	4700 1750 4600 1750
Connection ~ 4600 1750
Connection ~ 9900 2900
Connection ~ 9900 3400
Connection ~ 9900 2400
Wire Wire Line
	5100 2800 5100 1950
Wire Wire Line
	5100 1950 4800 1950
Wire Wire Line
	4800 1950 4800 2000
Wire Wire Line
	5000 1750 5300 1750
Wire Wire Line
	5300 1750 5300 2800
Wire Wire Line
	5550 3700 5550 3900
Wire Wire Line
	5550 3700 5300 3700
Wire Wire Line
	4800 3700 5200 3700
Wire Wire Line
	4800 3700 4800 3900
Wire Wire Line
	4700 4100 4800 4100
Wire Wire Line
	5100 3900 4800 3900
Connection ~ 4800 3900
Wire Wire Line
	5550 3900 5400 3900
Connection ~ 5550 3900
Wire Wire Line
	2900 4700 2900 4600
Wire Wire Line
	4800 4400 4800 4300
Wire Wire Line
	4800 4300 4900 4300
Wire Wire Line
	3300 3800 3300 3700
Wire Wire Line
	3300 4500 3300 4400
Connection ~ 4800 4100
Wire Wire Line
	4350 4100 4400 4100
Wire Wire Line
	4200 4800 4200 4700
Wire Wire Line
	4200 4400 4200 4250
Wire Wire Line
	3900 4100 3800 4100
Wire Wire Line
	3900 3900 4200 3900
Wire Wire Line
	4200 3900 4200 3950
Wire Wire Line
	3800 3100 3800 3400
Wire Wire Line
	3800 3100 3700 3100
Connection ~ 3800 4100
Wire Wire Line
	3700 3400 3800 3400
Connection ~ 3800 3400
Wire Wire Line
	3400 3100 3300 3100
Wire Wire Line
	3400 3400 2900 3400
Wire Wire Line
	2900 4000 2900 3400
Wire Wire Line
	2900 3100 3000 3100
Wire Wire Line
	2700 4000 2800 4000
Connection ~ 2900 3400
Wire Wire Line
	3100 4200 2900 4200
Wire Wire Line
	2900 4200 2900 4300
Connection ~ 3900 3900
Connection ~ 5550 4200
Wire Wire Line
	4800 4800 4800 4700
Wire Wire Line
	4400 2800 4350 2800
Wire Wire Line
	4350 2800 4350 2850
Wire Wire Line
	2750 3600 2800 3600
Wire Wire Line
	2800 3600 2800 4000
Connection ~ 2900 4000
Connection ~ 2800 4000
Wire Wire Line
	1600 1650 1600 1600
Wire Wire Line
	1600 1600 1300 1600
Wire Wire Line
	1300 1600 1300 1800
Wire Wire Line
	2400 3600 2450 3600
Wire Wire Line
	3900 5200 4000 5200
Connection ~ 3900 4100
Wire Wire Line
	4300 5200 4350 5200
Wire Wire Line
	4400 5350 4350 5350
Wire Wire Line
	4350 5350 4350 5200
Connection ~ 4350 5200
Wire Wire Line
	5000 5450 5050 5450
Wire Wire Line
	5050 5450 5050 5200
Wire Wire Line
	5050 5200 5000 5200
Wire Wire Line
	4350 5950 4350 5900
Wire Wire Line
	4350 5600 4350 5550
Wire Wire Line
	4350 5550 4400 5550
Wire Wire Line
	5600 6000 5600 5950
Wire Wire Line
	5600 5650 5600 5600
Wire Wire Line
	5600 5600 5650 5600
Connection ~ 5050 5450
Wire Wire Line
	5550 4200 5500 4200
Wire Wire Line
	4300 2700 4400 2700
Wire Wire Line
	3500 1450 3500 2050
Connection ~ 3500 2050
Wire Wire Line
	5900 4750 5950 4750
Wire Wire Line
	6700 5150 6700 5100
Wire Wire Line
	6700 5100 6750 5100
Wire Wire Line
	6650 4900 6700 4900
Wire Wire Line
	6700 4900 6700 4500
Wire Wire Line
	6700 4500 7050 4500
Connection ~ 6700 4900
Wire Wire Line
	7350 4500 7400 4500
Wire Wire Line
	7400 4500 7400 5000
Wire Wire Line
	7350 5000 7400 5000
$Comp
L Diode:1N4148 D4
U 1 1 5A7A3832
P 7650 5000
F 0 "D4" H 7650 5100 50  0000 C CNN
F 1 "1N4148" H 7650 4900 50  0000 C CNN
F 2 "Diode_THT:D_DO-35_SOD27_P10.16mm_Horizontal" H 7650 4825 50  0001 C CNN
F 3 "" H 7650 5000 50  0001 C CNN
	1    7650 5000
	-1   0    0    1   
$EndComp
$Comp
L Diode:1N4148 D3
U 1 1 5A7A3A9E
P 7650 4300
F 0 "D3" H 7650 4400 50  0000 C CNN
F 1 "1N4148" H 7650 4200 50  0000 C CNN
F 2 "Diode_THT:D_DO-35_SOD27_P10.16mm_Horizontal" H 7650 4125 50  0001 C CNN
F 3 "" H 7650 4300 50  0001 C CNN
	1    7650 4300
	-1   0    0    1   
$EndComp
Connection ~ 7400 5000
Wire Wire Line
	6300 4300 6500 4300
$Comp
L Device:R_US R29
U 1 1 5A7A3E2A
P 8100 4650
F 0 "R29" V 8180 4650 50  0000 C CNN
F 1 "1k" V 8150 4450 50  0000 C CNN
F 2 "Resistor_THT:R_Axial_DIN0207_L6.3mm_D2.5mm_P10.16mm_Horizontal" V 8030 4650 50  0001 C CNN
F 3 "" H 8100 4650 50  0001 C CNN
	1    8100 4650
	0    -1   -1   0   
$EndComp
Wire Wire Line
	7800 4300 7850 4300
Wire Wire Line
	7850 4300 7850 4650
Wire Wire Line
	7850 5000 7800 5000
Connection ~ 7850 4650
$Comp
L Diode:1N4148 D5
U 1 1 5A7A6CCF
P 7650 5450
F 0 "D5" H 7650 5550 50  0000 C CNN
F 1 "1N4148" H 7650 5350 50  0000 C CNN
F 2 "Diode_THT:D_DO-35_SOD27_P10.16mm_Horizontal" H 7650 5275 50  0001 C CNN
F 3 "" H 7650 5450 50  0001 C CNN
	1    7650 5450
	-1   0    0    1   
$EndComp
$Comp
L Diode:1N4148 D6
U 1 1 5AB8893A
P 8400 5000
F 0 "D6" H 8400 5100 50  0000 C CNN
F 1 "1N4148" H 8400 4900 50  0000 C CNN
F 2 "Diode_THT:D_DO-35_SOD27_P10.16mm_Horizontal" H 8400 4825 50  0001 C CNN
F 3 "" H 8400 5000 50  0001 C CNN
	1    8400 5000
	0    1    1    0   
$EndComp
$Comp
L chrisj1:ZTX690B Q1
U 1 1 5AB88997
P 8700 5450
F 0 "Q1" H 8900 5525 50  0000 L CNN
F 1 "ZTX690B" H 8900 5450 50  0000 L CNN
F 2 "Package_TO_SOT_THT:TO-92_Inline_Wide" H 8900 5375 50  0001 L CIN
F 3 "" H 8700 5450 50  0001 L CNN
	1    8700 5450
	1    0    0    -1  
$EndComp
$Comp
L Device:R_US R27
U 1 1 5AB88BF8
P 8000 5450
F 0 "R27" V 8080 5450 50  0000 C CNN
F 1 "3k3" V 7925 5445 50  0000 C CNN
F 2 "Resistor_THT:R_Axial_DIN0207_L6.3mm_D2.5mm_P10.16mm_Horizontal" V 7930 5450 50  0001 C CNN
F 3 "" H 8000 5450 50  0001 C CNN
	1    8000 5450
	0    -1   -1   0   
$EndComp
$Comp
L Device:R_US R28
U 1 1 5AB88D84
P 8450 5700
F 0 "R28" V 8530 5700 50  0000 C CNN
F 1 "33k" V 8375 5695 50  0000 C CNN
F 2 "Resistor_THT:R_Axial_DIN0207_L6.3mm_D2.5mm_P10.16mm_Horizontal" V 8380 5700 50  0001 C CNN
F 3 "" H 8450 5700 50  0001 C CNN
	1    8450 5700
	1    0    0    -1  
$EndComp
$Comp
L Device:CP C8
U 1 1 5AB894A5
P 8200 5700
F 0 "C8" H 8225 5800 50  0000 L CNN
F 1 "470uF 10V" H 7950 5600 50  0000 L CNN
F 2 "Capacitor_THT:CP_Radial_D10.0mm_P5.00mm" H 8238 5550 50  0001 C CNN
F 3 "" H 8200 5700 50  0001 C CNN
	1    8200 5700
	1    0    0    -1  
$EndComp
Text Label 8300 4450 0    60   ~ 0
P+
Text Label 8950 5950 0    60   ~ 0
PCOM
Wire Wire Line
	8150 5450 8200 5450
Wire Wire Line
	8200 5550 8200 5450
Connection ~ 8200 5450
Wire Wire Line
	8450 5550 8450 5450
Connection ~ 8450 5450
Wire Wire Line
	8800 5950 8800 5650
Wire Wire Line
	8200 5950 8200 5850
Wire Wire Line
	8450 5950 8450 5850
Connection ~ 8450 5950
$Comp
L chrisj1:finder_40.52S_separate K1
U 1 1 5AB9A16C
P 8800 5000
F 0 "K1" H 8900 4900 70  0000 C CNN
F 1 "finder_40.52S" H 8400 4750 70  0000 C CNN
F 2 "Relay_THT:Relay_DPDT_Finder_40.52" H 8800 5000 60  0001 C CNN
F 3 "" H 8800 5000 60  0000 C CNN
	1    8800 5000
	1    0    0    1   
$EndComp
$Comp
L chrisj1:finder_40.52S_separate K1
U 2 1 5AB9A257
P 9700 5950
F 0 "K1" H 9600 6100 70  0000 C CNN
F 1 "finder_40.52S" H 9550 5800 70  0000 C CNN
F 2 "Relay_THT:Relay_DPDT_Finder_40.52" H 9700 5950 60  0001 C CNN
F 3 "" H 9700 5950 60  0000 C CNN
	2    9700 5950
	1    0    0    -1  
$EndComp
$Comp
L chrisj1:finder_40.52S_separate K1
U 3 1 5AB9A366
P 9700 5350
F 0 "K1" H 9550 5500 70  0000 C CNN
F 1 "finder_40.52S" H 9600 5200 70  0000 C CNN
F 2 "Relay_THT:Relay_DPDT_Finder_40.52" H 9700 5350 60  0001 C CNN
F 3 "" H 9700 5350 60  0000 C CNN
	3    9700 5350
	1    0    0    -1  
$EndComp
Wire Wire Line
	9950 5450 10000 5450
Wire Wire Line
	10000 5450 10000 5650
Wire Wire Line
	10000 5850 9950 5850
Wire Wire Line
	10100 6050 9950 6050
Wire Wire Line
	10100 5250 10100 5550
Wire Wire Line
	10100 5250 9950 5250
Connection ~ 8800 5950
Wire Wire Line
	6650 5950 6850 5950
Wire Wire Line
	7400 5950 8200 5950
Wire Wire Line
	8800 5150 8800 5200
Wire Wire Line
	8800 5200 8400 5200
Wire Wire Line
	8400 5200 8400 5150
Connection ~ 8800 5200
$Comp
L Transistor_BJT:TIP122 Q2
U 1 1 5AB9F024
P 9350 4850
F 0 "Q2" H 9600 4925 50  0000 L CNN
F 1 "TIP142" H 9600 4850 50  0000 L CNN
F 2 "chrisj2:TO-247_TO-3P_Vertical_Hole1.8mm" H 9600 4775 50  0001 L CIN
F 3 "" H 9350 4850 50  0001 L CNN
	1    9350 4850
	1    0    0    -1  
$EndComp
Wire Wire Line
	9450 5050 9450 5300
Wire Wire Line
	9450 5350 9500 5350
Wire Wire Line
	9450 4450 9450 4650
Wire Wire Line
	8300 4450 8800 4450
Wire Wire Line
	8800 4450 8800 4800
Connection ~ 8800 4450
Wire Wire Line
	8400 4850 8400 4800
Wire Wire Line
	8400 4800 8800 4800
Connection ~ 8800 4800
$Comp
L Device:R_US R30
U 1 1 5ABA1DCD
P 9100 5100
F 0 "R30" V 9180 5100 50  0000 C CNN
F 1 "10k" V 9025 5095 50  0000 C CNN
F 2 "Resistor_THT:R_Axial_DIN0207_L6.3mm_D2.5mm_P10.16mm_Horizontal" V 9030 5100 50  0001 C CNN
F 3 "" H 9100 5100 50  0001 C CNN
	1    9100 5100
	1    0    0    -1  
$EndComp
Wire Wire Line
	9100 5250 9100 5300
Wire Wire Line
	9100 5300 9450 5300
Connection ~ 9450 5300
Wire Wire Line
	9100 4650 9100 4850
Wire Wire Line
	9150 4850 9100 4850
Connection ~ 9100 4850
Wire Wire Line
	7500 5450 7450 5450
Wire Wire Line
	7450 5450 7450 5000
Connection ~ 7450 5000
$Comp
L power:GND #PWR031
U 1 1 5ABA642B
P 6850 6000
F 0 "#PWR031" H 6850 5750 50  0001 C CNN
F 1 "GND" H 6850 5850 50  0000 C CNN
F 2 "" H 6850 6000 50  0001 C CNN
F 3 "" H 6850 6000 50  0001 C CNN
	1    6850 6000
	1    0    0    -1  
$EndComp
Connection ~ 8200 5950
Wire Wire Line
	6850 5950 6850 6000
$Comp
L Device:Net-Tie_2 NT1
U 1 1 5ABA72BD
P 7300 5950
F 0 "NT1" H 7300 6000 50  0000 C CNN
F 1 "Signal_Pwr_GND_Link" H 7450 5900 50  0000 C CNN
F 2 "NetTie:NetTie-2_SMD_Pad2.0mm" H 7300 5950 50  0001 C CNN
F 3 "" H 7300 5950 50  0001 C CNN
	1    7300 5950
	1    0    0    -1  
$EndComp
$Comp
L Connector_Generic:Conn_01x02 J6
U 1 1 5AC2E427
P 10350 5650
F 0 "J6" H 10350 5750 50  0000 C CNN
F 1 "Peltier" H 10350 5450 50  0000 C CNN
F 2 "chrisj2:chrisj1_WEIDMULLER_1508060000" H 10350 5650 50  0001 C CNN
F 3 "" H 10350 5650 50  0001 C CNN
	1    10350 5650
	1    0    0    1   
$EndComp
Wire Wire Line
	10150 5550 10100 5550
Connection ~ 10100 5550
Wire Wire Line
	10150 5650 10000 5650
Connection ~ 10000 5650
Wire Wire Line
	9250 3400 9550 3400
Wire Wire Line
	9150 2700 9250 2700
Wire Wire Line
	9250 2700 9250 2400
Wire Wire Line
	9150 3100 9250 3100
Wire Wire Line
	9250 3100 9250 3400
Wire Wire Line
	2900 1250 3000 1250
Wire Wire Line
	3400 1250 3550 1250
Wire Wire Line
	2900 2250 3050 2250
Wire Wire Line
	3450 2250 3550 2250
Wire Wire Line
	3050 2250 3050 2300
Wire Wire Line
	3050 2300 3450 2300
Wire Wire Line
	3450 2300 3450 2250
Wire Wire Line
	3000 1250 3000 1300
Wire Wire Line
	3000 1300 3400 1300
Wire Wire Line
	3400 1300 3400 1250
$Comp
L power:PWR_FLAG #FLG032
U 1 1 5AC82FC4
P 6650 5950
F 0 "#FLG032" H 6650 6025 50  0001 C CNN
F 1 "PWR_FLAG" V 6550 6050 50  0000 C CNN
F 2 "" H 6650 5950 50  0001 C CNN
F 3 "" H 6650 5950 50  0001 C CNN
	1    6650 5950
	0    -1   -1   0   
$EndComp
Connection ~ 6850 5950
$Comp
L Jumper:Jumper_2_Bridged JP11
U 1 1 5ACC83D2
P 7700 2250
F 0 "JP11" H 7700 2325 50  0000 C CNN
F 1 "P+(15V)" H 7700 2150 50  0000 C CNN
F 2 "chrisj2:Test_Jumper_P5.08mm" H 7700 2250 50  0001 C CNN
F 3 "" H 7700 2250 50  0001 C CNN
	1    7700 2250
	1    0    0    -1  
$EndComp
$Comp
L Jumper:Jumper_2_Bridged JP12
U 1 1 5ACC8810
P 7700 3550
F 0 "JP12" H 7700 3625 50  0000 C CNN
F 1 "PCOM" H 7700 3450 50  0000 C CNN
F 2 "chrisj2:Test_Jumper_P5.08mm" H 7700 3550 50  0001 C CNN
F 3 "" H 7700 3550 50  0001 C CNN
	1    7700 3550
	1    0    0    -1  
$EndComp
Wire Wire Line
	7900 2250 7900 2450
Connection ~ 7900 2450
Wire Wire Line
	7500 2250 7500 2450
Connection ~ 7500 2450
Wire Wire Line
	7500 3550 7500 3350
Connection ~ 7500 3350
Wire Wire Line
	7900 3550 7900 3350
Connection ~ 7900 3350
Wire Wire Line
	2300 4850 2300 4750
Wire Wire Line
	2300 4750 2200 4750
Wire Wire Line
	2200 4000 2200 4300
Wire Wire Line
	2400 4000 2200 4000
Connection ~ 2200 4750
Wire Wire Line
	2500 4700 2200 4700
Connection ~ 2200 4700
Wire Wire Line
	2500 4300 2200 4300
Connection ~ 2200 4300
Wire Wire Line
	6500 4300 6500 4100
Wire Wire Line
	6500 4100 6550 4100
Connection ~ 6500 4300
Wire Wire Line
	6950 4100 7000 4100
Wire Wire Line
	7000 4100 7000 4300
Connection ~ 7000 4300
Wire Wire Line
	6300 4300 6300 4750
Wire Wire Line
	6300 4900 6350 4900
Wire Wire Line
	6300 5500 6250 5500
Connection ~ 6300 4900
Wire Wire Line
	6250 4750 6300 4750
Connection ~ 6300 4750
Wire Wire Line
	7850 4650 7950 4650
Wire Wire Line
	7800 5450 7850 5450
Wire Wire Line
	8250 4650 9100 4650
Wire Wire Line
	5600 4750 5600 4950
Wire Wire Line
	5500 5400 5600 5400
Wire Wire Line
	5750 4900 5750 4950
Wire Wire Line
	5750 4950 5600 4950
Connection ~ 5600 4950
Wire Wire Line
	5500 5100 5500 5400
Wire Wire Line
	5500 5450 5450 5450
Connection ~ 5600 5400
Connection ~ 5500 5400
Wire Wire Line
	5450 5100 5500 5100
Wire Wire Line
	5550 4500 5100 4500
Wire Wire Line
	5100 4500 5100 4550
Wire Wire Line
	5100 5100 5150 5100
Wire Wire Line
	5150 4550 5100 4550
Connection ~ 5100 4550
Connection ~ 5550 4500
Wire Wire Line
	2400 3600 2400 1900
Wire Wire Line
	3900 2700 3900 3900
Wire Wire Line
	3500 2700 3900 2700
Wire Wire Line
	3500 2650 3500 2700
Connection ~ 3900 2700
$Comp
L chrisj1:Omega-PCC-SMP J1
U 1 1 5AE9A196
P 900 5400
F 0 "J1" H 900 5500 50  0000 C CNN
F 1 "Thermocouple" V 1250 5350 50  0000 C CNN
F 2 "chrisj2:Omega-PCC-SMP" H 900 5400 50  0001 C CNN
F 3 "" H 900 5400 50  0001 C CNN
	1    900  5400
	-1   0    0    1   
$EndComp
$Comp
L power:GND #PWR033
U 1 1 5AE9AA9A
P 750 5550
F 0 "#PWR033" H 750 5300 50  0001 C CNN
F 1 "GND" H 750 5400 50  0000 C CNN
F 2 "" H 750 5550 50  0001 C CNN
F 3 "" H 750 5550 50  0001 C CNN
	1    750  5550
	1    0    0    -1  
$EndComp
$Comp
L power:GND #PWR034
U 1 1 5AE9ABAA
P 750 5150
F 0 "#PWR034" H 750 4900 50  0001 C CNN
F 1 "GND" H 750 5050 50  0000 C CNN
F 2 "" H 750 5150 50  0001 C CNN
F 3 "" H 750 5150 50  0001 C CNN
	1    750  5150
	-1   0    0    1   
$EndComp
Text Label 4000 3900 0    60   ~ 0
error
Text Label 5100 5100 1    60   ~ 0
IntegralError
$Comp
L Mechanical:MountingHole MH1
U 1 1 5AF18F6B
P 5300 6800
F 0 "MH1" H 5300 7000 50  0000 C CNN
F 1 "Mounting_Hole" H 5300 6925 50  0000 C CNN
F 2 "MountingHole:MountingHole_4.3mm_M4_DIN965" H 5300 6800 50  0001 C CNN
F 3 "" H 5300 6800 50  0001 C CNN
	1    5300 6800
	1    0    0    -1  
$EndComp
$Comp
L Mechanical:MountingHole MH2
U 1 1 5AF192EA
P 6050 6800
F 0 "MH2" H 6050 7000 50  0000 C CNN
F 1 "Mounting_Hole" H 6050 6925 50  0000 C CNN
F 2 "MountingHole:MountingHole_4.3mm_M4_DIN965" H 6050 6800 50  0001 C CNN
F 3 "" H 6050 6800 50  0001 C CNN
	1    6050 6800
	1    0    0    -1  
$EndComp
$Comp
L Mechanical:MountingHole MH3
U 1 1 5AF1943A
P 5300 7150
F 0 "MH3" H 5300 7350 50  0000 C CNN
F 1 "Mounting_Hole" H 5300 7275 50  0000 C CNN
F 2 "MountingHole:MountingHole_4.3mm_M4_DIN965" H 5300 7150 50  0001 C CNN
F 3 "" H 5300 7150 50  0001 C CNN
	1    5300 7150
	1    0    0    -1  
$EndComp
$Comp
L Mechanical:MountingHole MH4
U 1 1 5AF19563
P 6050 7150
F 0 "MH4" H 6050 7350 50  0000 C CNN
F 1 "Mounting_Hole" H 6050 7275 50  0000 C CNN
F 2 "MountingHole:MountingHole_4.3mm_M4_DIN965" H 6050 7150 50  0001 C CNN
F 3 "" H 6050 7150 50  0001 C CNN
	1    6050 7150
	1    0    0    -1  
$EndComp
Wire Wire Line
	5100 3400 5100 3500
Wire Wire Line
	5100 3500 5300 3500
Wire Wire Line
	5300 3500 5300 3700
Wire Wire Line
	5300 3400 5300 3450
Wire Wire Line
	5300 3450 5200 3450
Wire Wire Line
	5200 3450 5200 3700
$Comp
L power:GND #PWR035
U 1 1 5B1FC8B6
P 1800 4750
F 0 "#PWR035" H 1800 4500 50  0001 C CNN
F 1 "GND" H 1800 4650 50  0000 C CNN
F 2 "" H 1800 4750 50  0001 C CNN
F 3 "" H 1800 4750 50  0001 C CNN
	1    1800 4750
	-1   0    0    1   
$EndComp
Wire Wire Line
	1800 4850 1800 4750
$Comp
L Device:Net-Tie_2 NT3
U 1 1 5B1FEE5D
P 1300 6200
F 0 "NT3" H 1300 6250 50  0000 C CNN
F 1 "nettie" H 1300 6150 50  0000 C CNN
F 2 "NetTie:NetTie-2_SMD_Pad0.5mm" H 1300 6200 50  0001 C CNN
F 3 "" H 1300 6200 50  0001 C CNN
	1    1300 6200
	0    -1   -1   0   
$EndComp
$Comp
L Device:C C12
U 1 1 5B1FF0D3
P 1250 4850
F 0 "C12" V 1200 4900 50  0000 L CNN
F 1 "100n" V 1350 4700 50  0000 L CNN
F 2 "Capacitor_SMD:C_0603_1608Metric_Pad1.05x0.95mm_HandSolder" H 1288 4700 50  0001 C CNN
F 3 "" H 1250 4850 50  0001 C CNN
	1    1250 4850
	-1   0    0    1   
$EndComp
$Comp
L Device:C C11
U 1 1 5B1FF240
P 1300 4450
F 0 "C11" V 1250 4500 50  0000 L CNN
F 1 "100n" V 1150 4400 50  0000 L CNN
F 2 "Capacitor_SMD:C_0603_1608Metric_Pad1.05x0.95mm_HandSolder" H 1338 4300 50  0001 C CNN
F 3 "" H 1300 4450 50  0001 C CNN
	1    1300 4450
	1    0    0    -1  
$EndComp
$Comp
L power:GND #PWR036
U 1 1 5B1FF93C
P 1300 4250
F 0 "#PWR036" H 1300 4000 50  0001 C CNN
F 1 "GND" H 1300 4150 50  0000 C CNN
F 2 "" H 1300 4250 50  0001 C CNN
F 3 "" H 1300 4250 50  0001 C CNN
	1    1300 4250
	-1   0    0    1   
$EndComp
$Comp
L power:GND #PWR037
U 1 1 5B1FFA73
P 1250 5050
F 0 "#PWR037" H 1250 4800 50  0001 C CNN
F 1 "GND" H 1250 4950 50  0000 C CNN
F 2 "" H 1250 5050 50  0001 C CNN
F 3 "" H 1250 5050 50  0001 C CNN
	1    1250 5050
	1    0    0    -1  
$EndComp
$Comp
L power:GND #PWR038
U 1 1 5B1FFCD0
P 1300 6300
F 0 "#PWR038" H 1300 6050 50  0001 C CNN
F 1 "GND" H 1300 6150 50  0000 C CNN
F 2 "" H 1300 6300 50  0001 C CNN
F 3 "" H 1300 6300 50  0001 C CNN
	1    1300 6300
	1    0    0    -1  
$EndComp
Wire Wire Line
	1100 6050 1250 6050
Wire Wire Line
	1100 4650 1250 4650
Wire Wire Line
	1400 6050 1400 5500
Connection ~ 1400 6050
Wire Wire Line
	1400 4650 1400 5200
Connection ~ 1400 4650
$Comp
L Device:Net-Tie_2 NT2
U 1 1 5B1FECB8
P 1250 5900
F 0 "NT2" V 1250 5950 50  0000 C CNN
F 1 "nettie" H 1250 5850 50  0000 C CNN
F 2 "NetTie:NetTie-2_SMD_Pad0.5mm" H 1250 5900 50  0001 C CNN
F 3 "" H 1250 5900 50  0001 C CNN
	1    1250 5900
	0    -1   -1   0   
$EndComp
$Comp
L power:GND #PWR039
U 1 1 5B207378
P 1250 5800
F 0 "#PWR039" H 1250 5550 50  0001 C CNN
F 1 "GND" H 1250 5650 50  0000 C CNN
F 2 "" H 1250 5800 50  0001 C CNN
F 3 "" H 1250 5800 50  0001 C CNN
	1    1250 5800
	-1   0    0    1   
$EndComp
Wire Wire Line
	1300 6100 1300 6050
Connection ~ 1300 6050
Wire Wire Line
	1250 6000 1250 6050
Connection ~ 1250 6050
Wire Wire Line
	1100 6050 1100 5400
Wire Wire Line
	1300 4300 1300 4250
Wire Wire Line
	1300 4650 1300 4600
Connection ~ 1300 4650
Wire Wire Line
	1250 4700 1250 4650
Connection ~ 1250 4650
Wire Wire Line
	1250 5050 1250 5000
Wire Wire Line
	1700 4650 1700 4850
Wire Wire Line
	1700 6050 1700 5850
Wire Wire Line
	1100 5300 1100 4650
Wire Wire Line
	9200 2900 9200 3000
Wire Wire Line
	9500 2900 9550 2900
Wire Wire Line
	9500 2400 9900 2400
Wire Wire Line
	9550 2900 9900 2900
Wire Wire Line
	9550 3400 9900 3400
Wire Wire Line
	7350 2450 7500 2450
Wire Wire Line
	7350 3350 7500 3350
Wire Wire Line
	7600 3350 7900 3350
Wire Wire Line
	7600 2450 7900 2450
Wire Wire Line
	7600 3100 7600 3350
Wire Wire Line
	8100 3100 8150 3100
Wire Wire Line
	7600 2700 7600 2750
Wire Wire Line
	8100 2700 8150 2700
Wire Wire Line
	7550 1250 7700 1250
Wire Wire Line
	7550 1750 8000 1750
Wire Wire Line
	8000 1750 8550 1750
Wire Wire Line
	8550 1250 8950 1250
Wire Wire Line
	8550 1750 8950 1750
Wire Wire Line
	2900 1800 2900 1850
Wire Wire Line
	2900 1250 2900 1350
Wire Wire Line
	2900 2250 2900 2350
Wire Wire Line
	4600 1750 4600 2150
Wire Wire Line
	4800 3900 4800 4100
Wire Wire Line
	5550 3900 5550 4200
Wire Wire Line
	4800 4100 4900 4100
Wire Wire Line
	3800 4100 3700 4100
Wire Wire Line
	3800 3400 3800 4100
Wire Wire Line
	2900 3400 2900 3100
Wire Wire Line
	3900 3900 3900 4100
Wire Wire Line
	5550 4200 5550 4500
Wire Wire Line
	2900 4000 3100 4000
Wire Wire Line
	2800 4000 2900 4000
Wire Wire Line
	4350 5200 4700 5200
Wire Wire Line
	5050 5450 5150 5450
Wire Wire Line
	3500 2050 3500 2350
Wire Wire Line
	6700 4900 6750 4900
Wire Wire Line
	7400 5000 7450 5000
Wire Wire Line
	7850 4650 7850 5000
Wire Wire Line
	8200 5450 8450 5450
Wire Wire Line
	8450 5450 8500 5450
Wire Wire Line
	8450 5950 8800 5950
Wire Wire Line
	8800 5950 9500 5950
Wire Wire Line
	8800 5200 8800 5250
Wire Wire Line
	8800 4450 9450 4450
Wire Wire Line
	8800 4800 8800 4850
Wire Wire Line
	9450 5300 9450 5350
Wire Wire Line
	9100 4850 9100 4950
Wire Wire Line
	7450 5000 7500 5000
Wire Wire Line
	8200 5950 8450 5950
Wire Wire Line
	10100 5550 10100 6050
Wire Wire Line
	10000 5650 10000 5850
Wire Wire Line
	6850 5950 7200 5950
Wire Wire Line
	7900 2450 8000 2450
Wire Wire Line
	7500 2450 7600 2450
Wire Wire Line
	7500 3350 7600 3350
Wire Wire Line
	7900 3350 8000 3350
Wire Wire Line
	2200 4750 2200 4850
Wire Wire Line
	2200 4700 2200 4750
Wire Wire Line
	2200 4300 2200 4700
Wire Wire Line
	6500 4300 7000 4300
Wire Wire Line
	7000 4300 7500 4300
Wire Wire Line
	6300 4900 6300 5500
Wire Wire Line
	6300 4750 6300 4900
Wire Wire Line
	5600 4950 5600 5400
Wire Wire Line
	5600 5400 5650 5400
Wire Wire Line
	5500 5400 5500 5450
Wire Wire Line
	5100 4550 5100 5100
Wire Wire Line
	5550 4500 5550 4550
Wire Wire Line
	3900 2700 4000 2700
Wire Wire Line
	1400 6050 1700 6050
Wire Wire Line
	1400 4650 1700 4650
Wire Wire Line
	1300 6050 1400 6050
Wire Wire Line
	1250 6050 1300 6050
Wire Wire Line
	1300 4650 1400 4650
Wire Wire Line
	1250 4650 1300 4650
Wire Wire Line
	2000 3900 2000 4050
Wire Wire Line
	9900 2900 10050 2900
Wire Wire Line
	9900 3400 10050 3400
Wire Wire Line
	9900 2400 10050 2400
Wire Wire Line
	3900 4100 3900 4650
Wire Wire Line
	3900 5050 3900 5200
Wire Wire Line
	3900 4650 4000 4650
Wire Wire Line
	4000 4650 4000 5050
Wire Wire Line
	4000 5050 3900 5050
Connection ~ 3900 4650
Connection ~ 3900 5050
Wire Wire Line
	10050 3400 10050 3500
Wire Wire Line
	10050 3500 10450 3500
Wire Wire Line
	10450 3500 10450 3400
Connection ~ 10050 3400
Wire Wire Line
	10050 2900 10050 3000
Wire Wire Line
	10050 3000 10450 3000
Wire Wire Line
	10450 3000 10450 2900
Connection ~ 10050 2900
Wire Wire Line
	10050 2400 10050 2500
Wire Wire Line
	10050 2500 10450 2500
Wire Wire Line
	10450 2500 10450 2400
Connection ~ 10050 2400
Wire Wire Line
	1950 4050 2000 4050
Connection ~ 2000 4050
Wire Wire Line
	2000 4050 2000 4850
Text Notes 600  1650 0    60   ~ 0
10 turn pot.\n5k (0...50C)\n10k (0...100C)
Text Notes 5650 4550 0    60   ~ 0
Sensitivity
Text Notes 4000 3750 0    60   ~ 0
Integration Rate
Wire Notes Line
	4250 4000 4300 3750
Text Notes 5600 4850 2    60   ~ 0
cw
Text Notes 4100 4050 1    60   ~ 0
cw
$Comp
L chrisj1:LM336_TO92 U9
U 1 1 5E3F1B16
P 750 2650
F 0 "U9" H 838 2688 50  0000 L CNN
F 1 "LM336" H 838 2604 40  0000 L CNN
F 2 "Package_TO_SOT_THT:TO-92" H 750 2650 60  0001 C CNN
F 3 "" H 750 2650 60  0000 C CNN
	1    750  2650
	1    0    0    -1  
$EndComp
$Comp
L chrisj1:LM336_TO92 U10
U 1 1 5E3F2371
P 750 3000
F 0 "U10" H 838 3038 50  0000 L CNN
F 1 "LM336" H 838 2954 40  0000 L CNN
F 2 "Package_TO_SOT_THT:TO-92" H 750 3000 60  0001 C CNN
F 3 "" H 750 3000 60  0000 C CNN
	1    750  3000
	1    0    0    -1  
$EndComp
Connection ~ 1300 2600
Text Notes 1500 2550 0    60   ~ 0
-5V (0...50C)\n-10V (0...100C)
Wire Wire Line
	1550 2000 2050 2000
Wire Wire Line
	1300 2000 1550 2000
Wire Wire Line
	1300 2600 1300 3250
Connection ~ 1550 2000
Connection ~ 1300 2000
Wire Wire Line
	2050 2150 2000 2150
Wire Wire Line
	2050 2000 2050 2150
Wire Wire Line
	1550 2150 1550 2000
Wire Wire Line
	1600 2150 1550 2150
Wire Wire Line
	1300 2000 1300 2250
Wire Wire Line
	1300 3650 1300 3600
Text Notes 1350 2150 0    60   ~ 0
CW
Wire Wire Line
	1100 2400 1150 2400
Wire Wire Line
	1100 2600 1100 2400
Wire Wire Line
	1300 2600 1100 2600
Wire Wire Line
	1300 2550 1300 2600
$Comp
L chrisj_power:-15V #PWR025
U 1 1 5A7938B6
P 1300 3650
F 0 "#PWR025" H 1300 3700 20  0001 C CNN
F 1 "-15V" H 1300 3550 50  0000 C CNN
F 2 "" H 1300 3650 60  0000 C CNN
F 3 "" H 1300 3650 60  0000 C CNN
	1    1300 3650
	1    0    0    -1  
$EndComp
$Comp
L Device:R_US R1
U 1 1 5A792D13
P 1300 3450
F 0 "R1" V 1380 3450 50  0000 C CNN
F 1 "Rfs" V 1225 3445 50  0000 C CNN
F 2 "Resistor_THT:R_Axial_DIN0207_L6.3mm_D2.5mm_P10.16mm_Horizontal" V 1230 3450 50  0001 C CNN
F 3 "" H 1300 3450 50  0001 C CNN
	1    1300 3450
	-1   0    0    1   
$EndComp
$Comp
L Device:R_POT_TRIM_US RV1
U 1 1 5A792B87
P 1300 2400
F 0 "RV1" V 1125 2400 50  0000 C CNN
F 1 "2k0" V 1200 2400 50  0000 C CNN
F 2 "Potentiometer_THT:Potentiometer_Bourns_3296Y_Vertical" H 1300 2400 50  0001 C CNN
F 3 "" H 1300 2400 50  0001 C CNN
	1    1300 2400
	-1   0    0    1   
$EndComp
$Comp
L Jumper:Jumper_2_Bridged JP1
U 1 1 5A7928D9
P 1800 2150
F 0 "JP1" H 1800 2225 50  0000 C CNN
F 1 "Vref" H 1800 2300 50  0000 C CNN
F 2 "chrisj2:Test_Jumper_P5.08mm" H 1800 2150 50  0001 C CNN
F 3 "" H 1800 2150 50  0001 C CNN
	1    1800 2150
	-1   0    0    1   
$EndComp
Wire Wire Line
	1300 1800 1200 1800
Wire Wire Line
	2400 1900 1200 1900
Wire Wire Line
	1200 2000 1300 2000
$Comp
L Connector_Generic:Conn_01x03 J2
U 1 1 5A7917B6
P 1000 1900
F 0 "J2" H 1000 2100 50  0000 C CNN
F 1 "Setpoint" H 1100 1700 50  0000 C CNN
F 2 "chrisj2:chrisj1_WEIDMULLER_1508160000" H 1000 1900 50  0001 C CNN
F 3 "" H 1000 1900 50  0001 C CNN
	1    1000 1900
	-1   0    0    1   
$EndComp
$Comp
L power:GND #PWR01
U 1 1 5E438259
P 950 2250
F 0 "#PWR01" H 950 2000 50  0001 C CNN
F 1 "GND" H 950 2100 50  0000 C CNN
F 2 "" H 950 2250 50  0001 C CNN
F 3 "" H 950 2250 50  0001 C CNN
	1    950  2250
	1    0    0    -1  
$EndComp
NoConn ~ 650  3000
NoConn ~ 650  2650
Wire Wire Line
	750  3150 750  3250
Wire Wire Line
	750  3250 1300 3250
Connection ~ 1300 3250
Wire Wire Line
	1300 3250 1300 3300
Wire Wire Line
	750  2850 750  2800
Wire Wire Line
	750  2500 750  2200
Wire Wire Line
	750  2200 950  2200
Wire Wire Line
	950  2200 950  2250
Text Notes 800  2850 0    60   ~ 0
Optional
Text Notes 1450 3500 0    60   ~ 0
9k1 (0...50C)\n3k0 (0...100C)
$EndSCHEMATC
