PCBNEW-LibModule-V1  29/08/2015 21:27:58
# encoding utf-8
Units mm
$INDEX
chrisj1_1206
chrisj1_1206_handassem
chrisj1_1pin_2p5mm_round
chrisj1_1pin_2p5mm_th_round
chrisj1_1pin_2p5mmx1p5mm
chrisj1_1pin_8mm_round
chrisj1_78XX_TO220V
chrisj1_B32924C3155
chrisj1_CMR200T
chrisj1_CP_R_065_1
chrisj1_CP_R_228_4
chrisj1_CRA2512
chrisj1_CRM2512
chrisj1_C_BOX_046x025_1
chrisj1_C_BOX_072x030_2
chrisj1_D3_SS
chrisj1_D4_SS
chrisj1_DFN6
chrisj1_DIP-4__300
chrisj1_DIP16_SS
chrisj1_DIP8_SS
chrisj1_DO-214AA
chrisj1_DS2E_RELAY
chrisj1_HAMOND_1550Z115
chrisj1_HOLE3p3
chrisj1_HOLE3p5
chrisj1_HOLE4p2
chrisj1_LED-0805
chrisj1_LINK0.1
chrisj1_LINK0.2
chrisj1_LINK0.3
chrisj1_LINK0.4
chrisj1_LM78XX
chrisj1_LQFP-48
chrisj1_M4_PLATED_HOLE
chrisj1_MC78MXXYDT
chrisj1_MS8
chrisj1_MSOP8
chrisj1_MURATA_NMEXXXXDC
chrisj1_Murata_MGJ2
chrisj1_OAR5
chrisj1_PWR4412-2SC
chrisj1_R3
chrisj1_RAV14202
chrisj1_RAV14202_SS
chrisj1_RSBL_relay
chrisj1_R_0204_3
chrisj1_R_0204_4
chrisj1_R_0204_5
chrisj1_R_0207_6
chrisj1_SOD123W
chrisj1_SOT-227B
chrisj1_SOT-227B_BUSHINGS
chrisj1_SOT143B
chrisj1_SOT23
chrisj1_SOT353
chrisj1_TO220_VERT
chrisj1_TO92CBE_INLINE
chrisj1_VARISTOR_7p5x2p5
chrisj1_WEIDMULLER_1508060000
chrisj1_WEIDMULLER_1508260000
chrisj1_WEIDMULLER_1508360000
chrisj1_WEIDMULLER_1508460000
chrisj1_WEIDMULLER_1517260000
chrisj1_WEIDMULLER_1517460000
chrisj1_WSL3637R0100FEA
chrisj1_so14
chrisj1_so8
chrisj1_spelsberg_tk1313
$EndINDEX
$MODULE chrisj1_1206
Po 0 0 0 15 51FA0DF1 00000000 ~~
Li chrisj1_1206
Sc 0
AR 
Op 0 0 0
At SMD
T0 0 0 0.7 0.4 0 0.1 N V 21 N "chrisj1_1206"
T1 0 0 0.762 0.762 0 0.127 N I 21 N "Val**"
DS -2 -1 -2 1 0.12 21
DS -2 -1 2 -1 0.12 21
DS 2 -1 2 1 0.12 21
DS 2 1 -2 1 0.12 21
$PAD
Sh "1" R 0.9 1.8 0 0 0
Dr 0 0 0
At SMD N 00888000
Ne 0 ""
Po -1.45 0
$EndPAD
$PAD
Sh "2" R 0.9 1.8 0 0 0
Dr 0 0 0
At SMD N 00888000
Ne 0 ""
Po 1.45 0
$EndPAD
$SHAPE3D
Na "smd/chip_cms.wrl"
Sc 0.17 0.16 0.16
Of 0 0 0
Ro 0 0 0
$EndSHAPE3D
$EndMODULE chrisj1_1206
$MODULE chrisj1_1206_handassem
Po 0 0 0 15 5434A5E4 00000000 ~~
Li chrisj1_1206_handassem
Sc 0
AR 
Op 0 0 0
At SMD
T0 0 0 0.7 0.4 0 0.1 N V 21 N "chrisj1_1206"
T1 0 0 0.762 0.762 0 0.127 N I 21 N "Val**"
DS -2 -1 2 -1 0.12 21
DS 2 1 -2 1 0.12 21
$PAD
Sh "1" R 1.2 1.8 0 0 0
Dr 0 0 0
At SMD N 00888000
Ne 0 ""
Po -1.6 0
$EndPAD
$PAD
Sh "2" R 1.2 1.8 0 0 0
Dr 0 0 0
At SMD N 00888000
Ne 0 ""
Po 1.6 0
$EndPAD
$SHAPE3D
Na "smd/chip_cms.wrl"
Sc 0.17 0.16 0.16
Of 0 0 0
Ro 0 0 0
$EndSHAPE3D
$EndMODULE chrisj1_1206_handassem
$MODULE chrisj1_1pin_2p5mm_round
Po 0 0 0 15 559DB4BF 00000000 ~~
Li chrisj1_1pin_2p5mm_round
Cd module 1 pin
Sc 0
AR 1pin
Op 0 0 0
T0 0.1 -1.3 0.5 0.5 0 0.125 N I 21 N "pad"
T1 -0.2 1.2 0.5 0.5 0 0.125 N I 21 N "P***"
$PAD
Sh "1" C 2.5 2.5 0 0 0
Dr 0 0 0
At SMD N 00A88000
Ne 0 ""
Po 0 0
$EndPAD
$EndMODULE chrisj1_1pin_2p5mm_round
$MODULE chrisj1_1pin_2p5mm_th_round
Po 0 0 0 15 55E19736 00000000 ~~
Li chrisj1_1pin_2p5mm_th_round
Cd 1 pin pad
Sc 0
AR 1pin
Op 0 0 0
At VIRTUAL
T0 0.1 -1.3 0.5 0.5 0 0.125 N I 21 N "pad"
T1 -0.2 1.2 0.5 0.5 0 0.125 N I 21 N "P***"
$PAD
Sh "1" C 2.5 2.5 0 0 0
Dr 1 0 0
At STD N 00E0FFFF
Ne 0 ""
Po 0 0
$EndPAD
$EndMODULE chrisj1_1pin_2p5mm_th_round
$MODULE chrisj1_1pin_2p5mmx1p5mm
Po 0 0 0 15 52253FCF 00000000 ~~
Li chrisj1_1pin_2p5mmx1p5mm
Cd module 1 pin (ou trou mecanique de percage)
Kw DEV
Sc 0
AR 1pin
Op 0 0 0
T0 0.1 -1.3 0.5 0.5 0 0.125 N I 21 N "1pin"
T1 -0.2 1.2 0.5 0.5 0 0.125 N I 21 N "P***"
$PAD
Sh "1" R 2.5 1.5 0 0 0
Dr 0 0 0
At SMD N 00A88000
Ne 0 ""
Po 0 0
$EndPAD
$EndMODULE chrisj1_1pin_2p5mmx1p5mm
$MODULE chrisj1_1pin_8mm_round
Po 0 0 0 15 559DB76F 00000000 ~~
Li chrisj1_1pin_8mm_round
Cd module 1 pin
Sc 0
AR 1pin
Op 0 0 0
T0 0.1 -1.3 0.5 0.5 0 0.125 N I 21 N "pad"
T1 -0.2 1.2 0.5 0.5 0 0.125 N I 21 N "P***"
$PAD
Sh "1" C 8 8 0 0 0
Dr 0 0 0
At SMD N 00A88000
Ne 0 ""
Po 0 0
$EndPAD
$EndMODULE chrisj1_1pin_8mm_round
$MODULE chrisj1_78XX_TO220V
Po 0 0 0 15 506D2CFE 00000000 ~~
Li chrisj1_78XX_TO220V
Cd Regulateur TO220 serie LM78xx
Kw TR TO220
Sc 0
AR 
Op 0 0 0
T0 -3.175 0 1.524 1.016 900 0.2032 N V 21 N "TO220_VERT"
T1 0.635 -6.35 1.524 1.016 0 0.2032 N V 21 N "VAL**"
DS 1.905 -5.08 2.54 -5.08 0.381 21
DS 2.54 -5.08 2.54 5.08 0.381 21
DS 2.54 5.08 1.905 5.08 0.381 21
DS -1.905 -5.08 1.905 -5.08 0.381 21
DS 1.905 -5.08 1.905 5.08 0.381 21
DS 1.905 5.08 -1.905 5.08 0.381 21
DS -1.905 5.08 -1.905 -5.08 0.381 21
$PAD
Sh "VI" O 2.54 2.032 0 0 0
Dr 1.27 0 0
At STD N 00E0FFFF
Ne 0 ""
Po 0 -2.54
$EndPAD
$PAD
Sh "GND" O 2.54 2.032 0 0 0
Dr 1.27 0 0
At STD N 00E0FFFF
Ne 0 ""
Po 0 0
$EndPAD
$PAD
Sh "VO" R 2.54 2.032 0 0 0
Dr 1.27 0 0
At STD N 00E0FFFF
Ne 0 ""
Po 0 2.54
$EndPAD
$EndMODULE chrisj1_78XX_TO220V
$MODULE chrisj1_B32924C3155
Po 0 0 0 15 542BA5F3 00000000 ~~
Li chrisj1_B32924C3155
Sc 0
AR 
Op 0 0 0
T0 0 -1.27 1 1 0 0.15 N V 21 N "chrisj1_B32924C3155"
T1 0 0 1 1 0 0.15 N V 21 N "VAL**"
DS 15.75 -6.25 15.75 6.25 0.15 21
DS 15.75 6.25 -15.75 6.25 0.15 21
DS -15.75 6.25 -15.75 -6.25 0.15 21
DS -15.75 -6.25 15.75 -6.25 0.15 21
$PAD
Sh "1" C 3 3 0 0 0
Dr 1 0 0
At STD N 00E0FFFF
Ne 0 ""
Po -13.75 0
$EndPAD
$PAD
Sh "2" C 3 3 0 0 0
Dr 1 0 0
At STD N 00E0FFFF
Ne 0 ""
Po 13.75 0
$EndPAD
$EndMODULE chrisj1_B32924C3155
$MODULE chrisj1_CMR200T
Po 0 0 0 15 544838B4 00000000 ~~
Li chrisj1_CMR200T
Sc 0
AR 
Op 0 0 0
T0 -3 -2.75 1 1 0 0.15 N V 21 N "chrisj1_CMR200T"
T1 -4.5 2.25 1 1 0 0.15 N V 21 N "VAL**"
DS -2.75 0.5 -1.5 0.75 0.2 21
DS -1.5 -0.75 -2.75 -0.5 0.2 21
$PAD
Sh "0" R 6 2.5 0 0 0
Dr 0 0 0
At SMD N 00808000
Ne 0 ""
Po -6 0
$EndPAD
$PAD
Sh "2" R 2.5 1.1 0 0 0
Dr 0 0 0
At SMD N 00888000
Ne 0 ""
Po 0 -1.25
$EndPAD
$PAD
Sh "1" R 2.5 1.1 0 0 0
Dr 0 0 0
At SMD N 00888000
Ne 0 ""
Po 0 1.25
$EndPAD
$EndMODULE chrisj1_CMR200T
$MODULE chrisj1_CP_R_065_1
Po 0 0 0 15 506D06B8 00000000 ~~
Li chrisj1_CP_R_065_1
Cd Condensateur radial 6.3mm
Kw C
Sc 0
AR 
Op 0 0 0
T0 0 -1.778 1.016 1.016 0 0.2032 N V 21 N "CPR"
T1 0 1.778 1.016 1.016 0 0.2032 N I 21 N "C***"
DC 0 0 3.302 0 0.381 21
T2 -4.064 0 0.762 0.762 0 0.1905 N V 21 N "+"
$PAD
Sh "1" R 2.032 2.032 0 0 0
Dr 0.8128 0 0
At STD N 00E0FFFF
Ne 0 ""
Po -1.27 0
$EndPAD
$PAD
Sh "2" C 2.032 2.032 0 0 0
Dr 0.8128 0 0
At STD N 00E0FFFF
Ne 0 ""
Po 1.27 0
$EndPAD
$SHAPE3D
Na "capacitors/cp_r_063x150_1.wrl"
Sc 1 1 1
Of 0 0 0
Ro 0 0 0
$EndSHAPE3D
$EndMODULE chrisj1_CP_R_065_1
$MODULE chrisj1_CP_R_228_4
Po 0 0 0 15 506BED40 00000000 ~~
Li chrisj1_CP_R_228_4
Cd Condensateur radial 18mm
Kw C
Sc 0
AR 
Op 0 0 0
T0 0 -1.778 1.016 1.016 0 0.2032 N V 21 N "CPR"
T1 0 1.778 1.016 1.016 0 0.2032 N I 21 N "C***"
T2 -12.7 0 1.524 1.524 0 0.3048 N V 21 N "+"
DC 0 0 11.43 0 0.381 21
T2 -5.08 0 0.762 0.762 0 0.1905 N V 21 N "+"
$PAD
Sh "1" R 3.81 3.81 0 0 0
Dr 1.6256 0 0
At STD N 00E0FFFF
Ne 0 ""
Po -5.08 0
$EndPAD
$PAD
Sh "2" C 3.81 3.81 0 0 0
Dr 1.6256 0 0
At STD N 00E0FFFF
Ne 0 ""
Po 5.08 0
$EndPAD
$SHAPE3D
Na "capacitors/cp_r_180x250_3.wrl"
Sc 1 1 1
Of 0 0 0
Ro 0 0 0
$EndSHAPE3D
$EndMODULE chrisj1_CP_R_228_4
$MODULE chrisj1_CRA2512
Po 0 0 0 15 5434C1DF 00000000 ~~
Li chrisj1_CRA2512
Sc 0
AR 
Op 0 0 0
At SMD
T0 0 0 0.7 0.4 0 0.1 N V 21 N "chrisj1_CRA2512"
T1 0 0 0.762 0.762 0 0.127 N I 21 N "Val**"
DS -1 -1.55 1 -1.55 0.2 21
DS 1 1.55 -1 1.55 0.2 21
$PAD
Sh "1" R 2.1 4 0 0 0
Dr 0 0 0
At SMD N 00888000
Ne 0 ""
Po -3.1 0
$EndPAD
$PAD
Sh "2" R 2.1 4 0 0 0
Dr 0 0 0
At SMD N 00888000
Ne 0 ""
Po 3.1 0
$EndPAD
$SHAPE3D
Na "smd/chip_cms.wrl"
Sc 0.17 0.16 0.16
Of 0 0 0
Ro 0 0 0
$EndSHAPE3D
$EndMODULE chrisj1_CRA2512
$MODULE chrisj1_CRM2512
Po 0 0 0 15 5434C146 00000000 ~~
Li chrisj1_CRM2512
Sc 0
AR 
Op 0 0 0
At SMD
T0 0 0 0.7 0.4 0 0.1 N V 21 N "chrisj1_CRM2512"
T1 0 0 0.762 0.762 0 0.127 N I 21 N "Val**"
DS -1 -1.55 1 -1.55 0.2 21
DS 1 1.55 -1 1.55 0.2 21
$PAD
Sh "1" R 2.45 3.7 0 0 0
Dr 0 0 0
At SMD N 00888000
Ne 0 ""
Po -2.575 0
$EndPAD
$PAD
Sh "2" R 2.45 3.7 0 0 0
Dr 0 0 0
At SMD N 00888000
Ne 0 ""
Po 2.575 0
$EndPAD
$SHAPE3D
Na "smd/chip_cms.wrl"
Sc 0.17 0.16 0.16
Of 0 0 0
Ro 0 0 0
$EndSHAPE3D
$EndMODULE chrisj1_CRM2512
$MODULE chrisj1_C_BOX_046x025_1
Po 0 0 0 15 506D0AFC 00000000 ~~
Li chrisj1_C_BOX_046x025_1
Cd Condensateur 4.6x2.5mm
Kw C
Sc 0
AR 
Op 0 0 0
T0 0 0 1.016 1.016 0 0.2032 N V 21 N "C1"
T1 0 0 1.016 1.016 0 0.2032 N I 21 N "C***"
DS 2.286 -1.27 2.286 1.27 0.2032 21
DS 2.286 1.27 -2.286 1.27 0.2032 21
DS -2.286 1.27 -2.286 -1.27 0.2032 21
DS -2.286 -1.27 2.286 -1.27 0.2032 21
$PAD
Sh "1" C 2.032 2.032 0 0 0
Dr 0.8128 0 0
At STD N 00E0FFFF
Ne 0 ""
Po -1.27 0
$EndPAD
$PAD
Sh "2" C 2.032 2.032 0 0 0
Dr 0.8128 0 0
At STD N 00E0FFFF
Ne 0 ""
Po 1.27 0
$EndPAD
$SHAPE3D
Na "capacitors/c_box_046x025x070.wrl"
Sc 1 1 1
Of 0 0 0
Ro 0 0 0
$EndSHAPE3D
$EndMODULE chrisj1_C_BOX_046x025_1
$MODULE chrisj1_C_BOX_072x030_2
Po 0 0 0 15 506D0B64 00000000 ~~
Li chrisj1_C_BOX_072x030_2
Cd Condensateur 7.2x3mm
Kw C
Sc 0
AR 
Op 0 0 0
T0 0 0 1.016 1.016 0 0.2032 N V 21 N "C2"
T1 0 0 1.016 1.016 0 0.2032 N I 21 N "C***"
DS -3.556 -1.524 -3.556 1.524 0.2032 21
DS 3.556 -1.524 3.556 1.524 0.2032 21
DS -3.556 1.524 3.556 1.524 0.2032 21
DS 3.556 -1.524 -3.556 -1.524 0.2032 21
$PAD
Sh "1" C 2.032 2.032 0 0 0
Dr 0.8128 0 0
At STD N 00E0FFFF
Ne 0 ""
Po -2.54 0
$EndPAD
$PAD
Sh "2" C 2.032 2.032 0 0 0
Dr 0.8128 0 0
At STD N 00E0FFFF
Ne 0 ""
Po 2.54 0
$EndPAD
$SHAPE3D
Na "capacitors/c_box_072x030x075.wrl"
Sc 1 1 1
Of 0 0 0
Ro 0 0 0
$EndSHAPE3D
$EndMODULE chrisj1_C_BOX_072x030_2
$MODULE chrisj1_D3_SS
Po 0 0 0 15 506BDF74 00000000 ~~
Li chrisj1_D3_SS
Cd Diode DO35 3 pas
Kw D
Sc 0
AR 
Op 0 A 0
T0 0 0 1.016 1.016 0 0.2032 N I 21 N "D3"
T1 0 0 1.016 1.016 0 0.2032 N I 21 N "Val*"
DS -2.032 0 -2.54 0 0.2032 21
DS 2.032 0 2.54 0 0.2032 21
DS 1.27 -1.016 1.27 1.016 0.2032 21
DS -2.032 1.016 2.032 1.016 0.2032 21
DS -2.032 -1.016 2.032 -1.016 0.2032 21
DS -2.032 -1.016 -2.032 1.016 0.2032 21
DS 2.032 -1.016 2.032 1.016 0.2032 21
$PAD
Sh "1" R 1.6002 1.6002 0 0 0
Dr 0.8128 0 0
At STD N 00E0FFFF
Ne 0 ""
Po -3.81 0
$EndPAD
$PAD
Sh "2" C 1.6002 1.6002 0 0 0
Dr 0.8128 0 0
At STD N 00E0FFFF
Ne 0 ""
Po 3.81 0
$EndPAD
$SHAPE3D
Na "diodes/do35_3.wrl"
Sc 1 1 1
Of 0 0 0
Ro 0 0 0
$EndSHAPE3D
$EndMODULE chrisj1_D3_SS
$MODULE chrisj1_D4_SS
Po 0 0 0 15 506BDF39 00000000 ~~
Li chrisj1_D4_SS
Cd Diode DO35 4 pas
Kw D
Sc 0
AR 
Op 0 A 0
T0 0 0 1.016 1.016 0 0.2032 N I 21 N "D4"
T1 0 0 1.016 1.016 0 0.2032 N I 21 N "Val*"
DS 1.27 -1.016 1.27 1.016 0.2032 21
DS -2.032 0 -3.81 0 0.2032 21
DS 3.81 0 2.032 0 0.2032 21
DS -2.032 1.016 2.032 1.016 0.2032 21
DS -2.032 -1.016 2.032 -1.016 0.2032 21
DS -2.032 -1.016 -2.032 1.016 0.2032 21
DS 2.032 -1.016 2.032 1.016 0.2032 21
$PAD
Sh "1" R 2.032 2.032 0 0 0
Dr 1.016 0 0
At STD N 00E0FFFF
Ne 0 ""
Po -5.08 0
$EndPAD
$PAD
Sh "2" C 2.032 2.032 0 0 0
Dr 1.016 0 0
At STD N 00E0FFFF
Ne 0 ""
Po 5.08 0
$EndPAD
$SHAPE3D
Na "diodes/do35_4.wrl"
Sc 1 1 1
Of 0 0 0
Ro 0 0 0
$EndSHAPE3D
$EndMODULE chrisj1_D4_SS
$MODULE chrisj1_DFN6
Po 0 0 0 15 52258B7C 00000000 ~~
Li chrisj1_DFN6
Sc 0
AR 
Op 0 0 0
T0 0 0.5 0.2 0.127 0 0.02 N V 21 N "chrisj1_DFN6"
T1 0 -0.5 0.2 0.127 0 0.02 N V 21 N "VAL**"
DS 0.75 -1 1 -1 0.15 21
DS 1 -1 1 1 0.15 21
DS 1 1 0.75 1 0.15 21
DS -0.75 -1 -1 -1 0.15 21
DS -1 -1 -1 0.75 0.15 21
DS -1 0.75 -0.75 1 0.15 21
$PAD
Sh "6" R 0.25 0.675 0 0 0
Dr 0 0 0
At SMD N 00888000
Ne 0 ""
Po -0.5 -0.9125
$EndPAD
$PAD
Sh "5" R 0.25 0.675 0 0 0
Dr 0 0 0
At SMD N 00888000
Ne 0 ""
Po 0 -0.9125
$EndPAD
$PAD
Sh "4" R 0.25 0.675 0 0 0
Dr 0 0 0
At SMD N 00888000
Ne 0 ""
Po 0.5 -0.9125
$EndPAD
$PAD
Sh "3" R 0.25 0.675 0 0 0
Dr 0 0 0
At SMD N 00888000
Ne 0 ""
Po 0.5 0.9125
$EndPAD
$PAD
Sh "2" R 0.25 0.675 0 0 0
Dr 0 0 0
At SMD N 00888000
Ne 0 ""
Po 0 0.9125
$EndPAD
$PAD
Sh "1" R 0.25 0.675 0 0 0
Dr 0 0 0
At SMD N 00888000
Ne 0 ""
Po -0.5 0.9125
$EndPAD
$PAD
Sh "7" R 1.42 0.61 0 0 0
Dr 0 0 0
At SMD N 00888000
Ne 0 ""
Po 0 0
$EndPAD
$EndMODULE chrisj1_DFN6
$MODULE chrisj1_DIP-4__300
Po 0 0 0 15 557A3FF7 00000000 ~~
Li chrisj1_DIP-4__300
Cd 4 pins DIL package, round pads
Kw DIL
Sc 0
AR 
Op 0 0 0
T0 -3.81 0 1.27 1.143 900 0.2032 N V 21 N "U***"
T1 0 0 1.27 1.016 0 0.2032 N V 21 N "chrisj1_DIP-4_300"
DS -2.54 -1.27 -1.27 -1.27 0.254 21
DS -1.27 -1.27 -1.27 1.27 0.254 21
DS -1.27 1.27 -2.54 1.27 0.254 21
DS -2.54 -2.54 2.54 -2.54 0.254 21
DS 2.54 -2.54 2.54 2.54 0.254 21
DS 2.54 2.54 -2.54 2.54 0.254 21
DS -2.54 2.54 -2.54 -2.54 0.254 21
$PAD
Sh "1" R 1.397 1.397 0 0 0
Dr 0.8128 0 0
At STD N 00E0FFFF
Ne 0 ""
Po -1.27 3.81
$EndPAD
$PAD
Sh "2" C 1.397 1.397 0 0 0
Dr 0.8128 0 0
At STD N 00E0FFFF
Ne 0 ""
Po 1.27 3.81
$EndPAD
$PAD
Sh "3" C 1.397 1.397 0 0 0
Dr 0.8128 0 0
At STD N 00E0FFFF
Ne 0 ""
Po 1.27 -3.81
$EndPAD
$PAD
Sh "4" C 1.397 1.397 0 0 0
Dr 0.8128 0 0
At STD N 00E0FFFF
Ne 0 ""
Po -1.27 -3.81
$EndPAD
$SHAPE3D
Na "dil/dil_8.wrl"
Sc 1 1 1
Of 0 0 0
Ro 0 0 0
$EndSHAPE3D
$EndMODULE chrisj1_DIP-4__300
$MODULE chrisj1_DIP16_SS
Po 0 0 0 15 506D094C 00000000 ~~
Li chrisj1_DIP16_SS
Cd 16 pins DIL package, round pads
Kw DIL
Sc 0
AR 
Op 0 0 0
T0 -6.35 -1.27 1.524 1.143 0 0.28702 N V 21 N "U***"
T1 2.54 1.27 1.524 1.143 0 0.28702 N V 21 N "DIP-16_300"
DS -11.43 -1.27 -11.43 -1.27 0.381 21
DS -11.43 -1.27 -10.16 -1.27 0.381 21
DS -10.16 -1.27 -10.16 1.27 0.381 21
DS -10.16 1.27 -11.43 1.27 0.381 21
DS -11.43 -2.54 11.43 -2.54 0.381 21
DS 11.43 -2.54 11.43 2.54 0.381 21
DS 11.43 2.54 -11.43 2.54 0.381 21
DS -11.43 2.54 -11.43 -2.54 0.381 21
$PAD
Sh "1" R 2.032 2.032 0 0 0
Dr 0.8128 0 0
At STD N 00E0FFFF
Ne 0 ""
Po -8.89 3.81
$EndPAD
$PAD
Sh "2" C 2.032 2.032 0 0 0
Dr 0.8128 0 0
At STD N 00E0FFFF
Ne 0 ""
Po -6.35 3.81
$EndPAD
$PAD
Sh "3" C 2.032 2.032 0 0 0
Dr 0.8128 0 0
At STD N 00E0FFFF
Ne 0 ""
Po -3.81 3.81
$EndPAD
$PAD
Sh "4" C 2.032 2.032 0 0 0
Dr 0.8128 0 0
At STD N 00E0FFFF
Ne 0 ""
Po -1.27 3.81
$EndPAD
$PAD
Sh "5" C 2.032 2.032 0 0 0
Dr 0.8128 0 0
At STD N 00E0FFFF
Ne 0 ""
Po 1.27 3.81
$EndPAD
$PAD
Sh "6" C 2.032 2.032 0 0 0
Dr 0.8128 0 0
At STD N 00E0FFFF
Ne 0 ""
Po 3.81 3.81
$EndPAD
$PAD
Sh "7" C 2.032 2.032 0 0 0
Dr 0.8128 0 0
At STD N 00E0FFFF
Ne 0 ""
Po 6.35 3.81
$EndPAD
$PAD
Sh "8" C 2.032 2.032 0 0 0
Dr 0.8128 0 0
At STD N 00E0FFFF
Ne 0 ""
Po 8.89 3.81
$EndPAD
$PAD
Sh "9" C 2.032 2.032 0 0 0
Dr 0.8128 0 0
At STD N 00E0FFFF
Ne 0 ""
Po 8.89 -3.81
$EndPAD
$PAD
Sh "10" C 2.032 2.032 0 0 0
Dr 0.8128 0 0
At STD N 00E0FFFF
Ne 0 ""
Po 6.35 -3.81
$EndPAD
$PAD
Sh "11" C 2.032 2.032 0 0 0
Dr 0.8128 0 0
At STD N 00E0FFFF
Ne 0 ""
Po 3.81 -3.81
$EndPAD
$PAD
Sh "12" C 2.032 2.032 0 0 0
Dr 0.8128 0 0
At STD N 00E0FFFF
Ne 0 ""
Po 1.27 -3.81
$EndPAD
$PAD
Sh "13" C 2.032 2.032 0 0 0
Dr 0.8128 0 0
At STD N 00E0FFFF
Ne 0 ""
Po -1.27 -3.81
$EndPAD
$PAD
Sh "14" C 2.032 2.032 0 0 0
Dr 0.8128 0 0
At STD N 00E0FFFF
Ne 0 ""
Po -3.81 -3.81
$EndPAD
$PAD
Sh "15" C 2.032 2.032 0 0 0
Dr 0.8128 0 0
At STD N 00E0FFFF
Ne 0 ""
Po -6.35 -3.81
$EndPAD
$PAD
Sh "16" C 2.032 2.032 0 0 0
Dr 0.8128 0 0
At STD N 00E0FFFF
Ne 0 ""
Po -8.89 -3.81
$EndPAD
$SHAPE3D
Na "dil/dil_16.wrl"
Sc 1 1 1
Of 0 0 0
Ro 0 0 0
$EndSHAPE3D
$EndMODULE chrisj1_DIP16_SS
$MODULE chrisj1_DIP8_SS
Po 0 0 0 15 506BD9A0 00000000 ~~
Li chrisj1_DIP8_SS
Cd 8 pins DIL package, round pads
Kw DIL
Sc 0
AR 
Op 0 0 0
T0 -6.35 0 1.27 1.143 900 0.2032 N V 21 N "U***"
T1 0 0 1.27 1.016 0 0.2032 N V 21 N "DIP8_SS"
DS -5.08 -1.27 -3.81 -1.27 0.254 21
DS -3.81 -1.27 -3.81 1.27 0.254 21
DS -3.81 1.27 -5.08 1.27 0.254 21
DS -5.08 -2.54 5.08 -2.54 0.254 21
DS 5.08 -2.54 5.08 2.54 0.254 21
DS 5.08 2.54 -5.08 2.54 0.254 21
DS -5.08 2.54 -5.08 -2.54 0.254 21
$PAD
Sh "1" R 2.032 2.0447 0 0 0
Dr 0.8128 0 0
At STD N 00E0FFFF
Ne 0 ""
Po -3.81 3.81
$EndPAD
$PAD
Sh "2" C 2.032 2.032 0 0 0
Dr 0.8128 0 0
At STD N 00E0FFFF
Ne 0 ""
Po -1.27 3.81
$EndPAD
$PAD
Sh "3" C 2.032 2.032 0 0 0
Dr 0.8128 0 0
At STD N 00E0FFFF
Ne 0 ""
Po 1.27 3.81
$EndPAD
$PAD
Sh "4" C 2.032 2.032 0 0 0
Dr 0.8128 0 0
At STD N 00E0FFFF
Ne 0 ""
Po 3.81 3.81
$EndPAD
$PAD
Sh "5" C 2.032 2.032 0 0 0
Dr 0.8128 0 0
At STD N 00E0FFFF
Ne 0 ""
Po 3.81 -3.81
$EndPAD
$PAD
Sh "6" C 2.032 2.032 0 0 0
Dr 0.8128 0 0
At STD N 00E0FFFF
Ne 0 ""
Po 1.27 -3.81
$EndPAD
$PAD
Sh "7" C 2.032 2.032 0 0 0
Dr 0.8128 0 0
At STD N 00E0FFFF
Ne 0 ""
Po -1.27 -3.81
$EndPAD
$PAD
Sh "8" C 2.032 2.032 0 0 0
Dr 0.8128 0 0
At STD N 00E0FFFF
Ne 0 ""
Po -3.81 -3.81
$EndPAD
$SHAPE3D
Na "dil/dil_8.wrl"
Sc 1 1 1
Of 0 0 0
Ro 0 0 0
$EndSHAPE3D
$EndMODULE chrisj1_DIP8_SS
$MODULE chrisj1_DO-214AA
Po 0 0 0 15 52412A1C 00000000 ~~
Li chrisj1_DO-214AA
Cd DO-214AA
Kw DO-214AA
Sc 0
AR 
Op 0 0 0
At SMD
T0 0 -2.60096 1.00076 1.00076 0 0.11938 N V 21 N "chrisj1_DO-214AA"
T1 0 2.79908 1.00076 1.00076 0 0.11938 N V 21 N "VAL**"
DS -0.762 0 -0.9652 0 0.127 21
DS -2.286 -1.905 2.286 -1.905 0.127 21
DS 2.286 -1.905 2.286 -1.27 0.127 21
DS 0.6604 1.905 0.6604 -1.905 0.127 21
DS 0.9906 1.905 0.9906 -1.905 0.127 21
DS -2.286 1.27 -2.286 1.905 0.127 21
DS -2.286 1.905 2.286 1.905 0.127 21
DS 2.286 1.905 2.286 1.27 0.127 21
DS -2.286 -1.27 -2.286 -1.905 0.127 21
DS -0.127 0 -0.762 -0.47498 0.127 21
DS -0.762 -0.47498 -0.762 0 0.127 21
DS -0.762 0 -0.762 0.47498 0.127 21
DS -0.762 0.47498 -0.127 0 0.127 21
DS -0.127 0 -0.127 -0.3175 0.127 21
DS -0.127 -0.3175 -0.28448 -0.47498 0.127 21
DS -0.127 0 -0.127 0.3175 0.127 21
DS -0.127 0.3175 0.03048 0.47498 0.127 21
DS -0.127 0 0.98298 0 0.127 21
$PAD
Sh "A" R 1.80086 2.19964 0 0 0
Dr 0 0 0
At SMD N 00888000
Ne 0 ""
Po -2.0066 0
$EndPAD
$PAD
Sh "K" R 1.80086 2.19964 0 0 0
Dr 0 0 0
At SMD N 00888000
Ne 0 ""
Po 2.0066 0
$EndPAD
$SHAPE3D
Na "smd/do214.wrl"
Sc 1 1 1
Of 0 0 0
Ro 0 0 0
$EndSHAPE3D
$EndMODULE chrisj1_DO-214AA
$MODULE chrisj1_DS2E_RELAY
Po 0 0 0 15 506D09A0 00000000 ~~
Li chrisj1_DS2E_RELAY
Cd 16 pins DIL package, round pads
Kw DIL
Sc 0
AR 
Op 0 0 0
T0 -6.35 -1.27 1.524 1.143 0 0.28702 N V 21 N "U***"
T1 2.54 1.27 1.524 1.143 0 0.28702 N V 21 N "DIP-16_300"
DS -11.43 -1.27 -11.43 -1.27 0.381 21
DS -11.43 -1.27 -10.16 -1.27 0.381 21
DS -10.16 -1.27 -10.16 1.27 0.381 21
DS -10.16 1.27 -11.43 1.27 0.381 21
DS -11.43 -2.54 11.43 -2.54 0.381 21
DS 11.43 -2.54 11.43 2.54 0.381 21
DS 11.43 2.54 -11.43 2.54 0.381 21
DS -11.43 2.54 -11.43 -2.54 0.381 21
$PAD
Sh "1" R 2.032 2.032 0 0 0
Dr 0.8128 0 0
At STD N 00E0FFFF
Ne 0 ""
Po -8.89 3.81
$EndPAD
$PAD
Sh "4" C 2.032 2.032 0 0 0
Dr 0.8128 0 0
At STD N 00E0FFFF
Ne 0 ""
Po -1.27 3.81
$EndPAD
$PAD
Sh "6" C 2.032 2.032 0 0 0
Dr 0.8128 0 0
At STD N 00E0FFFF
Ne 0 ""
Po 3.81 3.81
$EndPAD
$PAD
Sh "8" C 2.032 2.032 0 0 0
Dr 0.8128 0 0
At STD N 00E0FFFF
Ne 0 ""
Po 8.89 3.81
$EndPAD
$PAD
Sh "9" C 2.032 2.032 0 0 0
Dr 0.8128 0 0
At STD N 00E0FFFF
Ne 0 ""
Po 8.89 -3.81
$EndPAD
$PAD
Sh "11" C 2.032 2.032 0 0 0
Dr 0.8128 0 0
At STD N 00E0FFFF
Ne 0 ""
Po 3.81 -3.81
$EndPAD
$PAD
Sh "13" C 2.032 2.032 0 0 0
Dr 0.8128 0 0
At STD N 00E0FFFF
Ne 0 ""
Po -1.27 -3.81
$EndPAD
$PAD
Sh "16" C 2.032 2.032 0 0 0
Dr 0.8128 0 0
At STD N 00E0FFFF
Ne 0 ""
Po -8.89 -3.81
$EndPAD
$SHAPE3D
Na "dil/dil_16.wrl"
Sc 1 1 1
Of 0 0 0
Ro 0 0 0
$EndSHAPE3D
$EndMODULE chrisj1_DS2E_RELAY
$MODULE chrisj1_HAMOND_1550Z115
Po 0 0 0 15 54471469 00000000 ~~
Li chrisj1_HAMOND_1550Z115
Sc 0
AR 
Op 0 0 0
T0 0 -2 1 1 0 0.15 N V 21 N "chrisj1_HAMOND_1550Z115"
T1 0 2 1 1 0 0.15 N V 21 N "VAL**"
DA -55 -45 -59.5 -45 900 0.2 24
DA -55 45 -55 49.5 900 0.2 24
DA 55 45 59.5 45 900 0.2 24
DA 55 -45 55 -49.5 900 0.2 24
DS -55 49.5 55 49.5 0.2 24
DS -59.5 -45 -59.5 45 0.2 24
DS 55 -49.5 -55 -49.5 0.2 24
DS 59.5 -45 59.5 45 0.2 24
$PAD
Sh "1" C 7 7 0 0 0
Dr 4.2 0 0
At STD N 00E0FFFF
Ne 0 ""
Po -55 -45
$EndPAD
$PAD
Sh "2" C 7 7 0 0 0
Dr 4.2 0 0
At STD N 00E0FFFF
Ne 0 ""
Po 55 -45
$EndPAD
$PAD
Sh "3" C 7 7 0 0 0
Dr 4.2 0 0
At STD N 00E0FFFF
Ne 0 ""
Po 55 45
$EndPAD
$PAD
Sh "4" C 7 7 0 0 0
Dr 4.2 0 0
At STD N 00E0FFFF
Ne 0 ""
Po -55 45
$EndPAD
$EndMODULE chrisj1_HAMOND_1550Z115
$MODULE chrisj1_HOLE3p3
Po 0 0 0 15 506D28CD 00000000 ~~
Li chrisj1_HOLE3p3
Sc 0
AR 
Op 0 0 0
T0 0 -2.54 1.524 1.524 0 0.3048 N I 21 N "HOLE"
T1 0 0 1.524 1.524 0 0.3048 N I 21 N "VAL**"
$PAD
Sh "1" C 5.08 5.08 0 0 0
Dr 3.302 0 0
At STD N 00E0FFFF
Ne 0 ""
Po 0 0
$EndPAD
$EndMODULE chrisj1_HOLE3p3
$MODULE chrisj1_HOLE3p5
Po 0 0 0 15 506D291D 00000000 ~~
Li chrisj1_HOLE3p5
Sc 0
AR 
Op 0 0 0
T0 0 -2.54 1.524 1.524 0 0.3048 N I 21 N "HOLE"
T1 0 0 1.524 1.524 0 0.3048 N I 21 N "VAL**"
$PAD
Sh "1" C 5.08 5.08 0 0 0
Dr 3.5052 0 0
At STD N 00E0FFFF
Ne 0 ""
Po 0 0
$EndPAD
$EndMODULE chrisj1_HOLE3p5
$MODULE chrisj1_HOLE4p2
Po 0 0 0 15 544713FC 00000000 ~~
Li chrisj1_HOLE4p2
Sc 0
AR 
Op 0 0 0
T0 0 -1.4 1 1 0 0.15 N V 21 N "chrisj1_HOLE4p2"
T1 0 1.3 1 1 0 0.15 N V 21 N "VAL**"
DC 0 0 3.875 0 0.25 21
$PAD
Sh "1" C 7 7 0 0 0
Dr 4.2 0 0
At STD N 00E0FFFF
Ne 0 ""
Po 0 0
$EndPAD
$EndMODULE chrisj1_HOLE4p2
$MODULE chrisj1_LED-0805
Po 0 0 0 15 557A3D3B 00000000 ~~
Li chrisj1_LED-0805
Cd LED 0805 smd package
Kw LED 0805 SMD
Sc 0
AR 
Op 0 0 0
At SMD
T0 0 -1.27 0.762 0.762 0 0.127 N V 21 N "chrisj1_LED-0805"
T1 0 1.27 0.762 0.762 0 0.127 N V 21 N "Val*"
DS 0.3 -0.4 0.3 0.4 0.2 21
DS 0.49784 0.29972 0.49784 0.62484 0.06604 21
DS 0.49784 0.62484 0.99822 0.62484 0.06604 21
DS 0.99822 0.29972 0.99822 0.62484 0.06604 21
DS 0.49784 0.29972 0.99822 0.29972 0.06604 21
DS 0.49784 -0.32258 0.49784 -0.17272 0.06604 21
DS 0.49784 -0.17272 0.7493 -0.17272 0.06604 21
DS 0.7493 -0.32258 0.7493 -0.17272 0.06604 21
DS 0.49784 -0.32258 0.7493 -0.32258 0.06604 21
DS 0.49784 0.17272 0.49784 0.32258 0.06604 21
DS 0.49784 0.32258 0.7493 0.32258 0.06604 21
DS 0.7493 0.17272 0.7493 0.32258 0.06604 21
DS 0.49784 0.17272 0.7493 0.17272 0.06604 21
DS 0.49784 -0.19812 0.49784 0.19812 0.06604 21
DS 0.49784 0.19812 0.6731 0.19812 0.06604 21
DS 0.6731 -0.19812 0.6731 0.19812 0.06604 21
DS 0.49784 -0.19812 0.6731 -0.19812 0.06604 21
DS -0.99822 0.29972 -0.99822 0.62484 0.06604 21
DS -0.99822 0.62484 -0.49784 0.62484 0.06604 21
DS -0.49784 0.29972 -0.49784 0.62484 0.06604 21
DS -0.99822 0.29972 -0.49784 0.29972 0.06604 21
DS -0.99822 -0.62484 -0.99822 -0.29972 0.06604 21
DS -0.99822 -0.29972 -0.49784 -0.29972 0.06604 21
DS -0.49784 -0.62484 -0.49784 -0.29972 0.06604 21
DS -0.99822 -0.62484 -0.49784 -0.62484 0.06604 21
DS -0.7493 0.17272 -0.7493 0.32258 0.06604 21
DS -0.7493 0.32258 -0.49784 0.32258 0.06604 21
DS -0.49784 0.17272 -0.49784 0.32258 0.06604 21
DS -0.7493 0.17272 -0.49784 0.17272 0.06604 21
DS -0.7493 -0.32258 -0.7493 -0.17272 0.06604 21
DS -0.7493 -0.17272 -0.49784 -0.17272 0.06604 21
DS -0.49784 -0.32258 -0.49784 -0.17272 0.06604 21
DS -0.7493 -0.32258 -0.49784 -0.32258 0.06604 21
DS -0.6731 -0.19812 -0.6731 0.19812 0.06604 21
DS -0.6731 0.19812 -0.49784 0.19812 0.06604 21
DS -0.49784 -0.19812 -0.49784 0.19812 0.06604 21
DS -0.6731 -0.19812 -0.49784 -0.19812 0.06604 21
DS 0 -0.09906 0 0.09906 0.06604 21
DS 0 0.09906 0.19812 0.09906 0.06604 21
DS 0.19812 -0.09906 0.19812 0.09906 0.06604 21
DS 0 -0.09906 0.19812 -0.09906 0.06604 21
DS 0.49784 -0.59944 0.49784 -0.29972 0.06604 21
DS 0.49784 -0.29972 0.79756 -0.29972 0.06604 21
DS 0.79756 -0.59944 0.79756 -0.29972 0.06604 21
DS 0.49784 -0.59944 0.79756 -0.59944 0.06604 21
DS 0.92456 -0.62484 0.92456 -0.39878 0.06604 21
DS 0.92456 -0.39878 0.99822 -0.39878 0.06604 21
DS 0.99822 -0.62484 0.99822 -0.39878 0.06604 21
DS 0.92456 -0.62484 0.99822 -0.62484 0.06604 21
DS 0.52324 0.57404 -0.52324 0.57404 0.1016 21
DS -0.49784 -0.57404 0.92456 -0.57404 0.1016 21
DC 0.84836 -0.44958 0.89916 -0.50038 0.0508 21
DA 0.99822 0 0.99822 0.34798 1800 0.1016 21
DA -0.99822 0 -0.99822 -0.34798 1800 0.1016 21
$PAD
Sh "A" R 1.19888 1.19888 0 0 0
Dr 0 0 0
At SMD N 00888000
Ne 0 ""
Po -1.04902 0
$EndPAD
$PAD
Sh "K" R 1.19888 1.19888 0 0 0
Dr 0 0 0
At SMD N 00888000
Ne 0 ""
Po 1.04902 0
$EndPAD
$EndMODULE chrisj1_LED-0805
$MODULE chrisj1_LINK0.1
Po 0 0 0 15 506D0743 00000000 ~~
Li chrisj1_LINK0.1
Sc 0
AR 
Op 0 0 0
T0 0 -2.54 1.72974 1.08712 0 0.27178 N I 21 N "LINK0.1"
T1 0 -2.54 1.524 1.016 0 0.254 N I 21 N "Val**"
DS 0 -0.635 0 0.635 0.381 21
$PAD
Sh "1" R 2.032 2.032 0 0 0
Dr 1.27 0 0
At STD N 00E0FFFF
Ne 0 ""
Po -1.27 0
$EndPAD
$PAD
Sh "2" C 2.032 2.032 0 0 0
Dr 1.27 0 0
At STD N 00E0FFFF
Ne 0 ""
Po 1.27 0
$EndPAD
$EndMODULE chrisj1_LINK0.1
$MODULE chrisj1_LINK0.2
Po 0 0 0 15 506D075B 00000000 ~~
Li chrisj1_LINK0.2
Sc 0
AR 
Op 0 0 0
T0 0 -2.54 1.72974 1.08712 0 0.27178 N I 21 N "LINK0.2"
T1 0 -2.54 1.524 1.016 0 0.254 N I 21 N "Val**"
DS -1.27 0 1.27 0 0.381 21
$PAD
Sh "1" R 2.032 2.032 0 0 0
Dr 1.27 0 0
At STD N 00E0FFFF
Ne 0 ""
Po -2.54 0
$EndPAD
$PAD
Sh "2" C 2.032 2.032 0 0 0
Dr 1.27 0 0
At STD N 00E0FFFF
Ne 0 ""
Po 2.54 0
$EndPAD
$EndMODULE chrisj1_LINK0.2
$MODULE chrisj1_LINK0.3
Po 0 0 0 15 506D0773 00000000 ~~
Li chrisj1_LINK0.3
Sc 0
AR 
Op 0 0 0
T0 0 -2.54 1.72974 1.08712 0 0.27178 N I 21 N "LINK0.3"
T1 0 -2.54 1.524 1.016 0 0.254 N I 21 N "Val**"
DS -1.905 0 1.905 0 0.381 21
$PAD
Sh "1" R 2.032 2.032 0 0 0
Dr 1.27 0 0
At STD N 00E0FFFF
Ne 0 ""
Po -3.81 0
$EndPAD
$PAD
Sh "2" C 2.032 2.032 0 0 0
Dr 1.27 0 0
At STD N 00E0FFFF
Ne 0 ""
Po 3.81 0
$EndPAD
$EndMODULE chrisj1_LINK0.3
$MODULE chrisj1_LINK0.4
Po 0 0 0 15 506D0783 00000000 ~~
Li chrisj1_LINK0.4
Sc 0
AR 
Op 0 0 0
T0 0 -2.54 1.72974 1.08712 0 0.27178 N I 21 N "LINK0.4"
T1 0 -2.54 1.524 1.016 0 0.254 N I 21 N "Val**"
DS -3.175 0 3.175 0 0.381 21
$PAD
Sh "1" R 2.032 2.032 0 0 0
Dr 1.27 0 0
At STD N 00E0FFFF
Ne 0 ""
Po -5.08 0
$EndPAD
$PAD
Sh "2" C 2.032 2.032 0 0 0
Dr 1.27 0 0
At STD N 00E0FFFF
Ne 0 ""
Po 5.08 0
$EndPAD
$EndMODULE chrisj1_LINK0.4
$MODULE chrisj1_LM78XX
Po 0 0 0 15 506D2534 00000000 ~~
Li chrisj1_LM78XX
Cd Regulateur TO220 serie LM78xx
Kw TR TO220
Sc 0
AR 
Op 0 0 0
T0 7.62 0 1.524 1.016 900 0.2032 N V 21 N "LM78XX"
T1 10.668 0.127 1.524 1.016 900 0.2032 N V 21 N "VAL*"
DS 1.27 2.54 5.08 2.54 0.381 21
DS 1.27 0 5.08 0 0.381 21
DS 1.27 -2.54 5.08 -2.54 0.381 21
DS 5.08 -3.81 5.08 5.08 0.3048 21
DS 5.08 5.08 20.32 5.08 0.3048 21
DS 20.32 5.08 20.32 -5.08 0.3048 21
DS 5.08 -3.81 5.08 -5.08 0.3048 21
DS 12.7 3.81 12.7 -5.08 0.3048 21
DS 12.7 3.81 12.7 5.08 0.3048 21
DS 5.08 -5.08 20.32 -5.08 0.3048 21
$PAD
Sh "GND" R 8.89 8.89 0 0 0
Dr 3.048 0 0
At STD N 00F0FFFF
Ne 0 ""
Po 16.51 0
$EndPAD
$PAD
Sh "VI" C 1.778 1.778 0 0 0
Dr 1.143 0 0
At STD N 00E0FFFF
Ne 0 ""
Po 0 -2.54
$EndPAD
$PAD
Sh "GND" R 1.778 1.778 0 0 0
Dr 1.143 0 0
At STD N 00E0FFFF
Ne 0 ""
Po 0 0
$EndPAD
$PAD
Sh "VO" C 1.778 1.778 0 0 0
Dr 1.143 0 0
At STD N 00E0FFFF
Ne 0 ""
Po 0 2.54
$EndPAD
$SHAPE3D
Na "discret/to220_horiz.wrl"
Sc 1 1 1
Of 0 0 0
Ro 0 0 0
$EndSHAPE3D
$EndMODULE chrisj1_LM78XX
$MODULE chrisj1_LQFP-48
Po 0 0 0 15 543770FC 00000000 ~~
Li chrisj1_LQFP-48
Sc 0
AR 
Op 0 0 0
T0 0 0.75 1 1 0 0.15 N V 21 N "chrisj1_LQFP-48"
T1 0 -0.5 1 1 0 0.15 N V 21 N "VAL**"
DS -3.75 -3.25 -3.25 -3.75 0.15 21
DS 3.25 3.75 3.75 3.75 0.15 21
DS 3.725 3.75 3.725 3.25 0.15 21
DS -3.75 3.25 -3.75 3.75 0.15 21
DS -3.75 3.75 -3.25 3.75 0.15 21
DS 3.225 -3.75 3.725 -3.75 0.15 21
DS 3.725 -3.75 3.725 -3.25 0.15 21
DC -4.25 -4.25 -4.25 -4 0.15 21
$PAD
Sh "1" R 1.5 0.28 0 0 0
Dr 0 0 0
At SMD N 00888000
Ne 0 ""
Po -4.4 -2.75
$EndPAD
$PAD
Sh "2" R 1.5 0.28 0 0 0
Dr 0 0 0
At SMD N 00888000
Ne 0 ""
Po -4.4 -2.25
$EndPAD
$PAD
Sh "3" R 1.5 0.28 0 0 0
Dr 0 0 0
At SMD N 00888000
Ne 0 ""
Po -4.4 -1.75
$EndPAD
$PAD
Sh "4" R 1.5 0.28 0 0 0
Dr 0 0 0
At SMD N 00888000
Ne 0 ""
Po -4.4 -1.25
$EndPAD
$PAD
Sh "5" R 1.5 0.28 0 0 0
Dr 0 0 0
At SMD N 00888000
Ne 0 ""
Po -4.4 -0.75
$EndPAD
$PAD
Sh "6" R 1.5 0.28 0 0 0
Dr 0 0 0
At SMD N 00888000
Ne 0 ""
Po -4.4 -0.25
$EndPAD
$PAD
Sh "7" R 1.5 0.28 0 0 0
Dr 0 0 0
At SMD N 00888000
Ne 0 ""
Po -4.4 0.25
$EndPAD
$PAD
Sh "8" R 1.5 0.28 0 0 0
Dr 0 0 0
At SMD N 00888000
Ne 0 ""
Po -4.4 0.75
$EndPAD
$PAD
Sh "9" R 1.5 0.28 0 0 0
Dr 0 0 0
At SMD N 00888000
Ne 0 ""
Po -4.4 1.25
$EndPAD
$PAD
Sh "10" R 1.5 0.28 0 0 0
Dr 0 0 0
At SMD N 00888000
Ne 0 ""
Po -4.4 1.75
$EndPAD
$PAD
Sh "11" R 1.5 0.28 0 0 0
Dr 0 0 0
At SMD N 00888000
Ne 0 ""
Po -4.4 2.25
$EndPAD
$PAD
Sh "12" R 1.5 0.28 0 0 0
Dr 0 0 0
At SMD N 00888000
Ne 0 ""
Po -4.4 2.75
$EndPAD
$PAD
Sh "13" R 0.28 1.5 0 0 0
Dr 0 0 0
At SMD N 00888000
Ne 0 ""
Po -2.75 4.4
$EndPAD
$PAD
Sh "14" R 0.28 1.5 0 0 0
Dr 0 0 0
At SMD N 00888000
Ne 0 ""
Po -2.25 4.4
$EndPAD
$PAD
Sh "15" R 0.28 1.5 0 0 0
Dr 0 0 0
At SMD N 00888000
Ne 0 ""
Po -1.75 4.4
$EndPAD
$PAD
Sh "16" R 0.28 1.5 0 0 0
Dr 0 0 0
At SMD N 00888000
Ne 0 ""
Po -1.25 4.4
$EndPAD
$PAD
Sh "17" R 0.28 1.5 0 0 0
Dr 0 0 0
At SMD N 00888000
Ne 0 ""
Po -0.75 4.4
$EndPAD
$PAD
Sh "18" R 0.28 1.5 0 0 0
Dr 0 0 0
At SMD N 00888000
Ne 0 ""
Po -0.25 4.4
$EndPAD
$PAD
Sh "19" R 0.28 1.5 0 0 0
Dr 0 0 0
At SMD N 00888000
Ne 0 ""
Po 0.25 4.4
$EndPAD
$PAD
Sh "20" R 0.28 1.5 0 0 0
Dr 0 0 0
At SMD N 00888000
Ne 0 ""
Po 0.75 4.4
$EndPAD
$PAD
Sh "21" R 0.28 1.5 0 0 0
Dr 0 0 0
At SMD N 00888000
Ne 0 ""
Po 1.25 4.4
$EndPAD
$PAD
Sh "22" R 0.28 1.5 0 0 0
Dr 0 0 0
At SMD N 00888000
Ne 0 ""
Po 1.75 4.4
$EndPAD
$PAD
Sh "23" R 0.28 1.5 0 0 0
Dr 0 0 0
At SMD N 00888000
Ne 0 ""
Po 2.25 4.4
$EndPAD
$PAD
Sh "24" R 0.28 1.5 0 0 0
Dr 0 0 0
At SMD N 00888000
Ne 0 ""
Po 2.75 4.4
$EndPAD
$PAD
Sh "25" R 1.5 0.28 0 0 0
Dr 0 0 0
At SMD N 00888000
Ne 0 ""
Po 4.4 2.75
$EndPAD
$PAD
Sh "26" R 1.5 0.28 0 0 0
Dr 0 0 0
At SMD N 00888000
Ne 0 ""
Po 4.4 2.25
$EndPAD
$PAD
Sh "27" R 1.5 0.28 0 0 0
Dr 0 0 0
At SMD N 00888000
Ne 0 ""
Po 4.4 1.75
$EndPAD
$PAD
Sh "28" R 1.5 0.28 0 0 0
Dr 0 0 0
At SMD N 00888000
Ne 0 ""
Po 4.4 1.25
$EndPAD
$PAD
Sh "29" R 1.5 0.28 0 0 0
Dr 0 0 0
At SMD N 00888000
Ne 0 ""
Po 4.4 0.75
$EndPAD
$PAD
Sh "30" R 1.5 0.28 0 0 0
Dr 0 0 0
At SMD N 00888000
Ne 0 ""
Po 4.4 0.25
$EndPAD
$PAD
Sh "31" R 1.5 0.28 0 0 0
Dr 0 0 0
At SMD N 00888000
Ne 0 ""
Po 4.4 -0.25
$EndPAD
$PAD
Sh "32" R 1.5 0.28 0 0 0
Dr 0 0 0
At SMD N 00888000
Ne 0 ""
Po 4.4 -0.75
$EndPAD
$PAD
Sh "33" R 1.5 0.28 0 0 0
Dr 0 0 0
At SMD N 00888000
Ne 0 ""
Po 4.4 -1.25
$EndPAD
$PAD
Sh "34" R 1.5 0.28 0 0 0
Dr 0 0 0
At SMD N 00888000
Ne 0 ""
Po 4.4 -1.75
$EndPAD
$PAD
Sh "35" R 1.5 0.28 0 0 0
Dr 0 0 0
At SMD N 00888000
Ne 0 ""
Po 4.4 -2.25
$EndPAD
$PAD
Sh "36" R 1.5 0.28 0 0 0
Dr 0 0 0
At SMD N 00888000
Ne 0 ""
Po 4.4 -2.75
$EndPAD
$PAD
Sh "37" R 0.28 1.5 0 0 0
Dr 0 0 0
At SMD N 00888000
Ne 0 ""
Po 2.75 -4.4
$EndPAD
$PAD
Sh "38" R 0.28 1.5 0 0 0
Dr 0 0 0
At SMD N 00888000
Ne 0 ""
Po 2.25 -4.4
$EndPAD
$PAD
Sh "39" R 0.28 1.5 0 0 0
Dr 0 0 0
At SMD N 00888000
Ne 0 ""
Po 1.75 -4.4
$EndPAD
$PAD
Sh "40" R 0.28 1.5 0 0 0
Dr 0 0 0
At SMD N 00888000
Ne 0 ""
Po 1.25 -4.4
$EndPAD
$PAD
Sh "41" R 0.28 1.5 0 0 0
Dr 0 0 0
At SMD N 00888000
Ne 0 ""
Po 0.75 -4.4
$EndPAD
$PAD
Sh "42" R 0.28 1.5 0 0 0
Dr 0 0 0
At SMD N 00888000
Ne 0 ""
Po 0.25 -4.4
$EndPAD
$PAD
Sh "43" R 0.28 1.5 0 0 0
Dr 0 0 0
At SMD N 00888000
Ne 0 ""
Po -0.25 -4.4
$EndPAD
$PAD
Sh "44" R 0.28 1.5 0 0 0
Dr 0 0 0
At SMD N 00888000
Ne 0 ""
Po -0.75 -4.4
$EndPAD
$PAD
Sh "45" R 0.28 1.5 0 0 0
Dr 0 0 0
At SMD N 00888000
Ne 0 ""
Po -1.25 -4.4
$EndPAD
$PAD
Sh "46" R 0.28 1.5 0 0 0
Dr 0 0 0
At SMD N 00888000
Ne 0 ""
Po -1.75 -4.4
$EndPAD
$PAD
Sh "47" R 0.28 1.5 0 0 0
Dr 0 0 0
At SMD N 00888000
Ne 0 ""
Po -2.25 -4.4
$EndPAD
$PAD
Sh "48" R 0.28 1.5 0 0 0
Dr 0 0 0
At SMD N 00888000
Ne 0 ""
Po -2.75 -4.4
$EndPAD
$EndMODULE chrisj1_LQFP-48
$MODULE chrisj1_M4_PLATED_HOLE
Po 0 0 0 15 544464C2 00000000 ~~
Li chrisj1_M4_PLATED_HOLE
Sc 0
AR 
Op 0 0 0
T0 0 -1.4 1 1 0 0.15 N V 21 N "chrisj1_M4_PLATED_HOLE"
T1 0 1.3 1 1 0 0.15 N V 21 N "VAL**"
$PAD
Sh "1" C 8 8 0 0 0
Dr 4.2 0 0
At STD N 00E0FFFF
Ne 0 ""
Po 0 0
$EndPAD
$EndMODULE chrisj1_M4_PLATED_HOLE
$MODULE chrisj1_MC78MXXYDT
Po 0 0 0 15 5410F60C 00000000 ~~
Li chrisj1_MC78MXXYDT
Sc 0
AR 
Op 0 0 0
T0 0.2 -2.8 1 1 0 0.15 N V 21 N "chrisj1_MC78MXXYDT"
T1 5.5 -4.3 1 1 0 0.15 N V 21 N "VAL**"
DS -3 -1.8 -3 -3.7 0.15 21
DS 3 -1.8 3 -3.7 0.15 21
DS 1.1 1.5 -1.1 1.5 0.15 21
$PAD
Sh "VI" R 1.6 3 0 0 0
Dr 0 0 0
At SMD N 00888000
Ne 0 ""
Po -2.28 0
$EndPAD
$PAD
Sh "VO" R 1.6 3 0 0 0
Dr 0 0 0
At SMD N 00888000
Ne 0 ""
Po 2.28 0
$EndPAD
$PAD
Sh "GND" R 5.8 6.2 0 0 0
Dr 0 0 0
At SMD N 00888000
Ne 0 ""
Po 0 -7.18
$EndPAD
$EndMODULE chrisj1_MC78MXXYDT
$MODULE chrisj1_MS8
Po 0 0 0 15 5423B93C 00000000 ~~
Li chrisj1_MS8
Sc 0
AR 
Op 0 0 0
T0 0 0.5 0.2 0.127 0 0.02 N V 21 N "chrisj1_MSOP8"
T1 0 -0.5 0.2 0.127 0 0.02 N V 21 N "VAL**"
DS 1.35 -2.6 1.6 -2.6 0.15 21
DS 1.6 -2.6 1.6 2.6 0.15 21
DS 1.6 2.6 1.35 2.6 0.15 21
DS -1.35 -2.6 -1.6 -2.6 0.15 21
DS -1.6 -2.6 -1.6 2.35 0.15 21
DS -1.6 2.35 -1.35 2.6 0.15 21
$PAD
Sh "4" R 0.4 0.9 0 0 0
Dr 0 0 0
At SMD N 00888000
Ne 0 ""
Po 0.975 2.17
$EndPAD
$PAD
Sh "5" R 0.4 0.9 0 0 0
Dr 0 0 0
At SMD N 00888000
Ne 0 ""
Po 0.975 -2.17
$EndPAD
$PAD
Sh "6" R 0.4 0.9 0 0 0
Dr 0 0 0
At SMD N 00888000
Ne 0 ""
Po 0.325 -2.17
$EndPAD
$PAD
Sh "3" R 0.4 0.9 0 0 0
Dr 0 0 0
At SMD N 00888000
Ne 0 ""
Po 0.325 2.17
$EndPAD
$PAD
Sh "1" R 0.4 0.9 0 0 0
Dr 0 0 0
At SMD N 00888000
Ne 0 ""
Po -0.975 2.17
$EndPAD
$PAD
Sh "8" R 0.4 0.9 0 0 0
Dr 0 0 0
At SMD N 00888000
Ne 0 ""
Po -0.975 -2.17
$EndPAD
$PAD
Sh "7" R 0.4 0.9 0 0 0
Dr 0 0 0
At SMD N 00888000
Ne 0 ""
Po -0.325 -2.17
$EndPAD
$PAD
Sh "2" R 0.4 0.9 0 0 0
Dr 0 0 0
At SMD N 00888000
Ne 0 ""
Po -0.325 2.17
$EndPAD
$EndMODULE chrisj1_MS8
$MODULE chrisj1_MSOP8
Po 0 0 0 15 52412BB7 00000000 ~~
Li chrisj1_MSOP8
Sc 0
AR 
Op 0 0 0
T0 0 0.5 0.2 0.127 0 0.02 N V 21 N "chrisj1_MSOP8"
T1 0 -0.5 0.2 0.127 0 0.02 N V 21 N "VAL**"
DS 1.35 -2.6 1.6 -2.6 0.15 21
DS 1.6 -2.6 1.6 2.6 0.15 21
DS 1.6 2.6 1.35 2.6 0.15 21
DS -1.35 -2.6 -1.6 -2.6 0.15 21
DS -1.6 -2.6 -1.6 2.35 0.15 21
DS -1.6 2.35 -1.35 2.6 0.15 21
$PAD
Sh "4" R 0.4 0.9 0 0 0
Dr 0 0 0
At SMD N 00888000
Ne 0 ""
Po 0.975 2.17
$EndPAD
$PAD
Sh "5" R 0.4 0.9 0 0 0
Dr 0 0 0
At SMD N 00888000
Ne 0 ""
Po 0.975 -2.17
$EndPAD
$PAD
Sh "6" R 0.4 0.9 0 0 0
Dr 0 0 0
At SMD N 00888000
Ne 0 ""
Po 0.325 -2.17
$EndPAD
$PAD
Sh "3" R 0.4 0.9 0 0 0
Dr 0 0 0
At SMD N 00888000
Ne 0 ""
Po 0.325 2.17
$EndPAD
$PAD
Sh "1" R 0.4 0.9 0 0 0
Dr 0 0 0
At SMD N 00888000
Ne 0 ""
Po -0.975 2.17
$EndPAD
$PAD
Sh "8" R 0.4 0.9 0 0 0
Dr 0 0 0
At SMD N 00888000
Ne 0 ""
Po -0.975 -2.17
$EndPAD
$PAD
Sh "7" R 0.4 0.9 0 0 0
Dr 0 0 0
At SMD N 00888000
Ne 0 ""
Po -0.325 -2.17
$EndPAD
$PAD
Sh "2" R 0.4 0.9 0 0 0
Dr 0 0 0
At SMD N 00888000
Ne 0 ""
Po -0.325 2.17
$EndPAD
$PAD
Sh "9" R 2.8 2.15 0 0 0
Dr 0 0 0
At SMD N 00888000
Ne 0 ""
Po 0 0
$EndPAD
$EndMODULE chrisj1_MSOP8
$MODULE chrisj1_MURATA_NMEXXXXDC
Po 0 0 0 15 5406912D 00000000 ~~
Li chrisj1_MURATA_NMEXXXXDC
Sc 0
AR 
Op 0 0 0
T0 0 1.5 1 1 0 0.15 N V 21 N "chrisj1_MURATA_NMEXXXXDC"
T1 0 -1 1 1 0 0.15 N V 21 N "VAL**"
T2 0.85 -2.8 1 1 0 0.2 N V 21 N "out"
T2 0.45 -3.9 1 1 0 0.15 N V 21 N "-"
T2 2.05 -3.9 1 1 0 0.15 N V 21 N "+"
T2 -2.05 4.05 1 1 0 0.15 N V 21 N "-"
T2 2.05 4.15 1 1 0 0.15 N V 21 N "+"
T2 0 4.15 1 1 0 0.2 N V 21 N "inp"
DS 5.75 4.9 4.65 4.9 0.15 21
DS -2.95 4.9 2.95 4.9 0.15 21
DS -5.75 4.9 -4.75 4.9 0.15 21
DS 4.7 -4.9 5.75 -4.9 0.15 21
DS -0.4 -4.9 2.95 -4.9 0.15 21
DS -5.75 -4.9 -2.15 -4.9 0.15 21
DS 5.75 4.9 5.75 -4.9 0.15 21
DS -5.75 -4.9 -5.75 4.9 0.15 21
$PAD
Sh "1" C 2 2 0 0 0
Dr 1 0 0
At STD N 00E0FFFF
Ne 0 ""
Po -3.81 3.81
$EndPAD
$PAD
Sh "4" C 2 2 0 0 0
Dr 1 0 0
At STD N 00E0FFFF
Ne 0 ""
Po 3.81 3.81
$EndPAD
$PAD
Sh "5" C 2 2 0 0 0
Dr 1 0 0
At STD N 00E0FFFF
Ne 0 ""
Po 3.81 -3.81
$EndPAD
$PAD
Sh "7" C 2 2 0 0 0
Dr 1 0 0
At STD N 00E0FFFF
Ne 0 ""
Po -1.27 -3.81
$EndPAD
$EndMODULE chrisj1_MURATA_NMEXXXXDC
$MODULE chrisj1_Murata_MGJ2
Po 0 0 0 15 5582625D 00000000 ~~
Li chrisj1_Murata_MGJ2
Sc 0
AR 
Op 0 0 0
T0 7 -5 1 1 0 0.15 N V 21 N "chrisj1_Murata_MGJ2"
T1 5 -6.5 1 1 0 0.15 N V 21 N "VAL**"
T2 15.24 -1.905 1 1 0 0.15 N V 21 N "+Vo"
T2 3.81 -1.27 1 1 0 0.15 N V 21 N "-"
T2 1.27 -1.778 1 1 0 0.15 N V 21 N "Vin"
T2 12.7 -1.905 1 1 0 0.15 N V 21 N "0"
T2 9.652 -1.905 1 1 0 0.15 N V 21 N "-Vo"
T2 -1.27 -1.27 1 1 0 0.15 N V 21 N "+"
DS -2.95 -3 -2.95 7.95 0.15 21
DS -2.95 7.95 18.2 7.95 0.15 21
DS 18.2 7.95 18.2 -3 0.15 21
DS 18.2 -3 -2.95 -3 0.15 21
$PAD
Sh "1" C 2 2 0 0 0
Dr 1 0 0
At STD N 00E0FFFF
Ne 0 ""
Po 0 0
$EndPAD
$PAD
Sh "2" C 2 2 0 0 0
Dr 1 0 0
At STD N 00E0FFFF
Ne 0 ""
Po 2.54 0
$EndPAD
$PAD
Sh "5" C 2 2 0 0 0
Dr 1 0 0
At STD N 00E0FFFF
Ne 0 ""
Po 10.16 0
$EndPAD
$PAD
Sh "6" C 2 2 0 0 0
Dr 1 0 0
At STD N 00E0FFFF
Ne 0 ""
Po 12.7 0
$EndPAD
$PAD
Sh "7" C 2 2 0 0 0
Dr 1 0 0
At STD N 00E0FFFF
Ne 0 ""
Po 15.24 0
$EndPAD
$EndMODULE chrisj1_Murata_MGJ2
$MODULE chrisj1_OAR5
Po 0 0 0 15 543360E7 00000000 ~~
Li chrisj1_OAR5
Sc 0
AR 
Op 0 0 0
T0 0 1.5 1 1 0 0.15 N V 21 N "chrisj1_OAR5"
T1 0.5 -1.5 1 1 0 0.15 N V 21 N "VAL**"
DS -6.5 0 -3 0 0.15 21
DS -3 0 -2.5 -1 0.15 21
DS -2.5 -1 -1.5 1 0.15 21
DS -1.5 1 -0.5 -1 0.15 21
DS -0.5 -1 0.5 1 0.15 21
DS 0.5 1 1.5 -1 0.15 21
DS 1.5 -1 2.5 1 0.15 21
DS 2.5 1 3 0 0.15 21
DS 3 0 6.5 0 0.15 21
$PAD
Sh "1" C 6 6 0 0 0
Dr 1.2 0 0
At STD N 00E0FFFF
Ne 0 ""
Po -10.3 0
$EndPAD
$PAD
Sh "2" C 6 6 0 0 0
Dr 1.2 0 0
At STD N 00E0FFFF
Ne 0 ""
Po 10.3 0
$EndPAD
$EndMODULE chrisj1_OAR5
$MODULE chrisj1_PWR4412-2SC
Po 0 0 0 15 5434BF1E 00000000 ~~
Li chrisj1_PWR4412-2SC
Sc 0
AR 
Op 0 0 0
T0 0 1.5 1 1 0 0.15 N V 21 N "chrisj1_PWR4412-2SC"
T1 0.5 -1.5 1 1 0 0.15 N V 21 N "VAL**"
DS -4.4 0 -3 0 0.15 21
DS -3 0 -2.5 -1 0.15 21
DS -2.5 -1 -1.5 1 0.15 21
DS -1.5 1 -0.5 -1 0.15 21
DS -0.5 -1 0.5 1 0.15 21
DS 0.5 1 1.5 -1 0.15 21
DS 1.5 -1 2.5 1 0.15 21
DS 2.5 1 3 0 0.15 21
DS 3 0 4.4 0 0.15 21
$PAD
Sh "1" C 6 6 0 0 0
Dr 1.2 0 0
At STD N 00E0FFFF
Ne 0 ""
Po -7.75 0
$EndPAD
$PAD
Sh "2" C 6 6 0 0 0
Dr 1.2 0 0
At STD N 00E0FFFF
Ne 0 ""
Po 7.75 0
$EndPAD
$EndMODULE chrisj1_PWR4412-2SC
$MODULE chrisj1_R3
Po 0 0 0 15 4E4C0E65 00000000 ~~
Li chrisj1_R3
Kw R
Sc 0
AR R3
Op 0 A 0
T0 0 0.127 1.397 1.27 0 0.2032 N I 21 N "R3"
T1 0 0.127 1.397 1.27 0 0.2032 N V 21 N "Val*"
DS -3.81 0 -3.302 0 0.2032 21
DS 3.81 0 3.302 0 0.2032 21
DS 3.302 0 3.302 -1.016 0.2032 21
DS 3.302 -1.016 -3.302 -1.016 0.2032 21
DS -3.302 -1.016 -3.302 1.016 0.2032 21
DS -3.302 1.016 3.302 1.016 0.2032 21
DS 3.302 1.016 3.302 0 0.2032 21
DS -3.302 -0.508 -2.794 -1.016 0.2032 21
$PAD
Sh "1" C 1.397 1.397 0 0 0
Dr 0.8128 0 0
At STD N 00E0FFFF
Ne 0 ""
Po -3.81 0
$EndPAD
$PAD
Sh "2" C 1.397 1.397 0 0 0
Dr 0.8128 0 0
At STD N 00E0FFFF
Ne 0 ""
Po 3.81 0
$EndPAD
$SHAPE3D
Na "discret/resistor.wrl"
Sc 0.3 0.3 0.3
Of 0 0 0
Ro 0 0 0
$EndSHAPE3D
$EndMODULE chrisj1_R3
$MODULE chrisj1_RAV14202
Po 0 0 0 15 4FE014A4 00000000 ~~
Li chrisj1_RAV14202
Cd Relay
Kw relay
Sc 0
AR /4FCEE789
Op 0 0 0
T0 -5.08 -1.27 1.524 1.143 0 0.28702 N V 21 N "K1"
T1 1.27 1.27 1.524 1.143 0 0.28702 N V 21 N "RAV14202"
DS -8.89 -1.27 -8.89 6.35 0.381 21
DS 11.43 1.27 11.43 6.35 0.381 21
DS 11.43 -3.81 11.43 -6.35 0.381 21
DS -8.89 -6.35 11.43 -6.35 0.381 21
DS 11.43 6.35 -8.89 6.35 0.381 21
DS -8.89 -1.27 -8.89 -6.35 0.381 21
DS -8.89 -1.27 -7.62 -1.27 0.381 21
DS -7.62 -1.27 -7.62 1.27 0.381 21
DS -7.62 1.27 -8.89 1.27 0.381 21
DS 11.43 -3.81 11.43 1.27 0.381 21
$PAD
Sh "1" R 1.397 1.397 0 0 0
Dr 0.8128 0 0
At STD N 00E0FFFF
Ne 12 "N-000014"
Po -7.62 5.08
$EndPAD
$PAD
Sh "2" C 1.397 1.397 0 0 0
Dr 0.8128 0 0
At STD N 00E0FFFF
Ne 11 "N-000013"
Po -5.08 5.08
$EndPAD
$PAD
Sh "4" C 1.397 1.397 0 0 0
Dr 0.8128 0 0
At STD N 00E0FFFF
Ne 4 "N-000006"
Po 0 5.08
$EndPAD
$PAD
Sh "3" C 1.397 1.397 0 0 0
Dr 0.8128 0 0
At STD N 00E0FFFF
Ne 3 "N-000005"
Po -2.54 5.08
$EndPAD
$PAD
Sh "6" C 1.397 1.397 0 0 0
Dr 0.8128 0 0
At STD N 00E0FFFF
Ne 10 "N-000012"
Po 5.08 5.08
$EndPAD
$PAD
Sh "7" C 1.397 1.397 0 0 0
Dr 0.8128 0 0
At STD N 00E0FFFF
Ne 9 "N-000011"
Po 7.62 5.08
$EndPAD
$PAD
Sh "8" C 1.397 1.397 0 0 0
Dr 0.8128 0 0
At STD N 00E0FFFF
Ne 2 "N-000004"
Po 7.62 -5.08
$EndPAD
$PAD
Sh "9" C 1.397 1.397 0 0 0
Dr 0.8128 0 0
At STD N 00E0FFFF
Ne 8 "N-000010"
Po 5.08 -5.08
$EndPAD
$PAD
Sh "12" C 1.397 1.397 0 0 0
Dr 0.8128 0 0
At STD N 00E0FFFF
Ne 5 "N-000007"
Po -2.54 -5.08
$EndPAD
$PAD
Sh "11" C 1.397 1.397 0 0 0
Dr 0.8128 0 0
At STD N 00E0FFFF
Ne 7 "N-000009"
Po 0 -5.08
$EndPAD
$PAD
Sh "13" C 1.397 1.397 0 0 0
Dr 0.8128 0 0
At STD N 00E0FFFF
Ne 6 "N-000008"
Po -5.08 -5.08
$EndPAD
$PAD
Sh "14" C 1.397 1.397 0 0 0
Dr 0.8128 0 0
At STD N 00E0FFFF
Ne 1 "+5V"
Po -7.62 -5.08
$EndPAD
$SHAPE3D
Na "dil/dil_14.wrl"
Sc 1 1 1
Of 0 0 0
Ro 0 0 0
$EndSHAPE3D
$EndMODULE chrisj1_RAV14202
$MODULE chrisj1_RAV14202_SS
Po 0 0 0 15 4FE023B0 00000000 ~~
Li chrisj1_RAV14202_SS
Cd Relay
Kw relay
Sc 0
AR /4FCEE789
Op 0 0 0
T0 -5.08 -1.27 1.524 1.143 0 0.28702 N V 21 N "K1"
T1 1.27 1.27 1.524 1.143 0 0.28702 N V 21 N "RAV14202"
DS -8.89 -1.27 -8.89 6.35 0.381 21
DS 11.43 1.27 11.43 6.35 0.381 21
DS 11.43 -3.81 11.43 -6.35 0.381 21
DS -8.89 -6.35 11.43 -6.35 0.381 21
DS 11.43 6.35 -8.89 6.35 0.381 21
DS -8.89 -1.27 -8.89 -6.35 0.381 21
DS -8.89 -1.27 -7.62 -1.27 0.381 21
DS -7.62 -1.27 -7.62 1.27 0.381 21
DS -7.62 1.27 -8.89 1.27 0.381 21
DS 11.43 -3.81 11.43 1.27 0.381 21
$PAD
Sh "1" R 2.032 2.032 0 0 0
Dr 0.8128 0 0
At STD N 00E0FFFF
Ne 12 "N-000014"
Po -7.62 5.08
$EndPAD
$PAD
Sh "2" C 2.032 2.032 0 0 0
Dr 0.8128 0 0
At STD N 00E0FFFF
Ne 11 "N-000013"
Po -5.08 5.08
$EndPAD
$PAD
Sh "4" C 2.032 2.032 0 0 0
Dr 0.8128 0 0
At STD N 00E0FFFF
Ne 4 "N-000006"
Po 0 5.08
$EndPAD
$PAD
Sh "3" C 2.032 2.032 0 0 0
Dr 0.8128 0 0
At STD N 00E0FFFF
Ne 3 "N-000005"
Po -2.54 5.08
$EndPAD
$PAD
Sh "6" C 2.032 2.032 0 0 0
Dr 0.8128 0 0
At STD N 00E0FFFF
Ne 10 "N-000012"
Po 5.08 5.08
$EndPAD
$PAD
Sh "7" C 2.032 2.032 0 0 0
Dr 0.8128 0 0
At STD N 00E0FFFF
Ne 9 "N-000011"
Po 7.62 5.08
$EndPAD
$PAD
Sh "8" C 2.032 2.032 0 0 0
Dr 0.8128 0 0
At STD N 00E0FFFF
Ne 2 "N-000004"
Po 7.62 -5.08
$EndPAD
$PAD
Sh "9" C 2.032 2.032 0 0 0
Dr 0.8128 0 0
At STD N 00E0FFFF
Ne 8 "N-000010"
Po 5.08 -5.08
$EndPAD
$PAD
Sh "12" C 2.032 2.032 0 0 0
Dr 0.8128 0 0
At STD N 00E0FFFF
Ne 5 "N-000007"
Po -2.54 -5.08
$EndPAD
$PAD
Sh "11" C 2.032 2.032 0 0 0
Dr 0.8128 0 0
At STD N 00E0FFFF
Ne 7 "N-000009"
Po 0 -5.08
$EndPAD
$PAD
Sh "13" C 2.032 2.032 0 0 0
Dr 0.8128 0 0
At STD N 00E0FFFF
Ne 6 "N-000008"
Po -5.08 -5.08
$EndPAD
$PAD
Sh "14" C 2.032 2.032 0 0 0
Dr 0.8128 0 0
At STD N 00E0FFFF
Ne 1 "+5V"
Po -7.62 -5.08
$EndPAD
$SHAPE3D
Na "dil/dil_14.wrl"
Sc 1 1 1
Of 0 0 0
Ro 0 0 0
$EndSHAPE3D
$EndMODULE chrisj1_RAV14202_SS
$MODULE chrisj1_RSBL_relay
Po 0 0 0 15 506D0854 00000000 ~~
Li chrisj1_RSBL_relay
Cd 16 pins DIL package, round pads
Kw DIL
Sc 0
AR 
Op 0 0 0
T0 -6.35 -1.27 1.524 1.143 0 0.28702 N V 21 N "U***"
T1 2.54 1.27 1.524 1.143 0 0.28702 N V 21 N "DIP-16_300"
DS -11.43 -1.27 -11.43 -1.27 0.381 21
DS -11.43 -1.27 -10.16 -1.27 0.381 21
DS -10.16 -1.27 -10.16 1.27 0.381 21
DS -10.16 1.27 -11.43 1.27 0.381 21
DS -11.43 -2.54 11.43 -2.54 0.381 21
DS 11.43 -2.54 11.43 2.54 0.381 21
DS 11.43 2.54 -11.43 2.54 0.381 21
DS -11.43 2.54 -11.43 -2.54 0.381 21
$PAD
Sh "1" R 2.032 2.032 0 0 0
Dr 0.8128 0 0
At STD N 00E0FFFF
Ne 0 ""
Po -8.89 3.81
$EndPAD
$PAD
Sh "2" C 2.032 2.032 0 0 0
Dr 0.8128 0 0
At STD N 00E0FFFF
Ne 0 ""
Po -6.35 3.81
$EndPAD
$PAD
Sh "4" C 2.032 2.032 0 0 0
Dr 0.8128 0 0
At STD N 00E0FFFF
Ne 0 ""
Po -1.27 3.81
$EndPAD
$PAD
Sh "6" C 2.032 2.032 0 0 0
Dr 0.8128 0 0
At STD N 00E0FFFF
Ne 0 ""
Po 3.81 3.81
$EndPAD
$PAD
Sh "8" C 2.032 2.032 0 0 0
Dr 0.8128 0 0
At STD N 00E0FFFF
Ne 0 ""
Po 8.89 3.81
$EndPAD
$PAD
Sh "9" C 2.032 2.032 0 0 0
Dr 0.8128 0 0
At STD N 00E0FFFF
Ne 0 ""
Po 8.89 -3.81
$EndPAD
$PAD
Sh "11" C 2.032 2.032 0 0 0
Dr 0.8128 0 0
At STD N 00E0FFFF
Ne 0 ""
Po 3.81 -3.81
$EndPAD
$PAD
Sh "13" C 2.032 2.032 0 0 0
Dr 0.8128 0 0
At STD N 00E0FFFF
Ne 0 ""
Po -1.27 -3.81
$EndPAD
$PAD
Sh "15" C 2.032 2.032 0 0 0
Dr 0.8128 0 0
At STD N 00E0FFFF
Ne 0 ""
Po -6.35 -3.81
$EndPAD
$PAD
Sh "16" C 2.032 2.032 0 0 0
Dr 0.8128 0 0
At STD N 00E0FFFF
Ne 0 ""
Po -8.89 -3.81
$EndPAD
$SHAPE3D
Na "dil/dil_16.wrl"
Sc 1 1 1
Of 0 0 0
Ro 0 0 0
$EndSHAPE3D
$EndMODULE chrisj1_RSBL_relay
$MODULE chrisj1_R_0204_3
Po 0 0 0 15 506BE07F 00000000 ~~
Li chrisj1_R_0204_3
Cd Resistance 0204 3 pas
Kw R
Sc 0
AR 
Op 0 A 0
T0 0 0 1.016 1.016 0 0.2032 N I 21 N "R"
T1 0 0 1.016 1.016 0 0.2032 N I 21 N "Val*"
DS 1.905 0 2.54 0 0.381 21
DS -2.54 0 -1.905 0 0.381 21
DS 1.778 -0.889 1.778 0.889 0.2032 21
DS 1.778 0.889 -1.778 0.889 0.2032 21
DS -1.778 0.889 -1.778 -0.889 0.2032 21
DS -1.778 -0.889 1.778 -0.889 0.2032 21
$PAD
Sh "1" C 2.032 2.032 0 0 0
Dr 0.8128 0 0
At STD N 00E0FFFF
Ne 0 ""
Po -3.81 0
$EndPAD
$PAD
Sh "2" C 2.032 2.032 0 0 0
Dr 0.8128 0 0
At STD N 00E0FFFF
Ne 0 ""
Po 3.81 0
$EndPAD
$SHAPE3D
Na "resistors/resistor_0204_3.wrl"
Sc 1 1 1
Of 0 0 0
Ro 0 0 0
$EndSHAPE3D
$EndMODULE chrisj1_R_0204_3
$MODULE chrisj1_R_0204_4
Po 0 0 0 15 506BE0ED 00000000 ~~
Li chrisj1_R_0204_4
Cd Resistance 0204 4 pas
Kw R
Sc 0
AR 
Op 0 A 0
T0 0 0 1.016 1.016 0 0.2032 N I 21 N "R"
T1 0 0 1.016 1.016 0 0.2032 N I 21 N "Val*"
DS 3.81 0 1.905 0 0.381 21
DS -3.81 0 -1.905 0 0.381 21
DS 1.778 -0.889 1.778 0.889 0.2032 21
DS 1.778 0.889 -1.778 0.889 0.2032 21
DS -1.778 0.889 -1.778 -0.889 0.2032 21
DS -1.778 -0.889 1.778 -0.889 0.2032 21
$PAD
Sh "1" C 2.032 2.032 0 0 0
Dr 0.8128 0 0
At STD N 00E0FFFF
Ne 0 ""
Po -5.08 0
$EndPAD
$PAD
Sh "2" C 2.032 2.032 0 0 0
Dr 0.8128 0 0
At STD N 00E0FFFF
Ne 0 ""
Po 5.08 0
$EndPAD
$SHAPE3D
Na "resistors/resistor_0204_4.wrl"
Sc 1 1 1
Of 0 0 0
Ro 0 0 0
$EndSHAPE3D
$EndMODULE chrisj1_R_0204_4
$MODULE chrisj1_R_0204_5
Po 0 0 0 15 506BE174 00000000 ~~
Li chrisj1_R_0204_5
Cd Resistance 0204 5 pas
Kw R
Sc 0
AR 
Op 0 A 0
T0 0 0 1.016 1.016 0 0.2032 N I 21 N "R"
T1 0 0 1.016 1.016 0 0.2032 N I 21 N "Val*"
DS 5.08 0 1.905 0 0.381 21
DS -5.08 0 -1.905 0 0.381 21
DS 1.778 -0.889 1.778 0.889 0.2032 21
DS 1.778 0.889 -1.778 0.889 0.2032 21
DS -1.778 0.889 -1.778 -0.889 0.2032 21
DS -1.778 -0.889 1.778 -0.889 0.2032 21
$PAD
Sh "1" C 2.032 2.032 0 0 0
Dr 0.8128 0 0
At STD N 00E0FFFF
Ne 0 ""
Po -6.35 0
$EndPAD
$PAD
Sh "2" C 2.032 2.032 0 0 0
Dr 0.8128 0 0
At STD N 00E0FFFF
Ne 0 ""
Po 6.35 0
$EndPAD
$SHAPE3D
Na "resistors/resistor_0204_5.wrl"
Sc 1 1 1
Of 0 0 0
Ro 0 0 0
$EndSHAPE3D
$EndMODULE chrisj1_R_0204_5
$MODULE chrisj1_R_0207_6
Po 0 0 0 15 506D24D5 00000000 ~~
Li chrisj1_R_0207_6
Cd Resistance 0207 6 pas
Kw R
Sc 0
AR 
Op 0 A 0
T0 0 0 1.016 1.016 0 0.2032 N V 21 N "R"
T1 0 0 1.016 1.016 0 0.2032 N I 21 N "Val*"
DS 3.175 0 6.35 0 0.381 21
DS -3.175 0 -6.35 0 0.381 21
DS 3.175 -1.143 3.175 1.143 0.2032 21
DS 3.175 1.143 -3.175 1.143 0.2032 21
DS -3.175 1.143 -3.175 -1.143 0.2032 21
DS -3.175 -1.143 3.175 -1.143 0.2032 21
$PAD
Sh "1" C 2.032 2.032 0 0 0
Dr 1.016 0 0
At STD N 00E0FFFF
Ne 0 ""
Po -7.62 0
$EndPAD
$PAD
Sh "2" C 2.032 2.032 0 0 0
Dr 1.016 0 0
At STD N 00E0FFFF
Ne 0 ""
Po 7.62 0
$EndPAD
$SHAPE3D
Na "resistors/resistor_0207_6.wrl"
Sc 1 1 1
Of 0 0 0
Ro 0 0 0
$EndSHAPE3D
$EndMODULE chrisj1_R_0207_6
$MODULE chrisj1_SOD123W
Po 0 0 0 15 55DD4254 00000000 ~~
Li chrisj1_SOD123W
Cd SOD123W
Kw SOD123W
Sc 0
AR 
Op 0 0 0
At SMD
T0 0 -2.60096 1.00076 1.00076 0 0.11938 N V 21 N "SOD123"
T1 0 2.79908 1.00076 1.00076 0 0.11938 N V 21 N "VAL**"
DS 0.388 0 0.1848 0 0.127 21
DS -0.462 0 -0.6652 0 0.127 21
DS -1.35 -1 1.35 -1 0.2 21
DS 0.65 0.7 0.65 -0.7 0.2 21
DS -1.35 1 1.35 1 0.2 21
DS 0.173 0 -0.462 -0.47498 0.127 21
DS -0.462 -0.47498 -0.462 0 0.127 21
DS -0.462 0 -0.462 0.47498 0.127 21
DS -0.462 0.47498 0.173 0 0.127 21
DS 0.173 0 0.173 -0.3175 0.127 21
DS 0.173 -0.3175 0.01552 -0.47498 0.127 21
DS 0.173 0 0.173 0.3175 0.127 21
DS 0.173 0.3175 0.33048 0.47498 0.127 21
$PAD
Sh "A" R 1.2 1.2 0 0 0
Dr 0 0 0
At SMD N 00888000
Ne 0 ""
Po -1.4 0
$EndPAD
$PAD
Sh "K" R 1.2 1.2 0 0 0
Dr 0 0 0
At SMD N 00888000
Ne 0 ""
Po 1.4 0
$EndPAD
$SHAPE3D
Na "smd/do214.wrl"
Sc 1 1 1
Of 0 0 0
Ro 0 0 0
$EndSHAPE3D
$EndMODULE chrisj1_SOD123W
$MODULE chrisj1_SOT-227B
Po 0 0 0 15 54348C4D 00000000 ~~
Li chrisj1_SOT-227B
Sc 0
AR 
Op 0 0 0
T0 0.5 1 1 1 0 0.15 N V 21 N "chrisj1_SOT-227B"
T1 0.5 -1 1 1 0 0.15 N V 21 N "VAL**"
DS -19.2 -13.1 19.2 -13.1 0.15 20
DS -19.2 13.1 -19.2 -13.1 0.15 20
DS 19.2 13.1 -19.2 13.1 0.15 20
DS 19.2 -13.1 19.2 13.1 0.15 20
DS -19.2 -2 -16.8 -2 0.15 20
DS -19.2 2 -16.8 2 0.15 20
T2 -0.5 -11.7 1 1 0 0.15 N V 21 N "Screw terminals accessible this side"
DS -19.2 2 -16.8 2 0.15 21
DS -19.2 -2 -16.8 -2 0.15 21
DS 19.2 -13.1 19.2 13.1 0.15 21
DS 19.2 13.1 -19.2 13.1 0.15 21
DS -19.2 13.1 -19.2 -13.1 0.15 21
DS -19.2 -13.1 19.2 -13.1 0.15 21
$PAD
Sh "1" C 0.75 0.75 0 0 1800
Dr 0.5 0 0
At STD N 00E0FFFF
Ne 0 ""
Po 7.5 -8.9
$EndPAD
$PAD
Sh "1" C 0.75 0.75 0 0 1800
Dr 0.5 0 0
At STD N 00E0FFFF
Ne 0 ""
Po 6.55 -8.7
$EndPAD
$PAD
Sh "1" C 0.75 0.75 0 0 1800
Dr 0.5 0 0
At STD N 00E0FFFF
Ne 0 ""
Po 5.75 -8.15
$EndPAD
$PAD
Sh "1" C 0.75 0.75 0 0 1800
Dr 0.5 0 0
At STD N 00E0FFFF
Ne 0 ""
Po 6.9 -9.6
$EndPAD
$PAD
Sh "1" C 0.75 0.75 0 0 1800
Dr 0.5 0 0
At STD N 00E0FFFF
Ne 0 ""
Po 5.7 -9.1
$EndPAD
$PAD
Sh "1" C 0.75 0.75 0 0 1800
Dr 0.5 0 0
At STD N 00E0FFFF
Ne 0 ""
Po 4.8 -8.2
$EndPAD
$PAD
Sh "1" C 0.75 0.75 0 0 900
Dr 0.5 0 0
At STD N 00E0FFFF
Ne 0 ""
Po 4.3 -7
$EndPAD
$PAD
Sh "1" C 0.75 0.75 0 0 900
Dr 0.5 0 0
At STD N 00E0FFFF
Ne 0 ""
Po 5.2 -7.35
$EndPAD
$PAD
Sh "1" C 0.75 0.75 0 0 900
Dr 0.5 0 0
At STD N 00E0FFFF
Ne 0 ""
Po 5 -6.4
$EndPAD
$PAD
Sh "1" C 0.75 0.75 0 0 1800
Dr 0.5 0 0
At STD N 00E0FFFF
Ne 0 ""
Po 6.55 -4.1
$EndPAD
$PAD
Sh "1" C 0.75 0.75 0 0 1800
Dr 0.5 0 0
At STD N 00E0FFFF
Ne 0 ""
Po 6.9 -3.2
$EndPAD
$PAD
Sh "1" C 0.75 0.75 0 0 2700
Dr 0.5 0 0
At STD N 00E0FFFF
Ne 0 ""
Po 5.7 -3.7
$EndPAD
$PAD
Sh "1" C 0.75 0.75 0 0 2700
Dr 0.5 0 0
At STD N 00E0FFFF
Ne 0 ""
Po 4.8 -4.6
$EndPAD
$PAD
Sh "1" C 0.75 0.75 0 0 2700
Dr 0.5 0 0
At STD N 00E0FFFF
Ne 0 ""
Po 4.3 -5.8
$EndPAD
$PAD
Sh "1" C 0.75 0.75 0 0 2700
Dr 0.5 0 0
At STD N 00E0FFFF
Ne 0 ""
Po 5.75 -4.65
$EndPAD
$PAD
Sh "1" C 0.75 0.75 0 0 2700
Dr 0.5 0 0
At STD N 00E0FFFF
Ne 0 ""
Po 5.2 -5.45
$EndPAD
$PAD
Sh "1" C 0.75 0.75 0 0 900
Dr 0.5 0 0
At STD N 00E0FFFF
Ne 0 ""
Po 9.8 -7.35
$EndPAD
$PAD
Sh "1" C 0.75 0.75 0 0 900
Dr 0.5 0 0
At STD N 00E0FFFF
Ne 0 ""
Po 9.25 -8.15
$EndPAD
$PAD
Sh "1" C 0.75 0.75 0 0 900
Dr 0.5 0 0
At STD N 00E0FFFF
Ne 0 ""
Po 10.7 -7
$EndPAD
$PAD
Sh "1" C 0.75 0.75 0 0 900
Dr 0.5 0 0
At STD N 00E0FFFF
Ne 0 ""
Po 10.2 -8.2
$EndPAD
$PAD
Sh "1" C 0.75 0.75 0 0 900
Dr 0.5 0 0
At STD N 00E0FFFF
Ne 0 ""
Po 9.3 -9.1
$EndPAD
$PAD
Sh "1" C 0.75 0.75 0 0 0
Dr 0.5 0 0
At STD N 00E0FFFF
Ne 0 ""
Po 8.1 -9.6
$EndPAD
$PAD
Sh "1" C 0.75 0.75 0 0 0
Dr 0.5 0 0
At STD N 00E0FFFF
Ne 0 ""
Po 8.45 -8.7
$EndPAD
$PAD
Sh "1" C 0.75 0.75 0 0 2700
Dr 0.5 0 0
At STD N 00E0FFFF
Ne 0 ""
Po 10 -6.4
$EndPAD
$PAD
Sh "1" C 0.75 0.75 0 0 2700
Dr 0.5 0 0
At STD N 00E0FFFF
Ne 0 ""
Po 9.8 -5.45
$EndPAD
$PAD
Sh "1" C 0.75 0.75 0 0 2700
Dr 0.5 0 0
At STD N 00E0FFFF
Ne 0 ""
Po 10.7 -5.8
$EndPAD
$PAD
Sh "1" C 0.75 0.75 0 0 0
Dr 0.5 0 0
At STD N 00E0FFFF
Ne 0 ""
Po 10.2 -4.6
$EndPAD
$PAD
Sh "1" C 0.75 0.75 0 0 0
Dr 0.5 0 0
At STD N 00E0FFFF
Ne 0 ""
Po 9.3 -3.7
$EndPAD
$PAD
Sh "1" C 0.75 0.75 0 0 0
Dr 0.5 0 0
At STD N 00E0FFFF
Ne 0 ""
Po 8.1 -3.2
$EndPAD
$PAD
Sh "1" C 0.75 0.75 0 0 0
Dr 0.5 0 0
At STD N 00E0FFFF
Ne 0 ""
Po 9.25 -4.65
$EndPAD
$PAD
Sh "1" C 0.75 0.75 0 0 0
Dr 0.5 0 0
At STD N 00E0FFFF
Ne 0 ""
Po 8.45 -4.1
$EndPAD
$PAD
Sh "1" C 0.75 0.75 0 0 0
Dr 0.5 0 0
At STD N 00E0FFFF
Ne 0 ""
Po 7.5 -3.9
$EndPAD
$PAD
Sh "0" C 4.5 4.5 0 0 0
Dr 4 0 0
At STD N 00E0FFFF
Ne 0 ""
Po -15 0
$EndPAD
$PAD
Sh "4" C 8.5 8.5 0 0 0
Dr 4.2 0 0
At STD N 00E0FFFF
Ne 0 ""
Po 7.5 6.4
$EndPAD
$PAD
Sh "3" C 8.5 8.5 0 0 0
Dr 4.2 0 0
At STD N 00E0FFFF
Ne 0 ""
Po -7.5 6.4
$EndPAD
$PAD
Sh "2" C 8.5 8.5 0 0 0
Dr 4.2 0 0
At STD N 00E0FFFF
Ne 0 ""
Po -7.5 -6.4
$EndPAD
$PAD
Sh "1" C 8.5 8.5 0 0 0
Dr 4.2 0 0
At STD N 00E0FFFF
Ne 0 ""
Po 7.5 -6.4
$EndPAD
$PAD
Sh "0" C 4.5 4.5 0 0 0
Dr 4 0 0
At STD N 00E0FFFF
Ne 0 ""
Po 15 0
$EndPAD
$EndMODULE chrisj1_SOT-227B
$MODULE chrisj1_SOT-227B_BUSHINGS
Po 0 0 0 15 54348D28 00000000 ~~
Li chrisj1_SOT-227B_BUSHINGS
Sc 0
AR 
Op 0 0 0
T0 0.5 1 1 1 0 0.15 N V 21 N "chrisj1_SOT-227B"
T1 0.5 -1 1 1 0 0.15 N V 21 N "VAL**"
DS -19.2 -13.1 19.2 -13.1 0.15 20
DS -19.2 13.1 -19.2 -13.1 0.15 20
DS 19.2 13.1 -19.2 13.1 0.15 20
DS 19.2 -13.1 19.2 13.1 0.15 20
DS -19.2 -2 -16.8 -2 0.15 20
DS -19.2 2 -16.8 2 0.15 20
T2 -0.5 -11.7 1 1 0 0.15 N V 21 N "Screw terminals accessible this side"
DS -19.2 2 -16.8 2 0.15 21
DS -19.2 -2 -16.8 -2 0.15 21
DS 19.2 -13.1 19.2 13.1 0.15 21
DS 19.2 13.1 -19.2 13.1 0.15 21
DS -19.2 13.1 -19.2 -13.1 0.15 21
DS -19.2 -13.1 19.2 -13.1 0.15 21
$PAD
Sh "0" C 4.5 4.5 0 0 0
Dr 4 0 0
At STD N 00E0FFFF
Ne 0 ""
Po -15 0
$EndPAD
$PAD
Sh "4" C 8.5 8.5 0 0 0
Dr 6 0 0
At STD N 00E0FFFF
Ne 0 ""
Po 7.5 6.4
$EndPAD
$PAD
Sh "3" C 8.5 8.5 0 0 0
Dr 6 0 0
At STD N 00E0FFFF
Ne 0 ""
Po -7.5 6.4
$EndPAD
$PAD
Sh "2" C 8.5 8.5 0 0 0
Dr 6 0 0
At STD N 00E0FFFF
Ne 0 ""
Po -7.5 -6.4
$EndPAD
$PAD
Sh "1" C 8.5 8.5 0 0 0
Dr 6 0 0
At STD N 00E0FFFF
Ne 0 ""
Po 7.5 -6.4
$EndPAD
$PAD
Sh "0" C 4.5 4.5 0 0 0
Dr 4 0 0
At STD N 00E0FFFF
Ne 0 ""
Po 15 0
$EndPAD
$EndMODULE chrisj1_SOT-227B_BUSHINGS
$MODULE chrisj1_SOT143B
Po 0 0 0 15 53FD620C 00000000 ~~
Li chrisj1_SOT143B
Cd SOT143B
Sc 0
AR 
Op 0 0 0
At SMD
T0 2.04978 -0.29972 0.50038 0.50038 900 0.09906 N V 21 N "SOT143B"
T1 0 0 0.50038 0.50038 0 0.09906 N V 21 N "Q***"
DS 1.625 1.5 -1.625 1.5 0.11938 21
DS -1.625 -1.5 1.625 -1.5 0.11938 21
DS -1.625 -1.5 -1.625 1.5 0.11938 21
DS 1.625 -1.5 1.625 1.5 0.11938 21
$PAD
Sh "1" R 1 0.7 0 0 0
Dr 0 0 0
At SMD N 00888000
Ne 0 ""
Po -0.75 1
$EndPAD
$PAD
Sh "3" R 0.6 0.7 0 0 0
Dr 0 0 0
At SMD N 00888000
Ne 0 ""
Po 0.95 -1
$EndPAD
$PAD
Sh "2" R 0.6 0.7 0 0 0
Dr 0 0 0
At SMD N 00888000
Ne 0 ""
Po 0.95 1
$EndPAD
$PAD
Sh "4" R 0.6 0.7 0 0 0
Dr 0 0 0
At SMD N 00888000
Ne 0 ""
Po -0.95 -1
$EndPAD
$SHAPE3D
Na "smd/smd_transistors/sot143b.wrl"
Sc 1 1 1
Of 0 0 0
Ro 0 0 0
$EndSHAPE3D
$EndMODULE chrisj1_SOT143B
$MODULE chrisj1_SOT23
Po 0 0 0 15 5423959B 00000000 ~~
Li chrisj1_SOT23
Cd SOT23
Sc 0
AR 
Op 0 0 0
At SMD
T0 0 0 0.50038 0.50038 0 0.09906 N V 21 N "SOT23"
T1 0 0.09906 0.50038 0.50038 0 0.09906 N I 21 N "Q***"
DS 1.55 -1.4 0.85 -1.4 0.2 21
DS -0.85 -1.4 -1.55 -1.4 0.2 21
DS 1.55 -1.4 1.55 0.3 0.2 21
DS 0.35 1.3985 -0.35 1.3985 0.2 21
DS -1.55 0.3 -1.55 -1.4 0.2 21
$PAD
Sh "1" R 0.9 0.9 0 0 0
Dr 0 0 0
At SMD N 00888000
Ne 0 ""
Po -0.95 1.1
$EndPAD
$PAD
Sh "3" R 0.9 0.9 0 0 0
Dr 0 0 0
At SMD N 00888000
Ne 0 ""
Po 0 -1.1
$EndPAD
$PAD
Sh "2" R 0.9 0.9 0 0 0
Dr 0 0 0
At SMD N 00888000
Ne 0 ""
Po 0.95 1.1
$EndPAD
$SHAPE3D
Na "smd/smd_transistors/sot23.wrl"
Sc 1 1 1
Of 0 0 0
Ro 0 0 0
$EndSHAPE3D
$EndMODULE chrisj1_SOT23
$MODULE chrisj1_SOT353
Po 0 0 0 15 542DF953 00000000 ~~
Li chrisj1_SOT353
Sc 0
AR 
Op 0 0 0
T0 0 2 0.6 0.6 0 0.15 N V 21 N "chrisj1_SOT353"
T1 0 -1.75 0.6 0.6 0 0.15 N V 21 N "VAL**"
DS 0.4 -1.05 0.4 1.05 0.2 21
DS -0.4 -1.05 -0.4 1.05 0.2 21
DC 0.15 0.8 0.1 0.8 0.2 21
DS 1.23 -0.33 1.23 -0.32 0.2 21
DS 1.23 0.31 1.23 0.34 0.2 21
DS -1.23 -0.2 -1.23 0.2 0.2 21
DS -0.36 1.08 0.36 1.08 0.2 21
DS -0.36 -1.08 0.36 -1.08 0.2 21
$PAD
Sh "5" R 0.6 0.6 0 0 0
Dr 0 0 0
At SMD N 00888000
Ne 0 ""
Po -0.9 0.75
.SolderPaste -0.05
$EndPAD
$PAD
Sh "4" R 0.6 0.6 0 0 0
Dr 0 0 0
At SMD N 00888000
Ne 0 ""
Po -0.9 -0.75
.SolderPaste -0.05
$EndPAD
$PAD
Sh "3" R 0.6 0.6 0 0 0
Dr 0 0 0
At SMD N 00888000
Ne 0 ""
Po 0.9 -0.75
.SolderPaste -0.05
$EndPAD
$PAD
Sh "1" R 0.6 0.6 0 0 0
Dr 0 0 0
At SMD N 00888000
Ne 0 ""
Po 0.9 0.75
.SolderPaste -0.05
$EndPAD
$PAD
Sh "2" R 0.6 0.4 0 0 0
Dr 0 0 0
At SMD N 00888000
Ne 0 ""
Po 0.9 0
$EndPAD
$EndMODULE chrisj1_SOT353
$MODULE chrisj1_TO220_VERT
Po 0 0 0 15 506BE8AE 00000000 ~~
Li chrisj1_TO220_VERT
Cd Regulateur TO220 serie LM78xx
Kw TR TO220
Sc 0
AR 
Op 0 0 0
T0 -3.175 0 1.524 1.016 900 0.2032 N V 21 N "TO220_VERT"
T1 0.635 -6.35 1.524 1.016 0 0.2032 N V 21 N "VAL**"
DS 1.905 -5.08 2.54 -5.08 0.381 21
DS 2.54 -5.08 2.54 5.08 0.381 21
DS 2.54 5.08 1.905 5.08 0.381 21
DS -1.905 -5.08 1.905 -5.08 0.381 21
DS 1.905 -5.08 1.905 5.08 0.381 21
DS 1.905 5.08 -1.905 5.08 0.381 21
DS -1.905 5.08 -1.905 -5.08 0.381 21
$PAD
Sh "2" O 2.54 2.032 0 0 0
Dr 1.27 0 0
At STD N 00E0FFFF
Ne 0 ""
Po 0 -2.54
$EndPAD
$PAD
Sh "3" O 2.54 2.032 0 0 0
Dr 1.27 0 0
At STD N 00E0FFFF
Ne 0 ""
Po 0 0
$EndPAD
$PAD
Sh "1" R 2.54 2.032 0 0 0
Dr 1.27 0 0
At STD N 00E0FFFF
Ne 0 ""
Po 0 2.54
$EndPAD
$EndMODULE chrisj1_TO220_VERT
$MODULE chrisj1_TO92CBE_INLINE
Po 0 0 0 15 506BE525 00000000 ~~
Li chrisj1_TO92CBE_INLINE
Cd Transistor TO92
Kw TO92
Sc 0
AR 
Op 0 0 0
T0 0 -2.286 1.016 1.016 0 0.2032 N V 21 N "TO92CBE"
T1 0 2.286 1.016 1.016 0 0.2032 N I 21 N "Val**"
DS 1.778 1.016 1.016 1.778 0.381 21
DS 1.016 1.778 -1.016 1.778 0.381 21
DS -1.016 1.778 -1.778 1.016 0.381 21
DS -2.54 -1.27 -2.54 -1.397 0.381 21
DS -2.54 -1.397 2.54 -1.397 0.381 21
DS 2.54 -1.397 2.54 -1.27 0.381 21
$PAD
Sh "B" C 2.032 2.032 0 0 0
Dr 0.8128 0 0
At STD N 00E0FFFF
Ne 0 ""
Po 0 0
$EndPAD
$PAD
Sh "E" C 2.032 2.032 0 0 0
Dr 0.8128 0 0
At STD N 00E0FFFF
Ne 0 ""
Po 2.54 0
$EndPAD
$PAD
Sh "C" C 2.032 2.032 0 0 0
Dr 0.8128 0 0
At STD N 00E0FFFF
Ne 0 ""
Po -2.54 0
$EndPAD
$SHAPE3D
Na "transistors/to92_inline.wrl"
Sc 1 1 1
Of 0 0 0
Ro 0 0 0
$EndSHAPE3D
$EndMODULE chrisj1_TO92CBE_INLINE
$MODULE chrisj1_VARISTOR_7p5x2p5
Po 0 0 0 15 54470D76 00000000 ~~
Li chrisj1_VARISTOR_7p5x2p5
Sc 0
AR 
Op 0 0 0
T0 0 -3.25 1 1 0 0.15 N V 21 N "chrisj1_VARISTOR_7p5x2p5"
T1 2 -1.5 1 1 0 0.15 N V 21 N "VAL**"
DS 8 -2.5 -8 -2.5 0.2 21
DS -8 -2.5 -8 2.5 0.2 21
DS -8 2.5 8 2.5 0.2 21
DS 8 2.5 8 -2.5 0.2 21
$PAD
Sh "1" C 2.5 2.5 0 0 0
Dr 1.2 0 0
At STD N 00E0FFFF
Ne 0 ""
Po -3.75 -1.25
$EndPAD
$PAD
Sh "2" C 2.5 2.5 0 0 0
Dr 1.2 0 0
At STD N 00E0FFFF
Ne 0 ""
Po 3.75 1.25
$EndPAD
$EndMODULE chrisj1_VARISTOR_7p5x2p5
$MODULE chrisj1_WEIDMULLER_1508060000
Po 0 0 0 15 506E1291 00000000 ~~
Li chrisj1_WEIDMULLER_1508060000
Sc 0
AR 
Op 0 0 0
T0 0 -2.54 1.524 1.524 0 0.3048 N V 21 N "WEIDMULLER_1508060000"
T1 0 0 1.524 1.524 0 0.3048 N V 21 N "VAL**"
DS 5.08 -2.00152 -5.08 -2.00152 0.381 21
DS 5.08 9.99998 -5.08 9.99998 0.381 21
DS 5.08 9.99998 5.08 -2.00152 0.381 21
DS -5.08 -2.00152 -5.08 9.99998 0.381 21
$PAD
Sh "2" C 3.81 3.81 0 0 0
Dr 1.4986 0 0
At STD N 00E0FFFF
Ne 0 ""
Po 2.54 0
$EndPAD
$PAD
Sh "1" R 3.81 3.81 0 0 0
Dr 1.4986 0 0
At STD N 00E0FFFF
Ne 0 ""
Po -2.54 0
$EndPAD
$EndMODULE chrisj1_WEIDMULLER_1508060000
$MODULE chrisj1_WEIDMULLER_1508260000
Po 0 0 0 15 506E12AC 00000000 ~~
Li chrisj1_WEIDMULLER_1508260000
Sc 0
AR 
Op 0 0 0
T0 0 -2.54 1.524 1.524 0 0.3048 N V 21 N "WEIDMULLER_1508260000"
T1 0 0 1.524 1.524 0 0.3048 N V 21 N "VAL**"
DS 10.16 9.99998 10.16 -2.00152 0.381 21
DS 10.16 -2.00152 -10.16 -2.00152 0.381 21
DS -10.16 -2.00152 -10.16 9.99998 0.381 21
DS -10.16 9.99998 10.16 9.99998 0.381 21
$PAD
Sh "3" C 3.81 3.81 0 0 0
Dr 1.4986 0 0
At STD N 00E0FFFF
Ne 0 ""
Po 2.54 0
$EndPAD
$PAD
Sh "4" C 3.81 3.81 0 0 0
Dr 1.4986 0 0
At STD N 00E0FFFF
Ne 0 ""
Po 7.62 0
$EndPAD
$PAD
Sh "2" C 3.81 3.81 0 0 0
Dr 1.4986 0 0
At STD N 00E0FFFF
Ne 0 ""
Po -2.54 0
$EndPAD
$PAD
Sh "1" R 3.81 3.81 0 0 0
Dr 1.4986 0 0
At STD N 00E0FFFF
Ne 0 ""
Po -7.62 0
$EndPAD
$EndMODULE chrisj1_WEIDMULLER_1508260000
$MODULE chrisj1_WEIDMULLER_1508360000
Po 0 0 0 15 506E12F7 00000000 ~~
Li chrisj1_WEIDMULLER_1508360000
Sc 0
AR 
Op 0 0 0
T0 0 -2.54 1.524 1.524 0 0.3048 N V 21 N "WEIDMULLER_1508360000"
T1 0 0 1.524 1.524 0 0.3048 N V 21 N "VAL**"
DS -12.7 -2.00152 12.7 -2.00152 0.381 21
DS -12.7 9.99998 12.7 9.99998 0.381 21
DS 12.7 9.99998 12.7 -2.00152 0.381 21
DS -12.7 -2.00152 -12.7 9.99998 0.381 21
$PAD
Sh "3" C 3.81 3.81 0 0 0
Dr 1.4986 0 0
At STD N 00E0FFFF
Ne 0 ""
Po 0 0
$EndPAD
$PAD
Sh "4" C 3.81 3.81 0 0 0
Dr 1.4986 0 0
At STD N 00E0FFFF
Ne 0 ""
Po 5.08 0
$EndPAD
$PAD
Sh "2" C 3.81 3.81 0 0 0
Dr 1.4986 0 0
At STD N 00E0FFFF
Ne 0 ""
Po -5.08 0
$EndPAD
$PAD
Sh "1" R 3.81 3.81 0 0 0
Dr 1.4986 0 0
At STD N 00E0FFFF
Ne 0 ""
Po -10.16 0
$EndPAD
$PAD
Sh "5" C 3.81 3.81 0 0 0
Dr 1.4986 0 0
At STD N 00E0FFFF
Ne 0 ""
Po 10.16 0
$EndPAD
$EndMODULE chrisj1_WEIDMULLER_1508360000
$MODULE chrisj1_WEIDMULLER_1508460000
Po 0 0 0 15 506E131E 00000000 ~~
Li chrisj1_WEIDMULLER_1508460000
Sc 0
AR 
Op 0 0 0
T0 0 -2.54 1.524 1.524 0 0.3048 N V 21 N "WEIDMULLER_1508260000"
T1 0 0 1.524 1.524 0 0.3048 N V 21 N "VAL**"
DS -15.24 -2.00152 15.24 -2.00152 0.381 21
DS -15.24 9.99998 15.24 9.99998 0.381 21
DS 15.24 9.99998 15.24 -2.00152 0.381 21
DS -15.24 -2.00152 -15.24 9.99998 0.381 21
$PAD
Sh "3" C 3.81 3.81 0 0 0
Dr 1.4986 0 0
At STD N 00E0FFFF
Ne 0 ""
Po -2.54 0
$EndPAD
$PAD
Sh "4" C 3.81 3.81 0 0 0
Dr 1.4986 0 0
At STD N 00E0FFFF
Ne 0 ""
Po 2.54 0
$EndPAD
$PAD
Sh "2" C 3.81 3.81 0 0 0
Dr 1.4986 0 0
At STD N 00E0FFFF
Ne 0 ""
Po -7.62 0
$EndPAD
$PAD
Sh "1" R 3.81 3.81 0 0 0
Dr 1.4986 0 0
At STD N 00E0FFFF
Ne 0 ""
Po -12.7 0
$EndPAD
$PAD
Sh "5" C 3.81 3.81 0 0 0
Dr 1.4986 0 0
At STD N 00E0FFFF
Ne 0 ""
Po 7.62 0
$EndPAD
$PAD
Sh "6" C 3.81 3.81 0 0 0
Dr 1.4986 0 0
At STD N 00E0FFFF
Ne 0 ""
Po 12.7 0
$EndPAD
$EndMODULE chrisj1_WEIDMULLER_1508460000
$MODULE chrisj1_WEIDMULLER_1517260000
Po 0 0 0 15 543DEF96 00000000 ~~
Li chrisj1_WEIDMULLER_1517260000
Sc 0
AR 
Op 0 0 0
T0 0 -2.54 1.524 1.524 0 0.3048 N V 21 N "WEIDMULLER_1517260000"
T1 0 0 1.524 1.524 0 0.3048 N V 21 N "VAL**"
DA 2.54 0 5.08 2.54 900 0.2 21
DA -2.54 0 0 2.54 900 0.2 21
DS 5.08 -4.6 -5.08 -4.6 0.381 21
DS 5.08 3.8 -5.08 3.8 0.381 21
DS 5.08 3.8 5.08 -4.6 0.381 21
DS -5.08 -4.6 -5.08 3.8 0.381 21
$PAD
Sh "2" C 3.81 3.81 0 0 0
Dr 1.4986 0 0
At STD N 00E0FFFF
Ne 0 ""
Po 2.54 0
$EndPAD
$PAD
Sh "1" R 3.81 3.81 0 0 0
Dr 1.4986 0 0
At STD N 00E0FFFF
Ne 0 ""
Po -2.54 0
$EndPAD
$EndMODULE chrisj1_WEIDMULLER_1517260000
$MODULE chrisj1_WEIDMULLER_1517460000
Po 0 0 0 15 543DFE1B 00000000 ~~
Li chrisj1_WEIDMULLER_1517460000
Sc 0
AR 
Op 0 0 0
T0 0 -2.54 1.524 1.524 0 0.3048 N V 21 N "WEIDMULLER_1517460000"
T1 0 0 1.524 1.524 0 0.3048 N V 21 N "VAL**"
DS 10.16 3.8 10.16 -4.6 0.381 21
DS 10.16 3.8 0 3.8 0.381 21
DS 10.16 -4.6 0 -4.6 0.381 21
DA 2.54 0 5.08 2.54 900 0.2 21
DA 7.62 0 10.16 2.54 900 0.2 21
DA -2.54 0 0 2.54 900 0.2 21
DA -7.62 0 -5.08 2.54 900 0.2 21
DS 0 -4.6 -10.16 -4.6 0.381 21
DS 0 3.8 -10.16 3.8 0.381 21
DS -10.16 -4.6 -10.16 3.8 0.381 21
$PAD
Sh "2" C 3.81 3.81 0 0 0
Dr 1.4986 0 0
At STD N 00E0FFFF
Ne 0 ""
Po -2.54 0
$EndPAD
$PAD
Sh "1" R 3.81 3.81 0 0 0
Dr 1.4986 0 0
At STD N 00E0FFFF
Ne 0 ""
Po -7.62 0
$EndPAD
$PAD
Sh "3" C 3.81 3.81 0 0 0
Dr 1.4986 0 0
At STD N 00E0FFFF
Ne 0 ""
Po 2.54 0
$EndPAD
$PAD
Sh "4" C 3.81 3.81 0 0 0
Dr 1.4986 0 0
At STD N 00E0FFFF
Ne 0 ""
Po 7.62 0
$EndPAD
$EndMODULE chrisj1_WEIDMULLER_1517460000
$MODULE chrisj1_WSL3637R0100FEA
Po 0 0 0 15 542E26AA 00000000 ~~
Li chrisj1_WSL3637R0100FEA
Sc 0
AR 
Op 0 0 0
T0 1.25 0.75 1 1 900 0.15 N V 21 N "chrisj1_WSL3637R0100FEA"
T1 -0.75 -0.5 1 1 900 0.15 N V 21 N "VAL**"
DS -2 4.825 2 4.825 0.15 21
DS -2 -4.825 2 -4.825 0.15 21
$PAD
Sh "1V" R 2.95 1.68 0 0 0
Dr 0 0 0
At SMD N 00888000
Ne 0 ""
Po -3.735 -4.115
$EndPAD
$PAD
Sh "1I" R 2.95 7.62 0 0 0
Dr 0 0 0
At SMD N 00888000
Ne 0 ""
Po -3.735 1.145
$EndPAD
$PAD
Sh "2I" R 2.95 7.62 0 0 0
Dr 0 0 0
At SMD N 00888000
Ne 0 ""
Po 3.735 1.145
$EndPAD
$PAD
Sh "2V" R 2.95 1.68 0 0 0
Dr 0 0 0
At SMD N 00888000
Ne 0 ""
Po 3.735 -4.115
$EndPAD
$EndMODULE chrisj1_WSL3637R0100FEA
$MODULE chrisj1_so14
Po 0 0 0 15 5423BA44 00000000 ~~
Li chrisj1_so14
Sc 0
AR 
Op 0 0 0
At SMD
T0 0 -0.889 1.143 1.143 0 0.1524 N V 21 N "SO14"
T1 0 1.016 0.889 0.889 0 0.1524 N V 21 N "VAL**"
DS -4.572 1.778 -4.572 1.905 0.2 21
DS -4.572 -1.905 -4.572 1.778 0.2 21
DS -4.572 -0.508 -4.064 -0.508 0.2 21
DS -4.064 -0.508 -4.064 0.508 0.2 21
DS -4.064 0.508 -4.572 0.508 0.2 21
DS 4.572 -1.905 4.572 1.905 0.2 21
$PAD
Sh "9" R 0.635 1.397 0 0 0
Dr 0 0 0
At SMD N 00888000
Ne 0 ""
Po 2.54 -2.54
$EndPAD
$PAD
Sh "10" R 0.635 1.397 0 0 0
Dr 0 0 0
At SMD N 00888000
Ne 0 ""
Po 1.27 -2.54
$EndPAD
$PAD
Sh "11" R 0.635 1.397 0 0 0
Dr 0 0 0
At SMD N 00888000
Ne 0 ""
Po 0 -2.54
$EndPAD
$PAD
Sh "12" R 0.635 1.397 0 0 0
Dr 0 0 0
At SMD N 00888000
Ne 0 ""
Po -1.27 -2.54
$EndPAD
$PAD
Sh "14" R 0.635 1.397 0 0 0
Dr 0 0 0
At SMD N 00888000
Ne 0 ""
Po -3.81 -2.54
$EndPAD
$PAD
Sh "13" R 0.635 1.397 0 0 0
Dr 0 0 0
At SMD N 00888000
Ne 0 ""
Po -2.54 -2.54
$EndPAD
$PAD
Sh "8" R 0.635 1.397 0 0 0
Dr 0 0 0
At SMD N 00888000
Ne 0 ""
Po 3.81 -2.54
$EndPAD
$PAD
Sh "1" R 0.635 1.397 0 0 0
Dr 0 0 0
At SMD N 00888000
Ne 0 ""
Po -3.81 2.54
$EndPAD
$PAD
Sh "7" R 0.635 1.397 0 0 0
Dr 0 0 0
At SMD N 00888000
Ne 0 ""
Po 3.81 2.54
$EndPAD
$PAD
Sh "6" R 0.635 1.397 0 0 0
Dr 0 0 0
At SMD N 00888000
Ne 0 ""
Po 2.54 2.54
$EndPAD
$PAD
Sh "5" R 0.635 1.397 0 0 0
Dr 0 0 0
At SMD N 00888000
Ne 0 ""
Po 1.27 2.54
$EndPAD
$PAD
Sh "2" R 0.635 1.397 0 0 0
Dr 0 0 0
At SMD N 00888000
Ne 0 ""
Po -2.54 2.54
$EndPAD
$PAD
Sh "3" R 0.635 1.397 0 0 0
Dr 0 0 0
At SMD N 00888000
Ne 0 ""
Po -1.27 2.54
$EndPAD
$PAD
Sh "4" R 0.635 1.397 0 0 0
Dr 0 0 0
At SMD N 00888000
Ne 0 ""
Po 0 2.54
$EndPAD
$SHAPE3D
Na "smd/cms_so14.wrl"
Sc 0.5 0.32 0.5
Of 0 0 0
Ro 0 0 0
$EndSHAPE3D
$EndMODULE chrisj1_so14
$MODULE chrisj1_so8
Po 0 0 0 15 5423B73A 00000000 ~~
Li chrisj1_so8
Sc 0
AR 
Op 0 0 0
At SMD
T0 0 -0.889 1.143 1.143 0 0.1524 N V 21 N "SO8"
T1 0 1.016 0.889 0.889 0 0.1524 N V 21 N "VAL**"
DS -2.667 1.778 -2.667 1.905 0.2 21
DS -2.667 -1.905 -2.667 1.778 0.2 21
DS -2.667 -0.508 -2.159 -0.508 0.2 21
DS -2.159 -0.508 -2.159 0.508 0.2 21
DS -2.159 0.508 -2.667 0.508 0.2 21
DS 2.667 -1.905 2.667 1.905 0.2 21
$PAD
Sh "8" R 0.635 1.397 0 0 0
Dr 0 0 0
At SMD N 00888000
Ne 0 ""
Po -1.905 -2.54
$EndPAD
$PAD
Sh "1" R 0.635 1.397 0 0 0
Dr 0 0 0
At SMD N 00888000
Ne 0 ""
Po -1.905 2.54
$EndPAD
$PAD
Sh "7" R 0.635 1.397 0 0 0
Dr 0 0 0
At SMD N 00888000
Ne 0 ""
Po -0.635 -2.54
$EndPAD
$PAD
Sh "6" R 0.635 1.397 0 0 0
Dr 0 0 0
At SMD N 00888000
Ne 0 ""
Po 0.635 -2.54
$EndPAD
$PAD
Sh "5" R 0.635 1.397 0 0 0
Dr 0 0 0
At SMD N 00888000
Ne 0 ""
Po 1.905 -2.54
$EndPAD
$PAD
Sh "2" R 0.635 1.397 0 0 0
Dr 0 0 0
At SMD N 00888000
Ne 0 ""
Po -0.635 2.54
$EndPAD
$PAD
Sh "3" R 0.635 1.397 0 0 0
Dr 0 0 0
At SMD N 00888000
Ne 0 ""
Po 0.635 2.54
$EndPAD
$PAD
Sh "4" R 0.635 1.397 0 0 0
Dr 0 0 0
At SMD N 00888000
Ne 0 ""
Po 1.905 2.54
$EndPAD
$SHAPE3D
Na "smd/cms_so8.wrl"
Sc 0.5 0.32 0.5
Of 0 0 0
Ro 0 0 0
$EndSHAPE3D
$EndMODULE chrisj1_so8
$MODULE chrisj1_spelsberg_tk1313
Po 0 0 0 15 544714E2 00000000 ~~
Li chrisj1_spelsberg_tk1313
Sc 0
AR 
Op 0 0 0
T0 0 -1 1 1 0 0.15 N V 21 N "chrisj1_spelsberg_tk1313"
T1 0 1 1 1 0 0.15 N V 21 N "VAL**"
DS -50.5 -57.5 -50.5 -62 0.2 24
DS -50.5 -62 0 -62 0.2 24
DS -62 0 -62 -50.5 0.2 24
DS -62 -50.5 -57.5 -50.5 0.2 24
DS -57.5 50.5 -62 50.5 0.2 24
DS -62 50.5 -62 0 0.2 24
DS 0 62 -50.5 62 0.2 24
DS -50.5 62 -50.5 57.5 0.2 24
DS 50.5 57.5 50.5 62 0.2 24
DS 50.5 62 0 62 0.2 24
DS 62 0 62 50.5 0.2 24
DS 62 50.5 57.5 50.5 0.2 24
DA 57.5 57.5 50.5 57.5 900 0.2 24
DA -57.5 57.5 -57.5 50.5 900 0.2 24
DA -57.5 -57.5 -50.5 -57.5 900 0.2 24
DS 57.5 -50.5 62 -50.5 0.2 24
DS 50.5 -62 50.5 -57.5 0.2 24
DS 50.5 -62 0 -62 0.2 24
DS 62 -50.5 62 0 0.2 24
DA 57.5 -57.5 57.5 -50.5 900 0.2 24
$PAD
Sh "1" C 7 7 0 0 0
Dr 4.2 0 0
At STD N 00E0FFFF
Ne 0 ""
Po 48 -48
$EndPAD
$PAD
Sh "2" C 7 7 0 0 0
Dr 4.2 0 0
At STD N 00E0FFFF
Ne 0 ""
Po 48 48
$EndPAD
$PAD
Sh "3" C 7 7 0 0 0
Dr 4.2 0 0
At STD N 00E0FFFF
Ne 0 ""
Po -48 48
$EndPAD
$PAD
Sh "4" C 7 7 0 0 0
Dr 4.2 0 0
At STD N 00E0FFFF
Ne 0 ""
Po -48 -48
$EndPAD
$EndMODULE chrisj1_spelsberg_tk1313
$EndLIBRARY
