PCBNEW-LibModule-V1  18/07/2013 4:52:15 PM
# encoding utf-8
Units mm
$INDEX
LED-1206
MH_3mm_6p5mm
MH_3mm_8mm
TLMG2100_inv
TLMG2100_inv_mask_gnd
TLMG2100_inv_mask_gnd_bak
TLMG2100_inv_masked
molex_90814-0916
molex_90814-0916_pth
$EndINDEX
$MODULE LED-1206
Po 0 0 0 15 49BFA1FF 51636698 ~~
Li LED-1206
Cd LED 1206 smd package
Kw LED1206 SMD
Sc 51636698
AR LED-1206
Op 0 0 0
At SMD
T0 0.254 -1.524 0.762 0.762 0 0.0889 N V 21 N "LED-1206"
T1 0 1.524 0.762 0.762 0 0.0889 N V 21 N "VAL**"
DS -0.09906 0.09906 0.09906 0.09906 0.06604 21
DS 0.09906 0.09906 0.09906 -0.09906 0.06604 21
DS -0.09906 -0.09906 0.09906 -0.09906 0.06604 21
DS -0.09906 0.09906 -0.09906 -0.09906 0.06604 21
DS 0.44958 0.6985 0.79756 0.6985 0.06604 21
DS 0.79756 0.6985 0.79756 0.44958 0.06604 21
DS 0.44958 0.44958 0.79756 0.44958 0.06604 21
DS 0.44958 0.6985 0.44958 0.44958 0.06604 21
DS 0.79756 0.6985 0.89916 0.6985 0.06604 21
DS 0.89916 0.6985 0.89916 -0.49784 0.06604 21
DS 0.79756 -0.49784 0.89916 -0.49784 0.06604 21
DS 0.79756 0.6985 0.79756 -0.49784 0.06604 21
DS 0.79756 -0.54864 0.89916 -0.54864 0.06604 21
DS 0.89916 -0.54864 0.89916 -0.6985 0.06604 21
DS 0.79756 -0.6985 0.89916 -0.6985 0.06604 21
DS 0.79756 -0.54864 0.79756 -0.6985 0.06604 21
DS -0.89916 0.6985 -0.79756 0.6985 0.06604 21
DS -0.79756 0.6985 -0.79756 -0.49784 0.06604 21
DS -0.89916 -0.49784 -0.79756 -0.49784 0.06604 21
DS -0.89916 0.6985 -0.89916 -0.49784 0.06604 21
DS -0.89916 -0.54864 -0.79756 -0.54864 0.06604 21
DS -0.79756 -0.54864 -0.79756 -0.6985 0.06604 21
DS -0.89916 -0.6985 -0.79756 -0.6985 0.06604 21
DS -0.89916 -0.54864 -0.89916 -0.6985 0.06604 21
DS 0.44958 0.6985 0.59944 0.6985 0.06604 21
DS 0.59944 0.6985 0.59944 0.44958 0.06604 21
DS 0.44958 0.44958 0.59944 0.44958 0.06604 21
DS 0.44958 0.6985 0.44958 0.44958 0.06604 21
DS 1.5494 0.7493 -1.5494 0.7493 0.1016 21
DS -1.5494 0.7493 -1.5494 -0.7493 0.1016 21
DS -1.5494 -0.7493 1.5494 -0.7493 0.1016 21
DS 1.5494 -0.7493 1.5494 0.7493 0.1016 21
DA 0 0 0.54864 0.49784 954 0.1016 21
DA 0 0 -0.54864 0.49784 845 0.1016 21
DA 0 0 -0.54864 -0.49784 954 0.1016 21
DA 0 0 0.54864 -0.49784 845 0.1016 21
$PAD
Sh "1" R 1.59766 1.80086 0 0 0
Dr 0 0 0
At SMD N 00888000
Ne 0 ""
Po -1.41986 0
$EndPAD
$PAD
Sh "2" R 1.59766 1.80086 0 0 0
Dr 0 0 0
At SMD N 00888000
Ne 0 ""
Po 1.41986 0
$EndPAD
$EndMODULE LED-1206
$MODULE MH_3mm_6p5mm
Po 0 0 0 15 51E77718 00000000 ~~
Li MH_3mm_6p5mm
Sc 0
AR 
Op 0 0 0
T0 0 0 1.524 1.524 0 0.3048 N I 21 N "MH_3mm_6.5mm"
T1 0 0 1.524 1.524 0 0.3048 N I 21 N "VAL**"
$PAD
Sh "1" C 6.5 6.5 0 0 0
Dr 3 0 0
At STD N 00C0FFFF
Ne 0 ""
Po 0 0
$EndPAD
$EndMODULE MH_3mm_6p5mm
$MODULE MH_3mm_8mm
Po 0 0 0 15 51E76029 00000000 ~~
Li MH_3mm_8mm
Sc 0
AR 
Op 0 0 0
T0 0 0 1.524 1.524 0 0.3048 N I 21 N "MH_3mm_8mm"
T1 0 0 1.524 1.524 0 0.3048 N I 21 N "VAL**"
$PAD
Sh "1" C 8 8 0 0 0
Dr 3 0 0
At STD N 00C0FFFF
Ne 0 ""
Po 0 0
$EndPAD
$EndMODULE MH_3mm_8mm
$MODULE TLMG2100_inv
Po 0 0 0 15 5163A181 00000000 ~~
Li TLMG2100_inv
Cd upside down LED
Kw LED inverted SMD
Sc 0
AR LED-1206
Op 0 0 0
At SMD
T0 0.254 -1.524 0.762 0.762 0 0.0889 N I 21 N "inverted_masked_led"
T1 0 1.524 0.762 0.762 0 0.0889 N I 21 N "Val**"
DS 0.9 -0.6 0.9 0.6 0.2 23
DS -0.9 -0.6 0.9 -0.6 0.2 23
DS -0.9 -0.6 -0.9 0.6 0.2 23
DS 0.1 -0.5 0.1 0.5 0.4 23
DS -0.1 -0.5 -0.1 0.5 0.4 23
DS -0.4 -0.5 -0.4 0.5 0.4 23
DS 0.4 -0.5 0.4 0.5 0.4 23
DS -0.7 -0.5 -0.7 0.5 0.4 23
DS 0.7 -0.5 0.7 0.5 0.4 23
DS -0.9 0.6 0.9 0.6 0.2 23
DC 0 0 0.50038 0 1.00076 22
DS -1.09982 -0.80104 1.09982 -0.80104 0.2032 21
DS 1.09982 0.80104 -1.09982 0.80104 0.2032 21
$PAD
Sh "A" R 1 1 0 0 0
Dr 0 0 0
At SMD N 00888000
Ne 0 ""
Po -1.6 0
$EndPAD
$PAD
Sh "K" R 1 1 0 0 0
Dr 0 0 0
At SMD N 00888000
Ne 0 ""
Po 1.6 0
$EndPAD
$EndMODULE TLMG2100_inv
$MODULE TLMG2100_inv_mask_gnd
Po 0 0 0 15 51E73471 00000000 ~~
Li TLMG2100_inv_mask_gnd
Cd upside down LED with copper mask
Kw LED inverted SMD
Sc 0
AR LED-1206
Op 0 0 0
At SMD
T0 7 -1.2 0.762 0.762 0 0.0889 N I 21 N "inverted_mask_gnd"
T1 3.3 1.4 0.762 0.762 0 0.0889 N I 21 N "Val**"
DS 0.9 -0.6 0.9 0.6 0.2 23
DS -0.9 -0.6 0.9 -0.6 0.2 23
DS -0.9 -0.6 -0.9 0.6 0.2 23
DS 0.1 -0.5 0.1 0.5 0.4 23
DS -0.1 -0.5 -0.1 0.5 0.4 23
DS -0.4 -0.5 -0.4 0.5 0.4 23
DS 0.4 -0.5 0.4 0.5 0.4 23
DS -0.7 -0.5 -0.7 0.5 0.4 23
DS 0.7 -0.5 0.7 0.5 0.4 23
DS -0.9 0.6 0.9 0.6 0.2 23
DC 0 0 0.50038 0 1.00076 22
DS -1.09982 -0.80104 1.09982 -0.80104 0.2032 21
DS 1.09982 0.80104 -1.09982 0.80104 0.2032 21
$PAD
Sh "M" R 1 2.4 0 0 0
Dr 0 0 0
At CONN N 00000001
Ne 0 ""
Po 0.7 0
.ZoneConnection 2
$EndPAD
$PAD
Sh "M" R 1 2.4 0 0 0
Dr 0 0 0
At CONN N 00000001
Ne 0 ""
Po -0.7 0
.ZoneConnection 2
$EndPAD
$PAD
Sh "M" R 2.4 1 0 0 0
Dr 0 0 0
At CONN N 00000001
Ne 0 ""
Po 0 -0.7
.ZoneConnection 2
$EndPAD
$PAD
Sh "M" R 2.4 1 0 0 0
Dr 0 0 0
At CONN N 00000001
Ne 0 ""
Po 0 0.7
.ZoneConnection 2
$EndPAD
$PAD
Sh "A" R 1 1 0 0 0
Dr 0 0 0
At SMD N 00888000
Ne 0 ""
Po -1.6 0
$EndPAD
$PAD
Sh "K" R 1 1 0 0 0
Dr 0 0 0
At SMD N 00888000
Ne 0 ""
Po 1.6 0
$EndPAD
$EndMODULE TLMG2100_inv_mask_gnd
$MODULE TLMG2100_inv_mask_gnd_bak
Po 0 0 0 15 51D51EAB 00000000 ~~
Li TLMG2100_inv_mask_gnd_bak
Cd upside down LED with copper mask
Kw LED inverted SMD
Sc 0
AR LED-1206
Op 0 0 0
At SMD
T0 0.254 -1.524 0.762 0.762 0 0.0889 N I 21 N "inverted_mask_gnd"
T1 0 1.524 0.762 0.762 0 0.0889 N I 21 N "Val**"
DS 0.9 -0.6 0.9 0.6 0.2 23
DS -0.9 -0.6 0.9 -0.6 0.2 23
DS -0.9 -0.6 -0.9 0.6 0.2 23
DS 0.1 -0.5 0.1 0.5 0.4 23
DS -0.1 -0.5 -0.1 0.5 0.4 23
DS -0.4 -0.5 -0.4 0.5 0.4 23
DS 0.4 -0.5 0.4 0.5 0.4 23
DS -0.7 -0.5 -0.7 0.5 0.4 23
DS 0.7 -0.5 0.7 0.5 0.4 23
DS -0.9 0.6 0.9 0.6 0.2 23
DS -1.00076 -0.99822 1.00076 -0.99822 1.00076 0
DS 1.00076 -0.99822 1.00076 1.00076 1.00076 0
DS 1.00076 1.00076 -1.00076 1.00076 1.00076 0
DS -1.00076 1.00076 -1.00076 -0.99822 1.00076 0
DC 0 0 0.50038 0 1.00076 22
DC 0 0 0.875 0 1.25 0
DS -1.09982 -0.70104 1.09982 -0.70104 0.2032 21
DS 1.09982 -0.70104 1.09982 0.70104 0.2032 21
DS 1.09982 0.70104 -1.09982 0.70104 0.2032 21
DS -1.09982 0.70104 -1.09982 -0.70104 0.2032 21
$PAD
Sh "M" R 3 0.2 0 0 0
Dr 0 0 0
At SMD N 00000001
Ne 0 ""
Po 0 1.4
.ZoneConnection 2
$EndPAD
$PAD
Sh "M" R 0.2 3 0 0 0
Dr 0 0 0
At SMD N 00000001
Ne 0 ""
Po 1.4 0
.ZoneConnection 2
$EndPAD
$PAD
Sh "M" R 3 0.2 0 0 0
Dr 0 0 0
At SMD N 00000001
Ne 0 ""
Po 0 -1.4
.ZoneConnection 2
$EndPAD
$PAD
Sh "A" R 1 1 0 0 0
Dr 0 0 0
At SMD N 00888000
Ne 0 ""
Po -1.6 0
$EndPAD
$PAD
Sh "K" R 1 1 0 0 0
Dr 0 0 0
At SMD N 00888000
Ne 0 ""
Po 1.6 0
$EndPAD
$PAD
Sh "M" R 0.2 3 0 0 0
Dr 0 0 0
At SMD N 00000001
Ne 0 ""
Po -1.4 0
.ZoneConnection 2
$EndPAD
$EndMODULE TLMG2100_inv_mask_gnd_bak
$MODULE TLMG2100_inv_masked
Po 0 0 0 15 5163A181 00000000 ~~
Li TLMG2100_inv_masked
Cd upside down LED with copper mask
Kw LED inverted SMD
Sc 0
AR LED-1206
Op 0 0 0
At SMD
T0 0.254 -1.524 0.762 0.762 0 0.0889 N I 21 N "inverted_masked_led"
T1 0 1.524 0.762 0.762 0 0.0889 N I 21 N "Val**"
DS 0.9 -0.6 0.9 0.6 0.2 23
DS -0.9 -0.6 0.9 -0.6 0.2 23
DS -0.9 -0.6 -0.9 0.6 0.2 23
DS 0.1 -0.5 0.1 0.5 0.4 23
DS -0.1 -0.5 -0.1 0.5 0.4 23
DS -0.4 -0.5 -0.4 0.5 0.4 23
DS 0.4 -0.5 0.4 0.5 0.4 23
DS -0.7 -0.5 -0.7 0.5 0.4 23
DS 0.7 -0.5 0.7 0.5 0.4 23
DS -0.9 0.6 0.9 0.6 0.2 23
DS -1.00076 -0.99822 1.00076 -0.99822 1.00076 0
DS 1.00076 -0.99822 1.00076 1.00076 1.00076 0
DS 1.00076 1.00076 -1.00076 1.00076 1.00076 0
DS -1.00076 1.00076 -1.00076 -0.99822 1.00076 0
DC 0 0 0.50038 0 1.00076 22
DC 0 0 0.875 0 1.25 0
DS -1.09982 -0.70104 1.09982 -0.70104 0.2032 21
DS 1.09982 -0.70104 1.09982 0.70104 0.2032 21
DS 1.09982 0.70104 -1.09982 0.70104 0.2032 21
DS -1.09982 0.70104 -1.09982 -0.70104 0.2032 21
$PAD
Sh "A" R 1 1 0 0 0
Dr 0 0 0
At SMD N 00888000
Ne 0 ""
Po -1.6 0
$EndPAD
$PAD
Sh "K" R 1 1 0 0 0
Dr 0 0 0
At SMD N 00888000
Ne 0 ""
Po 1.6 0
$EndPAD
$EndMODULE TLMG2100_inv_masked
$MODULE molex_90814-0916
Po 0 0 0 15 5166466F 00000000 ~~
Li molex_90814-0916
Sc 0
AR 
Op 0 0 0
T0 0.08 -2.18 1.524 1.524 0 0.3048 N V 21 N "molex_90814-0916"
T1 -7.29 -1.18 1.524 1.524 0 0.3048 N I 21 N "VAL**"
DS -12.05 2.05 12.05 2.05 0.4 21
DS 12.05 2.05 12.05 -5.85 0.4 21
DS 12.05 -5.85 -12.05 -5.85 0.4 21
DS -12.05 -5.85 -12.05 2.05 0.4 21
$PAD
Sh "" C 2.1 2.1 0 0 0
Dr 2.1 0 0
At HOLE N 00E0FFFF
Ne 0 ""
Po 11.45 0
$EndPAD
$PAD
Sh "9" R 1.2 2 0 0 0
Dr 0 0 0
At SMD N 00888000
Ne 0 ""
Po 0.64 1.1
$EndPAD
$PAD
Sh "10" R 1.2 2 0 0 0
Dr 0 0 0
At SMD N 00888000
Ne 0 ""
Po 1.91 -4.9
$EndPAD
$PAD
Sh "11" R 1.2 2 0 0 0
Dr 0 0 0
At SMD N 00888000
Ne 0 ""
Po 3.18 1.1
$EndPAD
$PAD
Sh "12" R 1.2 2 0 0 0
Dr 0 0 0
At SMD N 00888000
Ne 0 ""
Po 4.45 -4.9
$EndPAD
$PAD
Sh "16" R 1.2 2 0 0 0
Dr 0 0 0
At SMD N 00888000
Ne 0 ""
Po 9.53 -4.9
$EndPAD
$PAD
Sh "15" R 1.2 2 0 0 0
Dr 0 0 0
At SMD N 00888000
Ne 0 ""
Po 8.26 1.1
$EndPAD
$PAD
Sh "14" R 1.2 2 0 0 0
Dr 0 0 0
At SMD N 00888000
Ne 0 ""
Po 6.99 -4.9
$EndPAD
$PAD
Sh "13" R 1.2 2 0 0 0
Dr 0 0 0
At SMD N 00888000
Ne 0 ""
Po 5.72 1.1
$EndPAD
$PAD
Sh "5" R 1.2 2 0 0 0
Dr 0 0 0
At SMD N 00888000
Ne 0 ""
Po -4.44 1.1
$EndPAD
$PAD
Sh "6" R 1.2 2 0 0 0
Dr 0 0 0
At SMD N 00888000
Ne 0 ""
Po -3.17 -4.9
$EndPAD
$PAD
Sh "7" R 1.2 2 0 0 0
Dr 0 0 0
At SMD N 00888000
Ne 0 ""
Po -1.9 1.1
$EndPAD
$PAD
Sh "8" R 1.2 2 0 0 0
Dr 0 0 0
At SMD N 00888000
Ne 0 ""
Po -0.63 -4.9
$EndPAD
$PAD
Sh "4" R 1.2 2 0 0 0
Dr 0 0 0
At SMD N 00888000
Ne 0 ""
Po -5.71 -4.9
$EndPAD
$PAD
Sh "3" R 1.2 2 0 0 0
Dr 0 0 0
At SMD N 00888000
Ne 0 ""
Po -6.98 1.1
$EndPAD
$PAD
Sh "2" R 1.2 2 0 0 0
Dr 0 0 0
At SMD N 00888000
Ne 0 ""
Po -8.25 -4.9
$EndPAD
$PAD
Sh "1" R 1.2 2 0 0 0
Dr 0 0 0
At SMD N 00888000
Ne 0 ""
Po -9.52 1.1
$EndPAD
$PAD
Sh "" C 2.1 2.1 0 0 0
Dr 2.1 0 0
At HOLE N 00E0FFFF
Ne 0 ""
Po -11.45 0
$EndPAD
$EndMODULE molex_90814-0916
$MODULE molex_90814-0916_pth
Po 0 0 0 15 51E79090 00000000 ~~
Li molex_90814-0916_pth
Sc 0
AR 
Op 0 0 0
T0 0.08 -2.18 1.524 1.524 0 0.3048 N V 21 N "molex_90814-0916"
T1 -7.29 -1.18 1.524 1.524 0 0.3048 N I 21 N "VAL**"
DS -12.05 2.05 12.05 2.05 0.4 21
DS 12.05 2.05 12.05 -5.85 0.4 21
DS 12.05 -5.85 -12.05 -5.85 0.4 21
DS -12.05 -5.85 -12.05 2.05 0.4 21
$PAD
Sh "" C 2.5 2.5 0 0 0
Dr 2.1 0 0
At STD N 00E0FFFF
Ne 0 ""
Po 11.45 0
$EndPAD
$PAD
Sh "9" R 1.2 2 0 0 0
Dr 0 0 0
At SMD N 00888000
Ne 0 ""
Po 0.64 1.1
$EndPAD
$PAD
Sh "10" R 1.2 2 0 0 0
Dr 0 0 0
At SMD N 00888000
Ne 0 ""
Po 1.91 -4.9
$EndPAD
$PAD
Sh "11" R 1.2 2 0 0 0
Dr 0 0 0
At SMD N 00888000
Ne 0 ""
Po 3.18 1.1
$EndPAD
$PAD
Sh "12" R 1.2 2 0 0 0
Dr 0 0 0
At SMD N 00888000
Ne 0 ""
Po 4.45 -4.9
$EndPAD
$PAD
Sh "16" R 1.2 2 0 0 0
Dr 0 0 0
At SMD N 00888000
Ne 0 ""
Po 9.53 -4.9
$EndPAD
$PAD
Sh "15" R 1.2 2 0 0 0
Dr 0 0 0
At SMD N 00888000
Ne 0 ""
Po 8.26 1.1
$EndPAD
$PAD
Sh "14" R 1.2 2 0 0 0
Dr 0 0 0
At SMD N 00888000
Ne 0 ""
Po 6.99 -4.9
$EndPAD
$PAD
Sh "13" R 1.2 2 0 0 0
Dr 0 0 0
At SMD N 00888000
Ne 0 ""
Po 5.72 1.1
$EndPAD
$PAD
Sh "5" R 1.2 2 0 0 0
Dr 0 0 0
At SMD N 00888000
Ne 0 ""
Po -4.44 1.1
$EndPAD
$PAD
Sh "6" R 1.2 2 0 0 0
Dr 0 0 0
At SMD N 00888000
Ne 0 ""
Po -3.17 -4.9
$EndPAD
$PAD
Sh "7" R 1.2 2 0 0 0
Dr 0 0 0
At SMD N 00888000
Ne 0 ""
Po -1.9 1.1
$EndPAD
$PAD
Sh "8" R 1.2 2 0 0 0
Dr 0 0 0
At SMD N 00888000
Ne 0 ""
Po -0.63 -4.9
$EndPAD
$PAD
Sh "4" R 1.2 2 0 0 0
Dr 0 0 0
At SMD N 00888000
Ne 0 ""
Po -5.71 -4.9
$EndPAD
$PAD
Sh "3" R 1.2 2 0 0 0
Dr 0 0 0
At SMD N 00888000
Ne 0 ""
Po -6.98 1.1
$EndPAD
$PAD
Sh "2" R 1.2 2 0 0 0
Dr 0 0 0
At SMD N 00888000
Ne 0 ""
Po -8.25 -4.9
$EndPAD
$PAD
Sh "1" R 1.2 2 0 0 0
Dr 0 0 0
At SMD N 00888000
Ne 0 ""
Po -9.52 1.1
$EndPAD
$PAD
Sh "1" C 2.5 2.5 0 0 0
Dr 2.1 0 0
At STD N 00E0FFFF
Ne 0 ""
Po -11.45 0
$EndPAD
$EndMODULE molex_90814-0916_pth
$EndLIBRARY
