(kicad_pcb (version 20171130) (host pcbnew "(5.1.4)-1")

  (general
    (thickness 1.6)
    (drawings 4)
    (tracks 76)
    (zones 0)
    (modules 25)
    (nets 16)
  )

  (page A4)
  (layers
    (0 F.Cu signal)
    (31 B.Cu signal)
    (32 B.Adhes user)
    (33 F.Adhes user)
    (34 B.Paste user)
    (35 F.Paste user)
    (36 B.SilkS user)
    (37 F.SilkS user)
    (38 B.Mask user)
    (39 F.Mask user)
    (40 Dwgs.User user)
    (41 Cmts.User user)
    (42 Eco1.User user)
    (43 Eco2.User user)
    (44 Edge.Cuts user)
    (45 Margin user)
    (46 B.CrtYd user)
    (47 F.CrtYd user)
    (48 B.Fab user)
    (49 F.Fab user)
  )

  (setup
    (last_trace_width 1.27)
    (user_trace_width 0.4064)
    (user_trace_width 0.508)
    (user_trace_width 0.8128)
    (user_trace_width 1.27)
    (user_trace_width 2.032)
    (user_trace_width 2.54)
    (trace_clearance 0.2)
    (zone_clearance 0.508)
    (zone_45_only no)
    (trace_min 0.2)
    (via_size 0.8)
    (via_drill 0.4)
    (via_min_size 0.4)
    (via_min_drill 0.3)
    (uvia_size 0.3)
    (uvia_drill 0.1)
    (uvias_allowed no)
    (uvia_min_size 0.2)
    (uvia_min_drill 0.1)
    (edge_width 0.05)
    (segment_width 0.2)
    (pcb_text_width 0.3)
    (pcb_text_size 1.5 1.5)
    (mod_edge_width 0.12)
    (mod_text_size 1 1)
    (mod_text_width 0.15)
    (pad_size 1.524 1.524)
    (pad_drill 0.762)
    (pad_to_mask_clearance 0.051)
    (solder_mask_min_width 0.25)
    (aux_axis_origin 0 0)
    (visible_elements 7FFFFFFF)
    (pcbplotparams
      (layerselection 0x010fc_ffffffff)
      (usegerberextensions false)
      (usegerberattributes false)
      (usegerberadvancedattributes false)
      (creategerberjobfile false)
      (excludeedgelayer true)
      (linewidth 0.100000)
      (plotframeref false)
      (viasonmask false)
      (mode 1)
      (useauxorigin false)
      (hpglpennumber 1)
      (hpglpenspeed 20)
      (hpglpendiameter 15.000000)
      (psnegative false)
      (psa4output false)
      (plotreference true)
      (plotvalue true)
      (plotinvisibletext false)
      (padsonsilk false)
      (subtractmaskfromsilk false)
      (outputformat 1)
      (mirror false)
      (drillshape 1)
      (scaleselection 1)
      (outputdirectory ""))
  )

  (net 0 "")
  (net 1 GND)
  (net 2 "Net-(C1-Pad1)")
  (net 3 "Net-(C2-Pad1)")
  (net 4 "Net-(C2-Pad2)")
  (net 5 "Net-(C3-Pad2)")
  (net 6 "Net-(C3-Pad1)")
  (net 7 "Net-(D1-Pad2)")
  (net 8 "Net-(D2-Pad1)")
  (net 9 "Net-(D4-Pad2)")
  (net 10 "Net-(J1-Pad2)")
  (net 11 "Net-(J2-Pad1)")
  (net 12 "Net-(J3-Pad1)")
  (net 13 "Net-(Q1-Pad3)")
  (net 14 "Net-(Q2-Pad3)")
  (net 15 "Net-(F1-Pad1)")

  (net_class Default "This is the default net class."
    (clearance 0.2)
    (trace_width 0.25)
    (via_dia 0.8)
    (via_drill 0.4)
    (uvia_dia 0.3)
    (uvia_drill 0.1)
    (add_net GND)
    (add_net "Net-(C1-Pad1)")
    (add_net "Net-(C2-Pad1)")
    (add_net "Net-(C2-Pad2)")
    (add_net "Net-(C3-Pad1)")
    (add_net "Net-(C3-Pad2)")
    (add_net "Net-(D1-Pad2)")
    (add_net "Net-(D2-Pad1)")
    (add_net "Net-(D4-Pad2)")
    (add_net "Net-(F1-Pad1)")
    (add_net "Net-(J1-Pad2)")
    (add_net "Net-(J2-Pad1)")
    (add_net "Net-(J3-Pad1)")
    (add_net "Net-(Q1-Pad3)")
    (add_net "Net-(Q2-Pad3)")
  )

  (module Capacitors_ThroughHole:CP_Radial_D10.0mm_P5.00mm (layer F.Cu) (tedit 597BC7C2) (tstamp 5F49AB80)
    (at 113.665 61.595 90)
    (descr "CP, Radial series, Radial, pin pitch=5.00mm, , diameter=10mm, Electrolytic Capacitor")
    (tags "CP Radial series Radial pin pitch 5.00mm  diameter 10mm Electrolytic Capacitor")
    (path /5F4922A2)
    (fp_text reference C1 (at 2.5 -6.31 90) (layer F.SilkS)
      (effects (font (size 1 1) (thickness 0.15)))
    )
    (fp_text value "470u 25V" (at 2.5 6.31 90) (layer F.Fab)
      (effects (font (size 1 1) (thickness 0.15)))
    )
    (fp_text user %R (at 2.5 0 90) (layer F.Fab)
      (effects (font (size 1 1) (thickness 0.15)))
    )
    (fp_line (start 7.85 -5.35) (end -2.85 -5.35) (layer F.CrtYd) (width 0.05))
    (fp_line (start 7.85 5.35) (end 7.85 -5.35) (layer F.CrtYd) (width 0.05))
    (fp_line (start -2.85 5.35) (end 7.85 5.35) (layer F.CrtYd) (width 0.05))
    (fp_line (start -2.85 -5.35) (end -2.85 5.35) (layer F.CrtYd) (width 0.05))
    (fp_line (start -1.95 -0.75) (end -1.95 0.75) (layer F.SilkS) (width 0.12))
    (fp_line (start -2.7 0) (end -1.2 0) (layer F.SilkS) (width 0.12))
    (fp_line (start 7.581 -0.279) (end 7.581 0.279) (layer F.SilkS) (width 0.12))
    (fp_line (start 7.541 -0.672) (end 7.541 0.672) (layer F.SilkS) (width 0.12))
    (fp_line (start 7.501 -0.913) (end 7.501 0.913) (layer F.SilkS) (width 0.12))
    (fp_line (start 7.461 -1.104) (end 7.461 1.104) (layer F.SilkS) (width 0.12))
    (fp_line (start 7.421 -1.265) (end 7.421 1.265) (layer F.SilkS) (width 0.12))
    (fp_line (start 7.381 -1.407) (end 7.381 1.407) (layer F.SilkS) (width 0.12))
    (fp_line (start 7.341 -1.536) (end 7.341 1.536) (layer F.SilkS) (width 0.12))
    (fp_line (start 7.301 -1.654) (end 7.301 1.654) (layer F.SilkS) (width 0.12))
    (fp_line (start 7.261 -1.763) (end 7.261 1.763) (layer F.SilkS) (width 0.12))
    (fp_line (start 7.221 -1.866) (end 7.221 1.866) (layer F.SilkS) (width 0.12))
    (fp_line (start 7.181 -1.962) (end 7.181 1.962) (layer F.SilkS) (width 0.12))
    (fp_line (start 7.141 -2.053) (end 7.141 2.053) (layer F.SilkS) (width 0.12))
    (fp_line (start 7.101 -2.14) (end 7.101 2.14) (layer F.SilkS) (width 0.12))
    (fp_line (start 7.061 -2.222) (end 7.061 2.222) (layer F.SilkS) (width 0.12))
    (fp_line (start 7.021 -2.301) (end 7.021 2.301) (layer F.SilkS) (width 0.12))
    (fp_line (start 6.981 -2.377) (end 6.981 2.377) (layer F.SilkS) (width 0.12))
    (fp_line (start 6.941 -2.449) (end 6.941 2.449) (layer F.SilkS) (width 0.12))
    (fp_line (start 6.901 -2.519) (end 6.901 2.519) (layer F.SilkS) (width 0.12))
    (fp_line (start 6.861 -2.587) (end 6.861 2.587) (layer F.SilkS) (width 0.12))
    (fp_line (start 6.821 -2.652) (end 6.821 2.652) (layer F.SilkS) (width 0.12))
    (fp_line (start 6.781 -2.715) (end 6.781 2.715) (layer F.SilkS) (width 0.12))
    (fp_line (start 6.741 -2.777) (end 6.741 2.777) (layer F.SilkS) (width 0.12))
    (fp_line (start 6.701 -2.836) (end 6.701 2.836) (layer F.SilkS) (width 0.12))
    (fp_line (start 6.661 -2.894) (end 6.661 2.894) (layer F.SilkS) (width 0.12))
    (fp_line (start 6.621 -2.949) (end 6.621 2.949) (layer F.SilkS) (width 0.12))
    (fp_line (start 6.581 -3.004) (end 6.581 3.004) (layer F.SilkS) (width 0.12))
    (fp_line (start 6.541 -3.057) (end 6.541 3.057) (layer F.SilkS) (width 0.12))
    (fp_line (start 6.501 -3.108) (end 6.501 3.108) (layer F.SilkS) (width 0.12))
    (fp_line (start 6.461 -3.158) (end 6.461 3.158) (layer F.SilkS) (width 0.12))
    (fp_line (start 6.421 -3.207) (end 6.421 3.207) (layer F.SilkS) (width 0.12))
    (fp_line (start 6.381 -3.255) (end 6.381 3.255) (layer F.SilkS) (width 0.12))
    (fp_line (start 6.341 -3.302) (end 6.341 3.302) (layer F.SilkS) (width 0.12))
    (fp_line (start 6.301 -3.347) (end 6.301 3.347) (layer F.SilkS) (width 0.12))
    (fp_line (start 6.261 -3.391) (end 6.261 3.391) (layer F.SilkS) (width 0.12))
    (fp_line (start 6.221 -3.435) (end 6.221 3.435) (layer F.SilkS) (width 0.12))
    (fp_line (start 6.181 -3.477) (end 6.181 3.477) (layer F.SilkS) (width 0.12))
    (fp_line (start 6.141 1.181) (end 6.141 3.518) (layer F.SilkS) (width 0.12))
    (fp_line (start 6.141 -3.518) (end 6.141 -1.181) (layer F.SilkS) (width 0.12))
    (fp_line (start 6.101 1.181) (end 6.101 3.559) (layer F.SilkS) (width 0.12))
    (fp_line (start 6.101 -3.559) (end 6.101 -1.181) (layer F.SilkS) (width 0.12))
    (fp_line (start 6.061 1.181) (end 6.061 3.598) (layer F.SilkS) (width 0.12))
    (fp_line (start 6.061 -3.598) (end 6.061 -1.181) (layer F.SilkS) (width 0.12))
    (fp_line (start 6.021 1.181) (end 6.021 3.637) (layer F.SilkS) (width 0.12))
    (fp_line (start 6.021 -3.637) (end 6.021 -1.181) (layer F.SilkS) (width 0.12))
    (fp_line (start 5.981 1.181) (end 5.981 3.675) (layer F.SilkS) (width 0.12))
    (fp_line (start 5.981 -3.675) (end 5.981 -1.181) (layer F.SilkS) (width 0.12))
    (fp_line (start 5.941 1.181) (end 5.941 3.712) (layer F.SilkS) (width 0.12))
    (fp_line (start 5.941 -3.712) (end 5.941 -1.181) (layer F.SilkS) (width 0.12))
    (fp_line (start 5.901 1.181) (end 5.901 3.748) (layer F.SilkS) (width 0.12))
    (fp_line (start 5.901 -3.748) (end 5.901 -1.181) (layer F.SilkS) (width 0.12))
    (fp_line (start 5.861 1.181) (end 5.861 3.784) (layer F.SilkS) (width 0.12))
    (fp_line (start 5.861 -3.784) (end 5.861 -1.181) (layer F.SilkS) (width 0.12))
    (fp_line (start 5.821 1.181) (end 5.821 3.819) (layer F.SilkS) (width 0.12))
    (fp_line (start 5.821 -3.819) (end 5.821 -1.181) (layer F.SilkS) (width 0.12))
    (fp_line (start 5.781 1.181) (end 5.781 3.853) (layer F.SilkS) (width 0.12))
    (fp_line (start 5.781 -3.853) (end 5.781 -1.181) (layer F.SilkS) (width 0.12))
    (fp_line (start 5.741 1.181) (end 5.741 3.886) (layer F.SilkS) (width 0.12))
    (fp_line (start 5.741 -3.886) (end 5.741 -1.181) (layer F.SilkS) (width 0.12))
    (fp_line (start 5.701 1.181) (end 5.701 3.919) (layer F.SilkS) (width 0.12))
    (fp_line (start 5.701 -3.919) (end 5.701 -1.181) (layer F.SilkS) (width 0.12))
    (fp_line (start 5.661 1.181) (end 5.661 3.951) (layer F.SilkS) (width 0.12))
    (fp_line (start 5.661 -3.951) (end 5.661 -1.181) (layer F.SilkS) (width 0.12))
    (fp_line (start 5.621 1.181) (end 5.621 3.982) (layer F.SilkS) (width 0.12))
    (fp_line (start 5.621 -3.982) (end 5.621 -1.181) (layer F.SilkS) (width 0.12))
    (fp_line (start 5.581 1.181) (end 5.581 4.013) (layer F.SilkS) (width 0.12))
    (fp_line (start 5.581 -4.013) (end 5.581 -1.181) (layer F.SilkS) (width 0.12))
    (fp_line (start 5.541 1.181) (end 5.541 4.043) (layer F.SilkS) (width 0.12))
    (fp_line (start 5.541 -4.043) (end 5.541 -1.181) (layer F.SilkS) (width 0.12))
    (fp_line (start 5.501 1.181) (end 5.501 4.072) (layer F.SilkS) (width 0.12))
    (fp_line (start 5.501 -4.072) (end 5.501 -1.181) (layer F.SilkS) (width 0.12))
    (fp_line (start 5.461 1.181) (end 5.461 4.101) (layer F.SilkS) (width 0.12))
    (fp_line (start 5.461 -4.101) (end 5.461 -1.181) (layer F.SilkS) (width 0.12))
    (fp_line (start 5.421 1.181) (end 5.421 4.13) (layer F.SilkS) (width 0.12))
    (fp_line (start 5.421 -4.13) (end 5.421 -1.181) (layer F.SilkS) (width 0.12))
    (fp_line (start 5.381 1.181) (end 5.381 4.157) (layer F.SilkS) (width 0.12))
    (fp_line (start 5.381 -4.157) (end 5.381 -1.181) (layer F.SilkS) (width 0.12))
    (fp_line (start 5.341 1.181) (end 5.341 4.185) (layer F.SilkS) (width 0.12))
    (fp_line (start 5.341 -4.185) (end 5.341 -1.181) (layer F.SilkS) (width 0.12))
    (fp_line (start 5.301 1.181) (end 5.301 4.211) (layer F.SilkS) (width 0.12))
    (fp_line (start 5.301 -4.211) (end 5.301 -1.181) (layer F.SilkS) (width 0.12))
    (fp_line (start 5.261 1.181) (end 5.261 4.237) (layer F.SilkS) (width 0.12))
    (fp_line (start 5.261 -4.237) (end 5.261 -1.181) (layer F.SilkS) (width 0.12))
    (fp_line (start 5.221 1.181) (end 5.221 4.263) (layer F.SilkS) (width 0.12))
    (fp_line (start 5.221 -4.263) (end 5.221 -1.181) (layer F.SilkS) (width 0.12))
    (fp_line (start 5.181 1.181) (end 5.181 4.288) (layer F.SilkS) (width 0.12))
    (fp_line (start 5.181 -4.288) (end 5.181 -1.181) (layer F.SilkS) (width 0.12))
    (fp_line (start 5.141 1.181) (end 5.141 4.312) (layer F.SilkS) (width 0.12))
    (fp_line (start 5.141 -4.312) (end 5.141 -1.181) (layer F.SilkS) (width 0.12))
    (fp_line (start 5.101 1.181) (end 5.101 4.336) (layer F.SilkS) (width 0.12))
    (fp_line (start 5.101 -4.336) (end 5.101 -1.181) (layer F.SilkS) (width 0.12))
    (fp_line (start 5.061 1.181) (end 5.061 4.36) (layer F.SilkS) (width 0.12))
    (fp_line (start 5.061 -4.36) (end 5.061 -1.181) (layer F.SilkS) (width 0.12))
    (fp_line (start 5.021 1.181) (end 5.021 4.383) (layer F.SilkS) (width 0.12))
    (fp_line (start 5.021 -4.383) (end 5.021 -1.181) (layer F.SilkS) (width 0.12))
    (fp_line (start 4.981 1.181) (end 4.981 4.405) (layer F.SilkS) (width 0.12))
    (fp_line (start 4.981 -4.405) (end 4.981 -1.181) (layer F.SilkS) (width 0.12))
    (fp_line (start 4.941 1.181) (end 4.941 4.428) (layer F.SilkS) (width 0.12))
    (fp_line (start 4.941 -4.428) (end 4.941 -1.181) (layer F.SilkS) (width 0.12))
    (fp_line (start 4.901 1.181) (end 4.901 4.449) (layer F.SilkS) (width 0.12))
    (fp_line (start 4.901 -4.449) (end 4.901 -1.181) (layer F.SilkS) (width 0.12))
    (fp_line (start 4.861 1.181) (end 4.861 4.47) (layer F.SilkS) (width 0.12))
    (fp_line (start 4.861 -4.47) (end 4.861 -1.181) (layer F.SilkS) (width 0.12))
    (fp_line (start 4.821 1.181) (end 4.821 4.491) (layer F.SilkS) (width 0.12))
    (fp_line (start 4.821 -4.491) (end 4.821 -1.181) (layer F.SilkS) (width 0.12))
    (fp_line (start 4.781 1.181) (end 4.781 4.511) (layer F.SilkS) (width 0.12))
    (fp_line (start 4.781 -4.511) (end 4.781 -1.181) (layer F.SilkS) (width 0.12))
    (fp_line (start 4.741 1.181) (end 4.741 4.531) (layer F.SilkS) (width 0.12))
    (fp_line (start 4.741 -4.531) (end 4.741 -1.181) (layer F.SilkS) (width 0.12))
    (fp_line (start 4.701 1.181) (end 4.701 4.55) (layer F.SilkS) (width 0.12))
    (fp_line (start 4.701 -4.55) (end 4.701 -1.181) (layer F.SilkS) (width 0.12))
    (fp_line (start 4.661 1.181) (end 4.661 4.569) (layer F.SilkS) (width 0.12))
    (fp_line (start 4.661 -4.569) (end 4.661 -1.181) (layer F.SilkS) (width 0.12))
    (fp_line (start 4.621 1.181) (end 4.621 4.588) (layer F.SilkS) (width 0.12))
    (fp_line (start 4.621 -4.588) (end 4.621 -1.181) (layer F.SilkS) (width 0.12))
    (fp_line (start 4.581 1.181) (end 4.581 4.606) (layer F.SilkS) (width 0.12))
    (fp_line (start 4.581 -4.606) (end 4.581 -1.181) (layer F.SilkS) (width 0.12))
    (fp_line (start 4.541 1.181) (end 4.541 4.624) (layer F.SilkS) (width 0.12))
    (fp_line (start 4.541 -4.624) (end 4.541 -1.181) (layer F.SilkS) (width 0.12))
    (fp_line (start 4.501 1.181) (end 4.501 4.641) (layer F.SilkS) (width 0.12))
    (fp_line (start 4.501 -4.641) (end 4.501 -1.181) (layer F.SilkS) (width 0.12))
    (fp_line (start 4.461 1.181) (end 4.461 4.658) (layer F.SilkS) (width 0.12))
    (fp_line (start 4.461 -4.658) (end 4.461 -1.181) (layer F.SilkS) (width 0.12))
    (fp_line (start 4.421 1.181) (end 4.421 4.674) (layer F.SilkS) (width 0.12))
    (fp_line (start 4.421 -4.674) (end 4.421 -1.181) (layer F.SilkS) (width 0.12))
    (fp_line (start 4.381 1.181) (end 4.381 4.691) (layer F.SilkS) (width 0.12))
    (fp_line (start 4.381 -4.691) (end 4.381 -1.181) (layer F.SilkS) (width 0.12))
    (fp_line (start 4.341 1.181) (end 4.341 4.706) (layer F.SilkS) (width 0.12))
    (fp_line (start 4.341 -4.706) (end 4.341 -1.181) (layer F.SilkS) (width 0.12))
    (fp_line (start 4.301 1.181) (end 4.301 4.722) (layer F.SilkS) (width 0.12))
    (fp_line (start 4.301 -4.722) (end 4.301 -1.181) (layer F.SilkS) (width 0.12))
    (fp_line (start 4.261 1.181) (end 4.261 4.737) (layer F.SilkS) (width 0.12))
    (fp_line (start 4.261 -4.737) (end 4.261 -1.181) (layer F.SilkS) (width 0.12))
    (fp_line (start 4.221 1.181) (end 4.221 4.751) (layer F.SilkS) (width 0.12))
    (fp_line (start 4.221 -4.751) (end 4.221 -1.181) (layer F.SilkS) (width 0.12))
    (fp_line (start 4.181 1.181) (end 4.181 4.765) (layer F.SilkS) (width 0.12))
    (fp_line (start 4.181 -4.765) (end 4.181 -1.181) (layer F.SilkS) (width 0.12))
    (fp_line (start 4.141 1.181) (end 4.141 4.779) (layer F.SilkS) (width 0.12))
    (fp_line (start 4.141 -4.779) (end 4.141 -1.181) (layer F.SilkS) (width 0.12))
    (fp_line (start 4.101 1.181) (end 4.101 4.792) (layer F.SilkS) (width 0.12))
    (fp_line (start 4.101 -4.792) (end 4.101 -1.181) (layer F.SilkS) (width 0.12))
    (fp_line (start 4.061 1.181) (end 4.061 4.806) (layer F.SilkS) (width 0.12))
    (fp_line (start 4.061 -4.806) (end 4.061 -1.181) (layer F.SilkS) (width 0.12))
    (fp_line (start 4.021 1.181) (end 4.021 4.818) (layer F.SilkS) (width 0.12))
    (fp_line (start 4.021 -4.818) (end 4.021 -1.181) (layer F.SilkS) (width 0.12))
    (fp_line (start 3.981 1.181) (end 3.981 4.831) (layer F.SilkS) (width 0.12))
    (fp_line (start 3.981 -4.831) (end 3.981 -1.181) (layer F.SilkS) (width 0.12))
    (fp_line (start 3.941 1.181) (end 3.941 4.843) (layer F.SilkS) (width 0.12))
    (fp_line (start 3.941 -4.843) (end 3.941 -1.181) (layer F.SilkS) (width 0.12))
    (fp_line (start 3.901 1.181) (end 3.901 4.854) (layer F.SilkS) (width 0.12))
    (fp_line (start 3.901 -4.854) (end 3.901 -1.181) (layer F.SilkS) (width 0.12))
    (fp_line (start 3.861 1.181) (end 3.861 4.865) (layer F.SilkS) (width 0.12))
    (fp_line (start 3.861 -4.865) (end 3.861 -1.181) (layer F.SilkS) (width 0.12))
    (fp_line (start 3.821 1.181) (end 3.821 4.876) (layer F.SilkS) (width 0.12))
    (fp_line (start 3.821 -4.876) (end 3.821 -1.181) (layer F.SilkS) (width 0.12))
    (fp_line (start 3.781 -4.887) (end 3.781 4.887) (layer F.SilkS) (width 0.12))
    (fp_line (start 3.741 -4.897) (end 3.741 4.897) (layer F.SilkS) (width 0.12))
    (fp_line (start 3.701 -4.907) (end 3.701 4.907) (layer F.SilkS) (width 0.12))
    (fp_line (start 3.661 -4.917) (end 3.661 4.917) (layer F.SilkS) (width 0.12))
    (fp_line (start 3.621 -4.926) (end 3.621 4.926) (layer F.SilkS) (width 0.12))
    (fp_line (start 3.581 -4.935) (end 3.581 4.935) (layer F.SilkS) (width 0.12))
    (fp_line (start 3.541 -4.943) (end 3.541 4.943) (layer F.SilkS) (width 0.12))
    (fp_line (start 3.501 -4.951) (end 3.501 4.951) (layer F.SilkS) (width 0.12))
    (fp_line (start 3.461 -4.959) (end 3.461 4.959) (layer F.SilkS) (width 0.12))
    (fp_line (start 3.421 -4.967) (end 3.421 4.967) (layer F.SilkS) (width 0.12))
    (fp_line (start 3.381 -4.974) (end 3.381 4.974) (layer F.SilkS) (width 0.12))
    (fp_line (start 3.341 -4.981) (end 3.341 4.981) (layer F.SilkS) (width 0.12))
    (fp_line (start 3.301 -4.987) (end 3.301 4.987) (layer F.SilkS) (width 0.12))
    (fp_line (start 3.261 -4.993) (end 3.261 4.993) (layer F.SilkS) (width 0.12))
    (fp_line (start 3.221 -4.999) (end 3.221 4.999) (layer F.SilkS) (width 0.12))
    (fp_line (start 3.18 -5.005) (end 3.18 5.005) (layer F.SilkS) (width 0.12))
    (fp_line (start 3.14 -5.01) (end 3.14 5.01) (layer F.SilkS) (width 0.12))
    (fp_line (start 3.1 -5.015) (end 3.1 5.015) (layer F.SilkS) (width 0.12))
    (fp_line (start 3.06 -5.02) (end 3.06 5.02) (layer F.SilkS) (width 0.12))
    (fp_line (start 3.02 -5.024) (end 3.02 5.024) (layer F.SilkS) (width 0.12))
    (fp_line (start 2.98 -5.028) (end 2.98 5.028) (layer F.SilkS) (width 0.12))
    (fp_line (start 2.94 -5.031) (end 2.94 5.031) (layer F.SilkS) (width 0.12))
    (fp_line (start 2.9 -5.035) (end 2.9 5.035) (layer F.SilkS) (width 0.12))
    (fp_line (start 2.86 -5.038) (end 2.86 5.038) (layer F.SilkS) (width 0.12))
    (fp_line (start 2.82 -5.04) (end 2.82 5.04) (layer F.SilkS) (width 0.12))
    (fp_line (start 2.78 -5.043) (end 2.78 5.043) (layer F.SilkS) (width 0.12))
    (fp_line (start 2.74 -5.045) (end 2.74 5.045) (layer F.SilkS) (width 0.12))
    (fp_line (start 2.7 -5.047) (end 2.7 5.047) (layer F.SilkS) (width 0.12))
    (fp_line (start 2.66 -5.048) (end 2.66 5.048) (layer F.SilkS) (width 0.12))
    (fp_line (start 2.62 -5.049) (end 2.62 5.049) (layer F.SilkS) (width 0.12))
    (fp_line (start 2.58 -5.05) (end 2.58 5.05) (layer F.SilkS) (width 0.12))
    (fp_line (start 2.54 -5.05) (end 2.54 5.05) (layer F.SilkS) (width 0.12))
    (fp_line (start 2.5 -5.05) (end 2.5 5.05) (layer F.SilkS) (width 0.12))
    (fp_line (start -1.95 -0.75) (end -1.95 0.75) (layer F.Fab) (width 0.1))
    (fp_line (start -2.7 0) (end -1.2 0) (layer F.Fab) (width 0.1))
    (fp_circle (center 2.5 0) (end 7.5 0) (layer F.Fab) (width 0.1))
    (fp_arc (start 2.5 0) (end 7.399357 -1.38) (angle 31.5) (layer F.SilkS) (width 0.12))
    (fp_arc (start 2.5 0) (end -2.399357 1.38) (angle -148.5) (layer F.SilkS) (width 0.12))
    (fp_arc (start 2.5 0) (end -2.399357 -1.38) (angle 148.5) (layer F.SilkS) (width 0.12))
    (pad 2 thru_hole circle (at 5 0 90) (size 2 2) (drill 1) (layers *.Cu *.Mask)
      (net 1 GND))
    (pad 1 thru_hole rect (at 0 0 90) (size 2 2) (drill 1) (layers *.Cu *.Mask)
      (net 2 "Net-(C1-Pad1)"))
    (model ${KISYS3DMOD}/Capacitors_THT.3dshapes/CP_Radial_D10.0mm_P5.00mm.wrl
      (at (xyz 0 0 0))
      (scale (xyz 1 1 1))
      (rotate (xyz 0 0 0))
    )
  )

  (module Capacitors_ThroughHole:C_Rect_L7.2mm_W5.5mm_P5.00mm_FKS2_FKP2_MKS2_MKP2 (layer F.Cu) (tedit 597BC7C2) (tstamp 5F49AB93)
    (at 133.35 89.535 180)
    (descr "C, Rect series, Radial, pin pitch=5.00mm, , length*width=7.2*5.5mm^2, Capacitor, http://www.wima.com/EN/WIMA_FKS_2.pdf")
    (tags "C Rect series Radial pin pitch 5.00mm  length 7.2mm width 5.5mm Capacitor")
    (path /5F491690)
    (fp_text reference C2 (at 2.5 -4.06) (layer F.SilkS)
      (effects (font (size 1 1) (thickness 0.15)))
    )
    (fp_text value 1uF (at 2.5 4.06) (layer F.Fab)
      (effects (font (size 1 1) (thickness 0.15)))
    )
    (fp_line (start -1.1 -2.75) (end -1.1 2.75) (layer F.Fab) (width 0.1))
    (fp_line (start -1.1 2.75) (end 6.1 2.75) (layer F.Fab) (width 0.1))
    (fp_line (start 6.1 2.75) (end 6.1 -2.75) (layer F.Fab) (width 0.1))
    (fp_line (start 6.1 -2.75) (end -1.1 -2.75) (layer F.Fab) (width 0.1))
    (fp_line (start -1.16 -2.81) (end 6.16 -2.81) (layer F.SilkS) (width 0.12))
    (fp_line (start -1.16 2.81) (end 6.16 2.81) (layer F.SilkS) (width 0.12))
    (fp_line (start -1.16 -2.81) (end -1.16 2.81) (layer F.SilkS) (width 0.12))
    (fp_line (start 6.16 -2.81) (end 6.16 2.81) (layer F.SilkS) (width 0.12))
    (fp_line (start -1.45 -3.1) (end -1.45 3.1) (layer F.CrtYd) (width 0.05))
    (fp_line (start -1.45 3.1) (end 6.45 3.1) (layer F.CrtYd) (width 0.05))
    (fp_line (start 6.45 3.1) (end 6.45 -3.1) (layer F.CrtYd) (width 0.05))
    (fp_line (start 6.45 -3.1) (end -1.45 -3.1) (layer F.CrtYd) (width 0.05))
    (fp_text user %R (at 2.5 0) (layer F.Fab)
      (effects (font (size 1 1) (thickness 0.15)))
    )
    (pad 1 thru_hole circle (at 0 0 180) (size 1.6 1.6) (drill 0.8) (layers *.Cu *.Mask)
      (net 3 "Net-(C2-Pad1)"))
    (pad 2 thru_hole circle (at 5 0 180) (size 1.6 1.6) (drill 0.8) (layers *.Cu *.Mask)
      (net 4 "Net-(C2-Pad2)"))
    (model ${KISYS3DMOD}/Capacitors_THT.3dshapes/C_Rect_L7.2mm_W5.5mm_P5.00mm_FKS2_FKP2_MKS2_MKP2.wrl
      (at (xyz 0 0 0))
      (scale (xyz 1 1 1))
      (rotate (xyz 0 0 0))
    )
  )

  (module Capacitors_ThroughHole:C_Rect_L7.2mm_W5.5mm_P5.00mm_FKS2_FKP2_MKS2_MKP2 (layer F.Cu) (tedit 597BC7C2) (tstamp 5F49ABA6)
    (at 128.27 66.04)
    (descr "C, Rect series, Radial, pin pitch=5.00mm, , length*width=7.2*5.5mm^2, Capacitor, http://www.wima.com/EN/WIMA_FKS_2.pdf")
    (tags "C Rect series Radial pin pitch 5.00mm  length 7.2mm width 5.5mm Capacitor")
    (path /5F4F8E00)
    (fp_text reference C3 (at 2.5 -4.06) (layer F.SilkS)
      (effects (font (size 1 1) (thickness 0.15)))
    )
    (fp_text value 1uF (at 2.5 4.06) (layer F.Fab)
      (effects (font (size 1 1) (thickness 0.15)))
    )
    (fp_text user %R (at 2.5 0) (layer F.Fab)
      (effects (font (size 1 1) (thickness 0.15)))
    )
    (fp_line (start 6.45 -3.1) (end -1.45 -3.1) (layer F.CrtYd) (width 0.05))
    (fp_line (start 6.45 3.1) (end 6.45 -3.1) (layer F.CrtYd) (width 0.05))
    (fp_line (start -1.45 3.1) (end 6.45 3.1) (layer F.CrtYd) (width 0.05))
    (fp_line (start -1.45 -3.1) (end -1.45 3.1) (layer F.CrtYd) (width 0.05))
    (fp_line (start 6.16 -2.81) (end 6.16 2.81) (layer F.SilkS) (width 0.12))
    (fp_line (start -1.16 -2.81) (end -1.16 2.81) (layer F.SilkS) (width 0.12))
    (fp_line (start -1.16 2.81) (end 6.16 2.81) (layer F.SilkS) (width 0.12))
    (fp_line (start -1.16 -2.81) (end 6.16 -2.81) (layer F.SilkS) (width 0.12))
    (fp_line (start 6.1 -2.75) (end -1.1 -2.75) (layer F.Fab) (width 0.1))
    (fp_line (start 6.1 2.75) (end 6.1 -2.75) (layer F.Fab) (width 0.1))
    (fp_line (start -1.1 2.75) (end 6.1 2.75) (layer F.Fab) (width 0.1))
    (fp_line (start -1.1 -2.75) (end -1.1 2.75) (layer F.Fab) (width 0.1))
    (pad 2 thru_hole circle (at 5 0) (size 1.6 1.6) (drill 0.8) (layers *.Cu *.Mask)
      (net 5 "Net-(C3-Pad2)"))
    (pad 1 thru_hole circle (at 0 0) (size 1.6 1.6) (drill 0.8) (layers *.Cu *.Mask)
      (net 6 "Net-(C3-Pad1)"))
    (model ${KISYS3DMOD}/Capacitors_THT.3dshapes/C_Rect_L7.2mm_W5.5mm_P5.00mm_FKS2_FKP2_MKS2_MKP2.wrl
      (at (xyz 0 0 0))
      (scale (xyz 1 1 1))
      (rotate (xyz 0 0 0))
    )
  )

  (module Diodes_ThroughHole:D_DO-41_SOD81_P10.16mm_Horizontal (layer F.Cu) (tedit 5921392F) (tstamp 5F49ABBF)
    (at 99.06 66.675 270)
    (descr "D, DO-41_SOD81 series, Axial, Horizontal, pin pitch=10.16mm, , length*diameter=5.2*2.7mm^2, , http://www.diodes.com/_files/packages/DO-41%20(Plastic).pdf")
    (tags "D DO-41_SOD81 series Axial Horizontal pin pitch 10.16mm  length 5.2mm diameter 2.7mm")
    (path /5F49F7CD)
    (fp_text reference D1 (at 5.08 -2.41 90) (layer F.SilkS)
      (effects (font (size 1 1) (thickness 0.15)))
    )
    (fp_text value 1N4007 (at 5.08 2.41 90) (layer F.Fab)
      (effects (font (size 1 1) (thickness 0.15)))
    )
    (fp_line (start 11.55 -1.7) (end -1.35 -1.7) (layer F.CrtYd) (width 0.05))
    (fp_line (start 11.55 1.7) (end 11.55 -1.7) (layer F.CrtYd) (width 0.05))
    (fp_line (start -1.35 1.7) (end 11.55 1.7) (layer F.CrtYd) (width 0.05))
    (fp_line (start -1.35 -1.7) (end -1.35 1.7) (layer F.CrtYd) (width 0.05))
    (fp_line (start 3.26 -1.41) (end 3.26 1.41) (layer F.SilkS) (width 0.12))
    (fp_line (start 8.88 0) (end 7.74 0) (layer F.SilkS) (width 0.12))
    (fp_line (start 1.28 0) (end 2.42 0) (layer F.SilkS) (width 0.12))
    (fp_line (start 7.74 -1.41) (end 2.42 -1.41) (layer F.SilkS) (width 0.12))
    (fp_line (start 7.74 1.41) (end 7.74 -1.41) (layer F.SilkS) (width 0.12))
    (fp_line (start 2.42 1.41) (end 7.74 1.41) (layer F.SilkS) (width 0.12))
    (fp_line (start 2.42 -1.41) (end 2.42 1.41) (layer F.SilkS) (width 0.12))
    (fp_line (start 3.26 -1.35) (end 3.26 1.35) (layer F.Fab) (width 0.1))
    (fp_line (start 10.16 0) (end 7.68 0) (layer F.Fab) (width 0.1))
    (fp_line (start 0 0) (end 2.48 0) (layer F.Fab) (width 0.1))
    (fp_line (start 7.68 -1.35) (end 2.48 -1.35) (layer F.Fab) (width 0.1))
    (fp_line (start 7.68 1.35) (end 7.68 -1.35) (layer F.Fab) (width 0.1))
    (fp_line (start 2.48 1.35) (end 7.68 1.35) (layer F.Fab) (width 0.1))
    (fp_line (start 2.48 -1.35) (end 2.48 1.35) (layer F.Fab) (width 0.1))
    (fp_text user %R (at 5.08 0 90) (layer F.Fab)
      (effects (font (size 1 1) (thickness 0.15)))
    )
    (pad 2 thru_hole oval (at 10.16 0 270) (size 2.2 2.2) (drill 1.1) (layers *.Cu *.Mask)
      (net 7 "Net-(D1-Pad2)"))
    (pad 1 thru_hole rect (at 0 0 270) (size 2.2 2.2) (drill 1.1) (layers *.Cu *.Mask)
      (net 2 "Net-(C1-Pad1)"))
    (model ${KISYS3DMOD}/Diodes_THT.3dshapes/D_DO-41_SOD81_P10.16mm_Horizontal.wrl
      (at (xyz 0 0 0))
      (scale (xyz 0.393701 0.393701 0.393701))
      (rotate (xyz 0 0 0))
    )
  )

  (module LEDs:LED_D5.0mm (layer F.Cu) (tedit 5995936A) (tstamp 5F49B40D)
    (at 106.045 66.675 180)
    (descr "LED, diameter 5.0mm, 2 pins, http://cdn-reichelt.de/documents/datenblatt/A500/LL-504BC2E-009.pdf")
    (tags "LED diameter 5.0mm 2 pins")
    (path /5F4932F9)
    (fp_text reference D2 (at 1.27 -3.96) (layer F.SilkS)
      (effects (font (size 1 1) (thickness 0.15)))
    )
    (fp_text value Green (at 1.27 3.96) (layer F.Fab)
      (effects (font (size 1 1) (thickness 0.15)))
    )
    (fp_text user %R (at 1.25 0) (layer F.Fab)
      (effects (font (size 0.8 0.8) (thickness 0.2)))
    )
    (fp_line (start 4.5 -3.25) (end -1.95 -3.25) (layer F.CrtYd) (width 0.05))
    (fp_line (start 4.5 3.25) (end 4.5 -3.25) (layer F.CrtYd) (width 0.05))
    (fp_line (start -1.95 3.25) (end 4.5 3.25) (layer F.CrtYd) (width 0.05))
    (fp_line (start -1.95 -3.25) (end -1.95 3.25) (layer F.CrtYd) (width 0.05))
    (fp_line (start -1.29 -1.545) (end -1.29 1.545) (layer F.SilkS) (width 0.12))
    (fp_line (start -1.23 -1.469694) (end -1.23 1.469694) (layer F.Fab) (width 0.1))
    (fp_circle (center 1.27 0) (end 3.77 0) (layer F.SilkS) (width 0.12))
    (fp_circle (center 1.27 0) (end 3.77 0) (layer F.Fab) (width 0.1))
    (fp_arc (start 1.27 0) (end -1.29 1.54483) (angle -148.9) (layer F.SilkS) (width 0.12))
    (fp_arc (start 1.27 0) (end -1.29 -1.54483) (angle 148.9) (layer F.SilkS) (width 0.12))
    (fp_arc (start 1.27 0) (end -1.23 -1.469694) (angle 299.1) (layer F.Fab) (width 0.1))
    (pad 2 thru_hole circle (at 2.54 0 180) (size 1.8 1.8) (drill 0.9) (layers *.Cu *.Mask)
      (net 2 "Net-(C1-Pad1)"))
    (pad 1 thru_hole rect (at 0 0 180) (size 1.8 1.8) (drill 0.9) (layers *.Cu *.Mask)
      (net 8 "Net-(D2-Pad1)"))
    (model ${KISYS3DMOD}/LEDs.3dshapes/LED_D5.0mm.wrl
      (at (xyz 0 0 0))
      (scale (xyz 0.393701 0.393701 0.393701))
      (rotate (xyz 0 0 0))
    )
  )

  (module Diodes_ThroughHole:D_DO-35_SOD27_P7.62mm_Horizontal (layer F.Cu) (tedit 5921392F) (tstamp 5F49BB1A)
    (at 113.665 88.9)
    (descr "D, DO-35_SOD27 series, Axial, Horizontal, pin pitch=7.62mm, , length*diameter=4*2mm^2, , http://www.diodes.com/_files/packages/DO-35.pdf")
    (tags "D DO-35_SOD27 series Axial Horizontal pin pitch 7.62mm  length 4mm diameter 2mm")
    (path /5F492800)
    (fp_text reference D3 (at 3.81 -2.06) (layer F.SilkS)
      (effects (font (size 1 1) (thickness 0.15)))
    )
    (fp_text value 1N4148 (at 3.81 2.06) (layer F.Fab)
      (effects (font (size 1 1) (thickness 0.15)))
    )
    (fp_text user %R (at 3.81 0) (layer F.Fab)
      (effects (font (size 1 1) (thickness 0.15)))
    )
    (fp_line (start 1.81 -1) (end 1.81 1) (layer F.Fab) (width 0.1))
    (fp_line (start 1.81 1) (end 5.81 1) (layer F.Fab) (width 0.1))
    (fp_line (start 5.81 1) (end 5.81 -1) (layer F.Fab) (width 0.1))
    (fp_line (start 5.81 -1) (end 1.81 -1) (layer F.Fab) (width 0.1))
    (fp_line (start 0 0) (end 1.81 0) (layer F.Fab) (width 0.1))
    (fp_line (start 7.62 0) (end 5.81 0) (layer F.Fab) (width 0.1))
    (fp_line (start 2.41 -1) (end 2.41 1) (layer F.Fab) (width 0.1))
    (fp_line (start 1.75 -1.06) (end 1.75 1.06) (layer F.SilkS) (width 0.12))
    (fp_line (start 1.75 1.06) (end 5.87 1.06) (layer F.SilkS) (width 0.12))
    (fp_line (start 5.87 1.06) (end 5.87 -1.06) (layer F.SilkS) (width 0.12))
    (fp_line (start 5.87 -1.06) (end 1.75 -1.06) (layer F.SilkS) (width 0.12))
    (fp_line (start 0.98 0) (end 1.75 0) (layer F.SilkS) (width 0.12))
    (fp_line (start 6.64 0) (end 5.87 0) (layer F.SilkS) (width 0.12))
    (fp_line (start 2.41 -1.06) (end 2.41 1.06) (layer F.SilkS) (width 0.12))
    (fp_line (start -1.05 -1.35) (end -1.05 1.35) (layer F.CrtYd) (width 0.05))
    (fp_line (start -1.05 1.35) (end 8.7 1.35) (layer F.CrtYd) (width 0.05))
    (fp_line (start 8.7 1.35) (end 8.7 -1.35) (layer F.CrtYd) (width 0.05))
    (fp_line (start 8.7 -1.35) (end -1.05 -1.35) (layer F.CrtYd) (width 0.05))
    (pad 1 thru_hole rect (at 0 0) (size 1.6 1.6) (drill 0.8) (layers *.Cu *.Mask)
      (net 2 "Net-(C1-Pad1)"))
    (pad 2 thru_hole oval (at 7.62 0) (size 1.6 1.6) (drill 0.8) (layers *.Cu *.Mask)
      (net 4 "Net-(C2-Pad2)"))
    (model ${KISYS3DMOD}/Diodes_THT.3dshapes/D_DO-35_SOD27_P7.62mm_Horizontal.wrl
      (at (xyz 0 0 0))
      (scale (xyz 0.393701 0.393701 0.393701))
      (rotate (xyz 0 0 0))
    )
  )

  (module Diodes_ThroughHole:D_DO-35_SOD27_P7.62mm_Horizontal (layer F.Cu) (tedit 5921392F) (tstamp 5F49AC03)
    (at 134.62 81.28 180)
    (descr "D, DO-35_SOD27 series, Axial, Horizontal, pin pitch=7.62mm, , length*diameter=4*2mm^2, , http://www.diodes.com/_files/packages/DO-35.pdf")
    (tags "D DO-35_SOD27 series Axial Horizontal pin pitch 7.62mm  length 4mm diameter 2mm")
    (path /5F50ECA1)
    (fp_text reference D4 (at 3.81 -2.06) (layer F.SilkS)
      (effects (font (size 1 1) (thickness 0.15)))
    )
    (fp_text value 1N4148 (at 3.81 2.06) (layer F.Fab)
      (effects (font (size 1 1) (thickness 0.15)))
    )
    (fp_text user %R (at 3.81 0) (layer F.Fab)
      (effects (font (size 1 1) (thickness 0.15)))
    )
    (fp_line (start 1.81 -1) (end 1.81 1) (layer F.Fab) (width 0.1))
    (fp_line (start 1.81 1) (end 5.81 1) (layer F.Fab) (width 0.1))
    (fp_line (start 5.81 1) (end 5.81 -1) (layer F.Fab) (width 0.1))
    (fp_line (start 5.81 -1) (end 1.81 -1) (layer F.Fab) (width 0.1))
    (fp_line (start 0 0) (end 1.81 0) (layer F.Fab) (width 0.1))
    (fp_line (start 7.62 0) (end 5.81 0) (layer F.Fab) (width 0.1))
    (fp_line (start 2.41 -1) (end 2.41 1) (layer F.Fab) (width 0.1))
    (fp_line (start 1.75 -1.06) (end 1.75 1.06) (layer F.SilkS) (width 0.12))
    (fp_line (start 1.75 1.06) (end 5.87 1.06) (layer F.SilkS) (width 0.12))
    (fp_line (start 5.87 1.06) (end 5.87 -1.06) (layer F.SilkS) (width 0.12))
    (fp_line (start 5.87 -1.06) (end 1.75 -1.06) (layer F.SilkS) (width 0.12))
    (fp_line (start 0.98 0) (end 1.75 0) (layer F.SilkS) (width 0.12))
    (fp_line (start 6.64 0) (end 5.87 0) (layer F.SilkS) (width 0.12))
    (fp_line (start 2.41 -1.06) (end 2.41 1.06) (layer F.SilkS) (width 0.12))
    (fp_line (start -1.05 -1.35) (end -1.05 1.35) (layer F.CrtYd) (width 0.05))
    (fp_line (start -1.05 1.35) (end 8.7 1.35) (layer F.CrtYd) (width 0.05))
    (fp_line (start 8.7 1.35) (end 8.7 -1.35) (layer F.CrtYd) (width 0.05))
    (fp_line (start 8.7 -1.35) (end -1.05 -1.35) (layer F.CrtYd) (width 0.05))
    (pad 1 thru_hole rect (at 0 0 180) (size 1.6 1.6) (drill 0.8) (layers *.Cu *.Mask)
      (net 1 GND))
    (pad 2 thru_hole oval (at 7.62 0 180) (size 1.6 1.6) (drill 0.8) (layers *.Cu *.Mask)
      (net 9 "Net-(D4-Pad2)"))
    (model ${KISYS3DMOD}/Diodes_THT.3dshapes/D_DO-35_SOD27_P7.62mm_Horizontal.wrl
      (at (xyz 0 0 0))
      (scale (xyz 0.393701 0.393701 0.393701))
      (rotate (xyz 0 0 0))
    )
  )

  (module Diodes_ThroughHole:D_DO-35_SOD27_P7.62mm_Horizontal (layer F.Cu) (tedit 5921392F) (tstamp 5F49B9BB)
    (at 127 78.105)
    (descr "D, DO-35_SOD27 series, Axial, Horizontal, pin pitch=7.62mm, , length*diameter=4*2mm^2, , http://www.diodes.com/_files/packages/DO-35.pdf")
    (tags "D DO-35_SOD27 series Axial Horizontal pin pitch 7.62mm  length 4mm diameter 2mm")
    (path /5F4FC54A)
    (fp_text reference D5 (at 3.81 -2.06) (layer F.SilkS)
      (effects (font (size 1 1) (thickness 0.15)))
    )
    (fp_text value 1N4148 (at 3.81 2.06) (layer F.Fab)
      (effects (font (size 1 1) (thickness 0.15)))
    )
    (fp_line (start 8.7 -1.35) (end -1.05 -1.35) (layer F.CrtYd) (width 0.05))
    (fp_line (start 8.7 1.35) (end 8.7 -1.35) (layer F.CrtYd) (width 0.05))
    (fp_line (start -1.05 1.35) (end 8.7 1.35) (layer F.CrtYd) (width 0.05))
    (fp_line (start -1.05 -1.35) (end -1.05 1.35) (layer F.CrtYd) (width 0.05))
    (fp_line (start 2.41 -1.06) (end 2.41 1.06) (layer F.SilkS) (width 0.12))
    (fp_line (start 6.64 0) (end 5.87 0) (layer F.SilkS) (width 0.12))
    (fp_line (start 0.98 0) (end 1.75 0) (layer F.SilkS) (width 0.12))
    (fp_line (start 5.87 -1.06) (end 1.75 -1.06) (layer F.SilkS) (width 0.12))
    (fp_line (start 5.87 1.06) (end 5.87 -1.06) (layer F.SilkS) (width 0.12))
    (fp_line (start 1.75 1.06) (end 5.87 1.06) (layer F.SilkS) (width 0.12))
    (fp_line (start 1.75 -1.06) (end 1.75 1.06) (layer F.SilkS) (width 0.12))
    (fp_line (start 2.41 -1) (end 2.41 1) (layer F.Fab) (width 0.1))
    (fp_line (start 7.62 0) (end 5.81 0) (layer F.Fab) (width 0.1))
    (fp_line (start 0 0) (end 1.81 0) (layer F.Fab) (width 0.1))
    (fp_line (start 5.81 -1) (end 1.81 -1) (layer F.Fab) (width 0.1))
    (fp_line (start 5.81 1) (end 5.81 -1) (layer F.Fab) (width 0.1))
    (fp_line (start 1.81 1) (end 5.81 1) (layer F.Fab) (width 0.1))
    (fp_line (start 1.81 -1) (end 1.81 1) (layer F.Fab) (width 0.1))
    (fp_text user %R (at 3.81 0) (layer F.Fab)
      (effects (font (size 1 1) (thickness 0.15)))
    )
    (pad 2 thru_hole oval (at 7.62 0) (size 1.6 1.6) (drill 0.8) (layers *.Cu *.Mask)
      (net 1 GND))
    (pad 1 thru_hole rect (at 0 0) (size 1.6 1.6) (drill 0.8) (layers *.Cu *.Mask)
      (net 9 "Net-(D4-Pad2)"))
    (model ${KISYS3DMOD}/Diodes_THT.3dshapes/D_DO-35_SOD27_P7.62mm_Horizontal.wrl
      (at (xyz 0 0 0))
      (scale (xyz 0.393701 0.393701 0.393701))
      (rotate (xyz 0 0 0))
    )
  )

  (module Diodes_ThroughHole:D_DO-35_SOD27_P7.62mm_Horizontal (layer F.Cu) (tedit 5921392F) (tstamp 5F49AC35)
    (at 113.665 76.835)
    (descr "D, DO-35_SOD27 series, Axial, Horizontal, pin pitch=7.62mm, , length*diameter=4*2mm^2, , http://www.diodes.com/_files/packages/DO-35.pdf")
    (tags "D DO-35_SOD27 series Axial Horizontal pin pitch 7.62mm  length 4mm diameter 2mm")
    (path /5F4D3BE4)
    (fp_text reference D7 (at 3.81 -2.06) (layer F.SilkS)
      (effects (font (size 1 1) (thickness 0.15)))
    )
    (fp_text value 1N4148 (at 3.81 2.06) (layer F.Fab)
      (effects (font (size 1 1) (thickness 0.15)))
    )
    (fp_line (start 8.7 -1.35) (end -1.05 -1.35) (layer F.CrtYd) (width 0.05))
    (fp_line (start 8.7 1.35) (end 8.7 -1.35) (layer F.CrtYd) (width 0.05))
    (fp_line (start -1.05 1.35) (end 8.7 1.35) (layer F.CrtYd) (width 0.05))
    (fp_line (start -1.05 -1.35) (end -1.05 1.35) (layer F.CrtYd) (width 0.05))
    (fp_line (start 2.41 -1.06) (end 2.41 1.06) (layer F.SilkS) (width 0.12))
    (fp_line (start 6.64 0) (end 5.87 0) (layer F.SilkS) (width 0.12))
    (fp_line (start 0.98 0) (end 1.75 0) (layer F.SilkS) (width 0.12))
    (fp_line (start 5.87 -1.06) (end 1.75 -1.06) (layer F.SilkS) (width 0.12))
    (fp_line (start 5.87 1.06) (end 5.87 -1.06) (layer F.SilkS) (width 0.12))
    (fp_line (start 1.75 1.06) (end 5.87 1.06) (layer F.SilkS) (width 0.12))
    (fp_line (start 1.75 -1.06) (end 1.75 1.06) (layer F.SilkS) (width 0.12))
    (fp_line (start 2.41 -1) (end 2.41 1) (layer F.Fab) (width 0.1))
    (fp_line (start 7.62 0) (end 5.81 0) (layer F.Fab) (width 0.1))
    (fp_line (start 0 0) (end 1.81 0) (layer F.Fab) (width 0.1))
    (fp_line (start 5.81 -1) (end 1.81 -1) (layer F.Fab) (width 0.1))
    (fp_line (start 5.81 1) (end 5.81 -1) (layer F.Fab) (width 0.1))
    (fp_line (start 1.81 1) (end 5.81 1) (layer F.Fab) (width 0.1))
    (fp_line (start 1.81 -1) (end 1.81 1) (layer F.Fab) (width 0.1))
    (fp_text user %R (at 3.81 0) (layer F.Fab)
      (effects (font (size 1 1) (thickness 0.15)))
    )
    (pad 2 thru_hole oval (at 7.62 0) (size 1.6 1.6) (drill 0.8) (layers *.Cu *.Mask)
      (net 6 "Net-(C3-Pad1)"))
    (pad 1 thru_hole rect (at 0 0) (size 1.6 1.6) (drill 0.8) (layers *.Cu *.Mask)
      (net 2 "Net-(C1-Pad1)"))
    (model ${KISYS3DMOD}/Diodes_THT.3dshapes/D_DO-35_SOD27_P7.62mm_Horizontal.wrl
      (at (xyz 0 0 0))
      (scale (xyz 0.393701 0.393701 0.393701))
      (rotate (xyz 0 0 0))
    )
  )

  (module Capacitors_ThroughHole:C_Disc_D7.5mm_W4.4mm_P5.00mm (layer F.Cu) (tedit 597BC7C2) (tstamp 5F49C28E)
    (at 99.06 85.725 90)
    (descr "C, Disc series, Radial, pin pitch=5.00mm, , diameter*width=7.5*4.4mm^2, Capacitor")
    (tags "C Disc series Radial pin pitch 5.00mm  diameter 7.5mm width 4.4mm Capacitor")
    (path /5F491BFE)
    (fp_text reference F1 (at 2.5 -3.51 90) (layer F.SilkS)
      (effects (font (size 1 1) (thickness 0.15)))
    )
    (fp_text value Polyfuse (at 2.5 3.51 90) (layer F.Fab)
      (effects (font (size 1 1) (thickness 0.15)))
    )
    (fp_text user %R (at 2.5 0 90) (layer F.Fab)
      (effects (font (size 1 1) (thickness 0.15)))
    )
    (fp_line (start 6.6 -2.55) (end -1.6 -2.55) (layer F.CrtYd) (width 0.05))
    (fp_line (start 6.6 2.55) (end 6.6 -2.55) (layer F.CrtYd) (width 0.05))
    (fp_line (start -1.6 2.55) (end 6.6 2.55) (layer F.CrtYd) (width 0.05))
    (fp_line (start -1.6 -2.55) (end -1.6 2.55) (layer F.CrtYd) (width 0.05))
    (fp_line (start 6.31 -2.26) (end 6.31 2.26) (layer F.SilkS) (width 0.12))
    (fp_line (start -1.31 -2.26) (end -1.31 2.26) (layer F.SilkS) (width 0.12))
    (fp_line (start -1.31 2.26) (end 6.31 2.26) (layer F.SilkS) (width 0.12))
    (fp_line (start -1.31 -2.26) (end 6.31 -2.26) (layer F.SilkS) (width 0.12))
    (fp_line (start 6.25 -2.2) (end -1.25 -2.2) (layer F.Fab) (width 0.1))
    (fp_line (start 6.25 2.2) (end 6.25 -2.2) (layer F.Fab) (width 0.1))
    (fp_line (start -1.25 2.2) (end 6.25 2.2) (layer F.Fab) (width 0.1))
    (fp_line (start -1.25 -2.2) (end -1.25 2.2) (layer F.Fab) (width 0.1))
    (pad 2 thru_hole circle (at 5 0 90) (size 1.6 1.6) (drill 0.8) (layers *.Cu *.Mask)
      (net 7 "Net-(D1-Pad2)"))
    (pad 1 thru_hole circle (at 0 0 90) (size 1.6 1.6) (drill 0.8) (layers *.Cu *.Mask)
      (net 15 "Net-(F1-Pad1)"))
    (model ${KISYS3DMOD}/Capacitors_THT.3dshapes/C_Disc_D7.5mm_W4.4mm_P5.00mm.wrl
      (at (xyz 0 0 0))
      (scale (xyz 1 1 1))
      (rotate (xyz 0 0 0))
    )
  )

  (module Mounting_Holes:MountingHole_4mm (layer F.Cu) (tedit 56D1B4CB) (tstamp 5F49AC50)
    (at 147.32 55.88)
    (descr "Mounting Hole 4mm, no annular")
    (tags "mounting hole 4mm no annular")
    (path /5F493FDC)
    (attr virtual)
    (fp_text reference H1 (at 0 -5) (layer F.SilkS)
      (effects (font (size 1 1) (thickness 0.15)))
    )
    (fp_text value MountingHole (at 0 5) (layer F.Fab)
      (effects (font (size 1 1) (thickness 0.15)))
    )
    (fp_circle (center 0 0) (end 4.25 0) (layer F.CrtYd) (width 0.05))
    (fp_circle (center 0 0) (end 4 0) (layer Cmts.User) (width 0.15))
    (fp_text user %R (at 0.3 0) (layer F.Fab)
      (effects (font (size 1 1) (thickness 0.15)))
    )
    (pad 1 np_thru_hole circle (at 0 0) (size 4 4) (drill 4) (layers *.Cu *.Mask))
  )

  (module Mounting_Holes:MountingHole_4mm (layer F.Cu) (tedit 56D1B4CB) (tstamp 5F49D28F)
    (at 147.32 101.6)
    (descr "Mounting Hole 4mm, no annular")
    (tags "mounting hole 4mm no annular")
    (path /5F52D49D)
    (attr virtual)
    (fp_text reference H2 (at 0 -5) (layer F.SilkS)
      (effects (font (size 1 1) (thickness 0.15)))
    )
    (fp_text value MountingHole (at 0 5) (layer F.Fab)
      (effects (font (size 1 1) (thickness 0.15)))
    )
    (fp_text user %R (at 0.3 0) (layer F.Fab)
      (effects (font (size 1 1) (thickness 0.15)))
    )
    (fp_circle (center 0 0) (end 4 0) (layer Cmts.User) (width 0.15))
    (fp_circle (center 0 0) (end 4.25 0) (layer F.CrtYd) (width 0.05))
    (pad 1 np_thru_hole circle (at 0 0) (size 4 4) (drill 4) (layers *.Cu *.Mask))
  )

  (module Mounting_Holes:MountingHole_4mm (layer F.Cu) (tedit 56D1B4CB) (tstamp 5F49AC60)
    (at 93.98 101.6)
    (descr "Mounting Hole 4mm, no annular")
    (tags "mounting hole 4mm no annular")
    (path /5F52D751)
    (attr virtual)
    (fp_text reference H3 (at 0 -5) (layer F.SilkS)
      (effects (font (size 1 1) (thickness 0.15)))
    )
    (fp_text value MountingHole (at 0 5) (layer F.Fab)
      (effects (font (size 1 1) (thickness 0.15)))
    )
    (fp_circle (center 0 0) (end 4.25 0) (layer F.CrtYd) (width 0.05))
    (fp_circle (center 0 0) (end 4 0) (layer Cmts.User) (width 0.15))
    (fp_text user %R (at 0.635 5.715) (layer F.Fab)
      (effects (font (size 1 1) (thickness 0.15)))
    )
    (pad 1 np_thru_hole circle (at 0 0) (size 4 4) (drill 4) (layers *.Cu *.Mask))
  )

  (module Mounting_Holes:MountingHole_4mm (layer F.Cu) (tedit 56D1B4CB) (tstamp 5F49CB18)
    (at 93.98 55.88)
    (descr "Mounting Hole 4mm, no annular")
    (tags "mounting hole 4mm no annular")
    (path /5F52DA54)
    (attr virtual)
    (fp_text reference H4 (at 0 -5) (layer F.SilkS)
      (effects (font (size 1 1) (thickness 0.15)))
    )
    (fp_text value MountingHole (at 0 5) (layer F.Fab)
      (effects (font (size 1 1) (thickness 0.15)))
    )
    (fp_text user %R (at 0.3 0) (layer F.Fab)
      (effects (font (size 1 1) (thickness 0.15)))
    )
    (fp_circle (center 0 0) (end 4 0) (layer Cmts.User) (width 0.15))
    (fp_circle (center 0 0) (end 4.25 0) (layer F.CrtYd) (width 0.05))
    (pad 1 np_thru_hole circle (at 0 0) (size 4 4) (drill 4) (layers *.Cu *.Mask))
  )

  (module Terminal_Blocks:TerminalBlock_bornier-3_P5.08mm (layer F.Cu) (tedit 59FF03B9) (tstamp 5F49AC7E)
    (at 113.03 95.885 180)
    (descr "simple 3-pin terminal block, pitch 5.08mm, revamped version of bornier3")
    (tags "terminal block bornier3")
    (path /5F499CAA)
    (fp_text reference J1 (at 5.05 -4.65) (layer F.SilkS)
      (effects (font (size 1 1) (thickness 0.15)))
    )
    (fp_text value "DC In" (at 5.08 5.08) (layer F.Fab)
      (effects (font (size 1 1) (thickness 0.15)))
    )
    (fp_line (start 12.88 4) (end -2.72 4) (layer F.CrtYd) (width 0.05))
    (fp_line (start 12.88 4) (end 12.88 -4) (layer F.CrtYd) (width 0.05))
    (fp_line (start -2.72 -4) (end -2.72 4) (layer F.CrtYd) (width 0.05))
    (fp_line (start -2.72 -4) (end 12.88 -4) (layer F.CrtYd) (width 0.05))
    (fp_line (start -2.54 3.81) (end 12.7 3.81) (layer F.SilkS) (width 0.12))
    (fp_line (start -2.54 -3.81) (end 12.7 -3.81) (layer F.SilkS) (width 0.12))
    (fp_line (start -2.54 2.54) (end 12.7 2.54) (layer F.SilkS) (width 0.12))
    (fp_line (start 12.7 3.81) (end 12.7 -3.81) (layer F.SilkS) (width 0.12))
    (fp_line (start -2.54 3.81) (end -2.54 -3.81) (layer F.SilkS) (width 0.12))
    (fp_line (start -2.47 3.75) (end -2.47 -3.75) (layer F.Fab) (width 0.1))
    (fp_line (start 12.63 3.75) (end -2.47 3.75) (layer F.Fab) (width 0.1))
    (fp_line (start 12.63 -3.75) (end 12.63 3.75) (layer F.Fab) (width 0.1))
    (fp_line (start -2.47 -3.75) (end 12.63 -3.75) (layer F.Fab) (width 0.1))
    (fp_line (start -2.47 2.55) (end 12.63 2.55) (layer F.Fab) (width 0.1))
    (fp_text user %R (at 5.08 0) (layer F.Fab)
      (effects (font (size 1 1) (thickness 0.15)))
    )
    (pad 3 thru_hole circle (at 10.16 0 180) (size 3 3) (drill 1.52) (layers *.Cu *.Mask)
      (net 1 GND))
    (pad 2 thru_hole circle (at 5.08 0 180) (size 3 3) (drill 1.52) (layers *.Cu *.Mask)
      (net 10 "Net-(J1-Pad2)"))
    (pad 1 thru_hole rect (at 0 0 180) (size 3 3) (drill 1.52) (layers *.Cu *.Mask)
      (net 15 "Net-(F1-Pad1)"))
    (model ${KISYS3DMOD}/Terminal_Blocks.3dshapes/TerminalBlock_bornier-3_P5.08mm.wrl
      (offset (xyz 5.079999923706055 0 0))
      (scale (xyz 1 1 1))
      (rotate (xyz 0 0 0))
    )
  )

  (module Terminal_Blocks:TerminalBlock_bornier-3_P5.08mm (layer F.Cu) (tedit 59FF03B9) (tstamp 5F49AC94)
    (at 141.605 81.915 270)
    (descr "simple 3-pin terminal block, pitch 5.08mm, revamped version of bornier3")
    (tags "terminal block bornier3")
    (path /5F4E95DA)
    (fp_text reference J2 (at 5.05 -4.65 90) (layer F.SilkS)
      (effects (font (size 1 1) (thickness 0.15)))
    )
    (fp_text value Handset1 (at 5.08 5.08 90) (layer F.Fab)
      (effects (font (size 1 1) (thickness 0.15)))
    )
    (fp_text user %R (at 5.08 0 90) (layer F.Fab)
      (effects (font (size 1 1) (thickness 0.15)))
    )
    (fp_line (start -2.47 2.55) (end 12.63 2.55) (layer F.Fab) (width 0.1))
    (fp_line (start -2.47 -3.75) (end 12.63 -3.75) (layer F.Fab) (width 0.1))
    (fp_line (start 12.63 -3.75) (end 12.63 3.75) (layer F.Fab) (width 0.1))
    (fp_line (start 12.63 3.75) (end -2.47 3.75) (layer F.Fab) (width 0.1))
    (fp_line (start -2.47 3.75) (end -2.47 -3.75) (layer F.Fab) (width 0.1))
    (fp_line (start -2.54 3.81) (end -2.54 -3.81) (layer F.SilkS) (width 0.12))
    (fp_line (start 12.7 3.81) (end 12.7 -3.81) (layer F.SilkS) (width 0.12))
    (fp_line (start -2.54 2.54) (end 12.7 2.54) (layer F.SilkS) (width 0.12))
    (fp_line (start -2.54 -3.81) (end 12.7 -3.81) (layer F.SilkS) (width 0.12))
    (fp_line (start -2.54 3.81) (end 12.7 3.81) (layer F.SilkS) (width 0.12))
    (fp_line (start -2.72 -4) (end 12.88 -4) (layer F.CrtYd) (width 0.05))
    (fp_line (start -2.72 -4) (end -2.72 4) (layer F.CrtYd) (width 0.05))
    (fp_line (start 12.88 4) (end 12.88 -4) (layer F.CrtYd) (width 0.05))
    (fp_line (start 12.88 4) (end -2.72 4) (layer F.CrtYd) (width 0.05))
    (pad 1 thru_hole rect (at 0 0 270) (size 3 3) (drill 1.52) (layers *.Cu *.Mask)
      (net 11 "Net-(J2-Pad1)"))
    (pad 2 thru_hole circle (at 5.08 0 270) (size 3 3) (drill 1.52) (layers *.Cu *.Mask)
      (net 4 "Net-(C2-Pad2)"))
    (pad 3 thru_hole circle (at 10.16 0 270) (size 3 3) (drill 1.52) (layers *.Cu *.Mask)
      (net 1 GND))
    (model ${KISYS3DMOD}/Terminal_Blocks.3dshapes/TerminalBlock_bornier-3_P5.08mm.wrl
      (offset (xyz 5.079999923706055 0 0))
      (scale (xyz 1 1 1))
      (rotate (xyz 0 0 0))
    )
  )

  (module Terminal_Blocks:TerminalBlock_bornier-3_P5.08mm (layer F.Cu) (tedit 59FF03B9) (tstamp 5F49B2AE)
    (at 141.605 64.77 270)
    (descr "simple 3-pin terminal block, pitch 5.08mm, revamped version of bornier3")
    (tags "terminal block bornier3")
    (path /5F4939CF)
    (fp_text reference J3 (at 5.05 -4.65 90) (layer F.SilkS)
      (effects (font (size 1 1) (thickness 0.15)))
    )
    (fp_text value Handset2 (at 5.08 5.08 90) (layer F.Fab)
      (effects (font (size 1 1) (thickness 0.15)))
    )
    (fp_line (start 12.88 4) (end -2.72 4) (layer F.CrtYd) (width 0.05))
    (fp_line (start 12.88 4) (end 12.88 -4) (layer F.CrtYd) (width 0.05))
    (fp_line (start -2.72 -4) (end -2.72 4) (layer F.CrtYd) (width 0.05))
    (fp_line (start -2.72 -4) (end 12.88 -4) (layer F.CrtYd) (width 0.05))
    (fp_line (start -2.54 3.81) (end 12.7 3.81) (layer F.SilkS) (width 0.12))
    (fp_line (start -2.54 -3.81) (end 12.7 -3.81) (layer F.SilkS) (width 0.12))
    (fp_line (start -2.54 2.54) (end 12.7 2.54) (layer F.SilkS) (width 0.12))
    (fp_line (start 12.7 3.81) (end 12.7 -3.81) (layer F.SilkS) (width 0.12))
    (fp_line (start -2.54 3.81) (end -2.54 -3.81) (layer F.SilkS) (width 0.12))
    (fp_line (start -2.47 3.75) (end -2.47 -3.75) (layer F.Fab) (width 0.1))
    (fp_line (start 12.63 3.75) (end -2.47 3.75) (layer F.Fab) (width 0.1))
    (fp_line (start 12.63 -3.75) (end 12.63 3.75) (layer F.Fab) (width 0.1))
    (fp_line (start -2.47 -3.75) (end 12.63 -3.75) (layer F.Fab) (width 0.1))
    (fp_line (start -2.47 2.55) (end 12.63 2.55) (layer F.Fab) (width 0.1))
    (fp_text user %R (at 5.08 0 90) (layer F.Fab)
      (effects (font (size 1 1) (thickness 0.15)))
    )
    (pad 3 thru_hole circle (at 10.16 0 270) (size 3 3) (drill 1.52) (layers *.Cu *.Mask)
      (net 1 GND))
    (pad 2 thru_hole circle (at 5.08 0 270) (size 3 3) (drill 1.52) (layers *.Cu *.Mask)
      (net 6 "Net-(C3-Pad1)"))
    (pad 1 thru_hole rect (at 0 0 270) (size 3 3) (drill 1.52) (layers *.Cu *.Mask)
      (net 12 "Net-(J3-Pad1)"))
    (model ${KISYS3DMOD}/Terminal_Blocks.3dshapes/TerminalBlock_bornier-3_P5.08mm.wrl
      (offset (xyz 5.079999923706055 0 0))
      (scale (xyz 1 1 1))
      (rotate (xyz 0 0 0))
    )
  )

  (module TO_SOT_Packages_THT:TO-92_Inline_Wide (layer F.Cu) (tedit 58CE52AF) (tstamp 5F49ACBE)
    (at 121.285 84.455 180)
    (descr "TO-92 leads in-line, wide, drill 0.8mm (see NXP sot054_po.pdf)")
    (tags "to-92 sc-43 sc-43a sot54 PA33 transistor")
    (path /5F4B2921)
    (fp_text reference Q1 (at 2.54 -3.56 180) (layer F.SilkS)
      (effects (font (size 1 1) (thickness 0.15)))
    )
    (fp_text value BC557 (at 2.54 2.79) (layer F.Fab)
      (effects (font (size 1 1) (thickness 0.15)))
    )
    (fp_text user %R (at 2.54 -3.56 180) (layer F.Fab)
      (effects (font (size 1 1) (thickness 0.15)))
    )
    (fp_line (start 0.74 1.85) (end 4.34 1.85) (layer F.SilkS) (width 0.12))
    (fp_line (start 0.8 1.75) (end 4.3 1.75) (layer F.Fab) (width 0.1))
    (fp_line (start -1.01 -2.73) (end 6.09 -2.73) (layer F.CrtYd) (width 0.05))
    (fp_line (start -1.01 -2.73) (end -1.01 2.01) (layer F.CrtYd) (width 0.05))
    (fp_line (start 6.09 2.01) (end 6.09 -2.73) (layer F.CrtYd) (width 0.05))
    (fp_line (start 6.09 2.01) (end -1.01 2.01) (layer F.CrtYd) (width 0.05))
    (fp_arc (start 2.54 0) (end 0.74 1.85) (angle 20) (layer F.SilkS) (width 0.12))
    (fp_arc (start 2.54 0) (end 2.54 -2.6) (angle -65) (layer F.SilkS) (width 0.12))
    (fp_arc (start 2.54 0) (end 2.54 -2.6) (angle 65) (layer F.SilkS) (width 0.12))
    (fp_arc (start 2.54 0) (end 2.54 -2.48) (angle 135) (layer F.Fab) (width 0.1))
    (fp_arc (start 2.54 0) (end 2.54 -2.48) (angle -135) (layer F.Fab) (width 0.1))
    (fp_arc (start 2.54 0) (end 4.34 1.85) (angle -20) (layer F.SilkS) (width 0.12))
    (pad 2 thru_hole circle (at 2.54 0 270) (size 1.52 1.52) (drill 0.8) (layers *.Cu *.Mask)
      (net 8 "Net-(D2-Pad1)"))
    (pad 3 thru_hole circle (at 5.08 0 270) (size 1.52 1.52) (drill 0.8) (layers *.Cu *.Mask)
      (net 13 "Net-(Q1-Pad3)"))
    (pad 1 thru_hole rect (at 0 0 270) (size 1.52 1.52) (drill 0.8) (layers *.Cu *.Mask)
      (net 4 "Net-(C2-Pad2)"))
    (model ${KISYS3DMOD}/TO_SOT_Packages_THT.3dshapes/TO-92_Inline_Wide.wrl
      (offset (xyz 2.539999961853027 0 0))
      (scale (xyz 1 1 1))
      (rotate (xyz 0 0 -90))
    )
  )

  (module TO_SOT_Packages_THT:TO-92_Inline_Wide (layer F.Cu) (tedit 58CE52AF) (tstamp 5F49BC1D)
    (at 121.285 72.39 180)
    (descr "TO-92 leads in-line, wide, drill 0.8mm (see NXP sot054_po.pdf)")
    (tags "to-92 sc-43 sc-43a sot54 PA33 transistor")
    (path /5F4922FD)
    (fp_text reference Q2 (at 2.54 -3.56 180) (layer F.SilkS)
      (effects (font (size 1 1) (thickness 0.15)))
    )
    (fp_text value BC557 (at 2.54 2.79) (layer F.Fab)
      (effects (font (size 1 1) (thickness 0.15)))
    )
    (fp_arc (start 2.54 0) (end 4.34 1.85) (angle -20) (layer F.SilkS) (width 0.12))
    (fp_arc (start 2.54 0) (end 2.54 -2.48) (angle -135) (layer F.Fab) (width 0.1))
    (fp_arc (start 2.54 0) (end 2.54 -2.48) (angle 135) (layer F.Fab) (width 0.1))
    (fp_arc (start 2.54 0) (end 2.54 -2.6) (angle 65) (layer F.SilkS) (width 0.12))
    (fp_arc (start 2.54 0) (end 2.54 -2.6) (angle -65) (layer F.SilkS) (width 0.12))
    (fp_arc (start 2.54 0) (end 0.74 1.85) (angle 20) (layer F.SilkS) (width 0.12))
    (fp_line (start 6.09 2.01) (end -1.01 2.01) (layer F.CrtYd) (width 0.05))
    (fp_line (start 6.09 2.01) (end 6.09 -2.73) (layer F.CrtYd) (width 0.05))
    (fp_line (start -1.01 -2.73) (end -1.01 2.01) (layer F.CrtYd) (width 0.05))
    (fp_line (start -1.01 -2.73) (end 6.09 -2.73) (layer F.CrtYd) (width 0.05))
    (fp_line (start 0.8 1.75) (end 4.3 1.75) (layer F.Fab) (width 0.1))
    (fp_line (start 0.74 1.85) (end 4.34 1.85) (layer F.SilkS) (width 0.12))
    (fp_text user %R (at 2.54 -3.56 180) (layer F.Fab)
      (effects (font (size 1 1) (thickness 0.15)))
    )
    (pad 1 thru_hole rect (at 0 0 270) (size 1.52 1.52) (drill 0.8) (layers *.Cu *.Mask)
      (net 6 "Net-(C3-Pad1)"))
    (pad 3 thru_hole circle (at 5.08 0 270) (size 1.52 1.52) (drill 0.8) (layers *.Cu *.Mask)
      (net 14 "Net-(Q2-Pad3)"))
    (pad 2 thru_hole circle (at 2.54 0 270) (size 1.52 1.52) (drill 0.8) (layers *.Cu *.Mask)
      (net 8 "Net-(D2-Pad1)"))
    (model ${KISYS3DMOD}/TO_SOT_Packages_THT.3dshapes/TO-92_Inline_Wide.wrl
      (offset (xyz 2.539999961853027 0 0))
      (scale (xyz 1 1 1))
      (rotate (xyz 0 0 -90))
    )
  )

  (module Resistors_ThroughHole:R_Axial_DIN0207_L6.3mm_D2.5mm_P10.16mm_Horizontal (layer F.Cu) (tedit 5874F706) (tstamp 5F49ACE8)
    (at 109.855 66.675)
    (descr "Resistor, Axial_DIN0207 series, Axial, Horizontal, pin pitch=10.16mm, 0.25W = 1/4W, length*diameter=6.3*2.5mm^2, http://cdn-reichelt.de/documents/datenblatt/B400/1_4W%23YAG.pdf")
    (tags "Resistor Axial_DIN0207 series Axial Horizontal pin pitch 10.16mm 0.25W = 1/4W length 6.3mm diameter 2.5mm")
    (path /5F4B192F)
    (fp_text reference R1 (at 5.08 -2.31) (layer F.SilkS)
      (effects (font (size 1 1) (thickness 0.15)))
    )
    (fp_text value 680 (at 5.08 2.31) (layer F.Fab)
      (effects (font (size 1 1) (thickness 0.15)))
    )
    (fp_line (start 1.93 -1.25) (end 1.93 1.25) (layer F.Fab) (width 0.1))
    (fp_line (start 1.93 1.25) (end 8.23 1.25) (layer F.Fab) (width 0.1))
    (fp_line (start 8.23 1.25) (end 8.23 -1.25) (layer F.Fab) (width 0.1))
    (fp_line (start 8.23 -1.25) (end 1.93 -1.25) (layer F.Fab) (width 0.1))
    (fp_line (start 0 0) (end 1.93 0) (layer F.Fab) (width 0.1))
    (fp_line (start 10.16 0) (end 8.23 0) (layer F.Fab) (width 0.1))
    (fp_line (start 1.87 -1.31) (end 1.87 1.31) (layer F.SilkS) (width 0.12))
    (fp_line (start 1.87 1.31) (end 8.29 1.31) (layer F.SilkS) (width 0.12))
    (fp_line (start 8.29 1.31) (end 8.29 -1.31) (layer F.SilkS) (width 0.12))
    (fp_line (start 8.29 -1.31) (end 1.87 -1.31) (layer F.SilkS) (width 0.12))
    (fp_line (start 0.98 0) (end 1.87 0) (layer F.SilkS) (width 0.12))
    (fp_line (start 9.18 0) (end 8.29 0) (layer F.SilkS) (width 0.12))
    (fp_line (start -1.05 -1.6) (end -1.05 1.6) (layer F.CrtYd) (width 0.05))
    (fp_line (start -1.05 1.6) (end 11.25 1.6) (layer F.CrtYd) (width 0.05))
    (fp_line (start 11.25 1.6) (end 11.25 -1.6) (layer F.CrtYd) (width 0.05))
    (fp_line (start 11.25 -1.6) (end -1.05 -1.6) (layer F.CrtYd) (width 0.05))
    (pad 1 thru_hole circle (at 0 0) (size 1.6 1.6) (drill 0.8) (layers *.Cu *.Mask)
      (net 8 "Net-(D2-Pad1)"))
    (pad 2 thru_hole oval (at 10.16 0) (size 1.6 1.6) (drill 0.8) (layers *.Cu *.Mask)
      (net 1 GND))
    (model ${KISYS3DMOD}/Resistors_THT.3dshapes/R_Axial_DIN0207_L6.3mm_D2.5mm_P10.16mm_Horizontal.wrl
      (at (xyz 0 0 0))
      (scale (xyz 0.393701 0.393701 0.393701))
      (rotate (xyz 0 0 0))
    )
  )

  (module Resistors_ThroughHole:R_Axial_DIN0207_L6.3mm_D2.5mm_P10.16mm_Horizontal (layer F.Cu) (tedit 5874F706) (tstamp 5F49ACFE)
    (at 103.505 84.455)
    (descr "Resistor, Axial_DIN0207 series, Axial, Horizontal, pin pitch=10.16mm, 0.25W = 1/4W, length*diameter=6.3*2.5mm^2, http://cdn-reichelt.de/documents/datenblatt/B400/1_4W%23YAG.pdf")
    (tags "Resistor Axial_DIN0207 series Axial Horizontal pin pitch 10.16mm 0.25W = 1/4W length 6.3mm diameter 2.5mm")
    (path /5F491966)
    (fp_text reference R2 (at 5.08 -2.31) (layer F.SilkS)
      (effects (font (size 1 1) (thickness 0.15)))
    )
    (fp_text value 56 (at 5.08 2.31) (layer F.Fab)
      (effects (font (size 1 1) (thickness 0.15)))
    )
    (fp_line (start 11.25 -1.6) (end -1.05 -1.6) (layer F.CrtYd) (width 0.05))
    (fp_line (start 11.25 1.6) (end 11.25 -1.6) (layer F.CrtYd) (width 0.05))
    (fp_line (start -1.05 1.6) (end 11.25 1.6) (layer F.CrtYd) (width 0.05))
    (fp_line (start -1.05 -1.6) (end -1.05 1.6) (layer F.CrtYd) (width 0.05))
    (fp_line (start 9.18 0) (end 8.29 0) (layer F.SilkS) (width 0.12))
    (fp_line (start 0.98 0) (end 1.87 0) (layer F.SilkS) (width 0.12))
    (fp_line (start 8.29 -1.31) (end 1.87 -1.31) (layer F.SilkS) (width 0.12))
    (fp_line (start 8.29 1.31) (end 8.29 -1.31) (layer F.SilkS) (width 0.12))
    (fp_line (start 1.87 1.31) (end 8.29 1.31) (layer F.SilkS) (width 0.12))
    (fp_line (start 1.87 -1.31) (end 1.87 1.31) (layer F.SilkS) (width 0.12))
    (fp_line (start 10.16 0) (end 8.23 0) (layer F.Fab) (width 0.1))
    (fp_line (start 0 0) (end 1.93 0) (layer F.Fab) (width 0.1))
    (fp_line (start 8.23 -1.25) (end 1.93 -1.25) (layer F.Fab) (width 0.1))
    (fp_line (start 8.23 1.25) (end 8.23 -1.25) (layer F.Fab) (width 0.1))
    (fp_line (start 1.93 1.25) (end 8.23 1.25) (layer F.Fab) (width 0.1))
    (fp_line (start 1.93 -1.25) (end 1.93 1.25) (layer F.Fab) (width 0.1))
    (pad 2 thru_hole oval (at 10.16 0) (size 1.6 1.6) (drill 0.8) (layers *.Cu *.Mask)
      (net 13 "Net-(Q1-Pad3)"))
    (pad 1 thru_hole circle (at 0 0) (size 1.6 1.6) (drill 0.8) (layers *.Cu *.Mask)
      (net 2 "Net-(C1-Pad1)"))
    (model ${KISYS3DMOD}/Resistors_THT.3dshapes/R_Axial_DIN0207_L6.3mm_D2.5mm_P10.16mm_Horizontal.wrl
      (at (xyz 0 0 0))
      (scale (xyz 0.393701 0.393701 0.393701))
      (rotate (xyz 0 0 0))
    )
  )

  (module Resistors_ThroughHole:R_Axial_DIN0207_L6.3mm_D2.5mm_P10.16mm_Horizontal (layer F.Cu) (tedit 5874F706) (tstamp 5F49B7F2)
    (at 125.73 84.455)
    (descr "Resistor, Axial_DIN0207 series, Axial, Horizontal, pin pitch=10.16mm, 0.25W = 1/4W, length*diameter=6.3*2.5mm^2, http://cdn-reichelt.de/documents/datenblatt/B400/1_4W%23YAG.pdf")
    (tags "Resistor Axial_DIN0207 series Axial Horizontal pin pitch 10.16mm 0.25W = 1/4W length 6.3mm diameter 2.5mm")
    (path /5F4FAA6B)
    (fp_text reference R3 (at 5.08 -2.31) (layer F.SilkS)
      (effects (font (size 1 1) (thickness 0.15)))
    )
    (fp_text value 100 (at 5.08 2.31) (layer F.Fab)
      (effects (font (size 1 1) (thickness 0.15)))
    )
    (fp_line (start 1.93 -1.25) (end 1.93 1.25) (layer F.Fab) (width 0.1))
    (fp_line (start 1.93 1.25) (end 8.23 1.25) (layer F.Fab) (width 0.1))
    (fp_line (start 8.23 1.25) (end 8.23 -1.25) (layer F.Fab) (width 0.1))
    (fp_line (start 8.23 -1.25) (end 1.93 -1.25) (layer F.Fab) (width 0.1))
    (fp_line (start 0 0) (end 1.93 0) (layer F.Fab) (width 0.1))
    (fp_line (start 10.16 0) (end 8.23 0) (layer F.Fab) (width 0.1))
    (fp_line (start 1.87 -1.31) (end 1.87 1.31) (layer F.SilkS) (width 0.12))
    (fp_line (start 1.87 1.31) (end 8.29 1.31) (layer F.SilkS) (width 0.12))
    (fp_line (start 8.29 1.31) (end 8.29 -1.31) (layer F.SilkS) (width 0.12))
    (fp_line (start 8.29 -1.31) (end 1.87 -1.31) (layer F.SilkS) (width 0.12))
    (fp_line (start 0.98 0) (end 1.87 0) (layer F.SilkS) (width 0.12))
    (fp_line (start 9.18 0) (end 8.29 0) (layer F.SilkS) (width 0.12))
    (fp_line (start -1.05 -1.6) (end -1.05 1.6) (layer F.CrtYd) (width 0.05))
    (fp_line (start -1.05 1.6) (end 11.25 1.6) (layer F.CrtYd) (width 0.05))
    (fp_line (start 11.25 1.6) (end 11.25 -1.6) (layer F.CrtYd) (width 0.05))
    (fp_line (start 11.25 -1.6) (end -1.05 -1.6) (layer F.CrtYd) (width 0.05))
    (pad 1 thru_hole circle (at 0 0) (size 1.6 1.6) (drill 0.8) (layers *.Cu *.Mask)
      (net 9 "Net-(D4-Pad2)"))
    (pad 2 thru_hole oval (at 10.16 0) (size 1.6 1.6) (drill 0.8) (layers *.Cu *.Mask)
      (net 3 "Net-(C2-Pad1)"))
    (model ${KISYS3DMOD}/Resistors_THT.3dshapes/R_Axial_DIN0207_L6.3mm_D2.5mm_P10.16mm_Horizontal.wrl
      (at (xyz 0 0 0))
      (scale (xyz 0.393701 0.393701 0.393701))
      (rotate (xyz 0 0 0))
    )
  )

  (module Resistors_ThroughHole:R_Axial_DIN0207_L6.3mm_D2.5mm_P10.16mm_Horizontal (layer F.Cu) (tedit 5874F706) (tstamp 5F49AD2A)
    (at 125.73 74.93)
    (descr "Resistor, Axial_DIN0207 series, Axial, Horizontal, pin pitch=10.16mm, 0.25W = 1/4W, length*diameter=6.3*2.5mm^2, http://cdn-reichelt.de/documents/datenblatt/B400/1_4W%23YAG.pdf")
    (tags "Resistor Axial_DIN0207 series Axial Horizontal pin pitch 10.16mm 0.25W = 1/4W length 6.3mm diameter 2.5mm")
    (path /5F4FBD6E)
    (fp_text reference R4 (at 5.08 -2.31) (layer F.SilkS)
      (effects (font (size 1 1) (thickness 0.15)))
    )
    (fp_text value 1k8 (at 5.08 2.31) (layer F.Fab)
      (effects (font (size 1 1) (thickness 0.15)))
    )
    (fp_line (start 1.93 -1.25) (end 1.93 1.25) (layer F.Fab) (width 0.1))
    (fp_line (start 1.93 1.25) (end 8.23 1.25) (layer F.Fab) (width 0.1))
    (fp_line (start 8.23 1.25) (end 8.23 -1.25) (layer F.Fab) (width 0.1))
    (fp_line (start 8.23 -1.25) (end 1.93 -1.25) (layer F.Fab) (width 0.1))
    (fp_line (start 0 0) (end 1.93 0) (layer F.Fab) (width 0.1))
    (fp_line (start 10.16 0) (end 8.23 0) (layer F.Fab) (width 0.1))
    (fp_line (start 1.87 -1.31) (end 1.87 1.31) (layer F.SilkS) (width 0.12))
    (fp_line (start 1.87 1.31) (end 8.29 1.31) (layer F.SilkS) (width 0.12))
    (fp_line (start 8.29 1.31) (end 8.29 -1.31) (layer F.SilkS) (width 0.12))
    (fp_line (start 8.29 -1.31) (end 1.87 -1.31) (layer F.SilkS) (width 0.12))
    (fp_line (start 0.98 0) (end 1.87 0) (layer F.SilkS) (width 0.12))
    (fp_line (start 9.18 0) (end 8.29 0) (layer F.SilkS) (width 0.12))
    (fp_line (start -1.05 -1.6) (end -1.05 1.6) (layer F.CrtYd) (width 0.05))
    (fp_line (start -1.05 1.6) (end 11.25 1.6) (layer F.CrtYd) (width 0.05))
    (fp_line (start 11.25 1.6) (end 11.25 -1.6) (layer F.CrtYd) (width 0.05))
    (fp_line (start 11.25 -1.6) (end -1.05 -1.6) (layer F.CrtYd) (width 0.05))
    (pad 1 thru_hole circle (at 0 0) (size 1.6 1.6) (drill 0.8) (layers *.Cu *.Mask)
      (net 9 "Net-(D4-Pad2)"))
    (pad 2 thru_hole oval (at 10.16 0) (size 1.6 1.6) (drill 0.8) (layers *.Cu *.Mask)
      (net 1 GND))
    (model ${KISYS3DMOD}/Resistors_THT.3dshapes/R_Axial_DIN0207_L6.3mm_D2.5mm_P10.16mm_Horizontal.wrl
      (at (xyz 0 0 0))
      (scale (xyz 0.393701 0.393701 0.393701))
      (rotate (xyz 0 0 0))
    )
  )

  (module Resistors_ThroughHole:R_Axial_DIN0207_L6.3mm_D2.5mm_P10.16mm_Horizontal (layer F.Cu) (tedit 5874F706) (tstamp 5F49AD40)
    (at 135.89 71.12 180)
    (descr "Resistor, Axial_DIN0207 series, Axial, Horizontal, pin pitch=10.16mm, 0.25W = 1/4W, length*diameter=6.3*2.5mm^2, http://cdn-reichelt.de/documents/datenblatt/B400/1_4W%23YAG.pdf")
    (tags "Resistor Axial_DIN0207 series Axial Horizontal pin pitch 10.16mm 0.25W = 1/4W length 6.3mm diameter 2.5mm")
    (path /5F4FB887)
    (fp_text reference R5 (at 5.08 -2.31 180) (layer F.SilkS)
      (effects (font (size 1 1) (thickness 0.15)))
    )
    (fp_text value 100 (at 5.08 2.31) (layer F.Fab)
      (effects (font (size 1 1) (thickness 0.15)))
    )
    (fp_line (start 11.25 -1.6) (end -1.05 -1.6) (layer F.CrtYd) (width 0.05))
    (fp_line (start 11.25 1.6) (end 11.25 -1.6) (layer F.CrtYd) (width 0.05))
    (fp_line (start -1.05 1.6) (end 11.25 1.6) (layer F.CrtYd) (width 0.05))
    (fp_line (start -1.05 -1.6) (end -1.05 1.6) (layer F.CrtYd) (width 0.05))
    (fp_line (start 9.18 0) (end 8.29 0) (layer F.SilkS) (width 0.12))
    (fp_line (start 0.98 0) (end 1.87 0) (layer F.SilkS) (width 0.12))
    (fp_line (start 8.29 -1.31) (end 1.87 -1.31) (layer F.SilkS) (width 0.12))
    (fp_line (start 8.29 1.31) (end 8.29 -1.31) (layer F.SilkS) (width 0.12))
    (fp_line (start 1.87 1.31) (end 8.29 1.31) (layer F.SilkS) (width 0.12))
    (fp_line (start 1.87 -1.31) (end 1.87 1.31) (layer F.SilkS) (width 0.12))
    (fp_line (start 10.16 0) (end 8.23 0) (layer F.Fab) (width 0.1))
    (fp_line (start 0 0) (end 1.93 0) (layer F.Fab) (width 0.1))
    (fp_line (start 8.23 -1.25) (end 1.93 -1.25) (layer F.Fab) (width 0.1))
    (fp_line (start 8.23 1.25) (end 8.23 -1.25) (layer F.Fab) (width 0.1))
    (fp_line (start 1.93 1.25) (end 8.23 1.25) (layer F.Fab) (width 0.1))
    (fp_line (start 1.93 -1.25) (end 1.93 1.25) (layer F.Fab) (width 0.1))
    (pad 2 thru_hole oval (at 10.16 0 180) (size 1.6 1.6) (drill 0.8) (layers *.Cu *.Mask)
      (net 9 "Net-(D4-Pad2)"))
    (pad 1 thru_hole circle (at 0 0 180) (size 1.6 1.6) (drill 0.8) (layers *.Cu *.Mask)
      (net 5 "Net-(C3-Pad2)"))
    (model ${KISYS3DMOD}/Resistors_THT.3dshapes/R_Axial_DIN0207_L6.3mm_D2.5mm_P10.16mm_Horizontal.wrl
      (at (xyz 0 0 0))
      (scale (xyz 0.393701 0.393701 0.393701))
      (rotate (xyz 0 0 0))
    )
  )

  (module Resistors_ThroughHole:R_Axial_DIN0207_L6.3mm_D2.5mm_P10.16mm_Horizontal (layer F.Cu) (tedit 5874F706) (tstamp 5F49BBE0)
    (at 103.505 72.39)
    (descr "Resistor, Axial_DIN0207 series, Axial, Horizontal, pin pitch=10.16mm, 0.25W = 1/4W, length*diameter=6.3*2.5mm^2, http://cdn-reichelt.de/documents/datenblatt/B400/1_4W%23YAG.pdf")
    (tags "Resistor Axial_DIN0207 series Axial Horizontal pin pitch 10.16mm 0.25W = 1/4W length 6.3mm diameter 2.5mm")
    (path /5F4CE24B)
    (fp_text reference R6 (at 5.08 -2.31) (layer F.SilkS)
      (effects (font (size 1 1) (thickness 0.15)))
    )
    (fp_text value 56 (at 5.08 2.31) (layer F.Fab)
      (effects (font (size 1 1) (thickness 0.15)))
    )
    (fp_line (start 11.25 -1.6) (end -1.05 -1.6) (layer F.CrtYd) (width 0.05))
    (fp_line (start 11.25 1.6) (end 11.25 -1.6) (layer F.CrtYd) (width 0.05))
    (fp_line (start -1.05 1.6) (end 11.25 1.6) (layer F.CrtYd) (width 0.05))
    (fp_line (start -1.05 -1.6) (end -1.05 1.6) (layer F.CrtYd) (width 0.05))
    (fp_line (start 9.18 0) (end 8.29 0) (layer F.SilkS) (width 0.12))
    (fp_line (start 0.98 0) (end 1.87 0) (layer F.SilkS) (width 0.12))
    (fp_line (start 8.29 -1.31) (end 1.87 -1.31) (layer F.SilkS) (width 0.12))
    (fp_line (start 8.29 1.31) (end 8.29 -1.31) (layer F.SilkS) (width 0.12))
    (fp_line (start 1.87 1.31) (end 8.29 1.31) (layer F.SilkS) (width 0.12))
    (fp_line (start 1.87 -1.31) (end 1.87 1.31) (layer F.SilkS) (width 0.12))
    (fp_line (start 10.16 0) (end 8.23 0) (layer F.Fab) (width 0.1))
    (fp_line (start 0 0) (end 1.93 0) (layer F.Fab) (width 0.1))
    (fp_line (start 8.23 -1.25) (end 1.93 -1.25) (layer F.Fab) (width 0.1))
    (fp_line (start 8.23 1.25) (end 8.23 -1.25) (layer F.Fab) (width 0.1))
    (fp_line (start 1.93 1.25) (end 8.23 1.25) (layer F.Fab) (width 0.1))
    (fp_line (start 1.93 -1.25) (end 1.93 1.25) (layer F.Fab) (width 0.1))
    (pad 2 thru_hole oval (at 10.16 0) (size 1.6 1.6) (drill 0.8) (layers *.Cu *.Mask)
      (net 14 "Net-(Q2-Pad3)"))
    (pad 1 thru_hole circle (at 0 0) (size 1.6 1.6) (drill 0.8) (layers *.Cu *.Mask)
      (net 2 "Net-(C1-Pad1)"))
    (model ${KISYS3DMOD}/Resistors_THT.3dshapes/R_Axial_DIN0207_L6.3mm_D2.5mm_P10.16mm_Horizontal.wrl
      (at (xyz 0 0 0))
      (scale (xyz 0.393701 0.393701 0.393701))
      (rotate (xyz 0 0 0))
    )
  )

  (gr_line (start 88.9 106.68) (end 88.9 50.8) (layer Edge.Cuts) (width 0.05) (tstamp 5F49D5CF))
  (gr_line (start 152.4 106.68) (end 88.9 106.68) (layer Edge.Cuts) (width 0.05))
  (gr_line (start 152.4 50.8) (end 152.4 106.68) (layer Edge.Cuts) (width 0.05))
  (gr_line (start 88.9 50.8) (end 152.4 50.8) (layer Edge.Cuts) (width 0.05))

  (segment (start 134.62 81.28) (end 134.62 78.105) (width 1.27) (layer B.Cu) (net 1))
  (segment (start 135.89 74.93) (end 134.62 76.2) (width 1.27) (layer B.Cu) (net 1))
  (segment (start 134.62 76.2) (end 134.62 78.105) (width 1.27) (layer B.Cu) (net 1))
  (segment (start 135.89 74.93) (end 141.605 74.93) (width 1.27) (layer B.Cu) (net 1))
  (segment (start 144.145 59.69) (end 146.685 62.23) (width 2.54) (layer B.Cu) (net 1))
  (segment (start 146.685 90.17) (end 144.78 92.075) (width 2.54) (layer B.Cu) (net 1))
  (segment (start 144.78 92.075) (end 141.605 92.075) (width 2.54) (layer B.Cu) (net 1))
  (segment (start 141.605 74.93) (end 146.685 74.93) (width 2.54) (layer B.Cu) (net 1))
  (segment (start 146.685 62.23) (end 146.685 74.93) (width 2.54) (layer B.Cu) (net 1))
  (segment (start 146.685 74.93) (end 146.685 90.17) (width 2.54) (layer B.Cu) (net 1))
  (segment (start 120.015 66.675) (end 120.015 59.69) (width 1.27) (layer B.Cu) (net 1))
  (segment (start 120.015 59.69) (end 144.145 59.69) (width 2.54) (layer B.Cu) (net 1))
  (segment (start 116.84 56.515) (end 120.015 59.69) (width 2.54) (layer B.Cu) (net 1))
  (segment (start 113.665 56.595) (end 116.84 56.515) (width 2.54) (layer B.Cu) (net 1))
  (segment (start 102.87 95.885) (end 101.370001 94.385001) (width 2.54) (layer B.Cu) (net 1))
  (segment (start 100.885 56.595) (end 113.665 56.595) (width 2.54) (layer B.Cu) (net 1))
  (segment (start 93.345 64.135) (end 100.885 56.595) (width 2.54) (layer B.Cu) (net 1))
  (segment (start 93.345 87.63) (end 93.345 64.135) (width 2.54) (layer B.Cu) (net 1))
  (segment (start 100.100001 94.385001) (end 93.345 87.63) (width 2.54) (layer B.Cu) (net 1))
  (segment (start 101.370001 94.385001) (end 100.100001 94.385001) (width 2.54) (layer B.Cu) (net 1))
  (segment (start 103.505 66.675) (end 103.505 72.39) (width 1.27) (layer B.Cu) (net 2))
  (segment (start 113.665 76.835) (end 103.505 76.835) (width 1.27) (layer B.Cu) (net 2))
  (segment (start 103.505 72.39) (end 103.505 76.835) (width 1.27) (layer B.Cu) (net 2))
  (segment (start 103.505 76.835) (end 103.505 84.455) (width 1.27) (layer B.Cu) (net 2))
  (segment (start 109.22 84.455) (end 103.505 84.455) (width 1.27) (layer B.Cu) (net 2))
  (segment (start 113.665 88.9) (end 109.22 84.455) (width 1.27) (layer B.Cu) (net 2))
  (segment (start 103.505 65.402208) (end 103.505 66.675) (width 1.27) (layer B.Cu) (net 2))
  (segment (start 104.772208 64.135) (end 103.505 65.402208) (width 1.27) (layer B.Cu) (net 2))
  (segment (start 111.125 64.135) (end 104.772208 64.135) (width 1.27) (layer B.Cu) (net 2))
  (segment (start 113.665 61.595) (end 111.125 61.595) (width 1.27) (layer B.Cu) (net 2))
  (segment (start 111.125 61.595) (end 111.125 64.135) (width 1.27) (layer B.Cu) (net 2))
  (segment (start 101.6 61.595) (end 113.665 61.595) (width 1.27) (layer B.Cu) (net 2))
  (segment (start 99.06 66.675) (end 99.06 64.135) (width 1.27) (layer B.Cu) (net 2))
  (segment (start 99.06 64.135) (end 101.6 61.595) (width 1.27) (layer B.Cu) (net 2))
  (segment (start 133.35 86.995) (end 135.89 84.455) (width 1.27) (layer B.Cu) (net 3))
  (segment (start 133.35 89.535) (end 133.35 86.995) (width 1.27) (layer B.Cu) (net 3))
  (segment (start 121.285 88.9) (end 121.285 84.455) (width 1.27) (layer B.Cu) (net 4))
  (segment (start 121.285 88.9) (end 123.825 88.9) (width 1.27) (layer B.Cu) (net 4))
  (segment (start 124.46 89.535) (end 128.35 89.535) (width 1.27) (layer B.Cu) (net 4))
  (segment (start 123.825 88.9) (end 124.46 89.535) (width 1.27) (layer B.Cu) (net 4))
  (segment (start 139.065 86.995) (end 141.605 86.995) (width 1.27) (layer B.Cu) (net 4))
  (segment (start 128.35 90.66637) (end 131.02863 93.345) (width 1.27) (layer B.Cu) (net 4))
  (segment (start 128.35 89.535) (end 128.35 90.66637) (width 1.27) (layer B.Cu) (net 4))
  (segment (start 131.02863 93.345) (end 134.62 93.345) (width 1.27) (layer B.Cu) (net 4))
  (segment (start 134.62 93.345) (end 137.795 90.17) (width 1.27) (layer B.Cu) (net 4))
  (segment (start 137.795 90.17) (end 137.795 88.265) (width 1.27) (layer B.Cu) (net 4))
  (segment (start 137.795 88.265) (end 139.065 86.995) (width 1.27) (layer B.Cu) (net 4))
  (segment (start 133.35 68.58) (end 135.89 71.12) (width 1.27) (layer B.Cu) (net 5))
  (segment (start 133.27 66.04) (end 133.35 68.58) (width 1.27) (layer B.Cu) (net 5))
  (segment (start 121.285 76.835) (end 121.285 72.39) (width 1.27) (layer B.Cu) (net 6))
  (segment (start 125.73 66.04) (end 128.27 66.04) (width 1.27) (layer B.Cu) (net 6))
  (segment (start 121.285 72.39) (end 121.285 70.36) (width 1.27) (layer B.Cu) (net 6))
  (segment (start 121.285 70.36) (end 125.73 66.04) (width 1.27) (layer B.Cu) (net 6))
  (segment (start 139.065 69.85) (end 141.605 69.85) (width 1.27) (layer B.Cu) (net 6))
  (segment (start 137.16 67.945) (end 139.065 69.85) (width 1.27) (layer B.Cu) (net 6))
  (segment (start 137.16 65.405) (end 137.16 67.945) (width 1.27) (layer B.Cu) (net 6))
  (segment (start 135.255 63.5) (end 137.16 65.405) (width 1.27) (layer B.Cu) (net 6))
  (segment (start 128.27 66.04) (end 130.81 63.5) (width 1.27) (layer B.Cu) (net 6))
  (segment (start 130.81 63.5) (end 135.255 63.5) (width 1.27) (layer B.Cu) (net 6))
  (segment (start 99.06 76.835) (end 99.06 80.725) (width 1.27) (layer B.Cu) (net 7))
  (segment (start 118.745 84.455) (end 118.745 72.39) (width 1.27) (layer B.Cu) (net 8))
  (segment (start 115.57 66.675) (end 109.855 66.675) (width 1.27) (layer B.Cu) (net 8))
  (segment (start 118.745 72.39) (end 118.745 69.85) (width 1.27) (layer B.Cu) (net 8))
  (segment (start 118.745 69.85) (end 115.57 66.675) (width 1.27) (layer B.Cu) (net 8))
  (segment (start 106.045 66.675) (end 109.855 66.675) (width 1.27) (layer B.Cu) (net 8))
  (segment (start 127 76.2) (end 125.73 74.93) (width 1.27) (layer B.Cu) (net 9))
  (segment (start 127 78.105) (end 127 76.2) (width 1.27) (layer B.Cu) (net 9))
  (segment (start 127 78.105) (end 127 81.28) (width 1.27) (layer B.Cu) (net 9))
  (segment (start 125.73 84.455) (end 127 83.185) (width 1.27) (layer B.Cu) (net 9))
  (segment (start 127 83.185) (end 127 81.28) (width 1.27) (layer B.Cu) (net 9))
  (segment (start 125.73 71.12) (end 125.73 74.93) (width 1.27) (layer B.Cu) (net 9))
  (segment (start 113.665 84.455) (end 116.205 84.455) (width 1.27) (layer B.Cu) (net 13))
  (segment (start 113.665 72.39) (end 116.205 72.39) (width 1.27) (layer B.Cu) (net 14))
  (segment (start 104.775 91.44) (end 99.06 85.725) (width 1.27) (layer B.Cu) (net 15))
  (segment (start 113.03 95.885) (end 108.585 91.44) (width 1.27) (layer B.Cu) (net 15))
  (segment (start 108.585 91.44) (end 104.775 91.44) (width 1.27) (layer B.Cu) (net 15))

)
