EESchema Schematic File Version 4
EELAYER 26 0
EELAYER END
$Descr A4 11693 8268
encoding utf-8
Sheet 1 1
Title ""
Date ""
Rev ""
Comp ""
Comment1 ""
Comment2 ""
Comment3 ""
Comment4 ""
$EndDescr
$Comp
L Connector_Generic:Conn_01x03 J1
U 1 1 5BC94387
P 4500 2900
F 0 "J1" H 4580 2942 50  0000 L CNN
F 1 "Conn_01x03" H 4580 2851 50  0000 L CNN
F 2 "TO_SOT_Packages_THT:TO-5-3" H 4500 2900 50  0001 C CNN
F 3 "~" H 4500 2900 50  0001 C CNN
	1    4500 2900
	1    0    0    -1  
$EndComp
$Comp
L Device:C C4
U 1 1 5BC94401
P 3800 3150
F 0 "C4" H 3915 3196 50  0000 L CNN
F 1 "C" H 3915 3105 50  0000 L CNN
F 2 "Capacitors_SMD:C_0402_NoSilk" H 3838 3000 50  0001 C CNN
F 3 "~" H 3800 3150 50  0001 C CNN
	1    3800 3150
	1    0    0    -1  
$EndComp
$Comp
L Device:C C3
U 1 1 5BC94451
P 3400 3150
F 0 "C3" H 3515 3196 50  0000 L CNN
F 1 "C" H 3515 3105 50  0000 L CNN
F 2 "Capacitors_SMD:C_0402_NoSilk" H 3438 3000 50  0001 C CNN
F 3 "~" H 3400 3150 50  0001 C CNN
	1    3400 3150
	1    0    0    -1  
$EndComp
Wire Wire Line
	3400 3300 3400 3500
Wire Wire Line
	3400 3500 3800 3500
Wire Wire Line
	4200 3500 4200 3000
Wire Wire Line
	4200 3000 4300 3000
Wire Wire Line
	3800 3300 3800 3500
Connection ~ 3800 3500
Wire Wire Line
	3800 3500 4200 3500
$Comp
L Device:C C2
U 1 1 5BC9467B
P 3000 3150
F 0 "C2" H 3115 3196 50  0000 L CNN
F 1 "C" H 3115 3105 50  0000 L CNN
F 2 "Capacitors_SMD:C_0402_NoSilk" H 3038 3000 50  0001 C CNN
F 3 "~" H 3000 3150 50  0001 C CNN
	1    3000 3150
	1    0    0    -1  
$EndComp
$Comp
L Device:C C1
U 1 1 5BC94682
P 2600 3150
F 0 "C1" H 2715 3196 50  0000 L CNN
F 1 "C" H 2715 3105 50  0000 L CNN
F 2 "Capacitors_SMD:C_0402_NoSilk" H 2638 3000 50  0001 C CNN
F 3 "~" H 2600 3150 50  0001 C CNN
	1    2600 3150
	1    0    0    -1  
$EndComp
Wire Wire Line
	2600 3300 2600 3500
Wire Wire Line
	2600 3500 3000 3500
Wire Wire Line
	3000 3300 3000 3500
Connection ~ 3000 3500
Wire Wire Line
	3000 3500 3400 3500
Wire Wire Line
	4300 2900 3800 2900
Wire Wire Line
	3400 2900 3400 3000
Wire Wire Line
	3800 3000 3800 2900
Connection ~ 3800 2900
Wire Wire Line
	3800 2900 3400 2900
Wire Wire Line
	4300 2800 3000 2800
Wire Wire Line
	2600 2800 2600 3000
Wire Wire Line
	3000 3000 3000 2800
Connection ~ 3000 2800
Wire Wire Line
	3000 2800 2600 2800
Text Label 3950 3500 0    50   ~ 0
GND
Text Label 4100 2800 0    50   ~ 0
D
Text Label 4100 2900 0    50   ~ 0
S
$EndSCHEMATC
