(module chrisj1_SOT-227B_BUSHINGS (layer F.Cu) (tedit 54348D28)
  (fp_text reference chrisj1_SOT-227B (at 0.5 1) (layer F.SilkS)
    (effects (font (size 1 1) (thickness 0.15)))
  )
  (fp_text value VAL** (at 0.5 -1) (layer F.SilkS)
    (effects (font (size 1 1) (thickness 0.15)))
  )
  (fp_line (start -19.2 -13.1) (end 19.2 -13.1) (layer B.SilkS) (width 0.15))
  (fp_line (start -19.2 13.1) (end -19.2 -13.1) (layer B.SilkS) (width 0.15))
  (fp_line (start 19.2 13.1) (end -19.2 13.1) (layer B.SilkS) (width 0.15))
  (fp_line (start 19.2 -13.1) (end 19.2 13.1) (layer B.SilkS) (width 0.15))
  (fp_line (start -19.2 -2) (end -16.8 -2) (layer B.SilkS) (width 0.15))
  (fp_line (start -19.2 2) (end -16.8 2) (layer B.SilkS) (width 0.15))
  (fp_text user "Screw terminals accessible this side" (at -0.5 -11.7) (layer F.SilkS)
    (effects (font (size 1 1) (thickness 0.15)))
  )
  (fp_line (start -19.2 2) (end -16.8 2) (layer F.SilkS) (width 0.15))
  (fp_line (start -19.2 -2) (end -16.8 -2) (layer F.SilkS) (width 0.15))
  (fp_line (start 19.2 -13.1) (end 19.2 13.1) (layer F.SilkS) (width 0.15))
  (fp_line (start 19.2 13.1) (end -19.2 13.1) (layer F.SilkS) (width 0.15))
  (fp_line (start -19.2 13.1) (end -19.2 -13.1) (layer F.SilkS) (width 0.15))
  (fp_line (start -19.2 -13.1) (end 19.2 -13.1) (layer F.SilkS) (width 0.15))
  (pad 0 thru_hole circle (at -15 0) (size 4.5 4.5) (drill 4) (layers *.Cu *.Mask F.SilkS))
  (pad 4 thru_hole circle (at 7.5 6.4) (size 8.5 8.5) (drill 6) (layers *.Cu *.Mask F.SilkS))
  (pad 3 thru_hole circle (at -7.5 6.4) (size 8.5 8.5) (drill 6) (layers *.Cu *.Mask F.SilkS))
  (pad 2 thru_hole circle (at -7.5 -6.4) (size 8.5 8.5) (drill 6) (layers *.Cu *.Mask F.SilkS))
  (pad 1 thru_hole circle (at 7.5 -6.4) (size 8.5 8.5) (drill 6) (layers *.Cu *.Mask F.SilkS))
  (pad 0 thru_hole circle (at 15 0) (size 4.5 4.5) (drill 4) (layers *.Cu *.Mask F.SilkS))
)
