(module chrisj1_DIP16_SS (layer F.Cu) (tedit 506D094C)
  (descr "16 pins DIL package, round pads")
  (tags DIL)
  (fp_text reference U*** (at -6.35 -1.27) (layer F.SilkS)
    (effects (font (size 1.524 1.143) (thickness 0.28702)))
  )
  (fp_text value DIP-16_300 (at 2.54 1.27) (layer F.SilkS)
    (effects (font (size 1.524 1.143) (thickness 0.28702)))
  )
  (fp_line (start -11.43 -1.27) (end -11.43 -1.27) (layer F.SilkS) (width 0.381))
  (fp_line (start -11.43 -1.27) (end -10.16 -1.27) (layer F.SilkS) (width 0.381))
  (fp_line (start -10.16 -1.27) (end -10.16 1.27) (layer F.SilkS) (width 0.381))
  (fp_line (start -10.16 1.27) (end -11.43 1.27) (layer F.SilkS) (width 0.381))
  (fp_line (start -11.43 -2.54) (end 11.43 -2.54) (layer F.SilkS) (width 0.381))
  (fp_line (start 11.43 -2.54) (end 11.43 2.54) (layer F.SilkS) (width 0.381))
  (fp_line (start 11.43 2.54) (end -11.43 2.54) (layer F.SilkS) (width 0.381))
  (fp_line (start -11.43 2.54) (end -11.43 -2.54) (layer F.SilkS) (width 0.381))
  (pad 1 thru_hole rect (at -8.89 3.81) (size 2.032 2.032) (drill 0.8128) (layers *.Cu *.Mask F.SilkS))
  (pad 2 thru_hole circle (at -6.35 3.81) (size 2.032 2.032) (drill 0.8128) (layers *.Cu *.Mask F.SilkS))
  (pad 3 thru_hole circle (at -3.81 3.81) (size 2.032 2.032) (drill 0.8128) (layers *.Cu *.Mask F.SilkS))
  (pad 4 thru_hole circle (at -1.27 3.81) (size 2.032 2.032) (drill 0.8128) (layers *.Cu *.Mask F.SilkS))
  (pad 5 thru_hole circle (at 1.27 3.81) (size 2.032 2.032) (drill 0.8128) (layers *.Cu *.Mask F.SilkS))
  (pad 6 thru_hole circle (at 3.81 3.81) (size 2.032 2.032) (drill 0.8128) (layers *.Cu *.Mask F.SilkS))
  (pad 7 thru_hole circle (at 6.35 3.81) (size 2.032 2.032) (drill 0.8128) (layers *.Cu *.Mask F.SilkS))
  (pad 8 thru_hole circle (at 8.89 3.81) (size 2.032 2.032) (drill 0.8128) (layers *.Cu *.Mask F.SilkS))
  (pad 9 thru_hole circle (at 8.89 -3.81) (size 2.032 2.032) (drill 0.8128) (layers *.Cu *.Mask F.SilkS))
  (pad 10 thru_hole circle (at 6.35 -3.81) (size 2.032 2.032) (drill 0.8128) (layers *.Cu *.Mask F.SilkS))
  (pad 11 thru_hole circle (at 3.81 -3.81) (size 2.032 2.032) (drill 0.8128) (layers *.Cu *.Mask F.SilkS))
  (pad 12 thru_hole circle (at 1.27 -3.81) (size 2.032 2.032) (drill 0.8128) (layers *.Cu *.Mask F.SilkS))
  (pad 13 thru_hole circle (at -1.27 -3.81) (size 2.032 2.032) (drill 0.8128) (layers *.Cu *.Mask F.SilkS))
  (pad 14 thru_hole circle (at -3.81 -3.81) (size 2.032 2.032) (drill 0.8128) (layers *.Cu *.Mask F.SilkS))
  (pad 15 thru_hole circle (at -6.35 -3.81) (size 2.032 2.032) (drill 0.8128) (layers *.Cu *.Mask F.SilkS))
  (pad 16 thru_hole circle (at -8.89 -3.81) (size 2.032 2.032) (drill 0.8128) (layers *.Cu *.Mask F.SilkS))
  (model dil/dil_16.wrl
    (at (xyz 0 0 0))
    (scale (xyz 1 1 1))
    (rotate (xyz 0 0 0))
  )
)
