(module chrisj1_R_0207_6 (layer F.Cu) (tedit 506D24D5)
  (descr "Resistance 0207 6 pas")
  (tags R)
  (autoplace_cost180 10)
  (fp_text reference R (at 0 0) (layer F.SilkS)
    (effects (font (size 1.016 1.016) (thickness 0.2032)))
  )
  (fp_text value Val* (at 0 0) (layer F.SilkS) hide
    (effects (font (size 1.016 1.016) (thickness 0.2032)))
  )
  (fp_line (start 3.175 0) (end 6.35 0) (layer F.SilkS) (width 0.381))
  (fp_line (start -3.175 0) (end -6.35 0) (layer F.SilkS) (width 0.381))
  (fp_line (start 3.175 -1.143) (end 3.175 1.143) (layer F.SilkS) (width 0.2032))
  (fp_line (start 3.175 1.143) (end -3.175 1.143) (layer F.SilkS) (width 0.2032))
  (fp_line (start -3.175 1.143) (end -3.175 -1.143) (layer F.SilkS) (width 0.2032))
  (fp_line (start -3.175 -1.143) (end 3.175 -1.143) (layer F.SilkS) (width 0.2032))
  (pad 1 thru_hole circle (at -7.62 0) (size 2.032 2.032) (drill 1.016) (layers *.Cu *.Mask F.SilkS))
  (pad 2 thru_hole circle (at 7.62 0) (size 2.032 2.032) (drill 1.016) (layers *.Cu *.Mask F.SilkS))
  (model resistors/resistor_0207_6.wrl
    (at (xyz 0 0 0))
    (scale (xyz 1 1 1))
    (rotate (xyz 0 0 0))
  )
)
