(module chrisj1_D4_SS (layer F.Cu) (tedit 506BDF39)
  (descr "Diode DO35 4 pas")
  (tags D)
  (autoplace_cost180 10)
  (fp_text reference D4 (at 0 0) (layer F.SilkS) hide
    (effects (font (size 1.016 1.016) (thickness 0.2032)))
  )
  (fp_text value Val* (at 0 0) (layer F.SilkS) hide
    (effects (font (size 1.016 1.016) (thickness 0.2032)))
  )
  (fp_line (start 1.27 -1.016) (end 1.27 1.016) (layer F.SilkS) (width 0.2032))
  (fp_line (start -2.032 0) (end -3.81 0) (layer F.SilkS) (width 0.2032))
  (fp_line (start 3.81 0) (end 2.032 0) (layer F.SilkS) (width 0.2032))
  (fp_line (start -2.032 1.016) (end 2.032 1.016) (layer F.SilkS) (width 0.2032))
  (fp_line (start -2.032 -1.016) (end 2.032 -1.016) (layer F.SilkS) (width 0.2032))
  (fp_line (start -2.032 -1.016) (end -2.032 1.016) (layer F.SilkS) (width 0.2032))
  (fp_line (start 2.032 -1.016) (end 2.032 1.016) (layer F.SilkS) (width 0.2032))
  (pad 1 thru_hole rect (at -5.08 0) (size 2.032 2.032) (drill 1.016) (layers *.Cu *.Mask F.SilkS))
  (pad 2 thru_hole circle (at 5.08 0) (size 2.032 2.032) (drill 1.016) (layers *.Cu *.Mask F.SilkS))
  (model diodes/do35_4.wrl
    (at (xyz 0 0 0))
    (scale (xyz 1 1 1))
    (rotate (xyz 0 0 0))
  )
)
