(module chrisj1_R3 (layer F.Cu) (tedit 4E4C0E65)
  (tags R)
  (autoplace_cost180 10)
  (fp_text reference R3 (at 0 0.127) (layer F.SilkS) hide
    (effects (font (size 1.397 1.27) (thickness 0.2032)))
  )
  (fp_text value Val* (at 0 0.127) (layer F.SilkS)
    (effects (font (size 1.397 1.27) (thickness 0.2032)))
  )
  (fp_line (start -3.81 0) (end -3.302 0) (layer F.SilkS) (width 0.2032))
  (fp_line (start 3.81 0) (end 3.302 0) (layer F.SilkS) (width 0.2032))
  (fp_line (start 3.302 0) (end 3.302 -1.016) (layer F.SilkS) (width 0.2032))
  (fp_line (start 3.302 -1.016) (end -3.302 -1.016) (layer F.SilkS) (width 0.2032))
  (fp_line (start -3.302 -1.016) (end -3.302 1.016) (layer F.SilkS) (width 0.2032))
  (fp_line (start -3.302 1.016) (end 3.302 1.016) (layer F.SilkS) (width 0.2032))
  (fp_line (start 3.302 1.016) (end 3.302 0) (layer F.SilkS) (width 0.2032))
  (fp_line (start -3.302 -0.508) (end -2.794 -1.016) (layer F.SilkS) (width 0.2032))
  (pad 1 thru_hole circle (at -3.81 0) (size 1.397 1.397) (drill 0.8128) (layers *.Cu *.Mask F.SilkS))
  (pad 2 thru_hole circle (at 3.81 0) (size 1.397 1.397) (drill 0.8128) (layers *.Cu *.Mask F.SilkS))
  (model discret/resistor.wrl
    (at (xyz 0 0 0))
    (scale (xyz 0.3 0.3 0.3))
    (rotate (xyz 0 0 0))
  )
)
